{"msgType":"joinRace","data":{"botId":{"name":"speedbooster1","key":"w5TYojUOXuT/gw"},"trackName":"germany","carCount":2,"password":"uu"}}
{"msgType":"yourCar","data":{"name":"speedbooster1","color":"blue"},"gameId":"c67a53fa-4a43-4a64-80ee-4382f4251db4"}
{"msgType":"gameInit","data":{"race":{"track":{"id":"germany","name":"Germany","pieces":[{"length":100.0},{"length":100.0,"switch":true},{"radius":50,"angle":45.0},{"radius":50,"angle":45.0},{"radius":50,"angle":45.0},{"length":50.0},{"radius":50,"angle":-45.0},{"radius":50,"angle":-45.0},{"radius":50,"angle":-45.0},{"length":50.0},{"radius":50,"angle":-45.0},{"radius":50,"angle":-45.0},{"radius":100,"angle":-22.5},{"radius":50,"angle":45.0},{"length":100.0,"switch":true},{"length":100.0},{"radius":50,"angle":-45.0},{"length":50.0},{"radius":50,"angle":45.0},{"radius":50,"angle":45.0},{"radius":100,"angle":22.5},{"length":100.0,"switch":true},{"length":100.0},{"radius":50,"angle":45.0},{"radius":50,"angle":45.0},{"radius":50,"angle":45.0},{"radius":50,"angle":45.0},{"length":100.0,"switch":true},{"radius":50,"angle":-45.0},{"radius":50,"angle":-45.0},{"length":50.0},{"radius":100,"angle":22.5},{"length":100.0},{"length":50.0},{"radius":100,"angle":-22.5},{"radius":100,"angle":-22.5},{"length":100.0,"switch":true},{"radius":50,"angle":45.0},{"radius":50,"angle":45.0},{"radius":100,"angle":22.5},{"length":100.0},{"length":100.0},{"length":100.0},{"radius":100,"angle":45.0},{"length":70.0},{"length":100.0,"switch":true},{"radius":50,"angle":-45.0},{"radius":50,"angle":-45.0},{"radius":100,"angle":45.0},{"radius":100,"angle":45.0},{"length":50.0},{"radius":100,"angle":45.0},{"radius":100,"angle":45.0},{"radius":100,"angle":45.0,"switch":true},{"length":100.0},{"length":100.0},{"length":59.0}],"lanes":[{"distanceFromCenter":-10,"index":0},{"distanceFromCenter":10,"index":1}],"startingPoint":{"position":{"x":-12.0,"y":192.0},"angle":-90.0}},"cars":[{"id":{"name":"speedbooster","color":"red"},"dimensions":{"length":40.0,"width":20.0,"guideFlagPosition":10.0}},{"id":{"name":"speedbooster1","color":"blue"},"dimensions":{"length":40.0,"width":20.0,"guideFlagPosition":10.0}}],"raceSession":{"laps":3,"maxLapTimeMs":60000,"quickRace":true}}},"gameId":"c67a53fa-4a43-4a64-80ee-4382f4251db4"}
{"msgType":"carPositions","data":[{"id":{"name":"speedbooster","color":"red"},"angle":0.0,"piecePosition":{"pieceIndex":0,"inPieceDistance":0.0,"lane":{"startLaneIndex":0,"endLaneIndex":0},"lap":0}},{"id":{"name":"speedbooster1","color":"blue"},"angle":0.0,"piecePosition":{"pieceIndex":56,"inPieceDistance":34.0,"lane":{"startLaneIndex":1,"endLaneIndex":1},"lap":-1}}],"gameId":"c67a53fa-4a43-4a64-80ee-4382f4251db4"}


>>>>>>>>>>>>>>>>>>>>>>>>>>>>> 



THROTTLE = 1

{"msgType":"gameStart","data":null,"gameId":"c67a53fa-4a43-4a64-80ee-4382f4251db4","gameTick":0}
{"msgType":"carPositions","data":[{"id":{"name":"speedbooster","color":"red"},"angle":0.0,"piecePosition":{"pieceIndex":0,"inPieceDistance":0.0,"lane":{"startLaneIndex":0,"endLaneIndex":0},"lap":0}},{"id":{"name":"speedbooster1","color":"blue"},"angle":0.0,"piecePosition":{"pieceIndex":56,"inPieceDistance":34.0,"lane":{"startLaneIndex":1,"endLaneIndex":1},"lap":-1}}],"gameId":"c67a53fa-4a43-4a64-80ee-4382f4251db4","gameTick":1}


>>>>>>>>>>>>>>>>>>>>>>>>>>>>> 56



THROTTLE = 1

{"msgType":"carPositions","data":[{"id":{"name":"speedbooster","color":"red"},"angle":0.0,"piecePosition":{"pieceIndex":0,"inPieceDistance":0.20443374864955613,"lane":{"startLaneIndex":0,"endLaneIndex":0},"lap":0}},{"id":{"name":"speedbooster1","color":"blue"},"angle":0.0,"piecePosition":{"pieceIndex":56,"inPieceDistance":34.0,"lane":{"startLaneIndex":1,"endLaneIndex":1},"lap":-1}}],"gameId":"c67a53fa-4a43-4a64-80ee-4382f4251db4","gameTick":2}


>>>>>>>>>>>>>>>>>>>>>>>>>>>>> 56



THROTTLE = 1

{"msgType":"carPositions","data":[{"id":{"name":"speedbooster","color":"red"},"angle":0.0,"piecePosition":{"pieceIndex":0,"inPieceDistance":0.6092409159956326,"lane":{"startLaneIndex":0,"endLaneIndex":0},"lap":0}},{"id":{"name":"speedbooster1","color":"blue"},"angle":0.0,"piecePosition":{"pieceIndex":56,"inPieceDistance":34.204433748649556,"lane":{"startLaneIndex":1,"endLaneIndex":1},"lap":-1}}],"gameId":"c67a53fa-4a43-4a64-80ee-4382f4251db4","gameTick":3}


>>>>>>>>>>>>>>>>>>>>>>>>>>>>> 56



THROTTLE = 1

{"msgType":"carPositions","data":[{"id":{"name":"speedbooster","color":"red"},"angle":0.0,"piecePosition":{"pieceIndex":0,"inPieceDistance":1.2104418157139312,"lane":{"startLaneIndex":0,"endLaneIndex":0},"lap":0}},{"id":{"name":"speedbooster1","color":"blue"},"angle":0.0,"piecePosition":{"pieceIndex":56,"inPieceDistance":34.609240915995635,"lane":{"startLaneIndex":1,"endLaneIndex":1},"lap":-1}}],"gameId":"c67a53fa-4a43-4a64-80ee-4382f4251db4","gameTick":4}


>>>>>>>>>>>>>>>>>>>>>>>>>>>>> 56



THROTTLE = 1

{"msgType":"carPositions","data":[{"id":{"name":"speedbooster","color":"red"},"angle":0.0,"piecePosition":{"pieceIndex":0,"inPieceDistance":2.0041358034176664,"lane":{"startLaneIndex":0,"endLaneIndex":0},"lap":0}},{"id":{"name":"speedbooster1","color":"blue"},"angle":0.0,"piecePosition":{"pieceIndex":56,"inPieceDistance":35.210441815713935,"lane":{"startLaneIndex":1,"endLaneIndex":1},"lap":-1}}],"gameId":"c67a53fa-4a43-4a64-80ee-4382f4251db4","gameTick":5}


>>>>>>>>>>>>>>>>>>>>>>>>>>>>> 56



THROTTLE = 1

{"msgType":"carPositions","data":[{"id":{"name":"speedbooster","color":"red"},"angle":0.0,"piecePosition":{"pieceIndex":0,"inPieceDistance":2.986499706778088,"lane":{"startLaneIndex":0,"endLaneIndex":0},"lap":0}},{"id":{"name":"speedbooster1","color":"blue"},"angle":0.0,"piecePosition":{"pieceIndex":56,"inPieceDistance":36.00413580341767,"lane":{"startLaneIndex":1,"endLaneIndex":1},"lap":-1}}],"gameId":"c67a53fa-4a43-4a64-80ee-4382f4251db4","gameTick":6}


>>>>>>>>>>>>>>>>>>>>>>>>>>>>> 56



THROTTLE = 1

{"msgType":"carPositions","data":[{"id":{"name":"speedbooster","color":"red"},"angle":0.0,"piecePosition":{"pieceIndex":0,"inPieceDistance":4.1537862868249285,"lane":{"startLaneIndex":0,"endLaneIndex":0},"lap":0}},{"id":{"name":"speedbooster1","color":"blue"},"angle":0.0,"piecePosition":{"pieceIndex":56,"inPieceDistance":36.98649970677809,"lane":{"startLaneIndex":1,"endLaneIndex":1},"lap":-1}}],"gameId":"c67a53fa-4a43-4a64-80ee-4382f4251db4","gameTick":7}


>>>>>>>>>>>>>>>>>>>>>>>>>>>>> 56



THROTTLE = 1

{"msgType":"carPositions","data":[{"id":{"name":"speedbooster","color":"red"},"angle":0.0,"piecePosition":{"pieceIndex":0,"inPieceDistance":5.502322729807496,"lane":{"startLaneIndex":0,"endLaneIndex":0},"lap":0}},{"id":{"name":"speedbooster1","color":"blue"},"angle":0.0,"piecePosition":{"pieceIndex":56,"inPieceDistance":38.15378628682493,"lane":{"startLaneIndex":1,"endLaneIndex":1},"lap":-1}}],"gameId":"c67a53fa-4a43-4a64-80ee-4382f4251db4","gameTick":8}


>>>>>>>>>>>>>>>>>>>>>>>>>>>>> 56



THROTTLE = 1

{"msgType":"carPositions","data":[{"id":{"name":"speedbooster","color":"red"},"angle":0.0,"piecePosition":{"pieceIndex":0,"inPieceDistance":7.028509169009444,"lane":{"startLaneIndex":0,"endLaneIndex":0},"lap":0}},{"id":{"name":"speedbooster1","color":"blue"},"angle":0.0,"piecePosition":{"pieceIndex":56,"inPieceDistance":39.5023227298075,"lane":{"startLaneIndex":1,"endLaneIndex":1},"lap":-1}}],"gameId":"c67a53fa-4a43-4a64-80ee-4382f4251db4","gameTick":9}


>>>>>>>>>>>>>>>>>>>>>>>>>>>>> 56



THROTTLE = 1

{"msgType":"carPositions","data":[{"id":{"name":"speedbooster","color":"red"},"angle":0.0,"piecePosition":{"pieceIndex":0,"inPieceDistance":8.72881723592229,"lane":{"startLaneIndex":0,"endLaneIndex":0},"lap":0}},{"id":{"name":"speedbooster1","color":"blue"},"angle":0.0,"piecePosition":{"pieceIndex":56,"inPieceDistance":41.02850916900945,"lane":{"startLaneIndex":1,"endLaneIndex":1},"lap":-1}}],"gameId":"c67a53fa-4a43-4a64-80ee-4382f4251db4","gameTick":10}


>>>>>>>>>>>>>>>>>>>>>>>>>>>>> 56



THROTTLE = 1

{"msgType":"carPositions","data":[{"id":{"name":"speedbooster","color":"red"},"angle":0.0,"piecePosition":{"pieceIndex":0,"inPieceDistance":10.599788640194582,"lane":{"startLaneIndex":0,"endLaneIndex":0},"lap":0}},{"id":{"name":"speedbooster1","color":"blue"},"angle":0.0,"piecePosition":{"pieceIndex":56,"inPieceDistance":42.7288172359223,"lane":{"startLaneIndex":1,"endLaneIndex":1},"lap":-1}}],"gameId":"c67a53fa-4a43-4a64-80ee-4382f4251db4","gameTick":11}


>>>>>>>>>>>>>>>>>>>>>>>>>>>>> 56



THROTTLE = 1

{"msgType":"carPositions","data":[{"id":{"name":"speedbooster","color":"red"},"angle":0.0,"piecePosition":{"pieceIndex":0,"inPieceDistance":12.638033777785191,"lane":{"startLaneIndex":0,"endLaneIndex":0},"lap":0}},{"id":{"name":"speedbooster1","color":"blue"},"angle":0.0,"piecePosition":{"pieceIndex":56,"inPieceDistance":44.59978864019459,"lane":{"startLaneIndex":1,"endLaneIndex":1},"lap":-1}}],"gameId":"c67a53fa-4a43-4a64-80ee-4382f4251db4","gameTick":12}


>>>>>>>>>>>>>>>>>>>>>>>>>>>>> 56



THROTTLE = 1

{"msgType":"carPositions","data":[{"id":{"name":"speedbooster","color":"red"},"angle":0.0,"piecePosition":{"pieceIndex":0,"inPieceDistance":14.840230366760556,"lane":{"startLaneIndex":0,"endLaneIndex":0},"lap":0}},{"id":{"name":"speedbooster1","color":"blue"},"angle":0.0,"piecePosition":{"pieceIndex":56,"inPieceDistance":46.638033777785196,"lane":{"startLaneIndex":1,"endLaneIndex":1},"lap":-1}}],"gameId":"c67a53fa-4a43-4a64-80ee-4382f4251db4","gameTick":13}


>>>>>>>>>>>>>>>>>>>>>>>>>>>>> 56



THROTTLE = 1

{"msgType":"carPositions","data":[{"id":{"name":"speedbooster","color":"red"},"angle":0.0,"piecePosition":{"pieceIndex":0,"inPieceDistance":17.203122110186836,"lane":{"startLaneIndex":0,"endLaneIndex":0},"lap":0}},{"id":{"name":"speedbooster1","color":"blue"},"angle":0.0,"piecePosition":{"pieceIndex":56,"inPieceDistance":48.840230366760565,"lane":{"startLaneIndex":1,"endLaneIndex":1},"lap":-1}}],"gameId":"c67a53fa-4a43-4a64-80ee-4382f4251db4","gameTick":14}


>>>>>>>>>>>>>>>>>>>>>>>>>>>>> 56



THROTTLE = 1

{"msgType":"carPositions","data":[{"id":{"name":"speedbooster","color":"red"},"angle":0.0,"piecePosition":{"pieceIndex":0,"inPieceDistance":19.614145330051315,"lane":{"startLaneIndex":0,"endLaneIndex":0},"lap":0}},{"id":{"name":"speedbooster1","color":"blue"},"angle":0.0,"piecePosition":{"pieceIndex":56,"inPieceDistance":51.20312211018685,"lane":{"startLaneIndex":1,"endLaneIndex":1},"lap":-1}}],"gameId":"c67a53fa-4a43-4a64-80ee-4382f4251db4","gameTick":15}


>>>>>>>>>>>>>>>>>>>>>>>>>>>>> 56



THROTTLE = 1

{"msgType":"carPositions","data":[{"id":{"name":"speedbooster","color":"red"},"angle":0.0,"piecePosition":{"pieceIndex":0,"inPieceDistance":22.072344070320522,"lane":{"startLaneIndex":0,"endLaneIndex":0},"lap":0}},{"id":{"name":"speedbooster1","color":"blue"},"angle":0.0,"piecePosition":{"pieceIndex":56,"inPieceDistance":53.72351738557884,"lane":{"startLaneIndex":1,"endLaneIndex":1},"lap":-1}}],"gameId":"c67a53fa-4a43-4a64-80ee-4382f4251db4","gameTick":16}


>>>>>>>>>>>>>>>>>>>>>>>>>>>>> 56



THROTTLE = 1

{"msgType":"carPositions","data":[{"id":{"name":"speedbooster","color":"red"},"angle":0.0,"piecePosition":{"pieceIndex":0,"inPieceDistance":24.576781361537044,"lane":{"startLaneIndex":0,"endLaneIndex":0},"lap":0}},{"id":{"name":"speedbooster1","color":"blue"},"angle":0.0,"piecePosition":{"pieceIndex":56,"inPieceDistance":56.3982879603782,"lane":{"startLaneIndex":1,"endLaneIndex":1},"lap":-1}}],"gameId":"c67a53fa-4a43-4a64-80ee-4382f4251db4","gameTick":17}


>>>>>>>>>>>>>>>>>>>>>>>>>>>>> 56



THROTTLE = 1

{"msgType":"carPositions","data":[{"id":{"name":"speedbooster","color":"red"},"angle":0.0,"piecePosition":{"pieceIndex":0,"inPieceDistance":27.126538843720517,"lane":{"startLaneIndex":0,"endLaneIndex":0},"lap":0}},{"id":{"name":"speedbooster1","color":"blue"},"angle":0.0,"piecePosition":{"pieceIndex":0,"inPieceDistance":0.22436773294401036,"lane":{"startLaneIndex":1,"endLaneIndex":1},"lap":0}}],"gameId":"c67a53fa-4a43-4a64-80ee-4382f4251db4","gameTick":18}


>>>>>>>>>>>>>>>>>>>>>>>>>>>>> 0



THROTTLE = 1

{"msgType":"carPositions","data":[{"id":{"name":"speedbooster","color":"red"},"angle":0.0,"piecePosition":{"pieceIndex":0,"inPieceDistance":29.720716396758306,"lane":{"startLaneIndex":0,"endLaneIndex":0},"lap":0}},{"id":{"name":"speedbooster1","color":"blue"},"angle":0.0,"piecePosition":{"pieceIndex":0,"inPieceDistance":3.19875149854898,"lane":{"startLaneIndex":1,"endLaneIndex":1},"lap":0}}],"gameId":"c67a53fa-4a43-4a64-80ee-4382f4251db4","gameTick":19}


>>>>>>>>>>>>>>>>>>>>>>>>>>>>> 0



THROTTLE = 1

{"msgType":"carPositions","data":[{"id":{"name":"speedbooster","color":"red"},"angle":0.0,"piecePosition":{"pieceIndex":0,"inPieceDistance":32.35843177813714,"lane":{"startLaneIndex":0,"endLaneIndex":0},"lap":0}},{"id":{"name":"speedbooster1","color":"blue"},"angle":0.0,"piecePosition":{"pieceIndex":0,"inPieceDistance":6.318493739884592,"lane":{"startLaneIndex":1,"endLaneIndex":1},"lap":0}}],"gameId":"c67a53fa-4a43-4a64-80ee-4382f4251db4","gameTick":20}


>>>>>>>>>>>>>>>>>>>>>>>>>>>>> 0



THROTTLE = 1

{"msgType":"carPositions","data":[{"id":{"name":"speedbooster","color":"red"},"angle":0.0,"piecePosition":{"pieceIndex":0,"inPieceDistance":35.03882026786987,"lane":{"startLaneIndex":0,"endLaneIndex":0},"lap":0}},{"id":{"name":"speedbooster1","color":"blue"},"angle":0.0,"piecePosition":{"pieceIndex":0,"inPieceDistance":9.580707441588483,"lane":{"startLaneIndex":1,"endLaneIndex":1},"lap":0}}],"gameId":"c67a53fa-4a43-4a64-80ee-4382f4251db4","gameTick":21}


>>>>>>>>>>>>>>>>>>>>>>>>>>>>> 0



THROTTLE = 1

{"msgType":"carPositions","data":[{"id":{"name":"speedbooster","color":"red"},"angle":0.0,"piecePosition":{"pieceIndex":0,"inPieceDistance":37.7610343204745,"lane":{"startLaneIndex":0,"endLaneIndex":0},"lap":0}},{"id":{"name":"speedbooster1","color":"blue"},"angle":0.0,"piecePosition":{"pieceIndex":0,"inPieceDistance":12.982562928316893,"lane":{"startLaneIndex":1,"endLaneIndex":1},"lap":0}}],"gameId":"c67a53fa-4a43-4a64-80ee-4382f4251db4","gameTick":22}


>>>>>>>>>>>>>>>>>>>>>>>>>>>>> 0



THROTTLE = 1

{"msgType":"carPositions","data":[{"id":{"name":"speedbooster","color":"red"},"angle":0.0,"piecePosition":{"pieceIndex":0,"inPieceDistance":40.52424322386531,"lane":{"startLaneIndex":0,"endLaneIndex":0},"lap":0}},{"id":{"name":"speedbooster1","color":"blue"},"angle":0.0,"piecePosition":{"pieceIndex":0,"inPieceDistance":16.521286725894566,"lane":{"startLaneIndex":1,"endLaneIndex":1},"lap":0}}],"gameId":"c67a53fa-4a43-4a64-80ee-4382f4251db4","gameTick":23}


>>>>>>>>>>>>>>>>>>>>>>>>>>>>> 0



THROTTLE = 0.465

{"msgType":"carPositions","data":[{"id":{"name":"speedbooster","color":"red"},"angle":0.0,"piecePosition":{"pieceIndex":0,"inPieceDistance":43.327632765018926,"lane":{"startLaneIndex":0,"endLaneIndex":0},"lap":0}},{"id":{"name":"speedbooster1","color":"blue"},"angle":0.0,"piecePosition":{"pieceIndex":0,"inPieceDistance":20.084788389556234,"lane":{"startLaneIndex":1,"endLaneIndex":1},"lap":0}}],"gameId":"c67a53fa-4a43-4a64-80ee-4382f4251db4","gameTick":24}


>>>>>>>>>>>>>>>>>>>>>>>>>>>>> 0



THROTTLE = 0.465

{"msgType":"carPositions","data":[{"id":{"name":"speedbooster","color":"red"},"angle":0.0,"piecePosition":{"pieceIndex":0,"inPieceDistance":46.17040490228069,"lane":{"startLaneIndex":0,"endLaneIndex":0},"lap":0}},{"id":{"name":"speedbooster1","color":"blue"},"angle":0.0,"piecePosition":{"pieceIndex":0,"inPieceDistance":23.672575797465374,"lane":{"startLaneIndex":1,"endLaneIndex":1},"lap":0}}],"gameId":"c67a53fa-4a43-4a64-80ee-4382f4251db4","gameTick":25}


>>>>>>>>>>>>>>>>>>>>>>>>>>>>> 0



THROTTLE = 0.465

{"msgType":"carPositions","data":[{"id":{"name":"speedbooster","color":"red"},"angle":0.0,"piecePosition":{"pieceIndex":0,"inPieceDistance":49.05177744417946,"lane":{"startLaneIndex":0,"endLaneIndex":0},"lap":0}},{"id":{"name":"speedbooster1","color":"blue"},"angle":0.0,"piecePosition":{"pieceIndex":0,"inPieceDistance":27.284166601988822,"lane":{"startLaneIndex":1,"endLaneIndex":1},"lap":0}}],"gameId":"c67a53fa-4a43-4a64-80ee-4382f4251db4","gameTick":26}


>>>>>>>>>>>>>>>>>>>>>>>>>>>>> 0



THROTTLE = 0.465

{"msgType":"carPositions","data":[{"id":{"name":"speedbooster","color":"red"},"angle":0.0,"piecePosition":{"pieceIndex":0,"inPieceDistance":51.970983734621605,"lane":{"startLaneIndex":0,"endLaneIndex":0},"lap":0}},{"id":{"name":"speedbooster1","color":"blue"},"angle":0.0,"piecePosition":{"pieceIndex":0,"inPieceDistance":30.919088035567917,"lane":{"startLaneIndex":1,"endLaneIndex":1},"lap":0}}],"gameId":"c67a53fa-4a43-4a64-80ee-4382f4251db4","gameTick":27}


>>>>>>>>>>>>>>>>>>>>>>>>>>>>> 0



THROTTLE = 0.465

{"msgType":"carPositions","data":[{"id":{"name":"speedbooster","color":"red"},"angle":0.0,"piecePosition":{"pieceIndex":0,"inPieceDistance":54.92727234433744,"lane":{"startLaneIndex":0,"endLaneIndex":0},"lap":0}},{"id":{"name":"speedbooster1","color":"blue"},"angle":0.0,"piecePosition":{"pieceIndex":0,"inPieceDistance":34.5768767204453,"lane":{"startLaneIndex":1,"endLaneIndex":1},"lap":0}}],"gameId":"c67a53fa-4a43-4a64-80ee-4382f4251db4","gameTick":28}


>>>>>>>>>>>>>>>>>>>>>>>>>>>>> 0



THROTTLE = 0.465

{"msgType":"carPositions","data":[{"id":{"name":"speedbooster","color":"red"},"angle":0.0,"piecePosition":{"pieceIndex":0,"inPieceDistance":57.919906768455974,"lane":{"startLaneIndex":0,"endLaneIndex":0},"lap":0}},{"id":{"name":"speedbooster1","color":"blue"},"angle":0.0,"piecePosition":{"pieceIndex":0,"inPieceDistance":38.25707848217079,"lane":{"startLaneIndex":1,"endLaneIndex":1},"lap":0}}],"gameId":"c67a53fa-4a43-4a64-80ee-4382f4251db4","gameTick":29}


>>>>>>>>>>>>>>>>>>>>>>>>>>>>> 0



THROTTLE = 0.465

{"msgType":"carPositions","data":[{"id":{"name":"speedbooster","color":"red"},"angle":0.0,"piecePosition":{"pieceIndex":0,"inPieceDistance":60.94816513008623,"lane":{"startLaneIndex":0,"endLaneIndex":0},"lap":0}},{"id":{"name":"speedbooster1","color":"blue"},"angle":0.0,"piecePosition":{"pieceIndex":0,"inPieceDistance":41.959248166811314,"lane":{"startLaneIndex":1,"endLaneIndex":1},"lap":0}}],"gameId":"c67a53fa-4a43-4a64-80ee-4382f4251db4","gameTick":30}


>>>>>>>>>>>>>>>>>>>>>>>>>>>>> 0



THROTTLE = 0.465

{"msgType":"carPositions","data":[{"id":{"name":"speedbooster","color":"red"},"angle":0.0,"piecePosition":{"pieceIndex":0,"inPieceDistance":64.01133988978583,"lane":{"startLaneIndex":0,"endLaneIndex":0},"lap":0}},{"id":{"name":"speedbooster1","color":"blue"},"angle":0.0,"piecePosition":{"pieceIndex":0,"inPieceDistance":45.68294946179124,"lane":{"startLaneIndex":1,"endLaneIndex":1},"lap":0}}],"gameId":"c67a53fa-4a43-4a64-80ee-4382f4251db4","gameTick":31}


>>>>>>>>>>>>>>>>>>>>>>>>>>>>> 0



THROTTLE = 0.465

{"msgType":"carPositions","data":[{"id":{"name":"speedbooster","color":"red"},"angle":0.0,"piecePosition":{"pieceIndex":0,"inPieceDistance":67.10873756079991,"lane":{"startLaneIndex":0,"endLaneIndex":0},"lap":0}},{"id":{"name":"speedbooster1","color":"blue"},"angle":0.0,"piecePosition":{"pieceIndex":0,"inPieceDistance":49.42775472029112,"lane":{"startLaneIndex":1,"endLaneIndex":1},"lap":0}}],"gameId":"c67a53fa-4a43-4a64-80ee-4382f4251db4","gameTick":32}


>>>>>>>>>>>>>>>>>>>>>>>>>>>>> 0



THROTTLE = 0.465

{"msgType":"carPositions","data":[{"id":{"name":"speedbooster","color":"red"},"angle":0.0,"piecePosition":{"pieceIndex":0,"inPieceDistance":70.23967842995583,"lane":{"startLaneIndex":0,"endLaneIndex":0},"lap":0}},{"id":{"name":"speedbooster1","color":"blue"},"angle":0.0,"piecePosition":{"pieceIndex":0,"inPieceDistance":53.19324478913408,"lane":{"startLaneIndex":1,"endLaneIndex":1},"lap":0}}],"gameId":"c67a53fa-4a43-4a64-80ee-4382f4251db4","gameTick":33}


>>>>>>>>>>>>>>>>>>>>>>>>>>>>> 0



THROTTLE = 0.465

{"msgType":"carPositions","data":[{"id":{"name":"speedbooster","color":"red"},"angle":0.0,"piecePosition":{"pieceIndex":0,"inPieceDistance":73.40349628410124,"lane":{"startLaneIndex":0,"endLaneIndex":0},"lap":0}},{"id":{"name":"speedbooster1","color":"blue"},"angle":0.0,"piecePosition":{"pieceIndex":0,"inPieceDistance":56.97900884009061,"lane":{"startLaneIndex":1,"endLaneIndex":1},"lap":0}}],"gameId":"c67a53fa-4a43-4a64-80ee-4382f4251db4","gameTick":34}


>>>>>>>>>>>>>>>>>>>>>>>>>>>>> 0



THROTTLE = 0.465

{"msgType":"carPositions","data":[{"id":{"name":"speedbooster","color":"red"},"angle":0.0,"piecePosition":{"pieceIndex":0,"inPieceDistance":76.59953814197544,"lane":{"startLaneIndex":0,"endLaneIndex":0},"lap":0}},{"id":{"name":"speedbooster1","color":"blue"},"angle":0.0,"piecePosition":{"pieceIndex":0,"inPieceDistance":60.78464420453389,"lane":{"startLaneIndex":1,"endLaneIndex":1},"lap":0}}],"gameId":"c67a53fa-4a43-4a64-80ee-4382f4251db4","gameTick":35}


>>>>>>>>>>>>>>>>>>>>>>>>>>>>> 0



THROTTLE = 0.465

{"msgType":"carPositions","data":[{"id":{"name":"speedbooster","color":"red"},"angle":0.0,"piecePosition":{"pieceIndex":0,"inPieceDistance":79.82716399140625,"lane":{"startLaneIndex":0,"endLaneIndex":0},"lap":0}},{"id":{"name":"speedbooster1","color":"blue"},"angle":0.0,"piecePosition":{"pieceIndex":0,"inPieceDistance":64.60975621137909,"lane":{"startLaneIndex":1,"endLaneIndex":1},"lap":0}}],"gameId":"c67a53fa-4a43-4a64-80ee-4382f4251db4","gameTick":36}


>>>>>>>>>>>>>>>>>>>>>>>>>>>>> 0



THROTTLE = 0.465

{"msgType":"carPositions","data":[{"id":{"name":"speedbooster","color":"red"},"angle":0.0,"piecePosition":{"pieceIndex":0,"inPieceDistance":83.08574653172631,"lane":{"startLaneIndex":0,"endLaneIndex":0},"lap":0}},{"id":{"name":"speedbooster1","color":"blue"},"angle":0.0,"piecePosition":{"pieceIndex":0,"inPieceDistance":68.4539580282414,"lane":{"startLaneIndex":1,"endLaneIndex":1},"lap":0}}],"gameId":"c67a53fa-4a43-4a64-80ee-4382f4251db4","gameTick":37}


>>>>>>>>>>>>>>>>>>>>>>>>>>>>> 0



THROTTLE = 0.465

{"msgType":"carPositions","data":[{"id":{"name":"speedbooster","color":"red"},"angle":0.0,"piecePosition":{"pieceIndex":0,"inPieceDistance":86.37467092130555,"lane":{"startLaneIndex":0,"endLaneIndex":0},"lap":0}},{"id":{"name":"speedbooster1","color":"blue"},"angle":0.0,"piecePosition":{"pieceIndex":0,"inPieceDistance":72.31687050574882,"lane":{"startLaneIndex":1,"endLaneIndex":1},"lap":0}}],"gameId":"c67a53fa-4a43-4a64-80ee-4382f4251db4","gameTick":38}


>>>>>>>>>>>>>>>>>>>>>>>>>>>>> 0



THROTTLE = 0.465

{"msgType":"carPositions","data":[{"id":{"name":"speedbooster","color":"red"},"angle":0.0,"piecePosition":{"pieceIndex":0,"inPieceDistance":89.69333453009784,"lane":{"startLaneIndex":0,"endLaneIndex":0},"lap":0}},{"id":{"name":"speedbooster1","color":"blue"},"angle":0.0,"piecePosition":{"pieceIndex":0,"inPieceDistance":76.19812202494727,"lane":{"startLaneIndex":1,"endLaneIndex":1},"lap":0}}],"gameId":"c67a53fa-4a43-4a64-80ee-4382f4251db4","gameTick":39}


>>>>>>>>>>>>>>>>>>>>>>>>>>>>> 0



THROTTLE = 0.465

{"msgType":"carPositions","data":[{"id":{"name":"speedbooster","color":"red"},"angle":0.0,"piecePosition":{"pieceIndex":0,"inPieceDistance":93.04114669710249,"lane":{"startLaneIndex":0,"endLaneIndex":0},"lap":0}},{"id":{"name":"speedbooster1","color":"blue"},"angle":0.0,"piecePosition":{"pieceIndex":0,"inPieceDistance":80.09734834773622,"lane":{"startLaneIndex":1,"endLaneIndex":1},"lap":0}}],"gameId":"c67a53fa-4a43-4a64-80ee-4382f4251db4","gameTick":40}


>>>>>>>>>>>>>>>>>>>>>>>>>>>>> 0



THROTTLE = 0.465

{"msgType":"carPositions","data":[{"id":{"name":"speedbooster","color":"red"},"angle":0.0,"piecePosition":{"pieceIndex":0,"inPieceDistance":96.41752849264289,"lane":{"startLaneIndex":0,"endLaneIndex":0},"lap":0}},{"id":{"name":"speedbooster1","color":"blue"},"angle":0.0,"piecePosition":{"pieceIndex":0,"inPieceDistance":84.01419247027505,"lane":{"startLaneIndex":1,"endLaneIndex":1},"lap":0}}],"gameId":"c67a53fa-4a43-4a64-80ee-4382f4251db4","gameTick":41}


>>>>>>>>>>>>>>>>>>>>>>>>>>>>> 0



THROTTLE = 0.465

{"msgType":"carPositions","data":[{"id":{"name":"speedbooster","color":"red"},"angle":0.0,"piecePosition":{"pieceIndex":0,"inPieceDistance":99.82191248536652,"lane":{"startLaneIndex":0,"endLaneIndex":0},"lap":0}},{"id":{"name":"speedbooster1","color":"blue"},"angle":0.0,"piecePosition":{"pieceIndex":0,"inPieceDistance":87.9483044793009,"lane":{"startLaneIndex":1,"endLaneIndex":1},"lap":0}}],"gameId":"c67a53fa-4a43-4a64-80ee-4382f4251db4","gameTick":42}


>>>>>>>>>>>>>>>>>>>>>>>>>>>>> 0



THROTTLE = 0.465

{"msgType":"carPositions","data":[{"id":{"name":"speedbooster","color":"red"},"angle":0.0,"piecePosition":{"pieceIndex":1,"inPieceDistance":3.2537425138728366,"lane":{"startLaneIndex":0,"endLaneIndex":0},"lap":0}},{"id":{"name":"speedbooster1","color":"blue"},"angle":0.0,"piecePosition":{"pieceIndex":0,"inPieceDistance":91.89934141130021,"lane":{"startLaneIndex":1,"endLaneIndex":1},"lap":0}}],"gameId":"c67a53fa-4a43-4a64-80ee-4382f4251db4","gameTick":43}


>>>>>>>>>>>>>>>>>>>>>>>>>>>>> 0



THROTTLE = 0.465

{"msgType":"carPositions","data":[{"id":{"name":"speedbooster","color":"red"},"angle":0.0,"piecePosition":{"pieceIndex":1,"inPieceDistance":6.712473462876719,"lane":{"startLaneIndex":0,"endLaneIndex":0},"lap":0}},{"id":{"name":"speedbooster1","color":"blue"},"angle":0.0,"piecePosition":{"pieceIndex":0,"inPieceDistance":95.86696711447732,"lane":{"startLaneIndex":1,"endLaneIndex":1},"lap":0}}],"gameId":"c67a53fa-4a43-4a64-80ee-4382f4251db4","gameTick":44}


>>>>>>>>>>>>>>>>>>>>>>>>>>>>> 0



THROTTLE = 0.465

{"msgType":"carPositions","data":[{"id":{"name":"speedbooster","color":"red"},"angle":0.0,"piecePosition":{"pieceIndex":1,"inPieceDistance":10.197571043817781,"lane":{"startLaneIndex":0,"endLaneIndex":0},"lap":0}},{"id":{"name":"speedbooster1","color":"blue"},"angle":0.0,"piecePosition":{"pieceIndex":0,"inPieceDistance":99.85085211346455,"lane":{"startLaneIndex":1,"endLaneIndex":1},"lap":0}}],"gameId":"c67a53fa-4a43-4a64-80ee-4382f4251db4","gameTick":45}


>>>>>>>>>>>>>>>>>>>>>>>>>>>>> 0



THROTTLE = 0.465

{"msgType":"carPositions","data":[{"id":{"name":"speedbooster","color":"red"},"angle":0.0,"piecePosition":{"pieceIndex":1,"inPieceDistance":13.708511579827002,"lane":{"startLaneIndex":0,"endLaneIndex":0},"lap":0}},{"id":{"name":"speedbooster1","color":"blue"},"angle":0.0,"piecePosition":{"pieceIndex":1,"inPieceDistance":3.8506734767194217,"lane":{"startLaneIndex":1,"endLaneIndex":1},"lap":0}}],"gameId":"c67a53fa-4a43-4a64-80ee-4382f4251db4","gameTick":46}


>>>>>>>>>>>>>>>>>>>>>>>>>>>>> 1



THROTTLE = 0.465

{"msgType":"carPositions","data":[{"id":{"name":"speedbooster","color":"red"},"angle":0.0,"piecePosition":{"pieceIndex":1,"inPieceDistance":17.244781794964222,"lane":{"startLaneIndex":0,"endLaneIndex":0},"lap":0}},{"id":{"name":"speedbooster1","color":"blue"},"angle":0.0,"piecePosition":{"pieceIndex":1,"inPieceDistance":7.866114686555344,"lane":{"startLaneIndex":1,"endLaneIndex":1},"lap":0}}],"gameId":"c67a53fa-4a43-4a64-80ee-4382f4251db4","gameTick":47}


>>>>>>>>>>>>>>>>>>>>>>>>>>>>> 1



THROTTLE = 0.465

{"msgType":"carPositions","data":[{"id":{"name":"speedbooster","color":"red"},"angle":0.0,"piecePosition":{"pieceIndex":1,"inPieceDistance":20.805878607641674,"lane":{"startLaneIndex":0,"endLaneIndex":0},"lap":0}},{"id":{"name":"speedbooster1","color":"blue"},"angle":0.0,"piecePosition":{"pieceIndex":1,"inPieceDistance":11.89686551175388,"lane":{"startLaneIndex":1,"endLaneIndex":1},"lap":0}}],"gameId":"c67a53fa-4a43-4a64-80ee-4382f4251db4","gameTick":48}


>>>>>>>>>>>>>>>>>>>>>>>>>>>>> 1



THROTTLE = 0.465

{"msgType":"carPositions","data":[{"id":{"name":"speedbooster","color":"red"},"angle":0.0,"piecePosition":{"pieceIndex":1,"inPieceDistance":24.391308928150387,"lane":{"startLaneIndex":0,"endLaneIndex":0},"lap":0}},{"id":{"name":"speedbooster1","color":"blue"},"angle":0.0,"piecePosition":{"pieceIndex":1,"inPieceDistance":15.94262188270697,"lane":{"startLaneIndex":1,"endLaneIndex":1},"lap":0}}],"gameId":"c67a53fa-4a43-4a64-80ee-4382f4251db4","gameTick":49}


>>>>>>>>>>>>>>>>>>>>>>>>>>>>> 1



THROTTLE = 0.465

{"msgType":"carPositions","data":[{"id":{"name":"speedbooster","color":"red"},"angle":0.0,"piecePosition":{"pieceIndex":1,"inPieceDistance":28.000589460208015,"lane":{"startLaneIndex":0,"endLaneIndex":0},"lap":0}},{"id":{"name":"speedbooster1","color":"blue"},"angle":0.0,"piecePosition":{"pieceIndex":1,"inPieceDistance":20.003085769039046,"lane":{"startLaneIndex":1,"endLaneIndex":1},"lap":0}}],"gameId":"c67a53fa-4a43-4a64-80ee-4382f4251db4","gameTick":50}


>>>>>>>>>>>>>>>>>>>>>>>>>>>>> 1



THROTTLE = 0.465

{"msgType":"carPositions","data":[{"id":{"name":"speedbooster","color":"red"},"angle":0.0,"piecePosition":{"pieceIndex":1,"inPieceDistance":31.633246506448156,"lane":{"startLaneIndex":0,"endLaneIndex":0},"lap":0}},{"id":{"name":"speedbooster1","color":"blue"},"angle":0.0,"piecePosition":{"pieceIndex":1,"inPieceDistance":24.07796505965973,"lane":{"startLaneIndex":1,"endLaneIndex":1},"lap":0}}],"gameId":"c67a53fa-4a43-4a64-80ee-4382f4251db4","gameTick":51}


>>>>>>>>>>>>>>>>>>>>>>>>>>>>> 1



THROTTLE = 0.465

{"msgType":"carPositions","data":[{"id":{"name":"speedbooster","color":"red"},"angle":0.0,"piecePosition":{"pieceIndex":1,"inPieceDistance":35.288815777772946,"lane":{"startLaneIndex":0,"endLaneIndex":0},"lap":0}},{"id":{"name":"speedbooster1","color":"blue"},"angle":0.0,"piecePosition":{"pieceIndex":1,"inPieceDistance":28.166973445198845,"lane":{"startLaneIndex":1,"endLaneIndex":1},"lap":0}}],"gameId":"c67a53fa-4a43-4a64-80ee-4382f4251db4","gameTick":52}


>>>>>>>>>>>>>>>>>>>>>>>>>>>>> 1



THROTTLE = 0.465

{"msgType":"carPositions","data":[{"id":{"name":"speedbooster","color":"red"},"angle":0.0,"piecePosition":{"pieceIndex":1,"inPieceDistance":38.96684220649217,"lane":{"startLaneIndex":0,"endLaneIndex":0},"lap":0}},{"id":{"name":"speedbooster1","color":"blue"},"angle":0.0,"piecePosition":{"pieceIndex":1,"inPieceDistance":32.26983030277644,"lane":{"startLaneIndex":1,"endLaneIndex":1},"lap":0}}],"gameId":"c67a53fa-4a43-4a64-80ee-4382f4251db4","gameTick":53}


>>>>>>>>>>>>>>>>>>>>>>>>>>>>> 1



THROTTLE = 0.465

{"msgType":"carPositions","data":[{"id":{"name":"speedbooster","color":"red"},"angle":0.0,"piecePosition":{"pieceIndex":1,"inPieceDistance":42.66687976317363,"lane":{"startLaneIndex":0,"endLaneIndex":0},"lap":0}},{"id":{"name":"speedbooster1","color":"blue"},"angle":0.0,"piecePosition":{"pieceIndex":1,"inPieceDistance":36.3862605830614,"lane":{"startLaneIndex":1,"endLaneIndex":1},"lap":0}}],"gameId":"c67a53fa-4a43-4a64-80ee-4382f4251db4","gameTick":54}


>>>>>>>>>>>>>>>>>>>>>>>>>>>>> 1



THROTTLE = 0.465

{"msgType":"carPositions","data":[{"id":{"name":"speedbooster","color":"red"},"angle":0.0,"piecePosition":{"pieceIndex":1,"inPieceDistance":46.388491277131216,"lane":{"startLaneIndex":0,"endLaneIndex":0},"lap":0}},{"id":{"name":"speedbooster1","color":"blue"},"angle":0.0,"piecePosition":{"pieceIndex":1,"inPieceDistance":40.515994699573284,"lane":{"startLaneIndex":1,"endLaneIndex":1},"lap":0}}],"gameId":"c67a53fa-4a43-4a64-80ee-4382f4251db4","gameTick":55}


>>>>>>>>>>>>>>>>>>>>>>>>>>>>> 1



THROTTLE = 0.465

{"msgType":"carPositions","data":[{"id":{"name":"speedbooster","color":"red"},"angle":0.0,"piecePosition":{"pieceIndex":1,"inPieceDistance":50.131248260478195,"lane":{"startLaneIndex":0,"endLaneIndex":0},"lap":0}},{"id":{"name":"speedbooster1","color":"blue"},"angle":0.0,"piecePosition":{"pieceIndex":1,"inPieceDistance":44.6587684201827,"lane":{"startLaneIndex":1,"endLaneIndex":1},"lap":0}}],"gameId":"c67a53fa-4a43-4a64-80ee-4382f4251db4","gameTick":56}


>>>>>>>>>>>>>>>>>>>>>>>>>>>>> 1



THROTTLE = 0.465

{"msgType":"carPositions","data":[{"id":{"name":"speedbooster","color":"red"},"angle":0.0,"piecePosition":{"pieceIndex":1,"inPieceDistance":53.89473073567515,"lane":{"startLaneIndex":0,"endLaneIndex":0},"lap":0}},{"id":{"name":"speedbooster1","color":"blue"},"angle":0.0,"piecePosition":{"pieceIndex":1,"inPieceDistance":48.81432276076673,"lane":{"startLaneIndex":1,"endLaneIndex":1},"lap":0}}],"gameId":"c67a53fa-4a43-4a64-80ee-4382f4251db4","gameTick":57}


>>>>>>>>>>>>>>>>>>>>>>>>>>>>> 1



THROTTLE = 0.465

{"msgType":"carPositions","data":[{"id":{"name":"speedbooster","color":"red"},"angle":0.0,"piecePosition":{"pieceIndex":1,"inPieceDistance":57.67852706650297,"lane":{"startLaneIndex":0,"endLaneIndex":0},"lap":0}},{"id":{"name":"speedbooster1","color":"blue"},"angle":0.0,"piecePosition":{"pieceIndex":1,"inPieceDistance":52.98240388097637,"lane":{"startLaneIndex":1,"endLaneIndex":1},"lap":0}}],"gameId":"c67a53fa-4a43-4a64-80ee-4382f4251db4","gameTick":58}


>>>>>>>>>>>>>>>>>>>>>>>>>>>>> 1



THROTTLE = 0.465

{"msgType":"carPositions","data":[{"id":{"name":"speedbooster","color":"red"},"angle":0.0,"piecePosition":{"pieceIndex":1,"inPieceDistance":61.48223379239303,"lane":{"startLaneIndex":0,"endLaneIndex":0},"lap":0}},{"id":{"name":"speedbooster1","color":"blue"},"angle":0.0,"piecePosition":{"pieceIndex":1,"inPieceDistance":57.16276298207431,"lane":{"startLaneIndex":1,"endLaneIndex":1},"lap":0}}],"gameId":"c67a53fa-4a43-4a64-80ee-4382f4251db4","gameTick":59}


>>>>>>>>>>>>>>>>>>>>>>>>>>>>> 1



THROTTLE = 0.465

{"msgType":"carPositions","data":[{"id":{"name":"speedbooster","color":"red"},"angle":0.0,"piecePosition":{"pieceIndex":1,"inPieceDistance":65.30545546604769,"lane":{"startLaneIndex":0,"endLaneIndex":0},"lap":0}},{"id":{"name":"speedbooster1","color":"blue"},"angle":0.0,"piecePosition":{"pieceIndex":1,"inPieceDistance":61.355156206801695,"lane":{"startLaneIndex":1,"endLaneIndex":1},"lap":0}}],"gameId":"c67a53fa-4a43-4a64-80ee-4382f4251db4","gameTick":60}


>>>>>>>>>>>>>>>>>>>>>>>>>>>>> 1



THROTTLE = 0.465

{"msgType":"carPositions","data":[{"id":{"name":"speedbooster","color":"red"},"angle":0.0,"piecePosition":{"pieceIndex":1,"inPieceDistance":69.14780449428596,"lane":{"startLaneIndex":0,"endLaneIndex":0},"lap":0}},{"id":{"name":"speedbooster1","color":"blue"},"angle":0.0,"piecePosition":{"pieceIndex":1,"inPieceDistance":65.5593445412337,"lane":{"startLaneIndex":1,"endLaneIndex":1},"lap":0}}],"gameId":"c67a53fa-4a43-4a64-80ee-4382f4251db4","gameTick":61}


>>>>>>>>>>>>>>>>>>>>>>>>>>>>> 1



THROTTLE = 0.465

{"msgType":"carPositions","data":[{"id":{"name":"speedbooster","color":"red"},"angle":0.0,"piecePosition":{"pieceIndex":1,"inPieceDistance":73.00890098205016,"lane":{"startLaneIndex":0,"endLaneIndex":0},"lap":0}},{"id":{"name":"speedbooster1","color":"blue"},"angle":0.0,"piecePosition":{"pieceIndex":1,"inPieceDistance":69.77509371858439,"lane":{"startLaneIndex":1,"endLaneIndex":1},"lap":0}}],"gameId":"c67a53fa-4a43-4a64-80ee-4382f4251db4","gameTick":62}


>>>>>>>>>>>>>>>>>>>>>>>>>>>>> 1



THROTTLE = 0.465

{"msgType":"carPositions","data":[{"id":{"name":"speedbooster","color":"red"},"angle":0.0,"piecePosition":{"pieceIndex":1,"inPieceDistance":76.88837257951076,"lane":{"startLaneIndex":0,"endLaneIndex":0},"lap":0}},{"id":{"name":"speedbooster1","color":"blue"},"angle":0.0,"piecePosition":{"pieceIndex":1,"inPieceDistance":74.00217412492213,"lane":{"startLaneIndex":1,"endLaneIndex":1},"lap":0}}],"gameId":"c67a53fa-4a43-4a64-80ee-4382f4251db4","gameTick":63}


>>>>>>>>>>>>>>>>>>>>>>>>>>>>> 1



THROTTLE = 0.465

{"msgType":"carPositions","data":[{"id":{"name":"speedbooster","color":"red"},"angle":0.0,"piecePosition":{"pieceIndex":1,"inPieceDistance":80.78585433220802,"lane":{"startLaneIndex":0,"endLaneIndex":0},"lap":0}},{"id":{"name":"speedbooster1","color":"blue"},"angle":0.0,"piecePosition":{"pieceIndex":1,"inPieceDistance":78.24036070675766,"lane":{"startLaneIndex":1,"endLaneIndex":1},"lap":0}}],"gameId":"c67a53fa-4a43-4a64-80ee-4382f4251db4","gameTick":64}


>>>>>>>>>>>>>>>>>>>>>>>>>>>>> 1



THROTTLE = 0.465

{"msgType":"carPositions","data":[{"id":{"name":"speedbooster","color":"red"},"angle":0.0,"piecePosition":{"pieceIndex":1,"inPieceDistance":84.70098853416997,"lane":{"startLaneIndex":0,"endLaneIndex":0},"lap":0}},{"id":{"name":"speedbooster1","color":"blue"},"angle":0.0,"piecePosition":{"pieceIndex":1,"inPieceDistance":82.48943288046748,"lane":{"startLaneIndex":1,"endLaneIndex":1},"lap":0}}],"gameId":"c67a53fa-4a43-4a64-80ee-4382f4251db4","gameTick":65}


>>>>>>>>>>>>>>>>>>>>>>>>>>>>> 1



THROTTLE = 0.465

{"msgType":"carPositions","data":[{"id":{"name":"speedbooster","color":"red"},"angle":0.0,"piecePosition":{"pieceIndex":1,"inPieceDistance":88.63342458394764,"lane":{"startLaneIndex":0,"endLaneIndex":0},"lap":0}},{"id":{"name":"speedbooster1","color":"blue"},"angle":0.0,"piecePosition":{"pieceIndex":1,"inPieceDistance":86.74917444351637,"lane":{"startLaneIndex":1,"endLaneIndex":1},"lap":0}}],"gameId":"c67a53fa-4a43-4a64-80ee-4382f4251db4","gameTick":66}


>>>>>>>>>>>>>>>>>>>>>>>>>>>>> 1



THROTTLE = 0.465

{"msgType":"carPositions","data":[{"id":{"name":"speedbooster","color":"red"},"angle":0.0,"piecePosition":{"pieceIndex":1,"inPieceDistance":92.58281884350968,"lane":{"startLaneIndex":0,"endLaneIndex":0},"lap":0}},{"id":{"name":"speedbooster1","color":"blue"},"angle":0.0,"piecePosition":{"pieceIndex":1,"inPieceDistance":91.01937348744303,"lane":{"startLaneIndex":1,"endLaneIndex":1},"lap":0}}],"gameId":"c67a53fa-4a43-4a64-80ee-4382f4251db4","gameTick":67}


>>>>>>>>>>>>>>>>>>>>>>>>>>>>> 1



THROTTLE = 0.465

{"msgType":"carPositions","data":[{"id":{"name":"speedbooster","color":"red"},"angle":0.0,"piecePosition":{"pieceIndex":1,"inPieceDistance":96.54883449993947,"lane":{"startLaneIndex":0,"endLaneIndex":0},"lap":0}},{"id":{"name":"speedbooster1","color":"blue"},"angle":0.0,"piecePosition":{"pieceIndex":1,"inPieceDistance":95.299822312574,"lane":{"startLaneIndex":1,"endLaneIndex":1},"lap":0}}],"gameId":"c67a53fa-4a43-4a64-80ee-4382f4251db4","gameTick":68}


>>>>>>>>>>>>>>>>>>>>>>>>>>>>> 1



THROTTLE = 0.465

{"msgType":"carPositions","data":[{"id":{"name":"speedbooster","color":"red"},"angle":0.0,"piecePosition":{"pieceIndex":2,"inPieceDistance":0.5311414298791561,"lane":{"startLaneIndex":0,"endLaneIndex":0},"lap":0}},{"id":{"name":"speedbooster1","color":"blue"},"angle":0.0,"piecePosition":{"pieceIndex":1,"inPieceDistance":99.59031734443141,"lane":{"startLaneIndex":1,"endLaneIndex":1},"lap":0}}],"gameId":"c67a53fa-4a43-4a64-80ee-4382f4251db4","gameTick":69}


>>>>>>>>>>>>>>>>>>>>>>>>>>>>> 1



THROTTLE = 0.465

{"msgType":"carPositions","data":[{"id":{"name":"speedbooster","color":"red"},"angle":0.0,"piecePosition":{"pieceIndex":2,"inPieceDistance":4.508972691801016,"lane":{"startLaneIndex":0,"endLaneIndex":0},"lap":0}},{"id":{"name":"speedbooster1","color":"blue"},"angle":0.0,"piecePosition":{"pieceIndex":2,"inPieceDistance":3.8906590518011086,"lane":{"startLaneIndex":1,"endLaneIndex":1},"lap":0}}],"gameId":"c67a53fa-4a43-4a64-80ee-4382f4251db4","gameTick":70}


>>>>>>>>>>>>>>>>>>>>>>>>>>>>> 2



THROTTLE = 0.365

{"msgType":"carPositions","data":[{"id":{"name":"speedbooster","color":"red"},"angle":0.0,"piecePosition":{"pieceIndex":2,"inPieceDistance":8.482417178507895,"lane":{"startLaneIndex":0,"endLaneIndex":0},"lap":0}},{"id":{"name":"speedbooster1","color":"blue"},"angle":0.25161073252410865,"piecePosition":{"pieceIndex":2,"inPieceDistance":8.180208491562965,"lane":{"startLaneIndex":1,"endLaneIndex":1},"lap":0}}],"gameId":"c67a53fa-4a43-4a64-80ee-4382f4251db4","gameTick":71}


>>>>>>>>>>>>>>>>>>>>>>>>>>>>> 2



THROTTLE = 0.365

{"msgType":"carPositions","data":[{"id":{"name":"speedbooster","color":"red"},"angle":0.0,"piecePosition":{"pieceIndex":2,"inPieceDistance":12.451562017271687,"lane":{"startLaneIndex":0,"endLaneIndex":0},"lap":0}},{"id":{"name":"speedbooster1","color":"blue"},"angle":0.7238311334697196,"piecePosition":{"pieceIndex":2,"inPieceDistance":12.459180012706414,"lane":{"startLaneIndex":1,"endLaneIndex":1},"lap":0}}],"gameId":"c67a53fa-4a43-4a64-80ee-4382f4251db4","gameTick":72}


>>>>>>>>>>>>>>>>>>>>>>>>>>>>> 2



THROTTLE = 0.365

{"msgType":"carPositions","data":[{"id":{"name":"speedbooster","color":"red"},"angle":0.0,"piecePosition":{"pieceIndex":2,"inPieceDistance":16.41649260489916,"lane":{"startLaneIndex":0,"endLaneIndex":0},"lap":0}},{"id":{"name":"speedbooster1","color":"blue"},"angle":1.3876949609997469,"piecePosition":{"pieceIndex":2,"inPieceDistance":16.727783706960885,"lane":{"startLaneIndex":1,"endLaneIndex":1},"lap":0}}],"gameId":"c67a53fa-4a43-4a64-80ee-4382f4251db4","gameTick":73}


>>>>>>>>>>>>>>>>>>>>>>>>>>>>> 2



THROTTLE = 0.365

{"msgType":"carPositions","data":[{"id":{"name":"speedbooster","color":"red"},"angle":0.0,"piecePosition":{"pieceIndex":2,"inPieceDistance":20.37729264210134,"lane":{"startLaneIndex":0,"endLaneIndex":0},"lap":0}},{"id":{"name":"speedbooster1","color":"blue"},"angle":2.216227362024358,"piecePosition":{"pieceIndex":2,"inPieceDistance":20.986225493350723,"lane":{"startLaneIndex":1,"endLaneIndex":1},"lap":0}}],"gameId":"c67a53fa-4a43-4a64-80ee-4382f4251db4","gameTick":74}


>>>>>>>>>>>>>>>>>>>>>>>>>>>>> 2



THROTTLE = 0.365

{"msgType":"carPositions","data":[{"id":{"name":"speedbooster","color":"red"},"angle":0.0,"piecePosition":{"pieceIndex":2,"inPieceDistance":24.33404416718024,"lane":{"startLaneIndex":0,"endLaneIndex":0},"lap":0}},{"id":{"name":"speedbooster1","color":"blue"},"angle":3.1843934610360867,"piecePosition":{"pieceIndex":2,"inPieceDistance":25.23470720107074,"lane":{"startLaneIndex":1,"endLaneIndex":1},"lap":0}}],"gameId":"c67a53fa-4a43-4a64-80ee-4382f4251db4","gameTick":75}


>>>>>>>>>>>>>>>>>>>>>>>>>>>>> 2



THROTTLE = 0.365

{"msgType":"carPositions","data":[{"id":{"name":"speedbooster","color":"red"},"angle":0.0,"piecePosition":{"pieceIndex":2,"inPieceDistance":28.286827589046563,"lane":{"startLaneIndex":0,"endLaneIndex":0},"lap":0}},{"id":{"name":"speedbooster1","color":"blue"},"angle":4.269040247413831,"piecePosition":{"pieceIndex":2,"inPieceDistance":29.47342665071575,"lane":{"startLaneIndex":1,"endLaneIndex":1},"lap":0}}],"gameId":"c67a53fa-4a43-4a64-80ee-4382f4251db4","gameTick":76}


>>>>>>>>>>>>>>>>>>>>>>>>>>>>> 2



THROTTLE = 0.365

{"msgType":"carPositions","data":[{"id":{"name":"speedbooster","color":"red"},"angle":0.0,"piecePosition":{"pieceIndex":2,"inPieceDistance":32.2357217195816,"lane":{"startLaneIndex":0,"endLaneIndex":0},"lap":0}},{"id":{"name":"speedbooster1","color":"blue"},"angle":5.448832930922797,"piecePosition":{"pieceIndex":3,"inPieceDistance":2.286651197998836,"lane":{"startLaneIndex":1,"endLaneIndex":1},"lap":0}}],"gameId":"c67a53fa-4a43-4a64-80ee-4382f4251db4","gameTick":77}


>>>>>>>>>>>>>>>>>>>>>>>>>>>>> 3



THROTTLE = 0.365

{"msgType":"carPositions","data":[{"id":{"name":"speedbooster","color":"red"},"angle":0.0,"piecePosition":{"pieceIndex":2,"inPieceDistance":36.18080380535639,"lane":{"startLaneIndex":0,"endLaneIndex":0},"lap":0}},{"id":{"name":"speedbooster1","color":"blue"},"angle":6.704186833353429,"piecePosition":{"pieceIndex":3,"inPieceDistance":6.506423955377991,"lane":{"startLaneIndex":1,"endLaneIndex":1},"lap":0}}],"gameId":"c67a53fa-4a43-4a64-80ee-4382f4251db4","gameTick":78}


>>>>>>>>>>>>>>>>>>>>>>>>>>>>> 3



THROTTLE = 0.365

{"msgType":"carPositions","data":[{"id":{"name":"speedbooster","color":"red"},"angle":0.0,"piecePosition":{"pieceIndex":2,"inPieceDistance":40.122149558720906,"lane":{"startLaneIndex":0,"endLaneIndex":0},"lap":0}},{"id":{"name":"speedbooster1","color":"blue"},"angle":8.017195787262725,"piecePosition":{"pieceIndex":3,"inPieceDistance":10.717004653153571,"lane":{"startLaneIndex":1,"endLaneIndex":1},"lap":0}}],"gameId":"c67a53fa-4a43-4a64-80ee-4382f4251db4","gameTick":79}


>>>>>>>>>>>>>>>>>>>>>>>>>>>>> 3



THROTTLE = 0.365

{"msgType":"carPositions","data":[{"id":{"name":"speedbooster","color":"red"},"angle":0.0,"piecePosition":{"pieceIndex":2,"inPieceDistance":44.059833188275725,"lane":{"startLaneIndex":0,"endLaneIndex":0},"lap":0}},{"id":{"name":"speedbooster1","color":"blue"},"angle":9.37155792073893,"piecePosition":{"pieceIndex":3,"inPieceDistance":14.918575858025964,"lane":{"startLaneIndex":1,"endLaneIndex":1},"lap":0}}],"gameId":"c67a53fa-4a43-4a64-80ee-4382f4251db4","gameTick":80}


>>>>>>>>>>>>>>>>>>>>>>>>>>>>> 3



THROTTLE = 0.365

{"msgType":"carPositions","data":[{"id":{"name":"speedbooster","color":"red"},"angle":0.0,"piecePosition":{"pieceIndex":3,"inPieceDistance":0.8700376248916584,"lane":{"startLaneIndex":0,"endLaneIndex":0},"lap":0}},{"id":{"name":"speedbooster1","color":"blue"},"angle":10.752499620079629,"piecePosition":{"pieceIndex":3,"inPieceDistance":19.11131651067467,"lane":{"startLaneIndex":1,"endLaneIndex":1},"lap":0}}],"gameId":"c67a53fa-4a43-4a64-80ee-4382f4251db4","gameTick":81}


>>>>>>>>>>>>>>>>>>>>>>>>>>>>> 3



THROTTLE = 0.365

{"msgType":"carPositions","data":[{"id":{"name":"speedbooster","color":"red"},"angle":0.0,"piecePosition":{"pieceIndex":3,"inPieceDistance":4.800613766370607,"lane":{"startLaneIndex":0,"endLaneIndex":0},"lap":0}},{"id":{"name":"speedbooster1","color":"blue"},"angle":12.146698380276765,"piecePosition":{"pieceIndex":3,"inPieceDistance":23.295401997775972,"lane":{"startLaneIndex":1,"endLaneIndex":1},"lap":0}}],"gameId":"c67a53fa-4a43-4a64-80ee-4382f4251db4","gameTick":82}


>>>>>>>>>>>>>>>>>>>>>>>>>>>>> 3



THROTTLE = 0.365

{"msgType":"carPositions","data":[{"id":{"name":"speedbooster","color":"red"},"angle":0.0,"piecePosition":{"pieceIndex":3,"inPieceDistance":8.727741683056099,"lane":{"startLaneIndex":0,"endLaneIndex":0},"lap":0}},{"id":{"name":"speedbooster1","color":"blue"},"angle":13.542205176219028,"piecePosition":{"pieceIndex":3,"inPieceDistance":27.47100422259023,"lane":{"startLaneIndex":1,"endLaneIndex":1},"lap":0}}],"gameId":"c67a53fa-4a43-4a64-80ee-4382f4251db4","gameTick":83}


>>>>>>>>>>>>>>>>>>>>>>>>>>>>> 3



THROTTLE = 0.365

{"msgType":"carPositions","data":[{"id":{"name":"speedbooster","color":"red"},"angle":0.0,"piecePosition":{"pieceIndex":3,"inPieceDistance":12.651489861342903,"lane":{"startLaneIndex":0,"endLaneIndex":0},"lap":0}},{"id":{"name":"speedbooster1","color":"blue"},"angle":14.928366915493747,"piecePosition":{"pieceIndex":4,"inPieceDistance":0.2223651382492946,"lane":{"startLaneIndex":1,"endLaneIndex":1},"lap":0}}],"gameId":"c67a53fa-4a43-4a64-80ee-4382f4251db4","gameTick":84}


>>>>>>>>>>>>>>>>>>>>>>>>>>>>> 4



THROTTLE = 0.365

{"msgType":"carPositions","data":[{"id":{"name":"speedbooster","color":"red"},"angle":0.0,"piecePosition":{"pieceIndex":3,"inPieceDistance":16.57192542739362,"lane":{"startLaneIndex":0,"endLaneIndex":0},"lap":0}},{"id":{"name":"speedbooster1","color":"blue"},"angle":16.295749466506116,"piecePosition":{"pieceIndex":4,"inPieceDistance":4.381502959159438,"lane":{"startLaneIndex":1,"endLaneIndex":1},"lap":0}}],"gameId":"c67a53fa-4a43-4a64-80ee-4382f4251db4","gameTick":85}


>>>>>>>>>>>>>>>>>>>>>>>>>>>>> 4



THROTTLE = 0.365

{"msgType":"carPositions","data":[{"id":{"name":"speedbooster","color":"red"},"angle":0.0,"piecePosition":{"pieceIndex":3,"inPieceDistance":20.48911417415474,"lane":{"startLaneIndex":0,"endLaneIndex":0},"lap":0}},{"id":{"name":"speedbooster1","color":"blue"},"angle":17.636061693215897,"piecePosition":{"pieceIndex":4,"inPieceDistance":8.532653012078189,"lane":{"startLaneIndex":1,"endLaneIndex":1},"lap":0}}],"gameId":"c67a53fa-4a43-4a64-80ee-4382f4251db4","gameTick":86}


>>>>>>>>>>>>>>>>>>>>>>>>>>>>> 4



THROTTLE = 0.465

{"msgType":"carPositions","data":[{"id":{"name":"speedbooster","color":"red"},"angle":0.0,"piecePosition":{"pieceIndex":3,"inPieceDistance":24.4031205878361,"lane":{"startLaneIndex":0,"endLaneIndex":0},"lap":0}},{"id":{"name":"speedbooster1","color":"blue"},"angle":18.942080869981332,"piecePosition":{"pieceIndex":4,"inPieceDistance":12.696417319715332,"lane":{"startLaneIndex":1,"endLaneIndex":1},"lap":0}}],"gameId":"c67a53fa-4a43-4a64-80ee-4382f4251db4","gameTick":87}


>>>>>>>>>>>>>>>>>>>>>>>>>>>>> 4



THROTTLE = 0.565

{"msgType":"carPositions","data":[{"id":{"name":"speedbooster","color":"red"},"angle":0.0,"piecePosition":{"pieceIndex":3,"inPieceDistance":28.314007873864444,"lane":{"startLaneIndex":0,"endLaneIndex":0},"lap":0}},{"id":{"name":"speedbooster1","color":"blue"},"angle":20.21512063702618,"piecePosition":{"pieceIndex":4,"inPieceDistance":16.89298872082519,"lane":{"startLaneIndex":1,"endLaneIndex":1},"lap":0}}],"gameId":"c67a53fa-4a43-4a64-80ee-4382f4251db4","gameTick":88}


>>>>>>>>>>>>>>>>>>>>>>>>>>>>> 4



THROTTLE = 0.665

{"msgType":"carPositions","data":[{"id":{"name":"speedbooster","color":"red"},"angle":0.0,"piecePosition":{"pieceIndex":3,"inPieceDistance":32.2218379823215,"lane":{"startLaneIndex":0,"endLaneIndex":0},"lap":0}},{"id":{"name":"speedbooster1","color":"blue"},"angle":21.464047955596534,"piecePosition":{"pieceIndex":4,"inPieceDistance":21.142158997151824,"lane":{"startLaneIndex":1,"endLaneIndex":1},"lap":0}}],"gameId":"c67a53fa-4a43-4a64-80ee-4382f4251db4","gameTick":89}


>>>>>>>>>>>>>>>>>>>>>>>>>>>>> 4



THROTTLE = 0.765

{"msgType":"carPositions","data":[{"id":{"name":"speedbooster","color":"red"},"angle":0.0,"piecePosition":{"pieceIndex":3,"inPieceDistance":36.12667163287683,"lane":{"startLaneIndex":0,"endLaneIndex":0},"lap":0}},{"id":{"name":"speedbooster1","color":"blue"},"angle":22.70456662476344,"piecePosition":{"pieceIndex":4,"inPieceDistance":25.463326838962125,"lane":{"startLaneIndex":1,"endLaneIndex":1},"lap":0}}],"gameId":"c67a53fa-4a43-4a64-80ee-4382f4251db4","gameTick":90}


>>>>>>>>>>>>>>>>>>>>>>>>>>>>> 4



THROTTLE = 0.765

{"msgType":"carPositions","data":[{"id":{"name":"speedbooster","color":"red"},"angle":0.0,"piecePosition":{"pieceIndex":3,"inPieceDistance":40.02856833922546,"lane":{"startLaneIndex":0,"endLaneIndex":0},"lap":0}},{"id":{"name":"speedbooster1","color":"blue"},"angle":23.958727407156324,"piecePosition":{"pieceIndex":4,"inPieceDistance":29.85506227750773,"lane":{"startLaneIndex":1,"endLaneIndex":1},"lap":0}}],"gameId":"c67a53fa-4a43-4a64-80ee-4382f4251db4","gameTick":91}


>>>>>>>>>>>>>>>>>>>>>>>>>>>>> 4



THROTTLE = 0.765

{"msgType":"carPositions","data":[{"id":{"name":"speedbooster","color":"red"},"angle":0.0,"piecePosition":{"pieceIndex":3,"inPieceDistance":43.927586433040176,"lane":{"startLaneIndex":0,"endLaneIndex":0},"lap":0}},{"id":{"name":"speedbooster1","color":"blue"},"angle":25.246366625904308,"piecePosition":{"pieceIndex":5,"inPieceDistance":2.9000372092501863,"lane":{"startLaneIndex":1,"endLaneIndex":1},"lap":0}}],"gameId":"c67a53fa-4a43-4a64-80ee-4382f4251db4","gameTick":92}


>>>>>>>>>>>>>>>>>>>>>>>>>>>>> 5



THROTTLE = 0.525

{"msgType":"carPositions","data":[{"id":{"name":"speedbooster","color":"red"},"angle":0.0,"piecePosition":{"pieceIndex":4,"inPieceDistance":0.6998932836011917,"lane":{"startLaneIndex":0,"endLaneIndex":0},"lap":0}},{"id":{"name":"speedbooster1","color":"blue"},"angle":26.26446498035989,"piecePosition":{"pieceIndex":5,"inPieceDistance":7.379666875692472,"lane":{"startLaneIndex":1,"endLaneIndex":1},"lap":0}}],"gameId":"c67a53fa-4a43-4a64-80ee-4382f4251db4","gameTick":93}


>>>>>>>>>>>>>>>>>>>>>>>>>>>>> 5



THROTTLE = 0.525

{"msgType":"carPositions","data":[{"id":{"name":"speedbooster","color":"red"},"angle":0.0,"piecePosition":{"pieceIndex":4,"inPieceDistance":4.593324536193975,"lane":{"startLaneIndex":0,"endLaneIndex":0},"lap":0}},{"id":{"name":"speedbooster1","color":"blue"},"angle":27.033684653745844,"piecePosition":{"pieceIndex":5,"inPieceDistance":11.877652773651096,"lane":{"startLaneIndex":1,"endLaneIndex":1},"lap":0}}],"gameId":"c67a53fa-4a43-4a64-80ee-4382f4251db4","gameTick":94}


>>>>>>>>>>>>>>>>>>>>>>>>>>>>> 5



THROTTLE = 0.525

{"msgType":"carPositions","data":[{"id":{"name":"speedbooster","color":"red"},"angle":0.0,"piecePosition":{"pieceIndex":4,"inPieceDistance":8.484045311581179,"lane":{"startLaneIndex":0,"endLaneIndex":0},"lap":0}},{"id":{"name":"speedbooster1","color":"blue"},"angle":27.57398594436519,"piecePosition":{"pieceIndex":5,"inPieceDistance":16.393630323612438,"lane":{"startLaneIndex":1,"endLaneIndex":1},"lap":0}}],"gameId":"c67a53fa-4a43-4a64-80ee-4382f4251db4","gameTick":95}


>>>>>>>>>>>>>>>>>>>>>>>>>>>>> 5



THROTTLE = 0.525

{"msgType":"carPositions","data":[{"id":{"name":"speedbooster","color":"red"},"angle":0.0,"piecePosition":{"pieceIndex":4,"inPieceDistance":12.392552818360482,"lane":{"startLaneIndex":0,"endLaneIndex":0},"lap":0}},{"id":{"name":"speedbooster1","color":"blue"},"angle":27.904602729062976,"piecePosition":{"pieceIndex":5,"inPieceDistance":20.927242187103698,"lane":{"startLaneIndex":1,"endLaneIndex":1},"lap":0}}],"gameId":"c67a53fa-4a43-4a64-80ee-4382f4251db4","gameTick":96}


>>>>>>>>>>>>>>>>>>>>>>>>>>>>> 5



THROTTLE = 0.525

{"msgType":"carPositions","data":[{"id":{"name":"speedbooster","color":"red"},"angle":0.0,"piecePosition":{"pieceIndex":4,"inPieceDistance":16.33893716292373,"lane":{"startLaneIndex":0,"endLaneIndex":0},"lap":0}},{"id":{"name":"speedbooster1","color":"blue"},"angle":28.044022037817868,"piecePosition":{"pieceIndex":5,"inPieceDistance":25.47813812287606,"lane":{"startLaneIndex":1,"endLaneIndex":1},"lap":0}}],"gameId":"c67a53fa-4a43-4a64-80ee-4382f4251db4","gameTick":97}


>>>>>>>>>>>>>>>>>>>>>>>>>>>>> 5



THROTTLE = 0.525

{"msgType":"carPositions","data":[{"id":{"name":"speedbooster","color":"red"},"angle":0.0,"piecePosition":{"pieceIndex":4,"inPieceDistance":20.342889435055767,"lane":{"startLaneIndex":0,"endLaneIndex":0},"lap":0}},{"id":{"name":"speedbooster1","color":"blue"},"angle":28.009967633304,"piecePosition":{"pieceIndex":5,"inPieceDistance":30.045974845944258,"lane":{"startLaneIndex":1,"endLaneIndex":1},"lap":0}}],"gameId":"c67a53fa-4a43-4a64-80ee-4382f4251db4","gameTick":98}


>>>>>>>>>>>>>>>>>>>>>>>>>>>>> 5



THROTTLE = 0.365

{"msgType":"carPositions","data":[{"id":{"name":"speedbooster","color":"red"},"angle":0.0,"piecePosition":{"pieceIndex":4,"inPieceDistance":24.423709632942373,"lane":{"startLaneIndex":0,"endLaneIndex":0},"lap":0}},{"id":{"name":"speedbooster1","color":"blue"},"angle":27.819387470782324,"piecePosition":{"pieceIndex":5,"inPieceDistance":34.597706489641865,"lane":{"startLaneIndex":1,"endLaneIndex":1},"lap":0}}],"gameId":"c67a53fa-4a43-4a64-80ee-4382f4251db4","gameTick":99}


>>>>>>>>>>>>>>>>>>>>>>>>>>>>> 5



THROTTLE = 0.365

{"msgType":"carPositions","data":[{"id":{"name":"speedbooster","color":"red"},"angle":0.0,"piecePosition":{"pieceIndex":4,"inPieceDistance":28.600314430776866,"lane":{"startLaneIndex":0,"endLaneIndex":0},"lap":0}},{"id":{"name":"speedbooster1","color":"blue"},"angle":27.489582341689008,"piecePosition":{"pieceIndex":5,"inPieceDistance":39.13365292256493,"lane":{"startLaneIndex":1,"endLaneIndex":1},"lap":0}}],"gameId":"c67a53fa-4a43-4a64-80ee-4382f4251db4","gameTick":100}


>>>>>>>>>>>>>>>>>>>>>>>>>>>>> 5



THROTTLE = 0.365

{"msgType":"carPositions","data":[{"id":{"name":"speedbooster","color":"red"},"angle":0.0,"piecePosition":{"pieceIndex":4,"inPieceDistance":32.89124479209155,"lane":{"startLaneIndex":0,"endLaneIndex":0},"lap":0}},{"id":{"name":"speedbooster1","color":"blue"},"angle":27.036893634298362,"piecePosition":{"pieceIndex":5,"inPieceDistance":43.654127660287784,"lane":{"startLaneIndex":1,"endLaneIndex":1},"lap":0}}],"gameId":"c67a53fa-4a43-4a64-80ee-4382f4251db4","gameTick":101}


>>>>>>>>>>>>>>>>>>>>>>>>>>>>> 5



THROTTLE = 0.365

{"msgType":"carPositions","data":[{"id":{"name":"speedbooster","color":"red"},"angle":0.0,"piecePosition":{"pieceIndex":4,"inPieceDistance":37.29423005701317,"lane":{"startLaneIndex":0,"endLaneIndex":0},"lap":0}},{"id":{"name":"speedbooster1","color":"blue"},"angle":26.47669930432135,"piecePosition":{"pieceIndex":5,"inPieceDistance":48.15943799154265,"lane":{"startLaneIndex":1,"endLaneIndex":1},"lap":0}}],"gameId":"c67a53fa-4a43-4a64-80ee-4382f4251db4","gameTick":102}


>>>>>>>>>>>>>>>>>>>>>>>>>>>>> 5



THROTTLE = 0.365

{"msgType":"carPositions","data":[{"id":{"name":"speedbooster","color":"red"},"angle":0.0,"piecePosition":{"pieceIndex":4,"inPieceDistance":41.80704466403584,"lane":{"startLaneIndex":0,"endLaneIndex":0},"lap":0}},{"id":{"name":"speedbooster1","color":"blue"},"angle":25.823417223700428,"piecePosition":{"pieceIndex":6,"inPieceDistance":2.649885101893119,"lane":{"startLaneIndex":1,"endLaneIndex":1},"lap":0}}],"gameId":"c67a53fa-4a43-4a64-80ee-4382f4251db4","gameTick":103}


>>>>>>>>>>>>>>>>>>>>>>>>>>>>> 6



THROTTLE = 0.365

{"msgType":"carPositions","data":[{"id":{"name":"speedbooster","color":"red"},"angle":0.03242306899527327,"piecePosition":{"pieceIndex":4,"inPieceDistance":46.427507254306626,"lane":{"startLaneIndex":0,"endLaneIndex":0},"lap":0}},{"id":{"name":"speedbooster1","color":"blue"},"angle":25.065089520138013,"piecePosition":{"pieceIndex":6,"inPieceDistance":7.125764194951285,"lane":{"startLaneIndex":1,"endLaneIndex":1},"lap":0}}],"gameId":"c67a53fa-4a43-4a64-80ee-4382f4251db4","gameTick":104}


>>>>>>>>>>>>>>>>>>>>>>>>>>>>> 6



THROTTLE = 0.365

{"msgType":"carPositions","data":[{"id":{"name":"speedbooster","color":"red"},"angle":0.12846965729160015,"piecePosition":{"pieceIndex":5,"inPieceDistance":4.029589989854358,"lane":{"startLaneIndex":0,"endLaneIndex":0},"lap":0}},{"id":{"name":"speedbooster1","color":"blue"},"angle":24.221454660664865,"piecePosition":{"pieceIndex":6,"inPieceDistance":11.587364611187393,"lane":{"startLaneIndex":1,"endLaneIndex":1},"lap":0}}],"gameId":"c67a53fa-4a43-4a64-80ee-4382f4251db4","gameTick":105}


>>>>>>>>>>>>>>>>>>>>>>>>>>>>> 6



THROTTLE = 0.365

{"msgType":"carPositions","data":[{"id":{"name":"speedbooster","color":"red"},"angle":0.21415265666766242,"piecePosition":{"pieceIndex":5,"inPieceDistance":8.76902605908386,"lane":{"startLaneIndex":0,"endLaneIndex":0},"lap":0}},{"id":{"name":"speedbooster1","color":"blue"},"angle":23.31059878509619,"piecePosition":{"pieceIndex":6,"inPieceDistance":16.03496994437974,"lane":{"startLaneIndex":1,"endLaneIndex":1},"lap":0}}],"gameId":"c67a53fa-4a43-4a64-80ee-4382f4251db4","gameTick":106}


>>>>>>>>>>>>>>>>>>>>>>>>>>>>> 6



THROTTLE = 0.365

{"msgType":"carPositions","data":[{"id":{"name":"speedbooster","color":"red"},"angle":0.28999865257445345,"piecePosition":{"pieceIndex":5,"inPieceDistance":13.52165825428844,"lane":{"startLaneIndex":0,"endLaneIndex":0},"lap":0}},{"id":{"name":"speedbooster1","color":"blue"},"angle":22.34902034654965,"piecePosition":{"pieceIndex":6,"inPieceDistance":20.468858155751718,"lane":{"startLaneIndex":1,"endLaneIndex":1},"lap":0}}],"gameId":"c67a53fa-4a43-4a64-80ee-4382f4251db4","gameTick":107}


>>>>>>>>>>>>>>>>>>>>>>>>>>>>> 6



THROTTLE = 0.365

{"msgType":"carPositions","data":[{"id":{"name":"speedbooster","color":"red"},"angle":0.35653722772457624,"piecePosition":{"pieceIndex":5,"inPieceDistance":18.28722448260958,"lane":{"startLaneIndex":0,"endLaneIndex":0},"lap":0}},{"id":{"name":"speedbooster1","color":"blue"},"angle":21.351698368945705,"piecePosition":{"pieceIndex":6,"inPieceDistance":24.88930168584196,"lane":{"startLaneIndex":1,"endLaneIndex":1},"lap":0}}],"gameId":"c67a53fa-4a43-4a64-80ee-4382f4251db4","gameTick":108}


>>>>>>>>>>>>>>>>>>>>>>>>>>>>> 6



THROTTLE = 0.365

{"msgType":"carPositions","data":[{"id":{"name":"speedbooster","color":"red"},"angle":0.4142980681452074,"piecePosition":{"pieceIndex":5,"inPieceDistance":23.065467856706405,"lane":{"startLaneIndex":0,"endLaneIndex":0},"lap":0}},{"id":{"name":"speedbooster1","color":"blue"},"angle":20.33216338626825,"piecePosition":{"pieceIndex":6,"inPieceDistance":29.296567564152582,"lane":{"startLaneIndex":1,"endLaneIndex":1},"lap":0}}],"gameId":"c67a53fa-4a43-4a64-80ee-4382f4251db4","gameTick":109}


>>>>>>>>>>>>>>>>>>>>>>>>>>>>> 6



THROTTLE = 0.365

{"msgType":"carPositions","data":[{"id":{"name":"speedbooster","color":"red"},"angle":0.4638083032750055,"piecePosition":{"pieceIndex":5,"inPieceDistance":27.85613659136707,"lane":{"startLaneIndex":0,"endLaneIndex":0},"lap":0}},{"id":{"name":"speedbooster1","color":"blue"},"angle":19.302570224269964,"piecePosition":{"pieceIndex":6,"inPieceDistance":33.69091751661966,"lane":{"startLaneIndex":1,"endLaneIndex":1},"lap":0}}],"gameId":"c67a53fa-4a43-4a64-80ee-4382f4251db4","gameTick":110}


>>>>>>>>>>>>>>>>>>>>>>>>>>>>> 6



THROTTLE = 0.365

{"msgType":"carPositions","data":[{"id":{"name":"speedbooster","color":"red"},"angle":0.5055900749701043,"piecePosition":{"pieceIndex":5,"inPieceDistance":32.658983902173595,"lane":{"startLaneIndex":0,"endLaneIndex":0},"lap":0}},{"id":{"name":"speedbooster1","color":"blue"},"angle":18.269908567787112,"piecePosition":{"pieceIndex":6,"inPieceDistance":38.07260807094922,"lane":{"startLaneIndex":1,"endLaneIndex":1},"lap":0}}],"gameId":"c67a53fa-4a43-4a64-80ee-4382f4251db4","gameTick":111}


>>>>>>>>>>>>>>>>>>>>>>>>>>>>> 6



THROTTLE = 0.365

{"msgType":"carPositions","data":[{"id":{"name":"speedbooster","color":"red"},"angle":0.5401583295807675,"piecePosition":{"pieceIndex":5,"inPieceDistance":37.44105850639544,"lane":{"startLaneIndex":0,"endLaneIndex":0},"lap":0}},{"id":{"name":"speedbooster1","color":"blue"},"angle":17.240446719702625,"piecePosition":{"pieceIndex":6,"inPieceDistance":42.44189065986107,"lane":{"startLaneIndex":1,"endLaneIndex":1},"lap":0}}],"gameId":"c67a53fa-4a43-4a64-80ee-4382f4251db4","gameTick":112}


>>>>>>>>>>>>>>>>>>>>>>>>>>>>> 6



THROTTLE = 0.365

{"msgType":"carPositions","data":[{"id":{"name":"speedbooster","color":"red"},"angle":0.5680409119426805,"piecePosition":{"pieceIndex":5,"inPieceDistance":42.18232960313506,"lane":{"startLaneIndex":0,"endLaneIndex":0},"lap":0}},{"id":{"name":"speedbooster1","color":"blue"},"angle":16.219770576829763,"piecePosition":{"pieceIndex":6,"inPieceDistance":46.799011722282124,"lane":{"startLaneIndex":1,"endLaneIndex":1},"lap":0}}],"gameId":"c67a53fa-4a43-4a64-80ee-4382f4251db4","gameTick":113}


>>>>>>>>>>>>>>>>>>>>>>>>>>>>> 6



THROTTLE = 0.365

{"msgType":"carPositions","data":[{"id":{"name":"speedbooster","color":"red"},"angle":0.5897686911214528,"piecePosition":{"pieceIndex":5,"inPieceDistance":46.8631642302148,"lane":{"startLaneIndex":0,"endLaneIndex":0},"lap":0}},{"id":{"name":"speedbooster1","color":"blue"},"angle":15.21282266823426,"piecePosition":{"pieceIndex":7,"inPieceDistance":4.020322998682957,"lane":{"startLaneIndex":1,"endLaneIndex":1},"lap":0}}],"gameId":"c67a53fa-4a43-4a64-80ee-4382f4251db4","gameTick":114}


>>>>>>>>>>>>>>>>>>>>>>>>>>>>> 7



THROTTLE = 0.365

{"msgType":"carPositions","data":[{"id":{"name":"speedbooster","color":"red"},"angle":0.6058729302431369,"piecePosition":{"pieceIndex":6,"inPieceDistance":1.4643193625633941,"lane":{"startLaneIndex":0,"endLaneIndex":0},"lap":0}},{"id":{"name":"speedbooster1","color":"blue"},"angle":14.223941083633772,"piecePosition":{"pieceIndex":7,"inPieceDistance":8.353840843678924,"lane":{"startLaneIndex":1,"endLaneIndex":1},"lap":0}}],"gameId":"c67a53fa-4a43-4a64-80ee-4382f4251db4","gameTick":115}


>>>>>>>>>>>>>>>>>>>>>>>>>>>>> 7



THROTTLE = 0.365

{"msgType":"carPositions","data":[{"id":{"name":"speedbooster","color":"red"},"angle":0.2322826369596782,"piecePosition":{"pieceIndex":6,"inPieceDistance":6.007820917269076,"lane":{"startLaneIndex":0,"endLaneIndex":0},"lap":0}},{"id":{"name":"speedbooster1","color":"blue"},"angle":13.25689802935321,"piecePosition":{"pieceIndex":7,"inPieceDistance":12.675907498231561,"lane":{"startLaneIndex":1,"endLaneIndex":1},"lap":0}}],"gameId":"c67a53fa-4a43-4a64-80ee-4382f4251db4","gameTick":116}


>>>>>>>>>>>>>>>>>>>>>>>>>>>>> 7



THROTTLE = 0.365

{"msgType":"carPositions","data":[{"id":{"name":"speedbooster","color":"red"},"angle":-0.46321010028260534,"piecePosition":{"pieceIndex":6,"inPieceDistance":10.53570072186691,"lane":{"startLaneIndex":0,"endLaneIndex":0},"lap":0}},{"id":{"name":"speedbooster1","color":"blue"},"angle":12.314937784356363,"piecePosition":{"pieceIndex":7,"inPieceDistance":16.986750398426455,"lane":{"startLaneIndex":1,"endLaneIndex":1},"lap":0}}],"gameId":"c67a53fa-4a43-4a64-80ee-4382f4251db4","gameTick":117}


>>>>>>>>>>>>>>>>>>>>>>>>>>>>> 7



THROTTLE = 0.365

{"msgType":"carPositions","data":[{"id":{"name":"speedbooster","color":"red"},"angle":-1.437346538093379,"piecePosition":{"pieceIndex":6,"inPieceDistance":15.04826904538195,"lane":{"startLaneIndex":0,"endLaneIndex":0},"lap":0}},{"id":{"name":"speedbooster1","color":"blue"},"angle":11.400813861216658,"piecePosition":{"pieceIndex":7,"inPieceDistance":21.28659246316181,"lane":{"startLaneIndex":1,"endLaneIndex":1},"lap":0}}],"gameId":"c67a53fa-4a43-4a64-80ee-4382f4251db4","gameTick":118}


>>>>>>>>>>>>>>>>>>>>>>>>>>>>> 7



THROTTLE = 0.365

{"msgType":"carPositions","data":[{"id":{"name":"speedbooster","color":"red"},"angle":-2.6498298207035793,"piecePosition":{"pieceIndex":6,"inPieceDistance":19.545829994477977,"lane":{"startLaneIndex":0,"endLaneIndex":0},"lap":0}},{"id":{"name":"speedbooster1","color":"blue"},"angle":10.516825206625077,"piecePosition":{"pieceIndex":7,"inPieceDistance":25.575652183865873,"lane":{"startLaneIndex":1,"endLaneIndex":1},"lap":0}}],"gameId":"c67a53fa-4a43-4a64-80ee-4382f4251db4","gameTick":119}


>>>>>>>>>>>>>>>>>>>>>>>>>>>>> 7



THROTTLE = 0.365

{"msgType":"carPositions","data":[{"id":{"name":"speedbooster","color":"red"},"angle":-4.063265075861988,"piecePosition":{"pieceIndex":6,"inPieceDistance":24.0286816358503,"lane":{"startLaneIndex":0,"endLaneIndex":0},"lap":0}},{"id":{"name":"speedbooster1","color":"blue"},"angle":9.664851303263378,"piecePosition":{"pieceIndex":7,"inPieceDistance":29.854143712432467,"lane":{"startLaneIndex":1,"endLaneIndex":1},"lap":0}}],"gameId":"c67a53fa-4a43-4a64-80ee-4382f4251db4","gameTick":120}


>>>>>>>>>>>>>>>>>>>>>>>>>>>>> 7



THROTTLE = 0.365

{"msgType":"carPositions","data":[{"id":{"name":"speedbooster","color":"red"},"angle":-5.643085837461874,"piecePosition":{"pieceIndex":6,"inPieceDistance":28.497116116187684,"lane":{"startLaneIndex":0,"endLaneIndex":0},"lap":0}},{"id":{"name":"speedbooster1","color":"blue"},"angle":8.846386059705512,"piecePosition":{"pieceIndex":7,"inPieceDistance":34.122276947409986,"lane":{"startLaneIndex":1,"endLaneIndex":1},"lap":0}}],"gameId":"c67a53fa-4a43-4a64-80ee-4382f4251db4","gameTick":121}


>>>>>>>>>>>>>>>>>>>>>>>>>>>>> 7



THROTTLE = 0.365

{"msgType":"carPositions","data":[{"id":{"name":"speedbooster","color":"red"},"angle":-7.3574689962930195,"piecePosition":{"pieceIndex":7,"inPieceDistance":1.5354932438537148,"lane":{"startLaneIndex":0,"endLaneIndex":0},"lap":0}},{"id":{"name":"speedbooster1","color":"blue"},"angle":8.062570397564846,"piecePosition":{"pieceIndex":7,"inPieceDistance":38.38025761847859,"lane":{"startLaneIndex":1,"endLaneIndex":1},"lap":0}}],"gameId":"c67a53fa-4a43-4a64-80ee-4382f4251db4","gameTick":122}


>>>>>>>>>>>>>>>>>>>>>>>>>>>>> 7



THROTTLE = 0.365

{"msgType":"carPositions","data":[{"id":{"name":"speedbooster","color":"red"},"angle":-9.177240294429776,"piecePosition":{"pieceIndex":7,"inPieceDistance":5.975946747722583,"lane":{"startLaneIndex":0,"endLaneIndex":0},"lap":0}},{"id":{"name":"speedbooster1","color":"blue"},"angle":7.314223465498294,"piecePosition":{"pieceIndex":7,"inPieceDistance":42.62828736924952,"lane":{"startLaneIndex":1,"endLaneIndex":1},"lap":0}}],"gameId":"c67a53fa-4a43-4a64-80ee-4382f4251db4","gameTick":123}


>>>>>>>>>>>>>>>>>>>>>>>>>>>>> 7



THROTTLE = 0.365

{"msgType":"carPositions","data":[{"id":{"name":"speedbooster","color":"red"},"angle":-11.07577220036832,"piecePosition":{"pieceIndex":7,"inPieceDistance":10.402825174746596,"lane":{"startLaneIndex":0,"endLaneIndex":0},"lap":0}},{"id":{"name":"speedbooster1","color":"blue"},"angle":6.601872428031869,"piecePosition":{"pieceIndex":7,"inPieceDistance":46.86656383841998,"lane":{"startLaneIndex":1,"endLaneIndex":1},"lap":0}}],"gameId":"c67a53fa-4a43-4a64-80ee-4382f4251db4","gameTick":124}


>>>>>>>>>>>>>>>>>>>>>>>>>>>>> 7



THROTTLE = 0.365

{"msgType":"carPositions","data":[{"id":{"name":"speedbooster","color":"red"},"angle":-13.028875831674588,"piecePosition":{"pieceIndex":7,"inPieceDistance":14.816398144259608,"lane":{"startLaneIndex":0,"endLaneIndex":0},"lap":0}},{"id":{"name":"speedbooster1","color":"blue"},"angle":5.925780793606845,"piecePosition":{"pieceIndex":8,"inPieceDistance":3.971390935469188,"lane":{"startLaneIndex":1,"endLaneIndex":1},"lap":0}}],"gameId":"c67a53fa-4a43-4a64-80ee-4382f4251db4","gameTick":125}


>>>>>>>>>>>>>>>>>>>>>>>>>>>>> 8



THROTTLE = 0.365

{"msgType":"carPositions","data":[{"id":{"name":"speedbooster","color":"red"},"angle":-15.014688430001524,"piecePosition":{"pieceIndex":7,"inPieceDistance":19.216929920591888,"lane":{"startLaneIndex":0,"endLaneIndex":0},"lap":0}},{"id":{"name":"speedbooster1","color":"blue"},"angle":5.285975260883159,"piecePosition":{"pieceIndex":8,"inPieceDistance":8.190738134009157,"lane":{"startLaneIndex":1,"endLaneIndex":1},"lap":0}}],"gameId":"c67a53fa-4a43-4a64-80ee-4382f4251db4","gameTick":126}


>>>>>>>>>>>>>>>>>>>>>>>>>>>>> 8



THROTTLE = 0.465

{"msgType":"carPositions","data":[{"id":{"name":"speedbooster","color":"red"},"angle":-17.013557740146855,"piecePosition":{"pieceIndex":7,"inPieceDistance":23.604679519427705,"lane":{"startLaneIndex":0,"endLaneIndex":0},"lap":0}},{"id":{"name":"speedbooster1","color":"blue"},"angle":4.682271075296144,"piecePosition":{"pieceIndex":8,"inPieceDistance":12.421345099982975,"lane":{"startLaneIndex":1,"endLaneIndex":1},"lap":0}}],"gameId":"c67a53fa-4a43-4a64-80ee-4382f4251db4","gameTick":127}


>>>>>>>>>>>>>>>>>>>>>>>>>>>>> 8



THROTTLE = 0.565

{"msgType":"carPositions","data":[{"id":{"name":"speedbooster","color":"red"},"angle":-19.00792450049884,"piecePosition":{"pieceIndex":7,"inPieceDistance":27.97990081205053,"lane":{"startLaneIndex":0,"endLaneIndex":0},"lap":0}},{"id":{"name":"speedbooster1","color":"blue"},"angle":4.114176247483173,"piecePosition":{"pieceIndex":8,"inPieceDistance":16.683431574089134,"lane":{"startLaneIndex":1,"endLaneIndex":1},"lap":0}}],"gameId":"c67a53fa-4a43-4a64-80ee-4382f4251db4","gameTick":128}


>>>>>>>>>>>>>>>>>>>>>>>>>>>>> 8



THROTTLE = 0.565

{"msgType":"carPositions","data":[{"id":{"name":"speedbooster","color":"red"},"angle":-20.982204116802485,"piecePosition":{"pieceIndex":8,"inPieceDistance":0.9269160916198302,"lane":{"startLaneIndex":0,"endLaneIndex":0},"lap":0}},{"id":{"name":"speedbooster1","color":"blue"},"angle":3.580972183780891,"piecePosition":{"pieceIndex":8,"inPieceDistance":20.976372330842015,"lane":{"startLaneIndex":1,"endLaneIndex":1},"lap":0}}],"gameId":"c67a53fa-4a43-4a64-80ee-4382f4251db4","gameTick":129}


>>>>>>>>>>>>>>>>>>>>>>>>>>>>> 8



THROTTLE = 0.565

{"msgType":"carPositions","data":[{"id":{"name":"speedbooster","color":"red"},"angle":-22.92266846463034,"piecePosition":{"pieceIndex":8,"inPieceDistance":5.277822316908214,"lane":{"startLaneIndex":0,"endLaneIndex":0},"lap":0}},{"id":{"name":"speedbooster1","color":"blue"},"angle":3.0818723996531476,"piecePosition":{"pieceIndex":8,"inPieceDistance":25.299554562577338,"lane":{"startLaneIndex":1,"endLaneIndex":1},"lap":0}}],"gameId":"c67a53fa-4a43-4a64-80ee-4382f4251db4","gameTick":130}


>>>>>>>>>>>>>>>>>>>>>>>>>>>>> 8



THROTTLE = 0.565

{"msgType":"carPositions","data":[{"id":{"name":"speedbooster","color":"red"},"angle":-24.817328648143256,"piecePosition":{"pieceIndex":8,"inPieceDistance":9.616931995070221,"lane":{"startLaneIndex":0,"endLaneIndex":0},"lap":0}},{"id":{"name":"speedbooster1","color":"blue"},"angle":2.6160282239398587,"piecePosition":{"pieceIndex":8,"inPieceDistance":29.652377632817483,"lane":{"startLaneIndex":1,"endLaneIndex":1},"lap":0}}],"gameId":"c67a53fa-4a43-4a64-80ee-4382f4251db4","gameTick":131}


>>>>>>>>>>>>>>>>>>>>>>>>>>>>> 8



THROTTLE = 0.565

{"msgType":"carPositions","data":[{"id":{"name":"speedbooster","color":"red"},"angle":-26.655819433497694,"piecePosition":{"pieceIndex":8,"inPieceDistance":13.944479421440924,"lane":{"startLaneIndex":0,"endLaneIndex":0},"lap":0}},{"id":{"name":"speedbooster1","color":"blue"},"angle":2.182534580790943,"piecePosition":{"pieceIndex":8,"inPieceDistance":34.034252834535316,"lane":{"startLaneIndex":1,"endLaneIndex":1},"lap":0}}],"gameId":"c67a53fa-4a43-4a64-80ee-4382f4251db4","gameTick":132}


>>>>>>>>>>>>>>>>>>>>>>>>>>>>> 8



THROTTLE = 0.565

{"msgType":"carPositions","data":[{"id":{"name":"speedbooster","color":"red"},"angle":-28.42928597436693,"piecePosition":{"pieceIndex":8,"inPieceDistance":18.26069423793406,"lane":{"startLaneIndex":0,"endLaneIndex":0},"lap":0}},{"id":{"name":"speedbooster1","color":"blue"},"angle":1.7804358092613441,"piecePosition":{"pieceIndex":8,"inPieceDistance":38.4446031532192,"lane":{"startLaneIndex":1,"endLaneIndex":1},"lap":0}}],"gameId":"c67a53fa-4a43-4a64-80ee-4382f4251db4","gameTick":133}


>>>>>>>>>>>>>>>>>>>>>>>>>>>>> 8



THROTTLE = 0.565

{"msgType":"carPositions","data":[{"id":{"name":"speedbooster","color":"red"},"angle":-30.130273354220396,"piecePosition":{"pieceIndex":8,"inPieceDistance":22.565801525465265,"lane":{"startLaneIndex":0,"endLaneIndex":0},"lap":0}},{"id":{"name":"speedbooster1","color":"blue"},"angle":1.4078053877831782,"piecePosition":{"pieceIndex":8,"inPieceDistance":42.882863034643876,"lane":{"startLaneIndex":1,"endLaneIndex":1},"lap":0}}],"gameId":"c67a53fa-4a43-4a64-80ee-4382f4251db4","gameTick":134}


>>>>>>>>>>>>>>>>>>>>>>>>>>>>> 8



THROTTLE = 0.565

