{"msgType":"joinRace","data":{"botId":{"name":"speedbooster","key":"w5TYojUOXuT/gw"},"trackName":"germany"}}
{"msgType":"yourCar","data":{"name":"speedbooster","color":"red"},"gameId":"0a72c3be-6df1-482d-a5bc-6f22f65c6a9a"}
{"msgType":"gameInit","data":{"race":{"track":{"id":"germany","name":"Germany","pieces":[{"length":100.0},{"length":100.0,"switch":true},{"radius":50,"angle":45.0},{"radius":50,"angle":45.0},{"radius":50,"angle":45.0},{"length":50.0},{"radius":50,"angle":-45.0},{"radius":50,"angle":-45.0},{"radius":50,"angle":-45.0},{"length":50.0},{"radius":50,"angle":-45.0},{"radius":50,"angle":-45.0},{"radius":100,"angle":-22.5},{"radius":50,"angle":45.0},{"length":100.0,"switch":true},{"length":100.0},{"radius":50,"angle":-45.0},{"length":50.0},{"radius":50,"angle":45.0},{"radius":50,"angle":45.0},{"radius":100,"angle":22.5},{"length":100.0,"switch":true},{"length":100.0},{"radius":50,"angle":45.0},{"radius":50,"angle":45.0},{"radius":50,"angle":45.0},{"radius":50,"angle":45.0},{"length":100.0,"switch":true},{"radius":50,"angle":-45.0},{"radius":50,"angle":-45.0},{"length":50.0},{"radius":100,"angle":22.5},{"length":100.0},{"length":50.0},{"radius":100,"angle":-22.5},{"radius":100,"angle":-22.5},{"length":100.0,"switch":true},{"radius":50,"angle":45.0},{"radius":50,"angle":45.0},{"radius":100,"angle":22.5},{"length":100.0},{"length":100.0},{"length":100.0},{"radius":100,"angle":45.0},{"length":70.0},{"length":100.0,"switch":true},{"radius":50,"angle":-45.0},{"radius":50,"angle":-45.0},{"radius":100,"angle":45.0},{"radius":100,"angle":45.0},{"length":50.0},{"radius":100,"angle":45.0},{"radius":100,"angle":45.0},{"radius":100,"angle":45.0,"switch":true},{"length":100.0},{"length":100.0},{"length":59.0}],"lanes":[{"distanceFromCenter":-10,"index":0},{"distanceFromCenter":10,"index":1}],"startingPoint":{"position":{"x":-12.0,"y":192.0},"angle":-90.0}},"cars":[{"id":{"name":"speedbooster","color":"red"},"dimensions":{"length":40.0,"width":20.0,"guideFlagPosition":10.0}}],"raceSession":{"laps":3,"maxLapTimeMs":60000,"quickRace":true}}},"gameId":"0a72c3be-6df1-482d-a5bc-6f22f65c6a9a"}
{"msgType":"carPositions","data":[{"id":{"name":"speedbooster","color":"red"},"angle":0.0,"piecePosition":{"pieceIndex":0,"inPieceDistance":0.0,"lane":{"startLaneIndex":0,"endLaneIndex":0},"lap":0}}],"gameId":"0a72c3be-6df1-482d-a5bc-6f22f65c6a9a"}


>>>>>>>>>>>>>>>>>>>>>>>>>>>>> 0



THROTTLE = 1

{"msgType":"gameStart","data":null,"gameId":"0a72c3be-6df1-482d-a5bc-6f22f65c6a9a","gameTick":0}
{"msgType":"carPositions","data":[{"id":{"name":"speedbooster","color":"red"},"angle":0.0,"piecePosition":{"pieceIndex":0,"inPieceDistance":0.0,"lane":{"startLaneIndex":0,"endLaneIndex":0},"lap":0}}],"gameId":"0a72c3be-6df1-482d-a5bc-6f22f65c6a9a","gameTick":1}


>>>>>>>>>>>>>>>>>>>>>>>>>>>>> 0



THROTTLE = 1

{"msgType":"carPositions","data":[{"id":{"name":"speedbooster","color":"red"},"angle":0.0,"piecePosition":{"pieceIndex":0,"inPieceDistance":0.0,"lane":{"startLaneIndex":0,"endLaneIndex":0},"lap":0}}],"gameId":"0a72c3be-6df1-482d-a5bc-6f22f65c6a9a","gameTick":2}


>>>>>>>>>>>>>>>>>>>>>>>>>>>>> 0



THROTTLE = 1

{"msgType":"carPositions","data":[{"id":{"name":"speedbooster","color":"red"},"angle":0.0,"piecePosition":{"pieceIndex":0,"inPieceDistance":0.19165582699720307,"lane":{"startLaneIndex":0,"endLaneIndex":0},"lap":0}}],"gameId":"0a72c3be-6df1-482d-a5bc-6f22f65c6a9a","gameTick":3}


>>>>>>>>>>>>>>>>>>>>>>>>>>>>> 0



THROTTLE = 1

{"msgType":"carPositions","data":[{"id":{"name":"speedbooster","color":"red"},"angle":0.0,"piecePosition":{"pieceIndex":0,"inPieceDistance":0.5709871503355969,"lane":{"startLaneIndex":0,"endLaneIndex":0},"lap":0}}],"gameId":"0a72c3be-6df1-482d-a5bc-6f22f65c6a9a","gameTick":4}


>>>>>>>>>>>>>>>>>>>>>>>>>>>>> 0



THROTTLE = 1

{"msgType":"carPositions","data":[{"id":{"name":"speedbooster","color":"red"},"angle":0.0,"piecePosition":{"pieceIndex":0,"inPieceDistance":1.134096303332289,"lane":{"startLaneIndex":0,"endLaneIndex":0},"lap":0}}],"gameId":"0a72c3be-6df1-482d-a5bc-6f22f65c6a9a","gameTick":5}


>>>>>>>>>>>>>>>>>>>>>>>>>>>>> 0



THROTTLE = 1

{"msgType":"carPositions","data":[{"id":{"name":"speedbooster","color":"red"},"angle":0.0,"piecePosition":{"pieceIndex":0,"inPieceDistance":1.8771665665024346,"lane":{"startLaneIndex":0,"endLaneIndex":0},"lap":0}}],"gameId":"0a72c3be-6df1-482d-a5bc-6f22f65c6a9a","gameTick":6}


>>>>>>>>>>>>>>>>>>>>>>>>>>>>> 0



THROTTLE = 1

{"msgType":"carPositions","data":[{"id":{"name":"speedbooster","color":"red"},"angle":0.0,"piecePosition":{"pieceIndex":0,"inPieceDistance":2.7964604864383484,"lane":{"startLaneIndex":0,"endLaneIndex":0},"lap":0}}],"gameId":"0a72c3be-6df1-482d-a5bc-6f22f65c6a9a","gameTick":7}


>>>>>>>>>>>>>>>>>>>>>>>>>>>>> 0



THROTTLE = 1

{"msgType":"carPositions","data":[{"id":{"name":"speedbooster","color":"red"},"angle":0.0,"piecePosition":{"pieceIndex":0,"inPieceDistance":3.8883182296023335,"lane":{"startLaneIndex":0,"endLaneIndex":0},"lap":0}}],"gameId":"0a72c3be-6df1-482d-a5bc-6f22f65c6a9a","gameTick":8}


>>>>>>>>>>>>>>>>>>>>>>>>>>>>> 0



THROTTLE = 1

{"msgType":"carPositions","data":[{"id":{"name":"speedbooster","color":"red"},"angle":0.0,"piecePosition":{"pieceIndex":0,"inPieceDistance":5.149155970308133,"lane":{"startLaneIndex":0,"endLaneIndex":0},"lap":0}}],"gameId":"0a72c3be-6df1-482d-a5bc-6f22f65c6a9a","gameTick":9}


>>>>>>>>>>>>>>>>>>>>>>>>>>>>> 0



THROTTLE = 1

{"msgType":"carPositions","data":[{"id":{"name":"speedbooster","color":"red"},"angle":0.0,"piecePosition":{"pieceIndex":0,"inPieceDistance":6.575464312180971,"lane":{"startLaneIndex":0,"endLaneIndex":0},"lap":0}}],"gameId":"0a72c3be-6df1-482d-a5bc-6f22f65c6a9a","gameTick":10}


>>>>>>>>>>>>>>>>>>>>>>>>>>>>> 0



THROTTLE = 1

{"msgType":"carPositions","data":[{"id":{"name":"speedbooster","color":"red"},"angle":0.0,"piecePosition":{"pieceIndex":0,"inPieceDistance":8.163806742400899,"lane":{"startLaneIndex":0,"endLaneIndex":0},"lap":0}}],"gameId":"0a72c3be-6df1-482d-a5bc-6f22f65c6a9a","gameTick":11}


>>>>>>>>>>>>>>>>>>>>>>>>>>>>> 0



THROTTLE = 1

{"msgType":"carPositions","data":[{"id":{"name":"speedbooster","color":"red"},"angle":0.0,"piecePosition":{"pieceIndex":0,"inPieceDistance":9.910818118048592,"lane":{"startLaneIndex":0,"endLaneIndex":0},"lap":0}}],"gameId":"0a72c3be-6df1-482d-a5bc-6f22f65c6a9a","gameTick":12}


>>>>>>>>>>>>>>>>>>>>>>>>>>>>> 0



THROTTLE = 1

{"msgType":"carPositions","data":[{"id":{"name":"speedbooster","color":"red"},"angle":0.0,"piecePosition":{"pieceIndex":0,"inPieceDistance":11.813203183886896,"lane":{"startLaneIndex":0,"endLaneIndex":0},"lap":0}}],"gameId":"0a72c3be-6df1-482d-a5bc-6f22f65c6a9a","gameTick":13}


>>>>>>>>>>>>>>>>>>>>>>>>>>>>> 0



THROTTLE = 1

{"msgType":"carPositions","data":[{"id":{"name":"speedbooster","color":"red"},"angle":0.0,"piecePosition":{"pieceIndex":0,"inPieceDistance":13.867735120925268,"lane":{"startLaneIndex":0,"endLaneIndex":0},"lap":0}}],"gameId":"0a72c3be-6df1-482d-a5bc-6f22f65c6a9a","gameTick":14}


>>>>>>>>>>>>>>>>>>>>>>>>>>>>> 0



THROTTLE = 1

{"msgType":"carPositions","data":[{"id":{"name":"speedbooster","color":"red"},"angle":0.0,"piecePosition":{"pieceIndex":0,"inPieceDistance":16.07125412512778,"lane":{"startLaneIndex":0,"endLaneIndex":0},"lap":0}}],"gameId":"0a72c3be-6df1-482d-a5bc-6f22f65c6a9a","gameTick":15}


>>>>>>>>>>>>>>>>>>>>>>>>>>>>> 0



THROTTLE = 1

{"msgType":"carPositions","data":[{"id":{"name":"speedbooster","color":"red"},"angle":0.0,"piecePosition":{"pieceIndex":0,"inPieceDistance":18.420666015638712,"lane":{"startLaneIndex":0,"endLaneIndex":0},"lap":0}}],"gameId":"0a72c3be-6df1-482d-a5bc-6f22f65c6a9a","gameTick":16}


>>>>>>>>>>>>>>>>>>>>>>>>>>>>> 0



THROTTLE = 1

{"msgType":"carPositions","data":[{"id":{"name":"speedbooster","color":"red"},"angle":0.0,"piecePosition":{"pieceIndex":0,"inPieceDistance":20.912940871912646,"lane":{"startLaneIndex":0,"endLaneIndex":0},"lap":0}}],"gameId":"0a72c3be-6df1-482d-a5bc-6f22f65c6a9a","gameTick":17}


>>>>>>>>>>>>>>>>>>>>>>>>>>>>> 0



THROTTLE = 1

{"msgType":"carPositions","data":[{"id":{"name":"speedbooster","color":"red"},"angle":0.0,"piecePosition":{"pieceIndex":0,"inPieceDistance":23.545111699148826,"lane":{"startLaneIndex":0,"endLaneIndex":0},"lap":0}}],"gameId":"0a72c3be-6df1-482d-a5bc-6f22f65c6a9a","gameTick":18}


>>>>>>>>>>>>>>>>>>>>>>>>>>>>> 0



THROTTLE = 1

{"msgType":"carPositions","data":[{"id":{"name":"speedbooster","color":"red"},"angle":0.0,"piecePosition":{"pieceIndex":0,"inPieceDistance":26.31427312144192,"lane":{"startLaneIndex":0,"endLaneIndex":0},"lap":0}}],"gameId":"0a72c3be-6df1-482d-a5bc-6f22f65c6a9a","gameTick":19}


>>>>>>>>>>>>>>>>>>>>>>>>>>>>> 0



THROTTLE = 1

{"msgType":"carPositions","data":[{"id":{"name":"speedbooster","color":"red"},"angle":0.0,"piecePosition":{"pieceIndex":0,"inPieceDistance":29.217580102073597,"lane":{"startLaneIndex":0,"endLaneIndex":0},"lap":0}}],"gameId":"0a72c3be-6df1-482d-a5bc-6f22f65c6a9a","gameTick":20}


>>>>>>>>>>>>>>>>>>>>>>>>>>>>> 0



THROTTLE = 1

{"msgType":"carPositions","data":[{"id":{"name":"speedbooster","color":"red"},"angle":0.0,"piecePosition":{"pieceIndex":0,"inPieceDistance":32.252246690381206,"lane":{"startLaneIndex":0,"endLaneIndex":0},"lap":0}}],"gameId":"0a72c3be-6df1-482d-a5bc-6f22f65c6a9a","gameTick":21}


>>>>>>>>>>>>>>>>>>>>>>>>>>>>> 0



THROTTLE = 1

{"msgType":"carPositions","data":[{"id":{"name":"speedbooster","color":"red"},"angle":0.0,"piecePosition":{"pieceIndex":0,"inPieceDistance":35.415544794651666,"lane":{"startLaneIndex":0,"endLaneIndex":0},"lap":0}}],"gameId":"0a72c3be-6df1-482d-a5bc-6f22f65c6a9a","gameTick":22}


>>>>>>>>>>>>>>>>>>>>>>>>>>>>> 0



THROTTLE = 1

{"msgType":"carPositions","data":[{"id":{"name":"speedbooster","color":"red"},"angle":0.0,"piecePosition":{"pieceIndex":0,"inPieceDistance":38.704802980500034,"lane":{"startLaneIndex":0,"endLaneIndex":0},"lap":0}}],"gameId":"0a72c3be-6df1-482d-a5bc-6f22f65c6a9a","gameTick":23}


>>>>>>>>>>>>>>>>>>>>>>>>>>>>> 0



THROTTLE = 1

{"msgType":"carPositions","data":[{"id":{"name":"speedbooster","color":"red"},"angle":0.0,"piecePosition":{"pieceIndex":0,"inPieceDistance":42.11740529420346,"lane":{"startLaneIndex":0,"endLaneIndex":0},"lap":0}}],"gameId":"0a72c3be-6df1-482d-a5bc-6f22f65c6a9a","gameTick":24}


>>>>>>>>>>>>>>>>>>>>>>>>>>>>> 0



THROTTLE = 1

{"msgType":"carPositions","data":[{"id":{"name":"speedbooster","color":"red"},"angle":0.0,"piecePosition":{"pieceIndex":0,"inPieceDistance":45.650790110472315,"lane":{"startLaneIndex":0,"endLaneIndex":0},"lap":0}}],"gameId":"0a72c3be-6df1-482d-a5bc-6f22f65c6a9a","gameTick":25}


>>>>>>>>>>>>>>>>>>>>>>>>>>>>> 0



THROTTLE = 1

{"msgType":"carPositions","data":[{"id":{"name":"speedbooster","color":"red"},"angle":0.0,"piecePosition":{"pieceIndex":0,"inPieceDistance":49.30244900415093,"lane":{"startLaneIndex":0,"endLaneIndex":0},"lap":0}}],"gameId":"0a72c3be-6df1-482d-a5bc-6f22f65c6a9a","gameTick":26}


>>>>>>>>>>>>>>>>>>>>>>>>>>>>> 0



THROTTLE = 1

{"msgType":"carPositions","data":[{"id":{"name":"speedbooster","color":"red"},"angle":0.0,"piecePosition":{"pieceIndex":0,"inPieceDistance":53.06992564535097,"lane":{"startLaneIndex":0,"endLaneIndex":0},"lap":0}}],"gameId":"0a72c3be-6df1-482d-a5bc-6f22f65c6a9a","gameTick":27}


>>>>>>>>>>>>>>>>>>>>>>>>>>>>> 0



THROTTLE = 1

{"msgType":"carPositions","data":[{"id":{"name":"speedbooster","color":"red"},"angle":0.0,"piecePosition":{"pieceIndex":0,"inPieceDistance":56.95081471753085,"lane":{"startLaneIndex":0,"endLaneIndex":0},"lap":0}}],"gameId":"0a72c3be-6df1-482d-a5bc-6f22f65c6a9a","gameTick":28}


>>>>>>>>>>>>>>>>>>>>>>>>>>>>> 0



THROTTLE = 1

{"msgType":"carPositions","data":[{"id":{"name":"speedbooster","color":"red"},"angle":0.0,"piecePosition":{"pieceIndex":0,"inPieceDistance":60.94276085804453,"lane":{"startLaneIndex":0,"endLaneIndex":0},"lap":0}}],"gameId":"0a72c3be-6df1-482d-a5bc-6f22f65c6a9a","gameTick":29}


>>>>>>>>>>>>>>>>>>>>>>>>>>>>> 0



THROTTLE = 1

{"msgType":"carPositions","data":[{"id":{"name":"speedbooster","color":"red"},"angle":0.0,"piecePosition":{"pieceIndex":0,"inPieceDistance":65.04345762069322,"lane":{"startLaneIndex":0,"endLaneIndex":0},"lap":0}}],"gameId":"0a72c3be-6df1-482d-a5bc-6f22f65c6a9a","gameTick":30}


>>>>>>>>>>>>>>>>>>>>>>>>>>>>> 0



THROTTLE = 1

{"msgType":"carPositions","data":[{"id":{"name":"speedbooster","color":"red"},"angle":0.0,"piecePosition":{"pieceIndex":0,"inPieceDistance":69.25064645982283,"lane":{"startLaneIndex":0,"endLaneIndex":0},"lap":0}}],"gameId":"0a72c3be-6df1-482d-a5bc-6f22f65c6a9a","gameTick":31}


>>>>>>>>>>>>>>>>>>>>>>>>>>>>> 0



THROTTLE = 1

{"msgType":"carPositions","data":[{"id":{"name":"speedbooster","color":"red"},"angle":0.0,"piecePosition":{"pieceIndex":0,"inPieceDistance":73.56211573551988,"lane":{"startLaneIndex":0,"endLaneIndex":0},"lap":0}}],"gameId":"0a72c3be-6df1-482d-a5bc-6f22f65c6a9a","gameTick":32}


>>>>>>>>>>>>>>>>>>>>>>>>>>>>> 0



THROTTLE = 1

{"msgType":"carPositions","data":[{"id":{"name":"speedbooster","color":"red"},"angle":0.0,"piecePosition":{"pieceIndex":0,"inPieceDistance":77.97569973946756,"lane":{"startLaneIndex":0,"endLaneIndex":0},"lap":0}}],"gameId":"0a72c3be-6df1-482d-a5bc-6f22f65c6a9a","gameTick":33}


>>>>>>>>>>>>>>>>>>>>>>>>>>>>> 0



THROTTLE = 1

{"msgType":"carPositions","data":[{"id":{"name":"speedbooster","color":"red"},"angle":0.0,"piecePosition":{"pieceIndex":0,"inPieceDistance":82.48927774103298,"lane":{"startLaneIndex":0,"endLaneIndex":0},"lap":0}}],"gameId":"0a72c3be-6df1-482d-a5bc-6f22f65c6a9a","gameTick":34}


>>>>>>>>>>>>>>>>>>>>>>>>>>>>> 0



THROTTLE = 1

{"msgType":"carPositions","data":[{"id":{"name":"speedbooster","color":"red"},"angle":0.0,"piecePosition":{"pieceIndex":0,"inPieceDistance":87.10077305316533,"lane":{"startLaneIndex":0,"endLaneIndex":0},"lap":0}}],"gameId":"0a72c3be-6df1-482d-a5bc-6f22f65c6a9a","gameTick":35}


>>>>>>>>>>>>>>>>>>>>>>>>>>>>> 0



THROTTLE = 1

{"msgType":"carPositions","data":[{"id":{"name":"speedbooster","color":"red"},"angle":0.0,"piecePosition":{"pieceIndex":0,"inPieceDistance":91.80815211769365,"lane":{"startLaneIndex":0,"endLaneIndex":0},"lap":0}}],"gameId":"0a72c3be-6df1-482d-a5bc-6f22f65c6a9a","gameTick":36}


>>>>>>>>>>>>>>>>>>>>>>>>>>>>> 0



THROTTLE = 0.9

{"msgType":"carPositions","data":[{"id":{"name":"speedbooster","color":"red"},"angle":0.0,"piecePosition":{"pieceIndex":0,"inPieceDistance":96.59025802692146,"lane":{"startLaneIndex":0,"endLaneIndex":0},"lap":0}}],"gameId":"0a72c3be-6df1-482d-a5bc-6f22f65c6a9a","gameTick":37}


>>>>>>>>>>>>>>>>>>>>>>>>>>>>> 0



THROTTLE = 0.8

{"msgType":"carPositions","data":[{"id":{"name":"speedbooster","color":"red"},"angle":0.0,"piecePosition":{"pieceIndex":1,"inPieceDistance":1.426373262288564,"lane":{"startLaneIndex":0,"endLaneIndex":0},"lap":0}}],"gameId":"0a72c3be-6df1-482d-a5bc-6f22f65c6a9a","gameTick":38}


>>>>>>>>>>>>>>>>>>>>>>>>>>>>> 1



THROTTLE = 0.7

{"msgType":"carPositions","data":[{"id":{"name":"speedbooster","color":"red"},"angle":0.0,"piecePosition":{"pieceIndex":1,"inPieceDistance":6.296210569086039,"lane":{"startLaneIndex":0,"endLaneIndex":0},"lap":0}}],"gameId":"0a72c3be-6df1-482d-a5bc-6f22f65c6a9a","gameTick":39}


>>>>>>>>>>>>>>>>>>>>>>>>>>>>> 1



THROTTLE = 0.6

{"msgType":"carPositions","data":[{"id":{"name":"speedbooster","color":"red"},"angle":0.0,"piecePosition":{"pieceIndex":1,"inPieceDistance":11.179904020686195,"lane":{"startLaneIndex":0,"endLaneIndex":0},"lap":0}}],"gameId":"0a72c3be-6df1-482d-a5bc-6f22f65c6a9a","gameTick":40}


>>>>>>>>>>>>>>>>>>>>>>>>>>>>> 1



THROTTLE = 0.5

{"msgType":"carPositions","data":[{"id":{"name":"speedbooster","color":"red"},"angle":0.0,"piecePosition":{"pieceIndex":1,"inPieceDistance":16.058000268351634,"lane":{"startLaneIndex":0,"endLaneIndex":0},"lap":0}}],"gameId":"0a72c3be-6df1-482d-a5bc-6f22f65c6a9a","gameTick":41}


>>>>>>>>>>>>>>>>>>>>>>>>>>>>> 1



THROTTLE = 0.4

{"msgType":"carPositions","data":[{"id":{"name":"speedbooster","color":"red"},"angle":0.0,"piecePosition":{"pieceIndex":1,"inPieceDistance":20.91144997276933,"lane":{"startLaneIndex":0,"endLaneIndex":0},"lap":0}}],"gameId":"0a72c3be-6df1-482d-a5bc-6f22f65c6a9a","gameTick":42}


>>>>>>>>>>>>>>>>>>>>>>>>>>>>> 1



THROTTLE = 0.3

{"msgType":"carPositions","data":[{"id":{"name":"speedbooster","color":"red"},"angle":0.0,"piecePosition":{"pieceIndex":1,"inPieceDistance":25.721599413535586,"lane":{"startLaneIndex":0,"endLaneIndex":0},"lap":0}}],"gameId":"0a72c3be-6df1-482d-a5bc-6f22f65c6a9a","gameTick":43}


>>>>>>>>>>>>>>>>>>>>>>>>>>>>> 1



THROTTLE = 0.2

{"msgType":"carPositions","data":[{"id":{"name":"speedbooster","color":"red"},"angle":0.0,"piecePosition":{"pieceIndex":1,"inPieceDistance":30.470182272896217,"lane":{"startLaneIndex":0,"endLaneIndex":0},"lap":0}}],"gameId":"0a72c3be-6df1-482d-a5bc-6f22f65c6a9a","gameTick":44}


>>>>>>>>>>>>>>>>>>>>>>>>>>>>> 1



THROTTLE = 0.1

{"msgType":"carPositions","data":[{"id":{"name":"speedbooster","color":"red"},"angle":0.0,"piecePosition":{"pieceIndex":1,"inPieceDistance":35.139311590122944,"lane":{"startLaneIndex":0,"endLaneIndex":0},"lap":0}}],"gameId":"0a72c3be-6df1-482d-a5bc-6f22f65c6a9a","gameTick":45}


>>>>>>>>>>>>>>>>>>>>>>>>>>>>> 1



THROTTLE = 1.3877787807814E-16

{"msgType":"carPositions","data":[{"id":{"name":"speedbooster","color":"red"},"angle":0.0,"piecePosition":{"pieceIndex":1,"inPieceDistance":39.71147188298229,"lane":{"startLaneIndex":0,"endLaneIndex":0},"lap":0}}],"gameId":"0a72c3be-6df1-482d-a5bc-6f22f65c6a9a","gameTick":46}


>>>>>>>>>>>>>>>>>>>>>>>>>>>>> 1



THROTTLE = 1.3877787807814E-16

{"msgType":"carPositions","data":[{"id":{"name":"speedbooster","color":"red"},"angle":0.0,"piecePosition":{"pieceIndex":1,"inPieceDistance":44.18867701552639,"lane":{"startLaneIndex":0,"endLaneIndex":0},"lap":0}}],"gameId":"0a72c3be-6df1-482d-a5bc-6f22f65c6a9a","gameTick":47}


>>>>>>>>>>>>>>>>>>>>>>>>>>>>> 1



THROTTLE = 1.3877787807814E-16

{"msgType":"carPositions","data":[{"id":{"name":"speedbooster","color":"red"},"angle":0.0,"piecePosition":{"pieceIndex":1,"inPieceDistance":48.57289902764295,"lane":{"startLaneIndex":0,"endLaneIndex":0},"lap":0}}],"gameId":"0a72c3be-6df1-482d-a5bc-6f22f65c6a9a","gameTick":48}


>>>>>>>>>>>>>>>>>>>>>>>>>>>>> 1



THROTTLE = 1.3877787807814E-16

{"msgType":"carPositions","data":[{"id":{"name":"speedbooster","color":"red"},"angle":0.0,"piecePosition":{"pieceIndex":1,"inPieceDistance":52.86606900366437,"lane":{"startLaneIndex":0,"endLaneIndex":0},"lap":0}}],"gameId":"0a72c3be-6df1-482d-a5bc-6f22f65c6a9a","gameTick":49}


>>>>>>>>>>>>>>>>>>>>>>>>>>>>> 1



THROTTLE = 1.3877787807814E-16

{"msgType":"carPositions","data":[{"id":{"name":"speedbooster","color":"red"},"angle":0.0,"piecePosition":{"pieceIndex":1,"inPieceDistance":57.07007792293755,"lane":{"startLaneIndex":0,"endLaneIndex":0},"lap":0}}],"gameId":"0a72c3be-6df1-482d-a5bc-6f22f65c6a9a","gameTick":50}


>>>>>>>>>>>>>>>>>>>>>>>>>>>>> 1



THROTTLE = 1.3877787807814E-16

{"msgType":"carPositions","data":[{"id":{"name":"speedbooster","color":"red"},"angle":0.0,"piecePosition":{"pieceIndex":1,"inPieceDistance":61.18677749272887,"lane":{"startLaneIndex":0,"endLaneIndex":0},"lap":0}}],"gameId":"0a72c3be-6df1-482d-a5bc-6f22f65c6a9a","gameTick":51}


>>>>>>>>>>>>>>>>>>>>>>>>>>>>> 1



THROTTLE = 1.3877787807814E-16

{"msgType":"carPositions","data":[{"id":{"name":"speedbooster","color":"red"},"angle":0.0,"piecePosition":{"pieceIndex":1,"inPieceDistance":65.21798096383141,"lane":{"startLaneIndex":0,"endLaneIndex":0},"lap":0}}],"gameId":"0a72c3be-6df1-482d-a5bc-6f22f65c6a9a","gameTick":52}


>>>>>>>>>>>>>>>>>>>>>>>>>>>>> 1



THROTTLE = 1.3877787807814E-16

{"msgType":"carPositions","data":[{"id":{"name":"speedbooster","color":"red"},"angle":0.0,"piecePosition":{"pieceIndex":1,"inPieceDistance":69.16546392923345,"lane":{"startLaneIndex":0,"endLaneIndex":0},"lap":0}}],"gameId":"0a72c3be-6df1-482d-a5bc-6f22f65c6a9a","gameTick":53}


>>>>>>>>>>>>>>>>>>>>>>>>>>>>> 1



THROTTLE = 1.3877787807814E-16

{"msgType":"carPositions","data":[{"id":{"name":"speedbooster","color":"red"},"angle":0.0,"piecePosition":{"pieceIndex":1,"inPieceDistance":73.0309651062002,"lane":{"startLaneIndex":0,"endLaneIndex":0},"lap":0}}],"gameId":"0a72c3be-6df1-482d-a5bc-6f22f65c6a9a","gameTick":54}


>>>>>>>>>>>>>>>>>>>>>>>>>>>>> 1



THROTTLE = 1.3877787807814E-16

{"msgType":"carPositions","data":[{"id":{"name":"speedbooster","color":"red"},"angle":0.0,"piecePosition":{"pieceIndex":1,"inPieceDistance":76.8161871021131,"lane":{"startLaneIndex":0,"endLaneIndex":0},"lap":0}}],"gameId":"0a72c3be-6df1-482d-a5bc-6f22f65c6a9a","gameTick":55}


>>>>>>>>>>>>>>>>>>>>>>>>>>>>> 1



THROTTLE = 1.3877787807814E-16

{"msgType":"carPositions","data":[{"id":{"name":"speedbooster","color":"red"},"angle":0.0,"piecePosition":{"pieceIndex":1,"inPieceDistance":80.52279716440417,"lane":{"startLaneIndex":0,"endLaneIndex":0},"lap":0}}],"gameId":"0a72c3be-6df1-482d-a5bc-6f22f65c6a9a","gameTick":56}


>>>>>>>>>>>>>>>>>>>>>>>>>>>>> 1



THROTTLE = 1.3877787807814E-16

{"msgType":"carPositions","data":[{"id":{"name":"speedbooster","color":"red"},"angle":0.0,"piecePosition":{"pieceIndex":1,"inPieceDistance":84.15242791491549,"lane":{"startLaneIndex":0,"endLaneIndex":0},"lap":0}}],"gameId":"0a72c3be-6df1-482d-a5bc-6f22f65c6a9a","gameTick":57}


>>>>>>>>>>>>>>>>>>>>>>>>>>>>> 1



THROTTLE = 1.3877787807814E-16

{"msgType":"carPositions","data":[{"id":{"name":"speedbooster","color":"red"},"angle":0.0,"piecePosition":{"pieceIndex":1,"inPieceDistance":87.70667806900761,"lane":{"startLaneIndex":0,"endLaneIndex":0},"lap":0}}],"gameId":"0a72c3be-6df1-482d-a5bc-6f22f65c6a9a","gameTick":58}


>>>>>>>>>>>>>>>>>>>>>>>>>>>>> 1



THROTTLE = 1.3877787807814E-16

{"msgType":"carPositions","data":[{"id":{"name":"speedbooster","color":"red"},"angle":0.0,"piecePosition":{"pieceIndex":1,"inPieceDistance":91.18711313973326,"lane":{"startLaneIndex":0,"endLaneIndex":0},"lap":0}}],"gameId":"0a72c3be-6df1-482d-a5bc-6f22f65c6a9a","gameTick":59}


>>>>>>>>>>>>>>>>>>>>>>>>>>>>> 1



THROTTLE = 1.3877787807814E-16

{"msgType":"carPositions","data":[{"id":{"name":"speedbooster","color":"red"},"angle":0.0,"piecePosition":{"pieceIndex":1,"inPieceDistance":94.59526612738676,"lane":{"startLaneIndex":0,"endLaneIndex":0},"lap":0}}],"gameId":"0a72c3be-6df1-482d-a5bc-6f22f65c6a9a","gameTick":60}


>>>>>>>>>>>>>>>>>>>>>>>>>>>>> 1



THROTTLE = 1.3877787807814E-16

{"msgType":"carPositions","data":[{"id":{"name":"speedbooster","color":"red"},"angle":0.0,"piecePosition":{"pieceIndex":1,"inPieceDistance":97.93263819473287,"lane":{"startLaneIndex":0,"endLaneIndex":0},"lap":0}}],"gameId":"0a72c3be-6df1-482d-a5bc-6f22f65c6a9a","gameTick":61}


>>>>>>>>>>>>>>>>>>>>>>>>>>>>> 1



THROTTLE = 1.3877787807814E-16

{"msgType":"carPositions","data":[{"id":{"name":"speedbooster","color":"red"},"angle":0.0,"piecePosition":{"pieceIndex":2,"inPieceDistance":1.2006993282122522,"lane":{"startLaneIndex":0,"endLaneIndex":0},"lap":0}}],"gameId":"0a72c3be-6df1-482d-a5bc-6f22f65c6a9a","gameTick":62}


>>>>>>>>>>>>>>>>>>>>>>>>>>>>> 2



THROTTLE = 0.365

{"msgType":"carPositions","data":[{"id":{"name":"speedbooster","color":"red"},"angle":0.0,"piecePosition":{"pieceIndex":2,"inPieceDistance":4.470843362269027,"lane":{"startLaneIndex":0,"endLaneIndex":0},"lap":0}}],"gameId":"0a72c3be-6df1-482d-a5bc-6f22f65c6a9a","gameTick":63}


>>>>>>>>>>>>>>>>>>>>>>>>>>>>> 2



THROTTLE = 0.365

{"msgType":"carPositions","data":[{"id":{"name":"speedbooster","color":"red"},"angle":0.0,"piecePosition":{"pieceIndex":2,"inPieceDistance":7.743027038980115,"lane":{"startLaneIndex":0,"endLaneIndex":0},"lap":0}}],"gameId":"0a72c3be-6df1-482d-a5bc-6f22f65c6a9a","gameTick":64}


>>>>>>>>>>>>>>>>>>>>>>>>>>>>> 2



THROTTLE = 0.365

{"msgType":"carPositions","data":[{"id":{"name":"speedbooster","color":"red"},"angle":0.0,"piecePosition":{"pieceIndex":2,"inPieceDistance":11.01720799880805,"lane":{"startLaneIndex":0,"endLaneIndex":0},"lap":0}}],"gameId":"0a72c3be-6df1-482d-a5bc-6f22f65c6a9a","gameTick":65}


>>>>>>>>>>>>>>>>>>>>>>>>>>>>> 2



THROTTLE = 0.365

{"msgType":"carPositions","data":[{"id":{"name":"speedbooster","color":"red"},"angle":0.0,"piecePosition":{"pieceIndex":2,"inPieceDistance":14.293344761943203,"lane":{"startLaneIndex":0,"endLaneIndex":0},"lap":0}}],"gameId":"0a72c3be-6df1-482d-a5bc-6f22f65c6a9a","gameTick":66}


>>>>>>>>>>>>>>>>>>>>>>>>>>>>> 2



THROTTLE = 0.365

{"msgType":"carPositions","data":[{"id":{"name":"speedbooster","color":"red"},"angle":0.0,"piecePosition":{"pieceIndex":2,"inPieceDistance":17.571396710033483,"lane":{"startLaneIndex":0,"endLaneIndex":0},"lap":0}}],"gameId":"0a72c3be-6df1-482d-a5bc-6f22f65c6a9a","gameTick":67}


>>>>>>>>>>>>>>>>>>>>>>>>>>>>> 2



THROTTLE = 0.365

{"msgType":"carPositions","data":[{"id":{"name":"speedbooster","color":"red"},"angle":0.0,"piecePosition":{"pieceIndex":2,"inPieceDistance":20.851324068293493,"lane":{"startLaneIndex":0,"endLaneIndex":0},"lap":0}}],"gameId":"0a72c3be-6df1-482d-a5bc-6f22f65c6a9a","gameTick":68}


>>>>>>>>>>>>>>>>>>>>>>>>>>>>> 2



THROTTLE = 0.365

{"msgType":"carPositions","data":[{"id":{"name":"speedbooster","color":"red"},"angle":0.0,"piecePosition":{"pieceIndex":2,"inPieceDistance":24.133087887985237,"lane":{"startLaneIndex":0,"endLaneIndex":0},"lap":0}}],"gameId":"0a72c3be-6df1-482d-a5bc-6f22f65c6a9a","gameTick":69}


>>>>>>>>>>>>>>>>>>>>>>>>>>>>> 2



THROTTLE = 0.365

{"msgType":"carPositions","data":[{"id":{"name":"speedbooster","color":"red"},"angle":0.0,"piecePosition":{"pieceIndex":2,"inPieceDistance":27.41665002926267,"lane":{"startLaneIndex":0,"endLaneIndex":0},"lap":0}}],"gameId":"0a72c3be-6df1-482d-a5bc-6f22f65c6a9a","gameTick":70}


>>>>>>>>>>>>>>>>>>>>>>>>>>>>> 2



THROTTLE = 0.365

{"msgType":"carPositions","data":[{"id":{"name":"speedbooster","color":"red"},"angle":0.0,"piecePosition":{"pieceIndex":2,"inPieceDistance":30.701973144372534,"lane":{"startLaneIndex":0,"endLaneIndex":0},"lap":0}}],"gameId":"0a72c3be-6df1-482d-a5bc-6f22f65c6a9a","gameTick":71}


>>>>>>>>>>>>>>>>>>>>>>>>>>>>> 2



THROTTLE = 0.365

{"msgType":"carPositions","data":[{"id":{"name":"speedbooster","color":"red"},"angle":0.0,"piecePosition":{"pieceIndex":2,"inPieceDistance":33.98902066120409,"lane":{"startLaneIndex":0,"endLaneIndex":0},"lap":0}}],"gameId":"0a72c3be-6df1-482d-a5bc-6f22f65c6a9a","gameTick":72}


>>>>>>>>>>>>>>>>>>>>>>>>>>>>> 2



THROTTLE = 0.365

{"msgType":"carPositions","data":[{"id":{"name":"speedbooster","color":"red"},"angle":0.0,"piecePosition":{"pieceIndex":2,"inPieceDistance":37.27775676718046,"lane":{"startLaneIndex":0,"endLaneIndex":0},"lap":0}}],"gameId":"0a72c3be-6df1-482d-a5bc-6f22f65c6a9a","gameTick":73}


>>>>>>>>>>>>>>>>>>>>>>>>>>>>> 2



THROTTLE = 0.365

{"msgType":"carPositions","data":[{"id":{"name":"speedbooster","color":"red"},"angle":0.0,"piecePosition":{"pieceIndex":2,"inPieceDistance":40.56814639348459,"lane":{"startLaneIndex":0,"endLaneIndex":0},"lap":0}}],"gameId":"0a72c3be-6df1-482d-a5bc-6f22f65c6a9a","gameTick":74}


>>>>>>>>>>>>>>>>>>>>>>>>>>>>> 2



THROTTLE = 0.365

{"msgType":"carPositions","data":[{"id":{"name":"speedbooster","color":"red"},"angle":0.0,"piecePosition":{"pieceIndex":2,"inPieceDistance":43.860155199612684,"lane":{"startLaneIndex":0,"endLaneIndex":0},"lap":0}}],"gameId":"0a72c3be-6df1-482d-a5bc-6f22f65c6a9a","gameTick":75}


>>>>>>>>>>>>>>>>>>>>>>>>>>>>> 2



THROTTLE = 0.365

{"msgType":"carPositions","data":[{"id":{"name":"speedbooster","color":"red"},"angle":0.0,"piecePosition":{"pieceIndex":3,"inPieceDistance":0.029859754401684313,"lane":{"startLaneIndex":0,"endLaneIndex":0},"lap":0}}],"gameId":"0a72c3be-6df1-482d-a5bc-6f22f65c6a9a","gameTick":76}


>>>>>>>>>>>>>>>>>>>>>>>>>>>>> 3



THROTTLE = 0.365

{"msgType":"carPositions","data":[{"id":{"name":"speedbooster","color":"red"},"angle":0.0,"piecePosition":{"pieceIndex":3,"inPieceDistance":3.3250067366052365,"lane":{"startLaneIndex":0,"endLaneIndex":0},"lap":0}}],"gameId":"0a72c3be-6df1-482d-a5bc-6f22f65c6a9a","gameTick":77}


>>>>>>>>>>>>>>>>>>>>>>>>>>>>> 3



THROTTLE = 0.365

{"msgType":"carPositions","data":[{"id":{"name":"speedbooster","color":"red"},"angle":0.0,"piecePosition":{"pieceIndex":3,"inPieceDistance":6.621674097308402,"lane":{"startLaneIndex":0,"endLaneIndex":0},"lap":0}}],"gameId":"0a72c3be-6df1-482d-a5bc-6f22f65c6a9a","gameTick":78}


>>>>>>>>>>>>>>>>>>>>>>>>>>>>> 3



THROTTLE = 0.365

{"msgType":"carPositions","data":[{"id":{"name":"speedbooster","color":"red"},"angle":0.0,"piecePosition":{"pieceIndex":3,"inPieceDistance":9.919830261112478,"lane":{"startLaneIndex":0,"endLaneIndex":0},"lap":0}}],"gameId":"0a72c3be-6df1-482d-a5bc-6f22f65c6a9a","gameTick":79}


>>>>>>>>>>>>>>>>>>>>>>>>>>>>> 3



THROTTLE = 0.365

{"msgType":"carPositions","data":[{"id":{"name":"speedbooster","color":"red"},"angle":0.0,"piecePosition":{"pieceIndex":3,"inPieceDistance":13.219444308380345,"lane":{"startLaneIndex":0,"endLaneIndex":0},"lap":0}}],"gameId":"0a72c3be-6df1-482d-a5bc-6f22f65c6a9a","gameTick":80}


>>>>>>>>>>>>>>>>>>>>>>>>>>>>> 3



THROTTLE = 0.365

{"msgType":"carPositions","data":[{"id":{"name":"speedbooster","color":"red"},"angle":0.0,"piecePosition":{"pieceIndex":3,"inPieceDistance":16.52048596161752,"lane":{"startLaneIndex":0,"endLaneIndex":0},"lap":0}}],"gameId":"0a72c3be-6df1-482d-a5bc-6f22f65c6a9a","gameTick":81}


>>>>>>>>>>>>>>>>>>>>>>>>>>>>> 3



THROTTLE = 0.565

{"msgType":"carPositions","data":[{"id":{"name":"speedbooster","color":"red"},"angle":0.0,"piecePosition":{"pieceIndex":3,"inPieceDistance":19.861256737535516,"lane":{"startLaneIndex":0,"endLaneIndex":0},"lap":0}}],"gameId":"0a72c3be-6df1-482d-a5bc-6f22f65c6a9a","gameTick":82}


>>>>>>>>>>>>>>>>>>>>>>>>>>>>> 3



THROTTLE = 0.765

{"msgType":"carPositions","data":[{"id":{"name":"speedbooster","color":"red"},"angle":0.0,"piecePosition":{"pieceIndex":3,"inPieceDistance":23.279262702462066,"lane":{"startLaneIndex":0,"endLaneIndex":0},"lap":0}}],"gameId":"0a72c3be-6df1-482d-a5bc-6f22f65c6a9a","gameTick":83}


>>>>>>>>>>>>>>>>>>>>>>>>>>>>> 3



THROTTLE = 0.965

{"msgType":"carPositions","data":[{"id":{"name":"speedbooster","color":"red"},"angle":0.0,"piecePosition":{"pieceIndex":3,"inPieceDistance":26.81123099234783,"lane":{"startLaneIndex":0,"endLaneIndex":0},"lap":0}}],"gameId":"0a72c3be-6df1-482d-a5bc-6f22f65c6a9a","gameTick":84}


>>>>>>>>>>>>>>>>>>>>>>>>>>>>> 3



THROTTLE = 1

{"msgType":"carPositions","data":[{"id":{"name":"speedbooster","color":"red"},"angle":0.0,"piecePosition":{"pieceIndex":3,"inPieceDistance":30.46150277822914,"lane":{"startLaneIndex":0,"endLaneIndex":0},"lap":0}}],"gameId":"0a72c3be-6df1-482d-a5bc-6f22f65c6a9a","gameTick":85}


>>>>>>>>>>>>>>>>>>>>>>>>>>>>> 3



THROTTLE = 1

{"msgType":"carPositions","data":[{"id":{"name":"speedbooster","color":"red"},"angle":0.0,"piecePosition":{"pieceIndex":3,"inPieceDistance":34.22762111924903,"lane":{"startLaneIndex":0,"endLaneIndex":0},"lap":0}}],"gameId":"0a72c3be-6df1-482d-a5bc-6f22f65c6a9a","gameTick":86}


>>>>>>>>>>>>>>>>>>>>>>>>>>>>> 3



THROTTLE = 1

{"msgType":"carPositions","data":[{"id":{"name":"speedbooster","color":"red"},"angle":0.0,"piecePosition":{"pieceIndex":3,"inPieceDistance":38.107180100585936,"lane":{"startLaneIndex":0,"endLaneIndex":0},"lap":0}}],"gameId":"0a72c3be-6df1-482d-a5bc-6f22f65c6a9a","gameTick":87}


>>>>>>>>>>>>>>>>>>>>>>>>>>>>> 3



THROTTLE = 1

{"msgType":"carPositions","data":[{"id":{"name":"speedbooster","color":"red"},"angle":0.0,"piecePosition":{"pieceIndex":3,"inPieceDistance":42.097823773739016,"lane":{"startLaneIndex":0,"endLaneIndex":0},"lap":0}}],"gameId":"0a72c3be-6df1-482d-a5bc-6f22f65c6a9a","gameTick":88}


>>>>>>>>>>>>>>>>>>>>>>>>>>>>> 3



THROTTLE = 1

{"msgType":"carPositions","data":[{"id":{"name":"speedbooster","color":"red"},"angle":0.0,"piecePosition":{"pieceIndex":3,"inPieceDistance":46.197245118821755,"lane":{"startLaneIndex":0,"endLaneIndex":0},"lap":0}}],"gameId":"0a72c3be-6df1-482d-a5bc-6f22f65c6a9a","gameTick":89}


>>>>>>>>>>>>>>>>>>>>>>>>>>>>> 3



THROTTLE = 1

{"msgType":"carPositions","data":[{"id":{"name":"speedbooster","color":"red"},"angle":0.0,"piecePosition":{"pieceIndex":4,"inPieceDistance":3.279295224559867,"lane":{"startLaneIndex":0,"endLaneIndex":0},"lap":0}}],"gameId":"0a72c3be-6df1-482d-a5bc-6f22f65c6a9a","gameTick":90}


>>>>>>>>>>>>>>>>>>>>>>>>>>>>> 4



THROTTLE = 1

{"msgType":"carPositions","data":[{"id":{"name":"speedbooster","color":"red"},"angle":0.0,"piecePosition":{"pieceIndex":4,"inPieceDistance":7.58954150862733,"lane":{"startLaneIndex":0,"endLaneIndex":0},"lap":0}}],"gameId":"0a72c3be-6df1-482d-a5bc-6f22f65c6a9a","gameTick":91}


>>>>>>>>>>>>>>>>>>>>>>>>>>>>> 4



THROTTLE = 1

{"msgType":"carPositions","data":[{"id":{"name":"speedbooster","color":"red"},"angle":0.0,"piecePosition":{"pieceIndex":4,"inPieceDistance":12.001927920178789,"lane":{"startLaneIndex":0,"endLaneIndex":0},"lap":0}}],"gameId":"0a72c3be-6df1-482d-a5bc-6f22f65c6a9a","gameTick":92}


>>>>>>>>>>>>>>>>>>>>>>>>>>>>> 4



THROTTLE = 1

{"msgType":"carPositions","data":[{"id":{"name":"speedbooster","color":"red"},"angle":0.03085159979692928,"piecePosition":{"pieceIndex":4,"inPieceDistance":16.51433320108709,"lane":{"startLaneIndex":0,"endLaneIndex":0},"lap":0}}],"gameId":"0a72c3be-6df1-482d-a5bc-6f22f65c6a9a","gameTick":93}


>>>>>>>>>>>>>>>>>>>>>>>>>>>>> 4



THROTTLE = 1

{"msgType":"carPositions","data":[{"id":{"name":"speedbooster","color":"red"},"angle":0.12139596741029623,"piecePosition":{"pieceIndex":4,"inPieceDistance":21.12468014776225,"lane":{"startLaneIndex":0,"endLaneIndex":0},"lap":0}}],"gameId":"0a72c3be-6df1-482d-a5bc-6f22f65c6a9a","gameTick":94}


>>>>>>>>>>>>>>>>>>>>>>>>>>>>> 4



THROTTLE = 1

{"msgType":"carPositions","data":[{"id":{"name":"speedbooster","color":"red"},"angle":0.2979208926057457,"piecePosition":{"pieceIndex":4,"inPieceDistance":25.830934696221654,"lane":{"startLaneIndex":0,"endLaneIndex":0},"lap":0}}],"gameId":"0a72c3be-6df1-482d-a5bc-6f22f65c6a9a","gameTick":95}


>>>>>>>>>>>>>>>>>>>>>>>>>>>>> 4



THROTTLE = 0.9

{"msgType":"carPositions","data":[{"id":{"name":"speedbooster","color":"red"},"angle":0.5841706260287833,"piecePosition":{"pieceIndex":4,"inPieceDistance":30.611939443461928,"lane":{"startLaneIndex":0,"endLaneIndex":0},"lap":0}}],"gameId":"0a72c3be-6df1-482d-a5bc-6f22f65c6a9a","gameTick":96}


>>>>>>>>>>>>>>>>>>>>>>>>>>>>> 4



THROTTLE = 0.8

{"msgType":"carPositions","data":[{"id":{"name":"speedbooster","color":"red"},"angle":0.9943499472927666,"piecePosition":{"pieceIndex":4,"inPieceDistance":35.44697638590259,"lane":{"startLaneIndex":0,"endLaneIndex":0},"lap":0}}],"gameId":"0a72c3be-6df1-482d-a5bc-6f22f65c6a9a","gameTick":97}


>>>>>>>>>>>>>>>>>>>>>>>>>>>>> 4



THROTTLE = 0.7

{"msgType":"carPositions","data":[{"id":{"name":"speedbooster","color":"red"},"angle":1.5334872635378503,"piecePosition":{"pieceIndex":4,"inPieceDistance":40.31575779388738,"lane":{"startLaneIndex":0,"endLaneIndex":0},"lap":0}}],"gameId":"0a72c3be-6df1-482d-a5bc-6f22f65c6a9a","gameTick":98}


>>>>>>>>>>>>>>>>>>>>>>>>>>>>> 4



THROTTLE = 0.6

{"msgType":"carPositions","data":[{"id":{"name":"speedbooster","color":"red"},"angle":2.19802268057392,"piecePosition":{"pieceIndex":4,"inPieceDistance":45.198417275705026,"lane":{"startLaneIndex":0,"endLaneIndex":0},"lap":0}}],"gameId":"0a72c3be-6df1-482d-a5bc-6f22f65c6a9a","gameTick":99}


>>>>>>>>>>>>>>>>>>>>>>>>>>>>> 4



THROTTLE = 0.5

{"msgType":"carPositions","data":[{"id":{"name":"speedbooster","color":"red"},"angle":2.9765861660200867,"piecePosition":{"pieceIndex":5,"inPieceDistance":2.9516112233465748,"lane":{"startLaneIndex":0,"endLaneIndex":0},"lap":0}}],"gameId":"0a72c3be-6df1-482d-a5bc-6f22f65c6a9a","gameTick":100}


>>>>>>>>>>>>>>>>>>>>>>>>>>>>> 5



THROTTLE = 0.525

{"msgType":"carPositions","data":[{"id":{"name":"speedbooster","color":"red"},"angle":3.6591469778901344,"piecePosition":{"pieceIndex":5,"inPieceDistance":7.82802643760108,"lane":{"startLaneIndex":0,"endLaneIndex":0},"lap":0}}],"gameId":"0a72c3be-6df1-482d-a5bc-6f22f65c6a9a","gameTick":101}


>>>>>>>>>>>>>>>>>>>>>>>>>>>>> 5



THROTTLE = 0.525

{"msgType":"carPositions","data":[{"id":{"name":"speedbooster","color":"red"},"angle":4.251147308580457,"piecePosition":{"pieceIndex":5,"inPieceDistance":12.703786998881203,"lane":{"startLaneIndex":0,"endLaneIndex":0},"lap":0}}],"gameId":"0a72c3be-6df1-482d-a5bc-6f22f65c6a9a","gameTick":102}


>>>>>>>>>>>>>>>>>>>>>>>>>>>>> 5



THROTTLE = 0.525

{"msgType":"carPositions","data":[{"id":{"name":"speedbooster","color":"red"},"angle":4.758038135717536,"piecePosition":{"pieceIndex":5,"inPieceDistance":17.578906503096565,"lane":{"startLaneIndex":0,"endLaneIndex":0},"lap":0}}],"gameId":"0a72c3be-6df1-482d-a5bc-6f22f65c6a9a","gameTick":103}


>>>>>>>>>>>>>>>>>>>>>>>>>>>>> 5



THROTTLE = 0.525

{"msgType":"carPositions","data":[{"id":{"name":"speedbooster","color":"red"},"angle":5.1852448744943604,"piecePosition":{"pieceIndex":5,"inPieceDistance":22.45339826379535,"lane":{"startLaneIndex":0,"endLaneIndex":0},"lap":0}}],"gameId":"0a72c3be-6df1-482d-a5bc-6f22f65c6a9a","gameTick":104}


>>>>>>>>>>>>>>>>>>>>>>>>>>>>> 5



THROTTLE = 0.525

{"msgType":"carPositions","data":[{"id":{"name":"speedbooster","color":"red"},"angle":5.5381366476210925,"piecePosition":{"pieceIndex":5,"inPieceDistance":27.327275318028413,"lane":{"startLaneIndex":0,"endLaneIndex":0},"lap":0}}],"gameId":"0a72c3be-6df1-482d-a5bc-6f22f65c6a9a","gameTick":105}


>>>>>>>>>>>>>>>>>>>>>>>>>>>>> 5



THROTTLE = 0.525

{"msgType":"carPositions","data":[{"id":{"name":"speedbooster","color":"red"},"angle":5.821998997022591,"piecePosition":{"pieceIndex":5,"inPieceDistance":32.20055043209161,"lane":{"startLaneIndex":0,"endLaneIndex":0},"lap":0}}],"gameId":"0a72c3be-6df1-482d-a5bc-6f22f65c6a9a","gameTick":106}


>>>>>>>>>>>>>>>>>>>>>>>>>>>>> 5



THROTTLE = 0.525

{"msgType":"carPositions","data":[{"id":{"name":"speedbooster","color":"red"},"angle":6.042009857951077,"piecePosition":{"pieceIndex":5,"inPieceDistance":37.07323610714887,"lane":{"startLaneIndex":0,"endLaneIndex":0},"lap":0}}],"gameId":"0a72c3be-6df1-482d-a5bc-6f22f65c6a9a","gameTick":107}


>>>>>>>>>>>>>>>>>>>>>>>>>>>>> 5



THROTTLE = 0.425

{"msgType":"carPositions","data":[{"id":{"name":"speedbooster","color":"red"},"angle":6.203218614182472,"piecePosition":{"pieceIndex":5,"inPieceDistance":41.926179002038765,"lane":{"startLaneIndex":0,"endLaneIndex":0},"lap":0}}],"gameId":"0a72c3be-6df1-482d-a5bc-6f22f65c6a9a","gameTick":108}


>>>>>>>>>>>>>>>>>>>>>>>>>>>>> 5



THROTTLE = 0.325

{"msgType":"carPositions","data":[{"id":{"name":"speedbooster","color":"red"},"angle":6.310676662666796,"piecePosition":{"pieceIndex":5,"inPieceDistance":46.74062355443177,"lane":{"startLaneIndex":0,"endLaneIndex":0},"lap":0}}],"gameId":"0a72c3be-6df1-482d-a5bc-6f22f65c6a9a","gameTick":109}


>>>>>>>>>>>>>>>>>>>>>>>>>>>>> 5



THROTTLE = 0.225

{"msgType":"carPositions","data":[{"id":{"name":"speedbooster","color":"red"},"angle":6.369410902702075,"piecePosition":{"pieceIndex":6,"inPieceDistance":1.4982037197128975,"lane":{"startLaneIndex":0,"endLaneIndex":0},"lap":0}}],"gameId":"0a72c3be-6df1-482d-a5bc-6f22f65c6a9a","gameTick":110}


>>>>>>>>>>>>>>>>>>>>>>>>>>>>> 6



THROTTLE = 0.165

{"msgType":"carPositions","data":[{"id":{"name":"speedbooster","color":"red"},"angle":5.882937014793555,"piecePosition":{"pieceIndex":6,"inPieceDistance":6.188601114512096,"lane":{"startLaneIndex":0,"endLaneIndex":0},"lap":0}}],"gameId":"0a72c3be-6df1-482d-a5bc-6f22f65c6a9a","gameTick":111}


>>>>>>>>>>>>>>>>>>>>>>>>>>>>> 6



THROTTLE = 0.165

{"msgType":"carPositions","data":[{"id":{"name":"speedbooster","color":"red"},"angle":4.9430954523901764,"piecePosition":{"pieceIndex":6,"inPieceDistance":10.813210998473147,"lane":{"startLaneIndex":0,"endLaneIndex":0},"lap":0}}],"gameId":"0a72c3be-6df1-482d-a5bc-6f22f65c6a9a","gameTick":112}


>>>>>>>>>>>>>>>>>>>>>>>>>>>>> 6



THROTTLE = 0.365

{"msgType":"carPositions","data":[{"id":{"name":"speedbooster","color":"red"},"angle":3.633622187165805,"piecePosition":{"pieceIndex":6,"inPieceDistance":15.411730819723623,"lane":{"startLaneIndex":0,"endLaneIndex":0},"lap":0}}],"gameId":"0a72c3be-6df1-482d-a5bc-6f22f65c6a9a","gameTick":113}


>>>>>>>>>>>>>>>>>>>>>>>>>>>>> 6



THROTTLE = 0.365

{"msgType":"carPositions","data":[{"id":{"name":"speedbooster","color":"red"},"angle":2.011846289828812,"piecePosition":{"pieceIndex":6,"inPieceDistance":19.984702419740774,"lane":{"startLaneIndex":0,"endLaneIndex":0},"lap":0}}],"gameId":"0a72c3be-6df1-482d-a5bc-6f22f65c6a9a","gameTick":114}


>>>>>>>>>>>>>>>>>>>>>>>>>>>>> 6



THROTTLE = 0.365

{"msgType":"carPositions","data":[{"id":{"name":"speedbooster","color":"red"},"angle":0.13068642036845635,"piecePosition":{"pieceIndex":6,"inPieceDistance":24.532656386974608,"lane":{"startLaneIndex":0,"endLaneIndex":0},"lap":0}}],"gameId":"0a72c3be-6df1-482d-a5bc-6f22f65c6a9a","gameTick":115}


>>>>>>>>>>>>>>>>>>>>>>>>>>>>> 6



THROTTLE = 0.365

{"msgType":"carPositions","data":[{"id":{"name":"speedbooster","color":"red"},"angle":-1.9612231708030583,"piecePosition":{"pieceIndex":6,"inPieceDistance":29.05611229055208,"lane":{"startLaneIndex":0,"endLaneIndex":0},"lap":0}}],"gameId":"0a72c3be-6df1-482d-a5bc-6f22f65c6a9a","gameTick":116}


>>>>>>>>>>>>>>>>>>>>>>>>>>>>> 6



THROTTLE = 0

{"msgType":"carPositions","data":[{"id":{"name":"speedbooster","color":"red"},"angle":-4.219387838954178,"piecePosition":{"pieceIndex":7,"inPieceDistance":2.0696979963757656,"lane":{"startLaneIndex":0,"endLaneIndex":0},"lap":0}}],"gameId":"0a72c3be-6df1-482d-a5bc-6f22f65c6a9a","gameTick":117}


>>>>>>>>>>>>>>>>>>>>>>>>>>>>> 7



THROTTLE = 0

{"msgType":"carPositions","data":[{"id":{"name":"speedbooster","color":"red"},"angle":-6.571422875987702,"piecePosition":{"pieceIndex":7,"inPieceDistance":6.407217609210793,"lane":{"startLaneIndex":0,"endLaneIndex":0},"lap":0}}],"gameId":"0a72c3be-6df1-482d-a5bc-6f22f65c6a9a","gameTick":118}


>>>>>>>>>>>>>>>>>>>>>>>>>>>>> 7



THROTTLE = 0

{"msgType":"carPositions","data":[{"id":{"name":"speedbooster","color":"red"},"angle":-8.954548296956098,"piecePosition":{"pieceIndex":7,"inPieceDistance":10.65465510684734,"lane":{"startLaneIndex":0,"endLaneIndex":0},"lap":0}}],"gameId":"0a72c3be-6df1-482d-a5bc-6f22f65c6a9a","gameTick":119}


>>>>>>>>>>>>>>>>>>>>>>>>>>>>> 7



THROTTLE = 0

{"msgType":"carPositions","data":[{"id":{"name":"speedbooster","color":"red"},"angle":-11.31486837850209,"piecePosition":{"pieceIndex":7,"inPieceDistance":14.813881325201542,"lane":{"startLaneIndex":0,"endLaneIndex":0},"lap":0}}],"gameId":"0a72c3be-6df1-482d-a5bc-6f22f65c6a9a","gameTick":120}


>>>>>>>>>>>>>>>>>>>>>>>>>>>>> 7



THROTTLE = 0

{"msgType":"carPositions","data":[{"id":{"name":"speedbooster","color":"red"},"angle":-13.606653218277028,"piecePosition":{"pieceIndex":7,"inPieceDistance":18.886728246450172,"lane":{"startLaneIndex":0,"endLaneIndex":0},"lap":0}}],"gameId":"0a72c3be-6df1-482d-a5bc-6f22f65c6a9a","gameTick":121}


>>>>>>>>>>>>>>>>>>>>>>>>>>>>> 7



THROTTLE = 0

{"msgType":"carPositions","data":[{"id":{"name":"speedbooster","color":"red"},"angle":-15.791631839506168,"piecePosition":{"pieceIndex":7,"inPieceDistance":22.87498980594965,"lane":{"startLaneIndex":0,"endLaneIndex":0},"lap":0}}],"gameId":"0a72c3be-6df1-482d-a5bc-6f22f65c6a9a","gameTick":122}


>>>>>>>>>>>>>>>>>>>>>>>>>>>>> 7



THROTTLE = 0

{"msgType":"carPositions","data":[{"id":{"name":"speedbooster","color":"red"},"angle":-17.838304547747036,"piecePosition":{"pieceIndex":7,"inPieceDistance":26.78042268239686,"lane":{"startLaneIndex":0,"endLaneIndex":0},"lap":0}}],"gameId":"0a72c3be-6df1-482d-a5bc-6f22f65c6a9a","gameTick":123}


>>>>>>>>>>>>>>>>>>>>>>>>>>>>> 7



THROTTLE = 0

{"msgType":"carPositions","data":[{"id":{"name":"speedbooster","color":"red"},"angle":-19.72128063169106,"piecePosition":{"pieceIndex":7,"inPieceDistance":30.604747071579826,"lane":{"startLaneIndex":0,"endLaneIndex":0},"lap":0}}],"gameId":"0a72c3be-6df1-482d-a5bc-6f22f65c6a9a","gameTick":124}


>>>>>>>>>>>>>>>>>>>>>>>>>>>>> 7



THROTTLE = 0

{"msgType":"carPositions","data":[{"id":{"name":"speedbooster","color":"red"},"angle":-21.420646077179196,"piecePosition":{"pieceIndex":8,"inPieceDistance":2.933720908161092,"lane":{"startLaneIndex":0,"endLaneIndex":0},"lap":0}}],"gameId":"0a72c3be-6df1-482d-a5bc-6f22f65c6a9a","gameTick":125}


>>>>>>>>>>>>>>>>>>>>>>>>>>>>> 8



THROTTLE = 0

{"msgType":"carPositions","data":[{"id":{"name":"speedbooster","color":"red"},"angle":-22.921364722194294,"piecePosition":{"pieceIndex":8,"inPieceDistance":6.600846751215162,"lane":{"startLaneIndex":0,"endLaneIndex":0},"lap":0}}],"gameId":"0a72c3be-6df1-482d-a5bc-6f22f65c6a9a","gameTick":126}


>>>>>>>>>>>>>>>>>>>>>>>>>>>>> 8



THROTTLE = 0.1

{"msgType":"carPositions","data":[{"id":{"name":"speedbooster","color":"red"},"angle":-24.21271520798293,"piecePosition":{"pieceIndex":8,"inPieceDistance":10.210978878077526,"lane":{"startLaneIndex":0,"endLaneIndex":0},"lap":0}}],"gameId":"0a72c3be-6df1-482d-a5bc-6f22f65c6a9a","gameTick":127}


>>>>>>>>>>>>>>>>>>>>>>>>>>>>> 8



THROTTLE = 0.2

{"msgType":"carPositions","data":[{"id":{"name":"speedbooster","color":"red"},"angle":-25.293195769486477,"piecePosition":{"pieceIndex":8,"inPieceDistance":13.784466523619157,"lane":{"startLaneIndex":0,"endLaneIndex":0},"lap":0}}],"gameId":"0a72c3be-6df1-482d-a5bc-6f22f65c6a9a","gameTick":128}


>>>>>>>>>>>>>>>>>>>>>>>>>>>>> 8



THROTTLE = 0.3

{"msgType":"carPositions","data":[{"id":{"name":"speedbooster","color":"red"},"angle":-26.168738337875954,"piecePosition":{"pieceIndex":8,"inPieceDistance":17.341236307418537,"lane":{"startLaneIndex":0,"endLaneIndex":0},"lap":0}}],"gameId":"0a72c3be-6df1-482d-a5bc-6f22f65c6a9a","gameTick":129}


>>>>>>>>>>>>>>>>>>>>>>>>>>>>> 8



THROTTLE = 0.4

{"msgType":"carPositions","data":[{"id":{"name":"speedbooster","color":"red"},"angle":-26.851330541286067,"piecePosition":{"pieceIndex":8,"inPieceDistance":20.900801010685537,"lane":{"startLaneIndex":0,"endLaneIndex":0},"lap":0}}],"gameId":"0a72c3be-6df1-482d-a5bc-6f22f65c6a9a","gameTick":130}


>>>>>>>>>>>>>>>>>>>>>>>>>>>>> 8



THROTTLE = 0.5

{"msgType":"carPositions","data":[{"id":{"name":"speedbooster","color":"red"},"angle":-27.357995177092718,"piecePosition":{"pieceIndex":8,"inPieceDistance":24.482268170905122,"lane":{"startLaneIndex":0,"endLaneIndex":0},"lap":0}}],"gameId":"0a72c3be-6df1-482d-a5bc-6f22f65c6a9a","gameTick":131}


>>>>>>>>>>>>>>>>>>>>>>>>>>>>> 8



THROTTLE = 0.6

{"msgType":"carPositions","data":[{"id":{"name":"speedbooster","color":"red"},"angle":-27.71007850666351,"piecePosition":{"pieceIndex":8,"inPieceDistance":28.104348497986464,"lane":{"startLaneIndex":0,"endLaneIndex":0},"lap":0}}],"gameId":"0a72c3be-6df1-482d-a5bc-6f22f65c6a9a","gameTick":132}


>>>>>>>>>>>>>>>>>>>>>>>>>>>>> 8



THROTTLE = 0.7

{"msgType":"carPositions","data":[{"id":{"name":"speedbooster","color":"red"},"angle":-27.93280118754407,"piecePosition":{"pieceIndex":9,"inPieceDistance":0.36943757972658275,"lane":{"startLaneIndex":0,"endLaneIndex":0},"lap":0}}],"gameId":"0a72c3be-6df1-482d-a5bc-6f22f65c6a9a","gameTick":133}


>>>>>>>>>>>>>>>>>>>>>>>>>>>>> 9



THROTTLE = 0.625

{"msgType":"carPositions","data":[{"id":{"name":"speedbooster","color":"red"},"angle":-28.004725253566914,"piecePosition":{"pieceIndex":9,"inPieceDistance":4.09379032588155,"lane":{"startLaneIndex":0,"endLaneIndex":0},"lap":0}}],"gameId":"0a72c3be-6df1-482d-a5bc-6f22f65c6a9a","gameTick":134}


>>>>>>>>>>>>>>>>>>>>>>>>>>>>> 9



THROTTLE = 0.625

{"msgType":"carPositions","data":[{"id":{"name":"speedbooster","color":"red"},"angle":-27.939082568733177,"piecePosition":{"pieceIndex":9,"inPieceDistance":7.860580169994059,"lane":{"startLaneIndex":0,"endLaneIndex":0},"lap":0}}],"gameId":"0a72c3be-6df1-482d-a5bc-6f22f65c6a9a","gameTick":135}


>>>>>>>>>>>>>>>>>>>>>>>>>>>>> 9



THROTTLE = 0.725

{"msgType":"carPositions","data":[{"id":{"name":"speedbooster","color":"red"},"angle":-27.748453336790657,"piecePosition":{"pieceIndex":9,"inPieceDistance":11.6880913561445,"lane":{"startLaneIndex":0,"endLaneIndex":0},"lap":0}}],"gameId":"0a72c3be-6df1-482d-a5bc-6f22f65c6a9a","gameTick":136}


>>>>>>>>>>>>>>>>>>>>>>>>>>>>> 9



THROTTLE = 0.825

{"msgType":"carPositions","data":[{"id":{"name":"speedbooster","color":"red"},"angle":-27.444127633611213,"piecePosition":{"pieceIndex":9,"inPieceDistance":15.594228399091303,"lane":{"startLaneIndex":0,"endLaneIndex":0},"lap":0}}],"gameId":"0a72c3be-6df1-482d-a5bc-6f22f65c6a9a","gameTick":137}


>>>>>>>>>>>>>>>>>>>>>>>>>>>>> 9



THROTTLE = 0.925

{"msgType":"carPositions","data":[{"id":{"name":"speedbooster","color":"red"},"angle":-27.036233846298455,"piecePosition":{"pieceIndex":9,"inPieceDistance":19.59652397053396,"lane":{"startLaneIndex":0,"endLaneIndex":0},"lap":0}}],"gameId":"0a72c3be-6df1-482d-a5bc-6f22f65c6a9a","gameTick":138}


>>>>>>>>>>>>>>>>>>>>>>>>>>>>> 9



THROTTLE = 1

{"msgType":"carPositions","data":[{"id":{"name":"speedbooster","color":"red"},"angle":-26.53387068897756,"piecePosition":{"pieceIndex":9,"inPieceDistance":23.707355225918274,"lane":{"startLaneIndex":0,"endLaneIndex":0},"lap":0}}],"gameId":"0a72c3be-6df1-482d-a5bc-6f22f65c6a9a","gameTick":139}


>>>>>>>>>>>>>>>>>>>>>>>>>>>>> 9



THROTTLE = 1

{"msgType":"carPositions","data":[{"id":{"name":"speedbooster","color":"red"},"angle":-25.94539851619554,"piecePosition":{"pieceIndex":9,"inPieceDistance":27.924468083451735,"lane":{"startLaneIndex":0,"endLaneIndex":0},"lap":0}}],"gameId":"0a72c3be-6df1-482d-a5bc-6f22f65c6a9a","gameTick":140}


>>>>>>>>>>>>>>>>>>>>>>>>>>>>> 9



THROTTLE = 1

{"msgType":"carPositions","data":[{"id":{"name":"speedbooster","color":"red"},"angle":-25.279005218596122,"piecePosition":{"pieceIndex":9,"inPieceDistance":32.24565527437642,"lane":{"startLaneIndex":0,"endLaneIndex":0},"lap":0}}],"gameId":"0a72c3be-6df1-482d-a5bc-6f22f65c6a9a","gameTick":141}


>>>>>>>>>>>>>>>>>>>>>>>>>>>>> 9



THROTTLE = 1

{"msgType":"carPositions","data":[{"id":{"name":"speedbooster","color":"red"},"angle":-24.54270710881925,"piecePosition":{"pieceIndex":9,"inPieceDistance":36.66875537075042,"lane":{"startLaneIndex":0,"endLaneIndex":0},"lap":0}}],"gameId":"0a72c3be-6df1-482d-a5bc-6f22f65c6a9a","gameTick":142}


>>>>>>>>>>>>>>>>>>>>>>>>>>>>> 9



THROTTLE = 1

{"msgType":"carPositions","data":[{"id":{"name":"speedbooster","color":"red"},"angle":-23.744345247297193,"piecePosition":{"pieceIndex":9,"inPieceDistance":41.19165183342041,"lane":{"startLaneIndex":0,"endLaneIndex":0},"lap":0}}],"gameId":"0a72c3be-6df1-482d-a5bc-6f22f65c6a9a","gameTick":143}


>>>>>>>>>>>>>>>>>>>>>>>>>>>>> 9



THROTTLE = 1

{"msgType":"carPositions","data":[{"id":{"name":"speedbooster","color":"red"},"angle":-22.891578053018073,"piecePosition":{"pieceIndex":9,"inPieceDistance":45.81227207976602,"lane":{"startLaneIndex":0,"endLaneIndex":0},"lap":0}}],"gameId":"0a72c3be-6df1-482d-a5bc-6f22f65c6a9a","gameTick":144}


>>>>>>>>>>>>>>>>>>>>>>>>>>>>> 9



THROTTLE = 1

{"msgType":"carPositions","data":[{"id":{"name":"speedbooster","color":"red"},"angle":-21.991870966888644,"piecePosition":{"pieceIndex":10,"inPieceDistance":0.528586570805416,"lane":{"startLaneIndex":0,"endLaneIndex":0},"lap":0}}],"gameId":"0a72c3be-6df1-482d-a5bc-6f22f65c6a9a","gameTick":145}


>>>>>>>>>>>>>>>>>>>>>>>>>>>>> 10



THROTTLE = 0.39875

{"msgType":"carPositions","data":[{"id":{"name":"speedbooster","color":"red"},"angle":-21.53300631489154,"piecePosition":{"pieceIndex":10,"inPieceDistance":5.22337485127792,"lane":{"startLaneIndex":0,"endLaneIndex":0},"lap":0}}],"gameId":"0a72c3be-6df1-482d-a5bc-6f22f65c6a9a","gameTick":146}


>>>>>>>>>>>>>>>>>>>>>>>>>>>>> 10



THROTTLE = 0.39875

{"msgType":"carPositions","data":[{"id":{"name":"speedbooster","color":"red"},"angle":-21.463379665433916,"piecePosition":{"pieceIndex":10,"inPieceDistance":9.897083980045082,"lane":{"startLaneIndex":0,"endLaneIndex":0},"lap":0}}],"gameId":"0a72c3be-6df1-482d-a5bc-6f22f65c6a9a","gameTick":147}


>>>>>>>>>>>>>>>>>>>>>>>>>>>>> 10



THROTTLE = 0.39875

{"msgType":"carPositions","data":[{"id":{"name":"speedbooster","color":"red"},"angle":-21.734537500093644,"piecePosition":{"pieceIndex":10,"inPieceDistance":14.550151731397671,"lane":{"startLaneIndex":0,"endLaneIndex":0},"lap":0}}],"gameId":"0a72c3be-6df1-482d-a5bc-6f22f65c6a9a","gameTick":148}


>>>>>>>>>>>>>>>>>>>>>>>>>>>>> 10



THROTTLE = 0.39875

{"msgType":"carPositions","data":[{"id":{"name":"speedbooster","color":"red"},"angle":-22.301165686502983,"piecePosition":{"pieceIndex":10,"inPieceDistance":19.183006787878725,"lane":{"startLaneIndex":0,"endLaneIndex":0},"lap":0}}],"gameId":"0a72c3be-6df1-482d-a5bc-6f22f65c6a9a","gameTick":149}


>>>>>>>>>>>>>>>>>>>>>>>>>>>>> 10



THROTTLE = 0.39875

{"msgType":"carPositions","data":[{"id":{"name":"speedbooster","color":"red"},"angle":-23.121055073478765,"piecePosition":{"pieceIndex":10,"inPieceDistance":23.796068929102038,"lane":{"startLaneIndex":0,"endLaneIndex":0},"lap":0}}],"gameId":"0a72c3be-6df1-482d-a5bc-6f22f65c6a9a","gameTick":150}


>>>>>>>>>>>>>>>>>>>>>>>>>>>>> 10



THROTTLE = 0.39875

{"msgType":"carPositions","data":[{"id":{"name":"speedbooster","color":"red"},"angle":-24.15504736908771,"piecePosition":{"pieceIndex":10,"inPieceDistance":28.389749216649232,"lane":{"startLaneIndex":0,"endLaneIndex":0},"lap":0}}],"gameId":"0a72c3be-6df1-482d-a5bc-6f22f65c6a9a","gameTick":151}


>>>>>>>>>>>>>>>>>>>>>>>>>>>>> 10



THROTTLE = 0.39875

{"msgType":"carPositions","data":[{"id":{"name":"speedbooster","color":"red"},"angle":-25.366964218829327,"piecePosition":{"pieceIndex":11,"inPieceDistance":1.5485236392289323,"lane":{"startLaneIndex":0,"endLaneIndex":0},"lap":0}}],"gameId":"0a72c3be-6df1-482d-a5bc-6f22f65c6a9a","gameTick":152}


>>>>>>>>>>>>>>>>>>>>>>>>>>>>> 11



THROTTLE = 0.39875

{"msgType":"carPositions","data":[{"id":{"name":"speedbooster","color":"red"},"angle":-26.723522163948118,"piecePosition":{"pieceIndex":11,"inPieceDistance":6.104639433565409,"lane":{"startLaneIndex":0,"endLaneIndex":0},"lap":0}}],"gameId":"0a72c3be-6df1-482d-a5bc-6f22f65c6a9a","gameTick":153}


>>>>>>>>>>>>>>>>>>>>>>>>>>>>> 11



THROTTLE = 0.39875

{"msgType":"carPositions","data":[{"id":{"name":"speedbooster","color":"red"},"angle":-28.194235930501048,"piecePosition":{"pieceIndex":11,"inPieceDistance":10.642556042625746,"lane":{"startLaneIndex":0,"endLaneIndex":0},"lap":0}}],"gameId":"0a72c3be-6df1-482d-a5bc-6f22f65c6a9a","gameTick":154}


>>>>>>>>>>>>>>>>>>>>>>>>>>>>> 11



THROTTLE = 0.39875

{"msgType":"carPositions","data":[{"id":{"name":"speedbooster","color":"red"},"angle":-29.75131227935254,"piecePosition":{"pieceIndex":11,"inPieceDistance":15.162651429220693,"lane":{"startLaneIndex":0,"endLaneIndex":0},"lap":0}}],"gameId":"0a72c3be-6df1-482d-a5bc-6f22f65c6a9a","gameTick":155}


>>>>>>>>>>>>>>>>>>>>>>>>>>>>> 11



THROTTLE = 0.39875

{"msgType":"carPositions","data":[{"id":{"name":"speedbooster","color":"red"},"angle":-31.369536436627772,"piecePosition":{"pieceIndex":11,"inPieceDistance":19.665295706585095,"lane":{"startLaneIndex":0,"endLaneIndex":0},"lap":0}}],"gameId":"0a72c3be-6df1-482d-a5bc-6f22f65c6a9a","gameTick":156}


>>>>>>>>>>>>>>>>>>>>>>>>>>>>> 11



THROTTLE = 0.39875

{"msgType":"carPositions","data":[{"id":{"name":"speedbooster","color":"red"},"angle":-33.02615292397062,"piecePosition":{"pieceIndex":11,"inPieceDistance":24.1508513013988,"lane":{"startLaneIndex":0,"endLaneIndex":0},"lap":0}}],"gameId":"0a72c3be-6df1-482d-a5bc-6f22f65c6a9a","gameTick":157}


>>>>>>>>>>>>>>>>>>>>>>>>>>>>> 11



THROTTLE = 0.39875

{"msgType":"carPositions","data":[{"id":{"name":"speedbooster","color":"red"},"angle":-34.700742418664674,"piecePosition":{"pieceIndex":11,"inPieceDistance":28.619673113421925,"lane":{"startLaneIndex":0,"endLaneIndex":0},"lap":0}}],"gameId":"0a72c3be-6df1-482d-a5bc-6f22f65c6a9a","gameTick":158}


>>>>>>>>>>>>>>>>>>>>>>>>>>>>> 11



THROTTLE = 0.39875

{"msgType":"carPositions","data":[{"id":{"name":"speedbooster","color":"red"},"angle":-36.37509609554622,"piecePosition":{"pieceIndex":12,"inPieceDistance":1.6561821359168931,"lane":{"startLaneIndex":0,"endLaneIndex":0},"lap":0}}],"gameId":"0a72c3be-6df1-482d-a5bc-6f22f65c6a9a","gameTick":159}


>>>>>>>>>>>>>>>>>>>>>>>>>>>>> 12



THROTTLE = 0.39875

{"msgType":"carPositions","data":[{"id":{"name":"speedbooster","color":"red"},"angle":-37.6795671906199,"piecePosition":{"pieceIndex":12,"inPieceDistance":6.0925717523136225,"lane":{"startLaneIndex":0,"endLaneIndex":0},"lap":0}}],"gameId":"0a72c3be-6df1-482d-a5bc-6f22f65c6a9a","gameTick":160}


>>>>>>>>>>>>>>>>>>>>>>>>>>>>> 12



THROTTLE = 0.39875

{"msgType":"carPositions","data":[{"id":{"name":"speedbooster","color":"red"},"angle":-38.64463962539273,"piecePosition":{"pieceIndex":12,"inPieceDistance":10.513248670716372,"lane":{"startLaneIndex":0,"endLaneIndex":0},"lap":0}}],"gameId":"0a72c3be-6df1-482d-a5bc-6f22f65c6a9a","gameTick":161}


>>>>>>>>>>>>>>>>>>>>>>>>>>>>> 12



THROTTLE = 0.39875

{"msgType":"carPositions","data":[{"id":{"name":"speedbooster","color":"red"},"angle":-39.299660483673314,"piecePosition":{"pieceIndex":12,"inPieceDistance":14.918539214276876,"lane":{"startLaneIndex":0,"endLaneIndex":0},"lap":0}}],"gameId":"0a72c3be-6df1-482d-a5bc-6f22f65c6a9a","gameTick":162}


>>>>>>>>>>>>>>>>>>>>>>>>>>>>> 12



THROTTLE = 0.39875

{"msgType":"carPositions","data":[{"id":{"name":"speedbooster","color":"red"},"angle":-39.67277122775851,"piecePosition":{"pieceIndex":12,"inPieceDistance":19.30876292902945,"lane":{"startLaneIndex":0,"endLaneIndex":0},"lap":0}}],"gameId":"0a72c3be-6df1-482d-a5bc-6f22f65c6a9a","gameTick":163}


>>>>>>>>>>>>>>>>>>>>>>>>>>>>> 12



THROTTLE = 0.39875

{"msgType":"carPositions","data":[{"id":{"name":"speedbooster","color":"red"},"angle":-39.79085547109261,"piecePosition":{"pieceIndex":12,"inPieceDistance":23.68423272463894,"lane":{"startLaneIndex":0,"endLaneIndex":0},"lap":0}}],"gameId":"0a72c3be-6df1-482d-a5bc-6f22f65c6a9a","gameTick":164}


>>>>>>>>>>>>>>>>>>>>>>>>>>>>> 12



THROTTLE = 0.39875

{"msgType":"carPositions","data":[{"id":{"name":"speedbooster","color":"red"},"angle":-39.67950168227427,"piecePosition":{"pieceIndex":12,"inPieceDistance":28.045255012225645,"lane":{"startLaneIndex":0,"endLaneIndex":0},"lap":0}}],"gameId":"0a72c3be-6df1-482d-a5bc-6f22f65c6a9a","gameTick":165}


>>>>>>>>>>>>>>>>>>>>>>>>>>>>> 12



THROTTLE = 0.39875

{"msgType":"carPositions","data":[{"id":{"name":"speedbooster","color":"red"},"angle":-39.36297928334185,"piecePosition":{"pieceIndex":12,"inPieceDistance":32.39212983932784,"lane":{"startLaneIndex":0,"endLaneIndex":0},"lap":0}}],"gameId":"0a72c3be-6df1-482d-a5bc-6f22f65c6a9a","gameTick":166}


>>>>>>>>>>>>>>>>>>>>>>>>>>>>> 12



THROTTLE = 0.39875

{"msgType":"carPositions","data":[{"id":{"name":"speedbooster","color":"red"},"angle":-38.86422669459454,"piecePosition":{"pieceIndex":13,"inPieceDistance":1.3822336691762231,"lane":{"startLaneIndex":0,"endLaneIndex":0},"lap":0}}],"gameId":"0a72c3be-6df1-482d-a5bc-6f22f65c6a9a","gameTick":167}


>>>>>>>>>>>>>>>>>>>>>>>>>>>>> 13



THROTTLE = 0.455

{"msgType":"carPositions","data":[{"id":{"name":"speedbooster","color":"red"},"angle":-38.19847954487994,"piecePosition":{"pieceIndex":13,"inPieceDistance":5.701688921649497,"lane":{"startLaneIndex":0,"endLaneIndex":0},"lap":0}}],"gameId":"0a72c3be-6df1-482d-a5bc-6f22f65c6a9a","gameTick":168}


>>>>>>>>>>>>>>>>>>>>>>>>>>>>> 13



THROTTLE = 0.455

{"msgType":"carPositions","data":[{"id":{"name":"speedbooster","color":"red"},"angle":-37.390787772535255,"piecePosition":{"pieceIndex":13,"inPieceDistance":10.018640622959163,"lane":{"startLaneIndex":0,"endLaneIndex":0},"lap":0}}],"gameId":"0a72c3be-6df1-482d-a5bc-6f22f65c6a9a","gameTick":169}


>>>>>>>>>>>>>>>>>>>>>>>>>>>>> 13



THROTTLE = 0.455

{"msgType":"carPositions","data":[{"id":{"name":"speedbooster","color":"red"},"angle":-36.46057710236946,"piecePosition":{"pieceIndex":13,"inPieceDistance":14.333140767148926,"lane":{"startLaneIndex":0,"endLaneIndex":0},"lap":0}}],"gameId":"0a72c3be-6df1-482d-a5bc-6f22f65c6a9a","gameTick":170}


>>>>>>>>>>>>>>>>>>>>>>>>>>>>> 13



THROTTLE = 0.455

{"msgType":"carPositions","data":[{"id":{"name":"speedbooster","color":"red"},"angle":-35.42596752452037,"piecePosition":{"pieceIndex":13,"inPieceDistance":18.645240268444105,"lane":{"startLaneIndex":0,"endLaneIndex":0},"lap":0}}],"gameId":"0a72c3be-6df1-482d-a5bc-6f22f65c6a9a","gameTick":171}


>>>>>>>>>>>>>>>>>>>>>>>>>>>>> 13



THROTTLE = 0.455

{"msgType":"carPositions","data":[{"id":{"name":"speedbooster","color":"red"},"angle":-34.30380567891423,"piecePosition":{"pieceIndex":13,"inPieceDistance":22.954988983677428,"lane":{"startLaneIndex":0,"endLaneIndex":0},"lap":0}}],"gameId":"0a72c3be-6df1-482d-a5bc-6f22f65c6a9a","gameTick":172}


>>>>>>>>>>>>>>>>>>>>>>>>>>>>> 13



THROTTLE = 0.455

{"msgType":"carPositions","data":[{"id":{"name":"speedbooster","color":"red"},"angle":-33.10905903980331,"piecePosition":{"pieceIndex":13,"inPieceDistance":27.262435734249078,"lane":{"startLaneIndex":0,"endLaneIndex":0},"lap":0}}],"gameId":"0a72c3be-6df1-482d-a5bc-6f22f65c6a9a","gameTick":173}


>>>>>>>>>>>>>>>>>>>>>>>>>>>>> 13



THROTTLE = 0.455

{"msgType":"carPositions","data":[{"id":{"name":"speedbooster","color":"red"},"angle":-31.855517678634133,"piecePosition":{"pieceIndex":13,"inPieceDistance":31.567628327630686,"lane":{"startLaneIndex":0,"endLaneIndex":0},"lap":0}}],"gameId":"0a72c3be-6df1-482d-a5bc-6f22f65c6a9a","gameTick":174}


>>>>>>>>>>>>>>>>>>>>>>>>>>>>> 13



THROTTLE = 0.555

{"msgType":"carPositions","data":[{"id":{"name":"speedbooster","color":"red"},"angle":-30.55590028012138,"piecePosition":{"pieceIndex":13,"inPieceDistance":35.88977916112243,"lane":{"startLaneIndex":0,"endLaneIndex":0},"lap":0}}],"gameId":"0a72c3be-6df1-482d-a5bc-6f22f65c6a9a","gameTick":175}


>>>>>>>>>>>>>>>>>>>>>>>>>>>>> 13



THROTTLE = 0.655

{"msgType":"carPositions","data":[{"id":{"name":"speedbooster","color":"red"},"angle":-29.21807503290811,"piecePosition":{"pieceIndex":13,"inPieceDistance":40.247701626707794,"lane":{"startLaneIndex":0,"endLaneIndex":0},"lap":0}}],"gameId":"0a72c3be-6df1-482d-a5bc-6f22f65c6a9a","gameTick":176}


>>>>>>>>>>>>>>>>>>>>>>>>>>>>> 13



THROTTLE = 0.755

{"msgType":"carPositions","data":[{"id":{"name":"speedbooster","color":"red"},"angle":-27.840912509048557,"piecePosition":{"pieceIndex":13,"inPieceDistance":44.65981839764268,"lane":{"startLaneIndex":0,"endLaneIndex":0},"lap":0}}],"gameId":"0a72c3be-6df1-482d-a5bc-6f22f65c6a9a","gameTick":177}


>>>>>>>>>>>>>>>>>>>>>>>>>>>>> 13



THROTTLE = 0.855

{"msgType":"carPositions","data":[{"id":{"name":"speedbooster","color":"red"},"angle":-26.417152599333434,"piecePosition":{"pieceIndex":14,"inPieceDistance":2.020279739100822,"lane":{"startLaneIndex":0,"endLaneIndex":0},"lap":0}}],"gameId":"0a72c3be-6df1-482d-a5bc-6f22f65c6a9a","gameTick":178}


>>>>>>>>>>>>>>>>>>>>>>>>>>>>> 14



THROTTLE = 0.7

{"msgType":"carPositions","data":[{"id":{"name":"speedbooster","color":"red"},"angle":-24.987688944946676,"piecePosition":{"pieceIndex":14,"inPieceDistance":6.545658433646612,"lane":{"startLaneIndex":0,"endLaneIndex":0},"lap":0}}],"gameId":"0a72c3be-6df1-482d-a5bc-6f22f65c6a9a","gameTick":179}


>>>>>>>>>>>>>>>>>>>>>>>>>>>>> 14



THROTTLE = 0.7

{"msgType":"carPositions","data":[{"id":{"name":"speedbooster","color":"red"},"angle":-23.559823212026846,"piecePosition":{"pieceIndex":14,"inPieceDistance":11.111212612486622,"lane":{"startLaneIndex":0,"endLaneIndex":0},"lap":0}}],"gameId":"0a72c3be-6df1-482d-a5bc-6f22f65c6a9a","gameTick":180}


>>>>>>>>>>>>>>>>>>>>>>>>>>>>> 14



THROTTLE = 0.7

{"msgType":"carPositions","data":[{"id":{"name":"speedbooster","color":"red"},"angle":-22.140289490750995,"piecePosition":{"pieceIndex":14,"inPieceDistance":15.71610790645889,"lane":{"startLaneIndex":0,"endLaneIndex":0},"lap":0}}],"gameId":"0a72c3be-6df1-482d-a5bc-6f22f65c6a9a","gameTick":181}


>>>>>>>>>>>>>>>>>>>>>>>>>>>>> 14



THROTTLE = 0.7

{"msgType":"carPositions","data":[{"id":{"name":"speedbooster","color":"red"},"angle":-20.7352669979988,"piecePosition":{"pieceIndex":14,"inPieceDistance":20.35952727467791,"lane":{"startLaneIndex":0,"endLaneIndex":0},"lap":0}}],"gameId":"0a72c3be-6df1-482d-a5bc-6f22f65c6a9a","gameTick":182}


>>>>>>>>>>>>>>>>>>>>>>>>>>>>> 14



THROTTLE = 0.8

{"msgType":"carPositions","data":[{"id":{"name":"speedbooster","color":"red"},"angle":-19.3503935790422,"piecePosition":{"pieceIndex":14,"inPieceDistance":25.059836227358666,"lane":{"startLaneIndex":0,"endLaneIndex":0},"lap":0}}],"gameId":"0a72c3be-6df1-482d-a5bc-6f22f65c6a9a","gameTick":183}


>>>>>>>>>>>>>>>>>>>>>>>>>>>>> 14



THROTTLE = 0.9

{"msgType":"carPositions","data":[{"id":{"name":"speedbooster","color":"red"},"angle":-17.990316466759428,"piecePosition":{"pieceIndex":14,"inPieceDistance":29.835018857649594,"lane":{"startLaneIndex":0,"endLaneIndex":0},"lap":0}}],"gameId":"0a72c3be-6df1-482d-a5bc-6f22f65c6a9a","gameTick":184}


>>>>>>>>>>>>>>>>>>>>>>>>>>>>> 14



THROTTLE = 1

{"msgType":"carPositions","data":[{"id":{"name":"speedbooster","color":"red"},"angle":-16.65886325732305,"piecePosition":{"pieceIndex":14,"inPieceDistance":34.702685762946864,"lane":{"startLaneIndex":0,"endLaneIndex":0},"lap":0}}],"gameId":"0a72c3be-6df1-482d-a5bc-6f22f65c6a9a","gameTick":185}


>>>>>>>>>>>>>>>>>>>>>>>>>>>>> 14



THROTTLE = 1

{"msgType":"carPositions","data":[{"id":{"name":"speedbooster","color":"red"},"angle":-15.359193122133377,"piecePosition":{"pieceIndex":14,"inPieceDistance":39.66091621899818,"lane":{"startLaneIndex":0,"endLaneIndex":0},"lap":0}}],"gameId":"0a72c3be-6df1-482d-a5bc-6f22f65c6a9a","gameTick":186}


>>>>>>>>>>>>>>>>>>>>>>>>>>>>> 14



THROTTLE = 1

{"msgType":"carPositions","data":[{"id":{"name":"speedbooster","color":"red"},"angle":-14.094296976564502,"piecePosition":{"pieceIndex":14,"inPieceDistance":44.70782939137742,"lane":{"startLaneIndex":0,"endLaneIndex":0},"lap":0}}],"gameId":"0a72c3be-6df1-482d-a5bc-6f22f65c6a9a","gameTick":187}


>>>>>>>>>>>>>>>>>>>>>>>>>>>>> 14



THROTTLE = 1

{"msgType":"carPositions","data":[{"id":{"name":"speedbooster","color":"red"},"angle":-12.866974579219454,"piecePosition":{"pieceIndex":14,"inPieceDistance":49.84158350704806,"lane":{"startLaneIndex":0,"endLaneIndex":0},"lap":0}}],"gameId":"0a72c3be-6df1-482d-a5bc-6f22f65c6a9a","gameTick":188}


>>>>>>>>>>>>>>>>>>>>>>>>>>>>> 14



THROTTLE = 1

{"msgType":"carPositions","data":[{"id":{"name":"speedbooster","color":"red"},"angle":-11.679814566981038,"piecePosition":{"pieceIndex":14,"inPieceDistance":55.060375043131614,"lane":{"startLaneIndex":0,"endLaneIndex":0},"lap":0}}],"gameId":"0a72c3be-6df1-482d-a5bc-6f22f65c6a9a","gameTick":189}


>>>>>>>>>>>>>>>>>>>>>>>>>>>>> 14



THROTTLE = 1

{"msgType":"carPositions","data":[{"id":{"name":"speedbooster","color":"red"},"angle":-10.535177409209982,"piecePosition":{"pieceIndex":14,"inPieceDistance":60.36243793252395,"lane":{"startLaneIndex":0,"endLaneIndex":0},"lap":0}}],"gameId":"0a72c3be-6df1-482d-a5bc-6f22f65c6a9a","gameTick":190}


>>>>>>>>>>>>>>>>>>>>>>>>>>>>> 14



THROTTLE = 1

{"msgType":"carPositions","data":[{"id":{"name":"speedbooster","color":"red"},"angle":-9.43518125074786,"piecePosition":{"pieceIndex":14,"inPieceDistance":65.74604278600934,"lane":{"startLaneIndex":0,"endLaneIndex":0},"lap":0}}],"gameId":"0a72c3be-6df1-482d-a5bc-6f22f65c6a9a","gameTick":191}


>>>>>>>>>>>>>>>>>>>>>>>>>>>>> 14



THROTTLE = 1

{"msgType":"carPositions","data":[{"id":{"name":"speedbooster","color":"red"},"angle":-8.38169059866315,"piecePosition":{"pieceIndex":14,"inPieceDistance":71.20949613052976,"lane":{"startLaneIndex":0,"endLaneIndex":0},"lap":0}}],"gameId":"0a72c3be-6df1-482d-a5bc-6f22f65c6a9a","gameTick":192}


>>>>>>>>>>>>>>>>>>>>>>>>>>>>> 14



THROTTLE = 1

{"msgType":"carPositions","data":[{"id":{"name":"speedbooster","color":"red"},"angle":-7.376307792369409,"piecePosition":{"pieceIndex":14,"inPieceDistance":76.75113966327395,"lane":{"startLaneIndex":0,"endLaneIndex":0},"lap":0}}],"gameId":"0a72c3be-6df1-482d-a5bc-6f22f65c6a9a","gameTick":193}


>>>>>>>>>>>>>>>>>>>>>>>>>>>>> 14



THROTTLE = 1

{"msgType":"carPositions","data":[{"id":{"name":"speedbooster","color":"red"},"angle":-6.420367181238649,"piecePosition":{"pieceIndex":14,"inPieceDistance":82.3693495212576,"lane":{"startLaneIndex":0,"endLaneIndex":0},"lap":0}}],"gameId":"0a72c3be-6df1-482d-a5bc-6f22f65c6a9a","gameTick":194}


>>>>>>>>>>>>>>>>>>>>>>>>>>>>> 14



THROTTLE = 1

{"msgType":"carPositions","data":[{"id":{"name":"speedbooster","color":"red"},"angle":-5.514931918484077,"piecePosition":{"pieceIndex":14,"inPieceDistance":88.06253556607302,"lane":{"startLaneIndex":0,"endLaneIndex":0},"lap":0}}],"gameId":"0a72c3be-6df1-482d-a5bc-6f22f65c6a9a","gameTick":195}


>>>>>>>>>>>>>>>>>>>>>>>>>>>>> 14



THROTTLE = 1

{"msgType":"carPositions","data":[{"id":{"name":"speedbooster","color":"red"},"angle":-4.6607932652094375,"piecePosition":{"pieceIndex":14,"inPieceDistance":93.82914068349315,"lane":{"startLaneIndex":0,"endLaneIndex":0},"lap":0}}],"gameId":"0a72c3be-6df1-482d-a5bc-6f22f65c6a9a","gameTick":196}


>>>>>>>>>>>>>>>>>>>>>>>>>>>>> 14



THROTTLE = 1

{"msgType":"carPositions","data":[{"id":{"name":"speedbooster","color":"red"},"angle":-3.858472284394269,"piecePosition":{"pieceIndex":14,"inPieceDistance":99.6676400976215,"lane":{"startLaneIndex":0,"endLaneIndex":0},"lap":0}}],"gameId":"0a72c3be-6df1-482d-a5bc-6f22f65c6a9a","gameTick":197}


>>>>>>>>>>>>>>>>>>>>>>>>>>>>> 14



THROTTLE = 1

{"msgType":"carPositions","data":[{"id":{"name":"speedbooster","color":"red"},"angle":-3.108223791445784,"piecePosition":{"pieceIndex":15,"inPieceDistance":5.5765406992859425,"lane":{"startLaneIndex":0,"endLaneIndex":0},"lap":0}}],"gameId":"0a72c3be-6df1-482d-a5bc-6f22f65c6a9a","gameTick":198}


>>>>>>>>>>>>>>>>>>>>>>>>>>>>> 15



THROTTLE = 1

{"msgType":"carPositions","data":[{"id":{"name":"speedbooster","color":"red"},"angle":-2.410042416002921,"piecePosition":{"pieceIndex":15,"inPieceDistance":11.554380388380483,"lane":{"startLaneIndex":0,"endLaneIndex":0},"lap":0}}],"gameId":"0a72c3be-6df1-482d-a5bc-6f22f65c6a9a","gameTick":199}


>>>>>>>>>>>>>>>>>>>>>>>>>>>>> 15



THROTTLE = 1

{"msgType":"carPositions","data":[{"id":{"name":"speedbooster","color":"red"},"angle":-1.7636706190958644,"piecePosition":{"pieceIndex":15,"inPieceDistance":17.599727429865307,"lane":{"startLaneIndex":0,"endLaneIndex":0},"lap":0}}],"gameId":"0a72c3be-6df1-482d-a5bc-6f22f65c6a9a","gameTick":200}


>>>>>>>>>>>>>>>>>>>>>>>>>>>>> 15



THROTTLE = 1

{"msgType":"carPositions","data":[{"id":{"name":"speedbooster","color":"red"},"angle":-1.1686085006803826,"piecePosition":{"pieceIndex":15,"inPieceDistance":23.711179823141556,"lane":{"startLaneIndex":0,"endLaneIndex":0},"lap":0}}],"gameId":"0a72c3be-6df1-482d-a5bc-6f22f65c6a9a","gameTick":201}


>>>>>>>>>>>>>>>>>>>>>>>>>>>>> 15



THROTTLE = 1

{"msgType":"carPositions","data":[{"id":{"name":"speedbooster","color":"red"},"angle":-0.6241252250835913,"piecePosition":{"pieceIndex":15,"inPieceDistance":29.887364684522964,"lane":{"startLaneIndex":0,"endLaneIndex":0},"lap":0}}],"gameId":"0a72c3be-6df1-482d-a5bc-6f22f65c6a9a","gameTick":202}


>>>>>>>>>>>>>>>>>>>>>>>>>>>>> 15



THROTTLE = 1

{"msgType":"carPositions","data":[{"id":{"name":"speedbooster","color":"red"},"angle":-0.12927188608801965,"piecePosition":{"pieceIndex":15,"inPieceDistance":36.12693764253241,"lane":{"startLaneIndex":0,"endLaneIndex":0},"lap":0}}],"gameId":"0a72c3be-6df1-482d-a5bc-6f22f65c6a9a","gameTick":203}


>>>>>>>>>>>>>>>>>>>>>>>>>>>>> 15



THROTTLE = 1

{"msgType":"carPositions","data":[{"id":{"name":"speedbooster","color":"red"},"angle":0.3171043707138269,"piecePosition":{"pieceIndex":15,"inPieceDistance":42.428582245757035,"lane":{"startLaneIndex":0,"endLaneIndex":0},"lap":0}}],"gameId":"0a72c3be-6df1-482d-a5bc-6f22f65c6a9a","gameTick":204}


>>>>>>>>>>>>>>>>>>>>>>>>>>>>> 15



THROTTLE = 0.9

{"msgType":"carPositions","data":[{"id":{"name":"speedbooster","color":"red"},"angle":0.7163451530275291,"piecePosition":{"pieceIndex":15,"inPieceDistance":48.77184380030133,"lane":{"startLaneIndex":0,"endLaneIndex":0},"lap":0}}],"gameId":"0a72c3be-6df1-482d-a5bc-6f22f65c6a9a","gameTick":205}


>>>>>>>>>>>>>>>>>>>>>>>>>>>>> 15



THROTTLE = 0.8

{"msgType":"carPositions","data":[{"id":{"name":"speedbooster","color":"red"},"angle":1.0699819012736316,"piecePosition":{"pieceIndex":15,"inPieceDistance":55.13669241774765,"lane":{"startLaneIndex":0,"endLaneIndex":0},"lap":0}}],"gameId":"0a72c3be-6df1-482d-a5bc-6f22f65c6a9a","gameTick":206}


>>>>>>>>>>>>>>>>>>>>>>>>>>>>> 15



THROTTLE = 0.7

{"msgType":"carPositions","data":[{"id":{"name":"speedbooster","color":"red"},"angle":1.3797421336638562,"piecePosition":{"pieceIndex":15,"inPieceDistance":61.50351419274631,"lane":{"startLaneIndex":0,"endLaneIndex":0},"lap":0}}],"gameId":"0a72c3be-6df1-482d-a5bc-6f22f65c6a9a","gameTick":207}


>>>>>>>>>>>>>>>>>>>>>>>>>>>>> 15



THROTTLE = 0.6

{"msgType":"carPositions","data":[{"id":{"name":"speedbooster","color":"red"},"angle":1.6475456274894407,"piecePosition":{"pieceIndex":15,"inPieceDistance":67.85310256383049,"lane":{"startLaneIndex":0,"endLaneIndex":0},"lap":0}}],"gameId":"0a72c3be-6df1-482d-a5bc-6f22f65c6a9a","gameTick":208}


>>>>>>>>>>>>>>>>>>>>>>>>>>>>> 15



THROTTLE = 0.5

{"msgType":"carPositions","data":[{"id":{"name":"speedbooster","color":"red"},"angle":1.8754922262360447,"piecePosition":{"pieceIndex":15,"inPieceDistance":74.16664985365082,"lane":{"startLaneIndex":0,"endLaneIndex":0},"lap":0}}],"gameId":"0a72c3be-6df1-482d-a5bc-6f22f65c6a9a","gameTick":209}


>>>>>>>>>>>>>>>>>>>>>>>>>>>>> 15



THROTTLE = 0.4

{"msgType":"carPositions","data":[{"id":{"name":"speedbooster","color":"red"},"angle":2.0658429040304487,"piecePosition":{"pieceIndex":15,"inPieceDistance":80.42573898490333,"lane":{"startLaneIndex":0,"endLaneIndex":0},"lap":0}}],"gameId":"0a72c3be-6df1-482d-a5bc-6f22f65c6a9a","gameTick":210}


>>>>>>>>>>>>>>>>>>>>>>>>>>>>> 15



THROTTLE = 0.3

{"msgType":"carPositions","data":[{"id":{"name":"speedbooster","color":"red"},"angle":2.220995645461047,"piecePosition":{"pieceIndex":15,"inPieceDistance":86.61233536830191,"lane":{"startLaneIndex":0,"endLaneIndex":0},"lap":0}}],"gameId":"0a72c3be-6df1-482d-a5bc-6f22f65c6a9a","gameTick":211}


>>>>>>>>>>>>>>>>>>>>>>>>>>>>> 15



THROTTLE = 0.2

{"msgType":"carPositions","data":[{"id":{"name":"speedbooster","color":"red"},"angle":2.3434576082138943,"piecePosition":{"pieceIndex":15,"inPieceDistance":92.70877895902244,"lane":{"startLaneIndex":0,"endLaneIndex":0},"lap":0}}],"gameId":"0a72c3be-6df1-482d-a5bc-6f22f65c6a9a","gameTick":212}


>>>>>>>>>>>>>>>>>>>>>>>>>>>>> 15



THROTTLE = 0.1

{"msgType":"carPositions","data":[{"id":{"name":"speedbooster","color":"red"},"angle":2.4358149282968053,"piecePosition":{"pieceIndex":15,"inPieceDistance":98.6977764781195,"lane":{"startLaneIndex":0,"endLaneIndex":0},"lap":0}}],"gameId":"0a72c3be-6df1-482d-a5bc-6f22f65c6a9a","gameTick":213}


>>>>>>>>>>>>>>>>>>>>>>>>>>>>> 15



THROTTLE = 1.3877787807814E-16

{"msgType":"carPositions","data":[{"id":{"name":"speedbooster","color":"red"},"angle":2.500701404418239,"piecePosition":{"pieceIndex":16,"inPieceDistance":4.562393795489669,"lane":{"startLaneIndex":0,"endLaneIndex":0},"lap":0}}],"gameId":"0a72c3be-6df1-482d-a5bc-6f22f65c6a9a","gameTick":214}


>>>>>>>>>>>>>>>>>>>>>>>>>>>>> 16



THROTTLE = 0.255

{"msgType":"carPositions","data":[{"id":{"name":"speedbooster","color":"red"},"angle":1.3694037424580146,"piecePosition":{"pieceIndex":16,"inPieceDistance":10.354086289610372,"lane":{"startLaneIndex":0,"endLaneIndex":0},"lap":0}}],"gameId":"0a72c3be-6df1-482d-a5bc-6f22f65c6a9a","gameTick":215}


>>>>>>>>>>>>>>>>>>>>>>>>>>>>> 16



THROTTLE = 0.255

{"msgType":"carPositions","data":[{"id":{"name":"speedbooster","color":"red"},"angle":-0.7794861090066936,"piecePosition":{"pieceIndex":16,"inPieceDistance":16.074368471749587,"lane":{"startLaneIndex":0,"endLaneIndex":0},"lap":0}}],"gameId":"0a72c3be-6df1-482d-a5bc-6f22f65c6a9a","gameTick":216}


>>>>>>>>>>>>>>>>>>>>>>>>>>>>> 16



THROTTLE = 0.1

{"msgType":"carPositions","data":[{"id":{"name":"speedbooster","color":"red"},"angle":-3.7800941724415935,"piecePosition":{"pieceIndex":16,"inPieceDistance":21.6950167464434,"lane":{"startLaneIndex":0,"endLaneIndex":0},"lap":0}}],"gameId":"0a72c3be-6df1-482d-a5bc-6f22f65c6a9a","gameTick":217}


>>>>>>>>>>>>>>>>>>>>>>>>>>>>> 16



THROTTLE = 0.1

{"msgType":"carPositions","data":[{"id":{"name":"speedbooster","color":"red"},"angle":-7.459869966942251,"piecePosition":{"pieceIndex":16,"inPieceDistance":27.218100322347745,"lane":{"startLaneIndex":0,"endLaneIndex":0},"lap":0}}],"gameId":"0a72c3be-6df1-482d-a5bc-6f22f65c6a9a","gameTick":218}


>>>>>>>>>>>>>>>>>>>>>>>>>>>>> 16



THROTTLE = 0

{"msgType":"carPositions","data":[{"id":{"name":"speedbooster","color":"red"},"angle":-11.662577371911524,"piecePosition":{"pieceIndex":17,"inPieceDistance":1.2105533159532555,"lane":{"startLaneIndex":0,"endLaneIndex":0},"lap":0}}],"gameId":"0a72c3be-6df1-482d-a5bc-6f22f65c6a9a","gameTick":219}


>>>>>>>>>>>>>>>>>>>>>>>>>>>>> 17



THROTTLE = 0.525

{"msgType":"carPositions","data":[{"id":{"name":"speedbooster","color":"red"},"angle":-15.366169480484501,"piecePosition":{"pieceIndex":17,"inPieceDistance":6.607230295295652,"lane":{"startLaneIndex":0,"endLaneIndex":0},"lap":0}}],"gameId":"0a72c3be-6df1-482d-a5bc-6f22f65c6a9a","gameTick":220}


>>>>>>>>>>>>>>>>>>>>>>>>>>>>> 17



THROTTLE = 0.525

{"msgType":"carPositions","data":[{"id":{"name":"speedbooster","color":"red"},"angle":-18.595744561830173,"piecePosition":{"pieceIndex":17,"inPieceDistance":11.992447764408997,"lane":{"startLaneIndex":0,"endLaneIndex":0},"lap":0}}],"gameId":"0a72c3be-6df1-482d-a5bc-6f22f65c6a9a","gameTick":221}


>>>>>>>>>>>>>>>>>>>>>>>>>>>>> 17



THROTTLE = 0.525

{"msgType":"carPositions","data":[{"id":{"name":"speedbooster","color":"red"},"angle":-21.37718447445936,"piecePosition":{"pieceIndex":17,"inPieceDistance":17.366443715743515,"lane":{"startLaneIndex":0,"endLaneIndex":0},"lap":0}}],"gameId":"0a72c3be-6df1-482d-a5bc-6f22f65c6a9a","gameTick":222}


>>>>>>>>>>>>>>>>>>>>>>>>>>>>> 17



THROTTLE = 0.525

{"msgType":"carPositions","data":[{"id":{"name":"speedbooster","color":"red"},"angle":-23.73687926730478,"piecePosition":{"pieceIndex":17,"inPieceDistance":22.729451199094363,"lane":{"startLaneIndex":0,"endLaneIndex":0},"lap":0}}],"gameId":"0a72c3be-6df1-482d-a5bc-6f22f65c6a9a","gameTick":223}


>>>>>>>>>>>>>>>>>>>>>>>>>>>>> 17



THROTTLE = 0.525

{"msgType":"carPositions","data":[{"id":{"name":"speedbooster","color":"red"},"angle":-25.70147825443822,"piecePosition":{"pieceIndex":17,"inPieceDistance":28.081698424251265,"lane":{"startLaneIndex":0,"endLaneIndex":0},"lap":0}}],"gameId":"0a72c3be-6df1-482d-a5bc-6f22f65c6a9a","gameTick":224}


>>>>>>>>>>>>>>>>>>>>>>>>>>>>> 17



THROTTLE = 0.525

{"msgType":"carPositions","data":[{"id":{"name":"speedbooster","color":"red"},"angle":-27.297666510771133,"piecePosition":{"pieceIndex":17,"inPieceDistance":33.42340886151631,"lane":{"startLaneIndex":0,"endLaneIndex":0},"lap":0}}],"gameId":"0a72c3be-6df1-482d-a5bc-6f22f65c6a9a","gameTick":225}


>>>>>>>>>>>>>>>>>>>>>>>>>>>>> 17



THROTTLE = 0.525

{"msgType":"carPositions","data":[{"id":{"name":"speedbooster","color":"red"},"angle":-28.551965653828795,"piecePosition":{"pieceIndex":17,"inPieceDistance":38.75480134013418,"lane":{"startLaneIndex":0,"endLaneIndex":0},"lap":0}}],"gameId":"0a72c3be-6df1-482d-a5bc-6f22f65c6a9a","gameTick":226}


>>>>>>>>>>>>>>>>>>>>>>>>>>>>> 17



THROTTLE = 0.425

{"msgType":"carPositions","data":[{"id":{"name":"speedbooster","color":"red"},"angle":-29.49055771390997,"piecePosition":{"pieceIndex":17,"inPieceDistance":44.05692456197847,"lane":{"startLaneIndex":0,"endLaneIndex":0},"lap":0}}],"gameId":"0a72c3be-6df1-482d-a5bc-6f22f65c6a9a","gameTick":227}


>>>>>>>>>>>>>>>>>>>>>>>>>>>>> 17



THROTTLE = 0.325

{"msgType":"carPositions","data":[{"id":{"name":"speedbooster","color":"red"},"angle":-30.139837354382948,"piecePosition":{"pieceIndex":17,"inPieceDistance":49.31122081170126,"lane":{"startLaneIndex":0,"endLaneIndex":0},"lap":0}}],"gameId":"0a72c3be-6df1-482d-a5bc-6f22f65c6a9a","gameTick":228}


>>>>>>>>>>>>>>>>>>>>>>>>>>>>> 17



THROTTLE = 0.225

{"msgType":"carPositions","data":[{"id":{"name":"speedbooster","color":"red"},"angle":-30.526234487835644,"piecePosition":{"pieceIndex":18,"inPieceDistance":4.499517782759902,"lane":{"startLaneIndex":0,"endLaneIndex":0},"lap":0}}],"gameId":"0a72c3be-6df1-482d-a5bc-6f22f65c6a9a","gameTick":229}


>>>>>>>>>>>>>>>>>>>>>>>>>>>>> 18



THROTTLE = 0.19875

{"msgType":"carPositions","data":[{"id":{"name":"speedbooster","color":"red"},"angle":-30.35965600305674,"piecePosition":{"pieceIndex":18,"inPieceDistance":9.618155190442856,"lane":{"startLaneIndex":0,"endLaneIndex":0},"lap":0}}],"gameId":"0a72c3be-6df1-482d-a5bc-6f22f65c6a9a","gameTick":230}


>>>>>>>>>>>>>>>>>>>>>>>>>>>>> 18



THROTTLE = 0.19875

{"msgType":"carPositions","data":[{"id":{"name":"speedbooster","color":"red"},"angle":-29.72817872721663,"piecePosition":{"pieceIndex":18,"inPieceDistance":14.66857973271873,"lane":{"startLaneIndex":0,"endLaneIndex":0},"lap":0}}],"gameId":"0a72c3be-6df1-482d-a5bc-6f22f65c6a9a","gameTick":231}


>>>>>>>>>>>>>>>>>>>>>>>>>>>>> 18



THROTTLE = 0.19875

{"msgType":"carPositions","data":[{"id":{"name":"speedbooster","color":"red"},"angle":-28.712665358826914,"piecePosition":{"pieceIndex":18,"inPieceDistance":19.652208062363325,"lane":{"startLaneIndex":0,"endLaneIndex":0},"lap":0}}],"gameId":"0a72c3be-6df1-482d-a5bc-6f22f65c6a9a","gameTick":232}


>>>>>>>>>>>>>>>>>>>>>>>>>>>>> 18



THROTTLE = 0.39875

{"msgType":"carPositions","data":[{"id":{"name":"speedbooster","color":"red"},"angle":-27.38692074186068,"piecePosition":{"pieceIndex":18,"inPieceDistance":24.60875857634116,"lane":{"startLaneIndex":0,"endLaneIndex":0},"lap":0}}],"gameId":"0a72c3be-6df1-482d-a5bc-6f22f65c6a9a","gameTick":233}


>>>>>>>>>>>>>>>>>>>>>>>>>>>>> 18



THROTTLE = 0.39875

{"msgType":"carPositions","data":[{"id":{"name":"speedbooster","color":"red"},"angle":-25.801757108665477,"piecePosition":{"pieceIndex":18,"inPieceDistance":29.538793629898535,"lane":{"startLaneIndex":0,"endLaneIndex":0},"lap":0}}],"gameId":"0a72c3be-6df1-482d-a5bc-6f22f65c6a9a","gameTick":234}


>>>>>>>>>>>>>>>>>>>>>>>>>>>>> 18



THROTTLE = 0.39875

{"msgType":"carPositions","data":[{"id":{"name":"speedbooster","color":"red"},"angle":-24.00407700266151,"piecePosition":{"pieceIndex":18,"inPieceDistance":34.442863899222154,"lane":{"startLaneIndex":0,"endLaneIndex":0},"lap":0}}],"gameId":"0a72c3be-6df1-482d-a5bc-6f22f65c6a9a","gameTick":235}


>>>>>>>>>>>>>>>>>>>>>>>>>>>>> 18



THROTTLE = 0.39875

{"msgType":"carPositions","data":[{"id":{"name":"speedbooster","color":"red"},"angle":-22.036965319061263,"piecePosition":{"pieceIndex":18,"inPieceDistance":39.32150862399119,"lane":{"startLaneIndex":0,"endLaneIndex":0},"lap":0}}],"gameId":"0a72c3be-6df1-482d-a5bc-6f22f65c6a9a","gameTick":236}


>>>>>>>>>>>>>>>>>>>>>>>>>>>>> 18



THROTTLE = 0.39875

{"msgType":"carPositions","data":[{"id":{"name":"speedbooster","color":"red"},"angle":-19.939801960891753,"piecePosition":{"pieceIndex":18,"inPieceDistance":44.175255844892035,"lane":{"startLaneIndex":0,"endLaneIndex":0},"lap":0}}],"gameId":"0a72c3be-6df1-482d-a5bc-6f22f65c6a9a","gameTick":237}


>>>>>>>>>>>>>>>>>>>>>>>>>>>>> 18



THROTTLE = 0.39875

{"msgType":"carPositions","data":[{"id":{"name":"speedbooster","color":"red"},"angle":-17.748391442422285,"piecePosition":{"pieceIndex":19,"inPieceDistance":1.8807328323533596,"lane":{"startLaneIndex":0,"endLaneIndex":0},"lap":0}}],"gameId":"0a72c3be-6df1-482d-a5bc-6f22f65c6a9a","gameTick":238}


>>>>>>>>>>>>>>>>>>>>>>>>>>>>> 19



THROTTLE = 0.39875

{"msgType":"carPositions","data":[{"id":{"name":"speedbooster","color":"red"},"angle":-15.495106107540465,"piecePosition":{"pieceIndex":19,"inPieceDistance":6.686225529685435,"lane":{"startLaneIndex":0,"endLaneIndex":0},"lap":0}}],"gameId":"0a72c3be-6df1-482d-a5bc-6f22f65c6a9a","gameTick":239}


>>>>>>>>>>>>>>>>>>>>>>>>>>>>> 19



THROTTLE = 0.39875

{"msgType":"carPositions","data":[{"id":{"name":"speedbooster","color":"red"},"angle":-13.209039952307164,"piecePosition":{"pieceIndex":19,"inPieceDistance":11.468339953020475,"lane":{"startLaneIndex":0,"endLaneIndex":0},"lap":0}}],"gameId":"0a72c3be-6df1-482d-a5bc-6f22f65c6a9a","gameTick":240}


>>>>>>>>>>>>>>>>>>>>>>>>>>>>> 19



THROTTLE = 0.39875

{"msgType":"carPositions","data":[{"id":{"name":"speedbooster","color":"red"},"angle":-10.916170347408881,"piecePosition":{"pieceIndex":19,"inPieceDistance":16.227561625090207,"lane":{"startLaneIndex":0,"endLaneIndex":0},"lap":0}}],"gameId":"0a72c3be-6df1-482d-a5bc-6f22f65c6a9a","gameTick":241}


>>>>>>>>>>>>>>>>>>>>>>>>>>>>> 19



THROTTLE = 0.39875

{"msgType":"carPositions","data":[{"id":{"name":"speedbooster","color":"red"},"angle":-8.639525246467628,"piecePosition":{"pieceIndex":19,"inPieceDistance":20.964365985233414,"lane":{"startLaneIndex":0,"endLaneIndex":0},"lap":0}}],"gameId":"0a72c3be-6df1-482d-a5bc-6f22f65c6a9a","gameTick":242}


>>>>>>>>>>>>>>>>>>>>>>>>>>>>> 19



THROTTLE = 0.39875

{"msgType":"carPositions","data":[{"id":{"name":"speedbooster","color":"red"},"angle":-6.399353739467575,"piecePosition":{"pieceIndex":19,"inPieceDistance":25.679218598809026,"lane":{"startLaneIndex":0,"endLaneIndex":0},"lap":0}}],"gameId":"0a72c3be-6df1-482d-a5bc-6f22f65c6a9a","gameTick":243}


>>>>>>>>>>>>>>>>>>>>>>>>>>>>> 19



THROTTLE = 0.39875

{"msgType":"carPositions","data":[{"id":{"name":"speedbooster","color":"red"},"angle":-4.213298066519128,"piecePosition":{"pieceIndex":19,"inPieceDistance":30.372575362260083,"lane":{"startLaneIndex":0,"endLaneIndex":0},"lap":0}}],"gameId":"0a72c3be-6df1-482d-a5bc-6f22f65c6a9a","gameTick":244}


>>>>>>>>>>>>>>>>>>>>>>>>>>>>> 19



THROTTLE = 0.39875

{"msgType":"carPositions","data":[{"id":{"name":"speedbooster","color":"red"},"angle":-2.096565445666593,"piecePosition":{"pieceIndex":19,"inPieceDistance":35.044882703918915,"lane":{"startLaneIndex":0,"endLaneIndex":0},"lap":0}}],"gameId":"0a72c3be-6df1-482d-a5bc-6f22f65c6a9a","gameTick":245}


>>>>>>>>>>>>>>>>>>>>>>>>>>>>> 19



THROTTLE = 0.39875

{"msgType":"carPositions","data":[{"id":{"name":"speedbooster","color":"red"},"angle":-0.06209828953481633,"piecePosition":{"pieceIndex":19,"inPieceDistance":39.696577780641974,"lane":{"startLaneIndex":0,"endLaneIndex":0},"lap":0}}],"gameId":"0a72c3be-6df1-482d-a5bc-6f22f65c6a9a","gameTick":246}


>>>>>>>>>>>>>>>>>>>>>>>>>>>>> 19



THROTTLE = 0.39875

{"msgType":"carPositions","data":[{"id":{"name":"speedbooster","color":"red"},"angle":1.8792584104364014,"piecePosition":{"pieceIndex":19,"inPieceDistance":44.328088670360934,"lane":{"startLaneIndex":0,"endLaneIndex":0},"lap":0}}],"gameId":"0a72c3be-6df1-482d-a5bc-6f22f65c6a9a","gameTick":247}


>>>>>>>>>>>>>>>>>>>>>>>>>>>>> 19



THROTTLE = 0.49875

{"msgType":"carPositions","data":[{"id":{"name":"speedbooster","color":"red"},"angle":3.7185935661936718,"piecePosition":{"pieceIndex":20,"inPieceDistance":1.8351103394876844,"lane":{"startLaneIndex":0,"endLaneIndex":0},"lap":0}}],"gameId":"0a72c3be-6df1-482d-a5bc-6f22f65c6a9a","gameTick":248}


>>>>>>>>>>>>>>>>>>>>>>>>>>>>> 20



THROTTLE = 0.49875

{"msgType":"carPositions","data":[{"id":{"name":"speedbooster","color":"red"},"angle":5.35246960936395,"piecePosition":{"pieceIndex":20,"inPieceDistance":6.465434844473161,"lane":{"startLaneIndex":0,"endLaneIndex":0},"lap":0}}],"gameId":"0a72c3be-6df1-482d-a5bc-6f22f65c6a9a","gameTick":249}


>>>>>>>>>>>>>>>>>>>>>>>>>>>>> 20



THROTTLE = 0.59875

{"msgType":"carPositions","data":[{"id":{"name":"speedbooster","color":"red"},"angle":6.791978459224165,"piecePosition":{"pieceIndex":20,"inPieceDistance":11.114350154390099,"lane":{"startLaneIndex":0,"endLaneIndex":0},"lap":0}}],"gameId":"0a72c3be-6df1-482d-a5bc-6f22f65c6a9a","gameTick":250}


>>>>>>>>>>>>>>>>>>>>>>>>>>>>> 20



THROTTLE = 0.69875

{"msgType":"carPositions","data":[{"id":{"name":"speedbooster","color":"red"},"angle":8.048067258293717,"piecePosition":{"pieceIndex":20,"inPieceDistance":15.800635755924608,"lane":{"startLaneIndex":0,"endLaneIndex":0},"lap":0}}],"gameId":"0a72c3be-6df1-482d-a5bc-6f22f65c6a9a","gameTick":251}


>>>>>>>>>>>>>>>>>>>>>>>>>>>>> 20



THROTTLE = 0.79875

{"msgType":"carPositions","data":[{"id":{"name":"speedbooster","color":"red"},"angle":9.13140275031541,"piecePosition":{"pieceIndex":20,"inPieceDistance":20.542681121184415,"lane":{"startLaneIndex":0,"endLaneIndex":0},"lap":0}}],"gameId":"0a72c3be-6df1-482d-a5bc-6f22f65c6a9a","gameTick":252}


>>>>>>>>>>>>>>>>>>>>>>>>>>>>> 20



THROTTLE = 0.89875

{"msgType":"carPositions","data":[{"id":{"name":"speedbooster","color":"red"},"angle":10.052277785521866,"piecePosition":{"pieceIndex":20,"inPieceDistance":25.3584938075673,"lane":{"startLaneIndex":0,"endLaneIndex":0},"lap":0}}],"gameId":"0a72c3be-6df1-482d-a5bc-6f22f65c6a9a","gameTick":253}


>>>>>>>>>>>>>>>>>>>>>>>>>>>>> 20



THROTTLE = 0.99875

{"msgType":"carPositions","data":[{"id":{"name":"speedbooster","color":"red"},"angle":10.820552958599476,"piecePosition":{"pieceIndex":20,"inPieceDistance":30.265707389410498,"lane":{"startLaneIndex":0,"endLaneIndex":0},"lap":0}}],"gameId":"0a72c3be-6df1-482d-a5bc-6f22f65c6a9a","gameTick":254}


>>>>>>>>>>>>>>>>>>>>>>>>>>>>> 20



THROTTLE = 1

{"msgType":"carPositions","data":[{"id":{"name":"speedbooster","color":"red"},"angle":11.445627158817459,"piecePosition":{"pieceIndex":20,"inPieceDistance":35.26266321199873,"lane":{"startLaneIndex":0,"endLaneIndex":0},"lap":0}}],"gameId":"0a72c3be-6df1-482d-a5bc-6f22f65c6a9a","gameTick":255}


>>>>>>>>>>>>>>>>>>>>>>>>>>>>> 20



THROTTLE = 1

{"msgType":"carPositions","data":[{"id":{"name":"speedbooster","color":"red"},"angle":11.93670232242061,"piecePosition":{"pieceIndex":20,"inPieceDistance":40.3474974979683,"lane":{"startLaneIndex":0,"endLaneIndex":0},"lap":0}}],"gameId":"0a72c3be-6df1-482d-a5bc-6f22f65c6a9a","gameTick":256}


>>>>>>>>>>>>>>>>>>>>>>>>>>>>> 20



THROTTLE = 0.9

{"msgType":"carPositions","data":[{"id":{"name":"speedbooster","color":"red"},"angle":12.302799778125374,"piecePosition":{"pieceIndex":21,"inPieceDistance":2.3023206075426614,"lane":{"startLaneIndex":0,"endLaneIndex":1},"lap":0}}],"gameId":"0a72c3be-6df1-482d-a5bc-6f22f65c6a9a","gameTick":257}


>>>>>>>>>>>>>>>>>>>>>>>>>>>>> 21



THROTTLE = 0.6

{"msgType":"carPositions","data":[{"id":{"name":"speedbooster","color":"red"},"angle":12.553061731428446,"piecePosition":{"pieceIndex":21,"inPieceDistance":7.462044632462371,"lane":{"startLaneIndex":0,"endLaneIndex":1},"lap":0}}],"gameId":"0a72c3be-6df1-482d-a5bc-6f22f65c6a9a","gameTick":258}


>>>>>>>>>>>>>>>>>>>>>>>>>>>>> 21



THROTTLE = 0.6

{"msgType":"carPositions","data":[{"id":{"name":"speedbooster","color":"red"},"angle":12.697334571648772,"piecePosition":{"pieceIndex":21,"inPieceDistance":12.629604400880032,"lane":{"startLaneIndex":0,"endLaneIndex":1},"lap":0}}],"gameId":"0a72c3be-6df1-482d-a5bc-6f22f65c6a9a","gameTick":259}


>>>>>>>>>>>>>>>>>>>>>>>>>>>>> 21



THROTTLE = 0.6

{"msgType":"carPositions","data":[{"id":{"name":"speedbooster","color":"red"},"angle":12.745162333723828,"piecePosition":{"pieceIndex":21,"inPieceDistance":17.804837179157193,"lane":{"startLaneIndex":0,"endLaneIndex":1},"lap":0}}],"gameId":"0a72c3be-6df1-482d-a5bc-6f22f65c6a9a","gameTick":260}


>>>>>>>>>>>>>>>>>>>>>>>>>>>>> 21



THROTTLE = 0.6

{"msgType":"carPositions","data":[{"id":{"name":"speedbooster","color":"red"},"angle":12.705758342248938,"piecePosition":{"pieceIndex":21,"inPieceDistance":22.987583613326663,"lane":{"startLaneIndex":0,"endLaneIndex":1},"lap":0}}],"gameId":"0a72c3be-6df1-482d-a5bc-6f22f65c6a9a","gameTick":261}


>>>>>>>>>>>>>>>>>>>>>>>>>>>>> 21



THROTTLE = 0.6

{"msgType":"carPositions","data":[{"id":{"name":"speedbooster","color":"red"},"angle":12.587981345244401,"piecePosition":{"pieceIndex":21,"inPieceDistance":28.177687658903096,"lane":{"startLaneIndex":0,"endLaneIndex":1},"lap":0}}],"gameId":"0a72c3be-6df1-482d-a5bc-6f22f65c6a9a","gameTick":262}


>>>>>>>>>>>>>>>>>>>>>>>>>>>>> 21



THROTTLE = 0.6

{"msgType":"carPositions","data":[{"id":{"name":"speedbooster","color":"red"},"angle":12.400315881808325,"piecePosition":{"pieceIndex":21,"inPieceDistance":33.37499651215129,"lane":{"startLaneIndex":0,"endLaneIndex":1},"lap":0}}],"gameId":"0a72c3be-6df1-482d-a5bc-6f22f65c6a9a","gameTick":263}


>>>>>>>>>>>>>>>>>>>>>>>>>>>>> 21



THROTTLE = 0.6

