{"msgType":"joinRace","data":{"botId":{"name":"speedbooster","key":"w5TYojUOXuT/gw"},"trackName":"keimola","carCount":1}}
{"msgType":"yourCar","data":{"name":"speedbooster","color":"red"},"gameId":"3a02250f-1cc7-4dfe-893e-1a0172217c2c"}
{"msgType":"gameInit","data":{"race":{"track":{"id":"keimola","name":"Keimola","pieces":[{"length":100.0},{"length":100.0},{"length":100.0},{"length":100.0,"switch":true},{"radius":100,"angle":45.0},{"radius":100,"angle":45.0},{"radius":100,"angle":45.0},{"radius":100,"angle":45.0},{"radius":200,"angle":22.5,"switch":true},{"length":100.0},{"length":100.0},{"radius":200,"angle":-22.5},{"length":100.0},{"length":100.0,"switch":true},{"radius":100,"angle":-45.0},{"radius":100,"angle":-45.0},{"radius":100,"angle":-45.0},{"radius":100,"angle":-45.0},{"length":100.0,"switch":true},{"radius":100,"angle":45.0},{"radius":100,"angle":45.0},{"radius":100,"angle":45.0},{"radius":100,"angle":45.0},{"radius":200,"angle":22.5},{"radius":200,"angle":-22.5},{"length":100.0,"switch":true},{"radius":100,"angle":45.0},{"radius":100,"angle":45.0},{"length":62.0},{"radius":100,"angle":-45.0,"switch":true},{"radius":100,"angle":-45.0},{"radius":100,"angle":45.0},{"radius":100,"angle":45.0},{"radius":100,"angle":45.0},{"radius":100,"angle":45.0},{"length":100.0,"switch":true},{"length":100.0},{"length":100.0},{"length":100.0},{"length":90.0}],"lanes":[{"distanceFromCenter":-10,"index":0},{"distanceFromCenter":10,"index":1}],"startingPoint":{"position":{"x":-300.0,"y":-44.0},"angle":90.0}},"cars":[{"id":{"name":"speedbooster","color":"red"},"dimensions":{"length":40.0,"width":20.0,"guideFlagPosition":10.0}}],"raceSession":{"laps":3,"maxLapTimeMs":60000,"quickRace":true}}},"gameId":"3a02250f-1cc7-4dfe-893e-1a0172217c2c"}
{"msgType":"carPositions","data":[{"id":{"name":"speedbooster","color":"red"},"angle":0.0,"piecePosition":{"pieceIndex":0,"inPieceDistance":0.0,"lane":{"startLaneIndex":0,"endLaneIndex":0},"lap":0}}],"gameId":"3a02250f-1cc7-4dfe-893e-1a0172217c2c"}


>>>>>>>>>>>>>>>>>>>>>>>>>>>>> 0



THROTTLE = 1

{"msgType":"gameStart","data":null,"gameId":"3a02250f-1cc7-4dfe-893e-1a0172217c2c","gameTick":0}
{"msgType":"carPositions","data":[{"id":{"name":"speedbooster","color":"red"},"angle":0.0,"piecePosition":{"pieceIndex":0,"inPieceDistance":0.0,"lane":{"startLaneIndex":0,"endLaneIndex":0},"lap":0}}],"gameId":"3a02250f-1cc7-4dfe-893e-1a0172217c2c","gameTick":1}


>>>>>>>>>>>>>>>>>>>>>>>>>>>>> 0



THROTTLE = 1

{"msgType":"carPositions","data":[{"id":{"name":"speedbooster","color":"red"},"angle":0.0,"piecePosition":{"pieceIndex":0,"inPieceDistance":0.0,"lane":{"startLaneIndex":0,"endLaneIndex":0},"lap":0}}],"gameId":"3a02250f-1cc7-4dfe-893e-1a0172217c2c","gameTick":2}


>>>>>>>>>>>>>>>>>>>>>>>>>>>>> 0



THROTTLE = 1

{"msgType":"carPositions","data":[{"id":{"name":"speedbooster","color":"red"},"angle":0.0,"piecePosition":{"pieceIndex":0,"inPieceDistance":0.0,"lane":{"startLaneIndex":0,"endLaneIndex":0},"lap":0}}],"gameId":"3a02250f-1cc7-4dfe-893e-1a0172217c2c","gameTick":3}


>>>>>>>>>>>>>>>>>>>>>>>>>>>>> 0



THROTTLE = 1

{"msgType":"carPositions","data":[{"id":{"name":"speedbooster","color":"red"},"angle":0.0,"piecePosition":{"pieceIndex":0,"inPieceDistance":0.2033248661813962,"lane":{"startLaneIndex":0,"endLaneIndex":0},"lap":0}}],"gameId":"3a02250f-1cc7-4dfe-893e-1a0172217c2c","gameTick":4}


>>>>>>>>>>>>>>>>>>>>>>>>>>>>> 0



THROTTLE = 1

{"msgType":"carPositions","data":[{"id":{"name":"speedbooster","color":"red"},"angle":0.0,"piecePosition":{"pieceIndex":0,"inPieceDistance":0.6059038313461286,"lane":{"startLaneIndex":0,"endLaneIndex":0},"lap":0}}],"gameId":"3a02250f-1cc7-4dfe-893e-1a0172217c2c","gameTick":5}


>>>>>>>>>>>>>>>>>>>>>>>>>>>>> 0



THROTTLE = 1

{"msgType":"carPositions","data":[{"id":{"name":"speedbooster","color":"red"},"angle":0.0,"piecePosition":{"pieceIndex":0,"inPieceDistance":1.2037476291272555,"lane":{"startLaneIndex":0,"endLaneIndex":0},"lap":0}}],"gameId":"3a02250f-1cc7-4dfe-893e-1a0172217c2c","gameTick":6}


>>>>>>>>>>>>>>>>>>>>>>>>>>>>> 0



THROTTLE = 1

{"msgType":"carPositions","data":[{"id":{"name":"speedbooster","color":"red"},"angle":0.0,"piecePosition":{"pieceIndex":0,"inPieceDistance":1.9929468622607927,"lane":{"startLaneIndex":0,"endLaneIndex":0},"lap":0}}],"gameId":"3a02250f-1cc7-4dfe-893e-1a0172217c2c","gameTick":7}


>>>>>>>>>>>>>>>>>>>>>>>>>>>>> 0



THROTTLE = 1

{"msgType":"carPositions","data":[{"id":{"name":"speedbooster","color":"red"},"angle":0.0,"piecePosition":{"pieceIndex":0,"inPieceDistance":2.969670403526383,"lane":{"startLaneIndex":0,"endLaneIndex":0},"lap":0}}],"gameId":"3a02250f-1cc7-4dfe-893e-1a0172217c2c","gameTick":8}


>>>>>>>>>>>>>>>>>>>>>>>>>>>>> 0



THROTTLE = 1

{"msgType":"carPositions","data":[{"id":{"name":"speedbooster","color":"red"},"angle":0.0,"piecePosition":{"pieceIndex":0,"inPieceDistance":4.130163828702731,"lane":{"startLaneIndex":0,"endLaneIndex":0},"lap":0}}],"gameId":"3a02250f-1cc7-4dfe-893e-1a0172217c2c","gameTick":9}


>>>>>>>>>>>>>>>>>>>>>>>>>>>>> 0



THROTTLE = 1

{"msgType":"carPositions","data":[{"id":{"name":"speedbooster","color":"red"},"angle":0.0,"piecePosition":{"pieceIndex":0,"inPieceDistance":5.470747880896843,"lane":{"startLaneIndex":0,"endLaneIndex":0},"lap":0}}],"gameId":"3a02250f-1cc7-4dfe-893e-1a0172217c2c","gameTick":10}


>>>>>>>>>>>>>>>>>>>>>>>>>>>>> 0



THROTTLE = 1

{"msgType":"carPositions","data":[{"id":{"name":"speedbooster","color":"red"},"angle":0.0,"piecePosition":{"pieceIndex":0,"inPieceDistance":6.987816965618923,"lane":{"startLaneIndex":0,"endLaneIndex":0},"lap":0}}],"gameId":"3a02250f-1cc7-4dfe-893e-1a0172217c2c","gameTick":11}


>>>>>>>>>>>>>>>>>>>>>>>>>>>>> 0



THROTTLE = 1

{"msgType":"carPositions","data":[{"id":{"name":"speedbooster","color":"red"},"angle":0.0,"piecePosition":{"pieceIndex":0,"inPieceDistance":8.677837675987384,"lane":{"startLaneIndex":0,"endLaneIndex":0},"lap":0}}],"gameId":"3a02250f-1cc7-4dfe-893e-1a0172217c2c","gameTick":12}


>>>>>>>>>>>>>>>>>>>>>>>>>>>>> 0



THROTTLE = 1

{"msgType":"carPositions","data":[{"id":{"name":"speedbooster","color":"red"},"angle":0.0,"piecePosition":{"pieceIndex":0,"inPieceDistance":10.53734734746072,"lane":{"startLaneIndex":0,"endLaneIndex":0},"lap":0}}],"gameId":"3a02250f-1cc7-4dfe-893e-1a0172217c2c","gameTick":13}


>>>>>>>>>>>>>>>>>>>>>>>>>>>>> 0



THROTTLE = 1

{"msgType":"carPositions","data":[{"id":{"name":"speedbooster","color":"red"},"angle":0.0,"piecePosition":{"pieceIndex":0,"inPieceDistance":12.562952641505102,"lane":{"startLaneIndex":0,"endLaneIndex":0},"lap":0}}],"gameId":"3a02250f-1cc7-4dfe-893e-1a0172217c2c","gameTick":14}


>>>>>>>>>>>>>>>>>>>>>>>>>>>>> 0



THROTTLE = 1

{"msgType":"carPositions","data":[{"id":{"name":"speedbooster","color":"red"},"angle":0.0,"piecePosition":{"pieceIndex":0,"inPieceDistance":14.75132815761836,"lane":{"startLaneIndex":0,"endLaneIndex":0},"lap":0}}],"gameId":"3a02250f-1cc7-4dfe-893e-1a0172217c2c","gameTick":15}


>>>>>>>>>>>>>>>>>>>>>>>>>>>>> 0



THROTTLE = 1

{"msgType":"carPositions","data":[{"id":{"name":"speedbooster","color":"red"},"angle":0.0,"piecePosition":{"pieceIndex":0,"inPieceDistance":17.099215073142627,"lane":{"startLaneIndex":0,"endLaneIndex":0},"lap":0}}],"gameId":"3a02250f-1cc7-4dfe-893e-1a0172217c2c","gameTick":16}


>>>>>>>>>>>>>>>>>>>>>>>>>>>>> 0



THROTTLE = 1

{"msgType":"carPositions","data":[{"id":{"name":"speedbooster","color":"red"},"angle":0.0,"piecePosition":{"pieceIndex":0,"inPieceDistance":19.603419810309315,"lane":{"startLaneIndex":0,"endLaneIndex":0},"lap":0}}],"gameId":"3a02250f-1cc7-4dfe-893e-1a0172217c2c","gameTick":17}


>>>>>>>>>>>>>>>>>>>>>>>>>>>>> 0



THROTTLE = 1

{"msgType":"carPositions","data":[{"id":{"name":"speedbooster","color":"red"},"angle":0.0,"piecePosition":{"pieceIndex":0,"inPieceDistance":22.260812729971153,"lane":{"startLaneIndex":0,"endLaneIndex":0},"lap":0}}],"gameId":"3a02250f-1cc7-4dfe-893e-1a0172217c2c","gameTick":18}


>>>>>>>>>>>>>>>>>>>>>>>>>>>>> 0



THROTTLE = 1

{"msgType":"carPositions","data":[{"id":{"name":"speedbooster","color":"red"},"angle":0.0,"piecePosition":{"pieceIndex":0,"inPieceDistance":25.06832685148705,"lane":{"startLaneIndex":0,"endLaneIndex":0},"lap":0}}],"gameId":"3a02250f-1cc7-4dfe-893e-1a0172217c2c","gameTick":19}


>>>>>>>>>>>>>>>>>>>>>>>>>>>>> 0



THROTTLE = 1

{"msgType":"carPositions","data":[{"id":{"name":"speedbooster","color":"red"},"angle":0.0,"piecePosition":{"pieceIndex":0,"inPieceDistance":28.02295659823611,"lane":{"startLaneIndex":0,"endLaneIndex":0},"lap":0}}],"gameId":"3a02250f-1cc7-4dfe-893e-1a0172217c2c","gameTick":20}


>>>>>>>>>>>>>>>>>>>>>>>>>>>>> 0



THROTTLE = 1

{"msgType":"carPositions","data":[{"id":{"name":"speedbooster","color":"red"},"angle":0.0,"piecePosition":{"pieceIndex":0,"inPieceDistance":31.12175656824774,"lane":{"startLaneIndex":0,"endLaneIndex":0},"lap":0}}],"gameId":"3a02250f-1cc7-4dfe-893e-1a0172217c2c","gameTick":21}


>>>>>>>>>>>>>>>>>>>>>>>>>>>>> 0



THROTTLE = 1

{"msgType":"carPositions","data":[{"id":{"name":"speedbooster","color":"red"},"angle":0.0,"piecePosition":{"pieceIndex":0,"inPieceDistance":34.36184032944496,"lane":{"startLaneIndex":0,"endLaneIndex":0},"lap":0}}],"gameId":"3a02250f-1cc7-4dfe-893e-1a0172217c2c","gameTick":22}


>>>>>>>>>>>>>>>>>>>>>>>>>>>>> 0



THROTTLE = 1

{"msgType":"carPositions","data":[{"id":{"name":"speedbooster","color":"red"},"angle":0.0,"piecePosition":{"pieceIndex":0,"inPieceDistance":37.740379239008135,"lane":{"startLaneIndex":0,"endLaneIndex":0},"lap":0}}],"gameId":"3a02250f-1cc7-4dfe-893e-1a0172217c2c","gameTick":23}


>>>>>>>>>>>>>>>>>>>>>>>>>>>>> 0



THROTTLE = 1

{"msgType":"carPositions","data":[{"id":{"name":"speedbooster","color":"red"},"angle":0.0,"piecePosition":{"pieceIndex":0,"inPieceDistance":41.254601286376264,"lane":{"startLaneIndex":0,"endLaneIndex":0},"lap":0}}],"gameId":"3a02250f-1cc7-4dfe-893e-1a0172217c2c","gameTick":24}


>>>>>>>>>>>>>>>>>>>>>>>>>>>>> 0



THROTTLE = 1

{"msgType":"carPositions","data":[{"id":{"name":"speedbooster","color":"red"},"angle":0.0,"piecePosition":{"pieceIndex":0,"inPieceDistance":44.90178995941249,"lane":{"startLaneIndex":0,"endLaneIndex":0},"lap":0}}],"gameId":"3a02250f-1cc7-4dfe-893e-1a0172217c2c","gameTick":25}


>>>>>>>>>>>>>>>>>>>>>>>>>>>>> 0



THROTTLE = 1

{"msgType":"carPositions","data":[{"id":{"name":"speedbooster","color":"red"},"angle":0.0,"piecePosition":{"pieceIndex":0,"inPieceDistance":48.67928313327014,"lane":{"startLaneIndex":0,"endLaneIndex":0},"lap":0}}],"gameId":"3a02250f-1cc7-4dfe-893e-1a0172217c2c","gameTick":26}


>>>>>>>>>>>>>>>>>>>>>>>>>>>>> 0



THROTTLE = 1

{"msgType":"carPositions","data":[{"id":{"name":"speedbooster","color":"red"},"angle":0.0,"piecePosition":{"pieceIndex":0,"inPieceDistance":52.5844719815048,"lane":{"startLaneIndex":0,"endLaneIndex":0},"lap":0}}],"gameId":"3a02250f-1cc7-4dfe-893e-1a0172217c2c","gameTick":27}


>>>>>>>>>>>>>>>>>>>>>>>>>>>>> 0



THROTTLE = 1

{"msgType":"carPositions","data":[{"id":{"name":"speedbooster","color":"red"},"angle":0.0,"piecePosition":{"pieceIndex":0,"inPieceDistance":56.614799908986946,"lane":{"startLaneIndex":0,"endLaneIndex":0},"lap":0}}],"gameId":"3a02250f-1cc7-4dfe-893e-1a0172217c2c","gameTick":28}


>>>>>>>>>>>>>>>>>>>>>>>>>>>>> 0



THROTTLE = 1

{"msgType":"carPositions","data":[{"id":{"name":"speedbooster","color":"red"},"angle":0.0,"piecePosition":{"pieceIndex":0,"inPieceDistance":60.767761506178815,"lane":{"startLaneIndex":0,"endLaneIndex":0},"lap":0}}],"gameId":"3a02250f-1cc7-4dfe-893e-1a0172217c2c","gameTick":29}


>>>>>>>>>>>>>>>>>>>>>>>>>>>>> 0



THROTTLE = 1

{"msgType":"carPositions","data":[{"id":{"name":"speedbooster","color":"red"},"angle":0.0,"piecePosition":{"pieceIndex":0,"inPieceDistance":65.04090152434765,"lane":{"startLaneIndex":0,"endLaneIndex":0},"lap":0}}],"gameId":"3a02250f-1cc7-4dfe-893e-1a0172217c2c","gameTick":30}


>>>>>>>>>>>>>>>>>>>>>>>>>>>>> 0



THROTTLE = 1

{"msgType":"carPositions","data":[{"id":{"name":"speedbooster","color":"red"},"angle":0.0,"piecePosition":{"pieceIndex":0,"inPieceDistance":69.43181387129617,"lane":{"startLaneIndex":0,"endLaneIndex":0},"lap":0}}],"gameId":"3a02250f-1cc7-4dfe-893e-1a0172217c2c","gameTick":31}


>>>>>>>>>>>>>>>>>>>>>>>>>>>>> 0



THROTTLE = 1

{"msgType":"carPositions","data":[{"id":{"name":"speedbooster","color":"red"},"angle":0.0,"piecePosition":{"pieceIndex":0,"inPieceDistance":73.93814062719963,"lane":{"startLaneIndex":0,"endLaneIndex":0},"lap":0}}],"gameId":"3a02250f-1cc7-4dfe-893e-1a0172217c2c","gameTick":32}


>>>>>>>>>>>>>>>>>>>>>>>>>>>>> 0



THROTTLE = 1

{"msgType":"carPositions","data":[{"id":{"name":"speedbooster","color":"red"},"angle":0.0,"piecePosition":{"pieceIndex":0,"inPieceDistance":78.55757108014669,"lane":{"startLaneIndex":0,"endLaneIndex":0},"lap":0}}],"gameId":"3a02250f-1cc7-4dfe-893e-1a0172217c2c","gameTick":33}


>>>>>>>>>>>>>>>>>>>>>>>>>>>>> 0



THROTTLE = 1

{"msgType":"carPositions","data":[{"id":{"name":"speedbooster","color":"red"},"angle":0.0,"piecePosition":{"pieceIndex":0,"inPieceDistance":83.28784078098978,"lane":{"startLaneIndex":0,"endLaneIndex":0},"lap":0}}],"gameId":"3a02250f-1cc7-4dfe-893e-1a0172217c2c","gameTick":34}


>>>>>>>>>>>>>>>>>>>>>>>>>>>>> 0



THROTTLE = 1

{"msgType":"carPositions","data":[{"id":{"name":"speedbooster","color":"red"},"angle":0.0,"piecePosition":{"pieceIndex":0,"inPieceDistance":88.1267306171183,"lane":{"startLaneIndex":0,"endLaneIndex":0},"lap":0}}],"gameId":"3a02250f-1cc7-4dfe-893e-1a0172217c2c","gameTick":35}


>>>>>>>>>>>>>>>>>>>>>>>>>>>>> 0



THROTTLE = 1

