{"msgType":"joinRace","data":{"botId":{"name":"speedbooster","key":"w5TYojUOXuT/gw"},"trackName":"keimola"}}
{"msgType":"yourCar","data":{"name":"speedbooster","color":"red"},"gameId":"00bb1462-cce4-4ff6-bf15-70da2eb92bfc"}
{"msgType":"gameInit","data":{"race":{"track":{"id":"keimola","name":"Keimola","pieces":[{"length":100.0},{"length":100.0},{"length":100.0},{"length":100.0,"switch":true},{"radius":100,"angle":45.0},{"radius":100,"angle":45.0},{"radius":100,"angle":45.0},{"radius":100,"angle":45.0},{"radius":200,"angle":22.5,"switch":true},{"length":100.0},{"length":100.0},{"radius":200,"angle":-22.5},{"length":100.0},{"length":100.0,"switch":true},{"radius":100,"angle":-45.0},{"radius":100,"angle":-45.0},{"radius":100,"angle":-45.0},{"radius":100,"angle":-45.0},{"length":100.0,"switch":true},{"radius":100,"angle":45.0},{"radius":100,"angle":45.0},{"radius":100,"angle":45.0},{"radius":100,"angle":45.0},{"radius":200,"angle":22.5},{"radius":200,"angle":-22.5},{"length":100.0,"switch":true},{"radius":100,"angle":45.0},{"radius":100,"angle":45.0},{"length":62.0},{"radius":100,"angle":-45.0,"switch":true},{"radius":100,"angle":-45.0},{"radius":100,"angle":45.0},{"radius":100,"angle":45.0},{"radius":100,"angle":45.0},{"radius":100,"angle":45.0},{"length":100.0,"switch":true},{"length":100.0},{"length":100.0},{"length":100.0},{"length":90.0}],"lanes":[{"distanceFromCenter":-10,"index":0},{"distanceFromCenter":10,"index":1}],"startingPoint":{"position":{"x":-300.0,"y":-44.0},"angle":90.0}},"cars":[{"id":{"name":"speedbooster","color":"red"},"dimensions":{"length":40.0,"width":20.0,"guideFlagPosition":10.0}}],"raceSession":{"laps":3,"maxLapTimeMs":60000,"quickRace":true}}},"gameId":"00bb1462-cce4-4ff6-bf15-70da2eb92bfc"}
{"msgType":"carPositions","data":[{"id":{"name":"speedbooster","color":"red"},"angle":0.0,"piecePosition":{"pieceIndex":0,"inPieceDistance":0.0,"lane":{"startLaneIndex":0,"endLaneIndex":0},"lap":0}}],"gameId":"00bb1462-cce4-4ff6-bf15-70da2eb92bfc"}


>>>>>>>>>>>>>>>>>>>>>>>>>>>>> 0



THROTTLE = 1

{"msgType":"gameStart","data":null,"gameId":"00bb1462-cce4-4ff6-bf15-70da2eb92bfc","gameTick":0}
{"msgType":"carPositions","data":[{"id":{"name":"speedbooster","color":"red"},"angle":0.0,"piecePosition":{"pieceIndex":0,"inPieceDistance":0.0,"lane":{"startLaneIndex":0,"endLaneIndex":0},"lap":0}}],"gameId":"00bb1462-cce4-4ff6-bf15-70da2eb92bfc","gameTick":1}


>>>>>>>>>>>>>>>>>>>>>>>>>>>>> 0



THROTTLE = 1

{"msgType":"carPositions","data":[{"id":{"name":"speedbooster","color":"red"},"angle":0.0,"piecePosition":{"pieceIndex":0,"inPieceDistance":0.0,"lane":{"startLaneIndex":0,"endLaneIndex":0},"lap":0}}],"gameId":"00bb1462-cce4-4ff6-bf15-70da2eb92bfc","gameTick":2}


>>>>>>>>>>>>>>>>>>>>>>>>>>>>> 0



THROTTLE = 1

{"msgType":"carPositions","data":[{"id":{"name":"speedbooster","color":"red"},"angle":0.0,"piecePosition":{"pieceIndex":0,"inPieceDistance":0.2,"lane":{"startLaneIndex":0,"endLaneIndex":0},"lap":0}}],"gameId":"00bb1462-cce4-4ff6-bf15-70da2eb92bfc","gameTick":3}


>>>>>>>>>>>>>>>>>>>>>>>>>>>>> 0



THROTTLE = 1

{"msgType":"carPositions","data":[{"id":{"name":"speedbooster","color":"red"},"angle":0.0,"piecePosition":{"pieceIndex":0,"inPieceDistance":0.5960000000000001,"lane":{"startLaneIndex":0,"endLaneIndex":0},"lap":0}}],"gameId":"00bb1462-cce4-4ff6-bf15-70da2eb92bfc","gameTick":4}


>>>>>>>>>>>>>>>>>>>>>>>>>>>>> 0



THROTTLE = 1

{"msgType":"carPositions","data":[{"id":{"name":"speedbooster","color":"red"},"angle":0.0,"piecePosition":{"pieceIndex":0,"inPieceDistance":1.1840800000000002,"lane":{"startLaneIndex":0,"endLaneIndex":0},"lap":0}}],"gameId":"00bb1462-cce4-4ff6-bf15-70da2eb92bfc","gameTick":5}


>>>>>>>>>>>>>>>>>>>>>>>>>>>>> 0



THROTTLE = 1

{"msgType":"carPositions","data":[{"id":{"name":"speedbooster","color":"red"},"angle":0.0,"piecePosition":{"pieceIndex":0,"inPieceDistance":1.9603984000000003,"lane":{"startLaneIndex":0,"endLaneIndex":0},"lap":0}}],"gameId":"00bb1462-cce4-4ff6-bf15-70da2eb92bfc","gameTick":6}


>>>>>>>>>>>>>>>>>>>>>>>>>>>>> 0



THROTTLE = 1

{"msgType":"carPositions","data":[{"id":{"name":"speedbooster","color":"red"},"angle":0.0,"piecePosition":{"pieceIndex":0,"inPieceDistance":2.9211904320000004,"lane":{"startLaneIndex":0,"endLaneIndex":0},"lap":0}}],"gameId":"00bb1462-cce4-4ff6-bf15-70da2eb92bfc","gameTick":7}


>>>>>>>>>>>>>>>>>>>>>>>>>>>>> 0



THROTTLE = 1

{"msgType":"carPositions","data":[{"id":{"name":"speedbooster","color":"red"},"angle":0.0,"piecePosition":{"pieceIndex":0,"inPieceDistance":4.06276662336,"lane":{"startLaneIndex":0,"endLaneIndex":0},"lap":0}}],"gameId":"00bb1462-cce4-4ff6-bf15-70da2eb92bfc","gameTick":8}


>>>>>>>>>>>>>>>>>>>>>>>>>>>>> 0



THROTTLE = 1

{"msgType":"carPositions","data":[{"id":{"name":"speedbooster","color":"red"},"angle":0.0,"piecePosition":{"pieceIndex":0,"inPieceDistance":5.3815112908928,"lane":{"startLaneIndex":0,"endLaneIndex":0},"lap":0}}],"gameId":"00bb1462-cce4-4ff6-bf15-70da2eb92bfc","gameTick":9}


>>>>>>>>>>>>>>>>>>>>>>>>>>>>> 0



THROTTLE = 1

{"msgType":"carPositions","data":[{"id":{"name":"speedbooster","color":"red"},"angle":0.0,"piecePosition":{"pieceIndex":0,"inPieceDistance":6.8738810650749445,"lane":{"startLaneIndex":0,"endLaneIndex":0},"lap":0}}],"gameId":"00bb1462-cce4-4ff6-bf15-70da2eb92bfc","gameTick":10}


>>>>>>>>>>>>>>>>>>>>>>>>>>>>> 0



THROTTLE = 1

{"msgType":"carPositions","data":[{"id":{"name":"speedbooster","color":"red"},"angle":0.0,"piecePosition":{"pieceIndex":0,"inPieceDistance":8.536403443773445,"lane":{"startLaneIndex":0,"endLaneIndex":0},"lap":0}}],"gameId":"00bb1462-cce4-4ff6-bf15-70da2eb92bfc","gameTick":11}


>>>>>>>>>>>>>>>>>>>>>>>>>>>>> 0



THROTTLE = 1

{"msgType":"carPositions","data":[{"id":{"name":"speedbooster","color":"red"},"angle":0.0,"piecePosition":{"pieceIndex":0,"inPieceDistance":10.365675374897975,"lane":{"startLaneIndex":0,"endLaneIndex":0},"lap":0}}],"gameId":"00bb1462-cce4-4ff6-bf15-70da2eb92bfc","gameTick":12}


>>>>>>>>>>>>>>>>>>>>>>>>>>>>> 0



THROTTLE = 1

{"msgType":"carPositions","data":[{"id":{"name":"speedbooster","color":"red"},"angle":0.0,"piecePosition":{"pieceIndex":0,"inPieceDistance":12.358361867400015,"lane":{"startLaneIndex":0,"endLaneIndex":0},"lap":0}}],"gameId":"00bb1462-cce4-4ff6-bf15-70da2eb92bfc","gameTick":13}


>>>>>>>>>>>>>>>>>>>>>>>>>>>>> 0



THROTTLE = 1

{"msgType":"carPositions","data":[{"id":{"name":"speedbooster","color":"red"},"angle":0.0,"piecePosition":{"pieceIndex":0,"inPieceDistance":14.511194630052014,"lane":{"startLaneIndex":0,"endLaneIndex":0},"lap":0}}],"gameId":"00bb1462-cce4-4ff6-bf15-70da2eb92bfc","gameTick":14}


>>>>>>>>>>>>>>>>>>>>>>>>>>>>> 0



THROTTLE = 1

{"msgType":"carPositions","data":[{"id":{"name":"speedbooster","color":"red"},"angle":0.0,"piecePosition":{"pieceIndex":0,"inPieceDistance":16.820970737450974,"lane":{"startLaneIndex":0,"endLaneIndex":0},"lap":0}}],"gameId":"00bb1462-cce4-4ff6-bf15-70da2eb92bfc","gameTick":15}


>>>>>>>>>>>>>>>>>>>>>>>>>>>>> 0



THROTTLE = 1

{"msgType":"carPositions","data":[{"id":{"name":"speedbooster","color":"red"},"angle":0.0,"piecePosition":{"pieceIndex":0,"inPieceDistance":19.284551322701954,"lane":{"startLaneIndex":0,"endLaneIndex":0},"lap":0}}],"gameId":"00bb1462-cce4-4ff6-bf15-70da2eb92bfc","gameTick":16}


>>>>>>>>>>>>>>>>>>>>>>>>>>>>> 0



THROTTLE = 1

{"msgType":"carPositions","data":[{"id":{"name":"speedbooster","color":"red"},"angle":0.0,"piecePosition":{"pieceIndex":0,"inPieceDistance":21.898860296247914,"lane":{"startLaneIndex":0,"endLaneIndex":0},"lap":0}}],"gameId":"00bb1462-cce4-4ff6-bf15-70da2eb92bfc","gameTick":17}


>>>>>>>>>>>>>>>>>>>>>>>>>>>>> 0



THROTTLE = 1

{"msgType":"carPositions","data":[{"id":{"name":"speedbooster","color":"red"},"angle":0.0,"piecePosition":{"pieceIndex":0,"inPieceDistance":24.660883090322955,"lane":{"startLaneIndex":0,"endLaneIndex":0},"lap":0}}],"gameId":"00bb1462-cce4-4ff6-bf15-70da2eb92bfc","gameTick":18}


>>>>>>>>>>>>>>>>>>>>>>>>>>>>> 0



THROTTLE = 1

{"msgType":"carPositions","data":[{"id":{"name":"speedbooster","color":"red"},"angle":0.0,"piecePosition":{"pieceIndex":0,"inPieceDistance":27.567665428516495,"lane":{"startLaneIndex":0,"endLaneIndex":0},"lap":0}}],"gameId":"00bb1462-cce4-4ff6-bf15-70da2eb92bfc","gameTick":19}


>>>>>>>>>>>>>>>>>>>>>>>>>>>>> 0



THROTTLE = 1

{"msgType":"carPositions","data":[{"id":{"name":"speedbooster","color":"red"},"angle":0.0,"piecePosition":{"pieceIndex":0,"inPieceDistance":30.616312119946166,"lane":{"startLaneIndex":0,"endLaneIndex":0},"lap":0}}],"gameId":"00bb1462-cce4-4ff6-bf15-70da2eb92bfc","gameTick":20}


>>>>>>>>>>>>>>>>>>>>>>>>>>>>> 0



THROTTLE = 1

{"msgType":"carPositions","data":[{"id":{"name":"speedbooster","color":"red"},"angle":0.0,"piecePosition":{"pieceIndex":0,"inPieceDistance":33.80398587754724,"lane":{"startLaneIndex":0,"endLaneIndex":0},"lap":0}}],"gameId":"00bb1462-cce4-4ff6-bf15-70da2eb92bfc","gameTick":21}


>>>>>>>>>>>>>>>>>>>>>>>>>>>>> 0



THROTTLE = 1

{"msgType":"carPositions","data":[{"id":{"name":"speedbooster","color":"red"},"angle":0.0,"piecePosition":{"pieceIndex":0,"inPieceDistance":37.12790615999629,"lane":{"startLaneIndex":0,"endLaneIndex":0},"lap":0}}],"gameId":"00bb1462-cce4-4ff6-bf15-70da2eb92bfc","gameTick":22}


>>>>>>>>>>>>>>>>>>>>>>>>>>>>> 0



THROTTLE = 1

{"msgType":"carPositions","data":[{"id":{"name":"speedbooster","color":"red"},"angle":0.0,"piecePosition":{"pieceIndex":0,"inPieceDistance":40.58534803679637,"lane":{"startLaneIndex":0,"endLaneIndex":0},"lap":0}}],"gameId":"00bb1462-cce4-4ff6-bf15-70da2eb92bfc","gameTick":23}


>>>>>>>>>>>>>>>>>>>>>>>>>>>>> 0



THROTTLE = 1

{"msgType":"carPositions","data":[{"id":{"name":"speedbooster","color":"red"},"angle":0.0,"piecePosition":{"pieceIndex":0,"inPieceDistance":44.17364107606044,"lane":{"startLaneIndex":0,"endLaneIndex":0},"lap":0}}],"gameId":"00bb1462-cce4-4ff6-bf15-70da2eb92bfc","gameTick":24}


>>>>>>>>>>>>>>>>>>>>>>>>>>>>> 0



THROTTLE = 1

{"msgType":"carPositions","data":[{"id":{"name":"speedbooster","color":"red"},"angle":0.0,"piecePosition":{"pieceIndex":0,"inPieceDistance":47.89016825453923,"lane":{"startLaneIndex":0,"endLaneIndex":0},"lap":0}}],"gameId":"00bb1462-cce4-4ff6-bf15-70da2eb92bfc","gameTick":25}


>>>>>>>>>>>>>>>>>>>>>>>>>>>>> 0



THROTTLE = 1

{"msgType":"carPositions","data":[{"id":{"name":"speedbooster","color":"red"},"angle":0.0,"piecePosition":{"pieceIndex":0,"inPieceDistance":51.73236488944845,"lane":{"startLaneIndex":0,"endLaneIndex":0},"lap":0}}],"gameId":"00bb1462-cce4-4ff6-bf15-70da2eb92bfc","gameTick":26}


>>>>>>>>>>>>>>>>>>>>>>>>>>>>> 0



THROTTLE = 1

{"msgType":"carPositions","data":[{"id":{"name":"speedbooster","color":"red"},"angle":0.0,"piecePosition":{"pieceIndex":0,"inPieceDistance":55.697717591659476,"lane":{"startLaneIndex":0,"endLaneIndex":0},"lap":0}}],"gameId":"00bb1462-cce4-4ff6-bf15-70da2eb92bfc","gameTick":27}


>>>>>>>>>>>>>>>>>>>>>>>>>>>>> 0



THROTTLE = 1

{"msgType":"carPositions","data":[{"id":{"name":"speedbooster","color":"red"},"angle":0.0,"piecePosition":{"pieceIndex":0,"inPieceDistance":59.783763239826285,"lane":{"startLaneIndex":0,"endLaneIndex":0},"lap":0}}],"gameId":"00bb1462-cce4-4ff6-bf15-70da2eb92bfc","gameTick":28}


>>>>>>>>>>>>>>>>>>>>>>>>>>>>> 0



THROTTLE = 1

{"msgType":"carPositions","data":[{"id":{"name":"speedbooster","color":"red"},"angle":0.0,"piecePosition":{"pieceIndex":0,"inPieceDistance":63.98808797502976,"lane":{"startLaneIndex":0,"endLaneIndex":0},"lap":0}}],"gameId":"00bb1462-cce4-4ff6-bf15-70da2eb92bfc","gameTick":29}


>>>>>>>>>>>>>>>>>>>>>>>>>>>>> 0



THROTTLE = 1

{"msgType":"carPositions","data":[{"id":{"name":"speedbooster","color":"red"},"angle":0.0,"piecePosition":{"pieceIndex":0,"inPieceDistance":68.30832621552916,"lane":{"startLaneIndex":0,"endLaneIndex":0},"lap":0}}],"gameId":"00bb1462-cce4-4ff6-bf15-70da2eb92bfc","gameTick":30}


>>>>>>>>>>>>>>>>>>>>>>>>>>>>> 0



THROTTLE = 1

{"msgType":"carPositions","data":[{"id":{"name":"speedbooster","color":"red"},"angle":0.0,"piecePosition":{"pieceIndex":0,"inPieceDistance":72.74215969121857,"lane":{"startLaneIndex":0,"endLaneIndex":0},"lap":0}}],"gameId":"00bb1462-cce4-4ff6-bf15-70da2eb92bfc","gameTick":31}


>>>>>>>>>>>>>>>>>>>>>>>>>>>>> 0



THROTTLE = 1

{"msgType":"carPositions","data":[{"id":{"name":"speedbooster","color":"red"},"angle":0.0,"piecePosition":{"pieceIndex":0,"inPieceDistance":77.2873164973942,"lane":{"startLaneIndex":0,"endLaneIndex":0},"lap":0}}],"gameId":"00bb1462-cce4-4ff6-bf15-70da2eb92bfc","gameTick":32}


>>>>>>>>>>>>>>>>>>>>>>>>>>>>> 0



THROTTLE = 1

{"msgType":"carPositions","data":[{"id":{"name":"speedbooster","color":"red"},"angle":0.0,"piecePosition":{"pieceIndex":0,"inPieceDistance":81.94157016744632,"lane":{"startLaneIndex":0,"endLaneIndex":0},"lap":0}}],"gameId":"00bb1462-cce4-4ff6-bf15-70da2eb92bfc","gameTick":33}


>>>>>>>>>>>>>>>>>>>>>>>>>>>>> 0



THROTTLE = 1

{"msgType":"carPositions","data":[{"id":{"name":"speedbooster","color":"red"},"angle":0.0,"piecePosition":{"pieceIndex":0,"inPieceDistance":86.70273876409739,"lane":{"startLaneIndex":0,"endLaneIndex":0},"lap":0}}],"gameId":"00bb1462-cce4-4ff6-bf15-70da2eb92bfc","gameTick":34}


>>>>>>>>>>>>>>>>>>>>>>>>>>>>> 0



THROTTLE = 1

{"msgType":"carPositions","data":[{"id":{"name":"speedbooster","color":"red"},"angle":0.0,"piecePosition":{"pieceIndex":0,"inPieceDistance":91.56868398881544,"lane":{"startLaneIndex":0,"endLaneIndex":0},"lap":0}}],"gameId":"00bb1462-cce4-4ff6-bf15-70da2eb92bfc","gameTick":35}


>>>>>>>>>>>>>>>>>>>>>>>>>>>>> 0



THROTTLE = 1

{"msgType":"carPositions","data":[{"id":{"name":"speedbooster","color":"red"},"angle":0.0,"piecePosition":{"pieceIndex":0,"inPieceDistance":96.53731030903913,"lane":{"startLaneIndex":0,"endLaneIndex":0},"lap":0}}],"gameId":"00bb1462-cce4-4ff6-bf15-70da2eb92bfc","gameTick":36}


>>>>>>>>>>>>>>>>>>>>>>>>>>>>> 0



THROTTLE = 1

{"msgType":"carPositions","data":[{"id":{"name":"speedbooster","color":"red"},"angle":0.0,"piecePosition":{"pieceIndex":1,"inPieceDistance":1.6065641028583428,"lane":{"startLaneIndex":0,"endLaneIndex":0},"lap":0}}],"gameId":"00bb1462-cce4-4ff6-bf15-70da2eb92bfc","gameTick":37}


>>>>>>>>>>>>>>>>>>>>>>>>>>>>> 1



THROTTLE = 1

{"msgType":"carPositions","data":[{"id":{"name":"speedbooster","color":"red"},"angle":0.0,"piecePosition":{"pieceIndex":1,"inPieceDistance":6.774432820801174,"lane":{"startLaneIndex":0,"endLaneIndex":0},"lap":0}}],"gameId":"00bb1462-cce4-4ff6-bf15-70da2eb92bfc","gameTick":38}


>>>>>>>>>>>>>>>>>>>>>>>>>>>>> 1



THROTTLE = 1

{"msgType":"carPositions","data":[{"id":{"name":"speedbooster","color":"red"},"angle":0.0,"piecePosition":{"pieceIndex":1,"inPieceDistance":12.038944164385148,"lane":{"startLaneIndex":0,"endLaneIndex":0},"lap":0}}],"gameId":"00bb1462-cce4-4ff6-bf15-70da2eb92bfc","gameTick":39}


>>>>>>>>>>>>>>>>>>>>>>>>>>>>> 1



THROTTLE = 1

{"msgType":"carPositions","data":[{"id":{"name":"speedbooster","color":"red"},"angle":0.0,"piecePosition":{"pieceIndex":1,"inPieceDistance":17.39816528109744,"lane":{"startLaneIndex":0,"endLaneIndex":0},"lap":0}}],"gameId":"00bb1462-cce4-4ff6-bf15-70da2eb92bfc","gameTick":40}


>>>>>>>>>>>>>>>>>>>>>>>>>>>>> 1



THROTTLE = 1

{"msgType":"carPositions","data":[{"id":{"name":"speedbooster","color":"red"},"angle":0.0,"piecePosition":{"pieceIndex":1,"inPieceDistance":22.85020197547549,"lane":{"startLaneIndex":0,"endLaneIndex":0},"lap":0}}],"gameId":"00bb1462-cce4-4ff6-bf15-70da2eb92bfc","gameTick":41}


>>>>>>>>>>>>>>>>>>>>>>>>>>>>> 1



THROTTLE = 1

{"msgType":"carPositions","data":[{"id":{"name":"speedbooster","color":"red"},"angle":0.0,"piecePosition":{"pieceIndex":1,"inPieceDistance":28.39319793596598,"lane":{"startLaneIndex":0,"endLaneIndex":0},"lap":0}}],"gameId":"00bb1462-cce4-4ff6-bf15-70da2eb92bfc","gameTick":42}


>>>>>>>>>>>>>>>>>>>>>>>>>>>>> 1



THROTTLE = 1

{"msgType":"carPositions","data":[{"id":{"name":"speedbooster","color":"red"},"angle":0.0,"piecePosition":{"pieceIndex":1,"inPieceDistance":34.02533397724666,"lane":{"startLaneIndex":0,"endLaneIndex":0},"lap":0}}],"gameId":"00bb1462-cce4-4ff6-bf15-70da2eb92bfc","gameTick":43}


>>>>>>>>>>>>>>>>>>>>>>>>>>>>> 1



THROTTLE = 1

{"msgType":"carPositions","data":[{"id":{"name":"speedbooster","color":"red"},"angle":0.0,"piecePosition":{"pieceIndex":1,"inPieceDistance":39.744827297701725,"lane":{"startLaneIndex":0,"endLaneIndex":0},"lap":0}}],"gameId":"00bb1462-cce4-4ff6-bf15-70da2eb92bfc","gameTick":44}


>>>>>>>>>>>>>>>>>>>>>>>>>>>>> 1



THROTTLE = 1

{"msgType":"carPositions","data":[{"id":{"name":"speedbooster","color":"red"},"angle":0.0,"piecePosition":{"pieceIndex":1,"inPieceDistance":45.54993075174769,"lane":{"startLaneIndex":0,"endLaneIndex":0},"lap":0}}],"gameId":"00bb1462-cce4-4ff6-bf15-70da2eb92bfc","gameTick":45}


>>>>>>>>>>>>>>>>>>>>>>>>>>>>> 1



THROTTLE = 1

{"msgType":"carPositions","data":[{"id":{"name":"speedbooster","color":"red"},"angle":0.0,"piecePosition":{"pieceIndex":1,"inPieceDistance":51.43893213671273,"lane":{"startLaneIndex":0,"endLaneIndex":0},"lap":0}}],"gameId":"00bb1462-cce4-4ff6-bf15-70da2eb92bfc","gameTick":46}


>>>>>>>>>>>>>>>>>>>>>>>>>>>>> 1



THROTTLE = 1

{"msgType":"carPositions","data":[{"id":{"name":"speedbooster","color":"red"},"angle":0.0,"piecePosition":{"pieceIndex":1,"inPieceDistance":57.41015349397847,"lane":{"startLaneIndex":0,"endLaneIndex":0},"lap":0}}],"gameId":"00bb1462-cce4-4ff6-bf15-70da2eb92bfc","gameTick":47}


>>>>>>>>>>>>>>>>>>>>>>>>>>>>> 1



THROTTLE = 1

{"msgType":"carPositions","data":[{"id":{"name":"speedbooster","color":"red"},"angle":0.0,"piecePosition":{"pieceIndex":1,"inPieceDistance":63.4619504240989,"lane":{"startLaneIndex":0,"endLaneIndex":0},"lap":0}}],"gameId":"00bb1462-cce4-4ff6-bf15-70da2eb92bfc","gameTick":48}


>>>>>>>>>>>>>>>>>>>>>>>>>>>>> 1



THROTTLE = 1

{"msgType":"carPositions","data":[{"id":{"name":"speedbooster","color":"red"},"angle":0.0,"piecePosition":{"pieceIndex":1,"inPieceDistance":69.59271141561692,"lane":{"startLaneIndex":0,"endLaneIndex":0},"lap":0}}],"gameId":"00bb1462-cce4-4ff6-bf15-70da2eb92bfc","gameTick":49}


>>>>>>>>>>>>>>>>>>>>>>>>>>>>> 1



THROTTLE = 1

{"msgType":"carPositions","data":[{"id":{"name":"speedbooster","color":"red"},"angle":0.0,"piecePosition":{"pieceIndex":1,"inPieceDistance":75.80085718730457,"lane":{"startLaneIndex":0,"endLaneIndex":0},"lap":0}}],"gameId":"00bb1462-cce4-4ff6-bf15-70da2eb92bfc","gameTick":50}


>>>>>>>>>>>>>>>>>>>>>>>>>>>>> 1



THROTTLE = 1

{"msgType":"carPositions","data":[{"id":{"name":"speedbooster","color":"red"},"angle":0.0,"piecePosition":{"pieceIndex":1,"inPieceDistance":82.08484004355847,"lane":{"startLaneIndex":0,"endLaneIndex":0},"lap":0}}],"gameId":"00bb1462-cce4-4ff6-bf15-70da2eb92bfc","gameTick":51}


>>>>>>>>>>>>>>>>>>>>>>>>>>>>> 1



THROTTLE = 1

{"msgType":"carPositions","data":[{"id":{"name":"speedbooster","color":"red"},"angle":0.0,"piecePosition":{"pieceIndex":1,"inPieceDistance":88.4431432426873,"lane":{"startLaneIndex":0,"endLaneIndex":0},"lap":0}}],"gameId":"00bb1462-cce4-4ff6-bf15-70da2eb92bfc","gameTick":52}


>>>>>>>>>>>>>>>>>>>>>>>>>>>>> 1



THROTTLE = 1

{"msgType":"carPositions","data":[{"id":{"name":"speedbooster","color":"red"},"angle":0.0,"piecePosition":{"pieceIndex":1,"inPieceDistance":94.87428037783354,"lane":{"startLaneIndex":0,"endLaneIndex":0},"lap":0}}],"gameId":"00bb1462-cce4-4ff6-bf15-70da2eb92bfc","gameTick":53}


>>>>>>>>>>>>>>>>>>>>>>>>>>>>> 1



THROTTLE = 1

{"msgType":"carPositions","data":[{"id":{"name":"speedbooster","color":"red"},"angle":0.0,"piecePosition":{"pieceIndex":2,"inPieceDistance":1.3767947702768737,"lane":{"startLaneIndex":0,"endLaneIndex":0},"lap":0}}],"gameId":"00bb1462-cce4-4ff6-bf15-70da2eb92bfc","gameTick":54}


>>>>>>>>>>>>>>>>>>>>>>>>>>>>> 2



THROTTLE = 1

{"msgType":"carPositions","data":[{"id":{"name":"speedbooster","color":"red"},"angle":0.0,"piecePosition":{"pieceIndex":2,"inPieceDistance":7.949258874871334,"lane":{"startLaneIndex":0,"endLaneIndex":0},"lap":0}}],"gameId":"00bb1462-cce4-4ff6-bf15-70da2eb92bfc","gameTick":55}


>>>>>>>>>>>>>>>>>>>>>>>>>>>>> 2



THROTTLE = 1

{"msgType":"carPositions","data":[{"id":{"name":"speedbooster","color":"red"},"angle":0.0,"piecePosition":{"pieceIndex":2,"inPieceDistance":14.590273697373906,"lane":{"startLaneIndex":0,"endLaneIndex":0},"lap":0}}],"gameId":"00bb1462-cce4-4ff6-bf15-70da2eb92bfc","gameTick":56}


>>>>>>>>>>>>>>>>>>>>>>>>>>>>> 2



THROTTLE = 1

{"msgType":"carPositions","data":[{"id":{"name":"speedbooster","color":"red"},"angle":0.0,"piecePosition":{"pieceIndex":2,"inPieceDistance":21.298468223426426,"lane":{"startLaneIndex":0,"endLaneIndex":0},"lap":0}}],"gameId":"00bb1462-cce4-4ff6-bf15-70da2eb92bfc","gameTick":57}


>>>>>>>>>>>>>>>>>>>>>>>>>>>>> 2



THROTTLE = 1

{"msgType":"carPositions","data":[{"id":{"name":"speedbooster","color":"red"},"angle":0.0,"piecePosition":{"pieceIndex":2,"inPieceDistance":28.072498858957893,"lane":{"startLaneIndex":0,"endLaneIndex":0},"lap":0}}],"gameId":"00bb1462-cce4-4ff6-bf15-70da2eb92bfc","gameTick":58}


>>>>>>>>>>>>>>>>>>>>>>>>>>>>> 2



THROTTLE = 1

{"msgType":"carPositions","data":[{"id":{"name":"speedbooster","color":"red"},"angle":0.0,"piecePosition":{"pieceIndex":2,"inPieceDistance":34.91104888177873,"lane":{"startLaneIndex":0,"endLaneIndex":0},"lap":0}}],"gameId":"00bb1462-cce4-4ff6-bf15-70da2eb92bfc","gameTick":59}


>>>>>>>>>>>>>>>>>>>>>>>>>>>>> 2



THROTTLE = 1

{"msgType":"carPositions","data":[{"id":{"name":"speedbooster","color":"red"},"angle":0.0,"piecePosition":{"pieceIndex":2,"inPieceDistance":41.812827904143155,"lane":{"startLaneIndex":0,"endLaneIndex":0},"lap":0}}],"gameId":"00bb1462-cce4-4ff6-bf15-70da2eb92bfc","gameTick":60}


>>>>>>>>>>>>>>>>>>>>>>>>>>>>> 2



THROTTLE = 1

{"msgType":"carPositions","data":[{"id":{"name":"speedbooster","color":"red"},"angle":0.0,"piecePosition":{"pieceIndex":2,"inPieceDistance":48.776571346060294,"lane":{"startLaneIndex":0,"endLaneIndex":0},"lap":0}}],"gameId":"00bb1462-cce4-4ff6-bf15-70da2eb92bfc","gameTick":61}


>>>>>>>>>>>>>>>>>>>>>>>>>>>>> 2



THROTTLE = 1

{"msgType":"carPositions","data":[{"id":{"name":"speedbooster","color":"red"},"angle":0.0,"piecePosition":{"pieceIndex":2,"inPieceDistance":55.801039919139086,"lane":{"startLaneIndex":0,"endLaneIndex":0},"lap":0}}],"gameId":"00bb1462-cce4-4ff6-bf15-70da2eb92bfc","gameTick":62}


>>>>>>>>>>>>>>>>>>>>>>>>>>>>> 2



THROTTLE = 1

{"msgType":"carPositions","data":[{"id":{"name":"speedbooster","color":"red"},"angle":0.0,"piecePosition":{"pieceIndex":2,"inPieceDistance":62.885019120756304,"lane":{"startLaneIndex":0,"endLaneIndex":0},"lap":0}}],"gameId":"00bb1462-cce4-4ff6-bf15-70da2eb92bfc","gameTick":63}


>>>>>>>>>>>>>>>>>>>>>>>>>>>>> 2



THROTTLE = 1

{"msgType":"carPositions","data":[{"id":{"name":"speedbooster","color":"red"},"angle":0.0,"piecePosition":{"pieceIndex":2,"inPieceDistance":70.02731873834118,"lane":{"startLaneIndex":0,"endLaneIndex":0},"lap":0}}],"gameId":"00bb1462-cce4-4ff6-bf15-70da2eb92bfc","gameTick":64}


>>>>>>>>>>>>>>>>>>>>>>>>>>>>> 2



THROTTLE = 1

{"msgType":"carPositions","data":[{"id":{"name":"speedbooster","color":"red"},"angle":0.0,"piecePosition":{"pieceIndex":2,"inPieceDistance":77.22677236357436,"lane":{"startLaneIndex":0,"endLaneIndex":0},"lap":0}}],"gameId":"00bb1462-cce4-4ff6-bf15-70da2eb92bfc","gameTick":65}


>>>>>>>>>>>>>>>>>>>>>>>>>>>>> 2



THROTTLE = 1

{"msgType":"carPositions","data":[{"id":{"name":"speedbooster","color":"red"},"angle":0.0,"piecePosition":{"pieceIndex":2,"inPieceDistance":84.48223691630287,"lane":{"startLaneIndex":0,"endLaneIndex":0},"lap":0}}],"gameId":"00bb1462-cce4-4ff6-bf15-70da2eb92bfc","gameTick":66}


>>>>>>>>>>>>>>>>>>>>>>>>>>>>> 2



THROTTLE = 1

{"msgType":"carPositions","data":[{"id":{"name":"speedbooster","color":"red"},"angle":0.0,"piecePosition":{"pieceIndex":2,"inPieceDistance":91.79259217797681,"lane":{"startLaneIndex":0,"endLaneIndex":0},"lap":0}}],"gameId":"00bb1462-cce4-4ff6-bf15-70da2eb92bfc","gameTick":67}


>>>>>>>>>>>>>>>>>>>>>>>>>>>>> 2



THROTTLE = 1

{"msgType":"carPositions","data":[{"id":{"name":"speedbooster","color":"red"},"angle":0.0,"piecePosition":{"pieceIndex":2,"inPieceDistance":99.15674033441728,"lane":{"startLaneIndex":0,"endLaneIndex":0},"lap":0}}],"gameId":"00bb1462-cce4-4ff6-bf15-70da2eb92bfc","gameTick":68}


>>>>>>>>>>>>>>>>>>>>>>>>>>>>> 2



THROTTLE = 1

{"msgType":"carPositions","data":[{"id":{"name":"speedbooster","color":"red"},"angle":0.0,"piecePosition":{"pieceIndex":3,"inPieceDistance":6.57360552772893,"lane":{"startLaneIndex":0,"endLaneIndex":1},"lap":0}}],"gameId":"00bb1462-cce4-4ff6-bf15-70da2eb92bfc","gameTick":69}


>>>>>>>>>>>>>>>>>>>>>>>>>>>>> 3



THROTTLE = 1

{"msgType":"carPositions","data":[{"id":{"name":"speedbooster","color":"red"},"angle":0.0,"piecePosition":{"pieceIndex":3,"inPieceDistance":14.042133417174348,"lane":{"startLaneIndex":0,"endLaneIndex":1},"lap":0}}],"gameId":"00bb1462-cce4-4ff6-bf15-70da2eb92bfc","gameTick":70}


>>>>>>>>>>>>>>>>>>>>>>>>>>>>> 3



THROTTLE = 1

{"msgType":"carPositions","data":[{"id":{"name":"speedbooster","color":"red"},"angle":0.0,"piecePosition":{"pieceIndex":3,"inPieceDistance":21.56129074883086,"lane":{"startLaneIndex":0,"endLaneIndex":1},"lap":0}}],"gameId":"00bb1462-cce4-4ff6-bf15-70da2eb92bfc","gameTick":71}


>>>>>>>>>>>>>>>>>>>>>>>>>>>>> 3



THROTTLE = 0.01

{"msgType":"carPositions","data":[{"id":{"name":"speedbooster","color":"red"},"angle":0.0,"piecePosition":{"pieceIndex":3,"inPieceDistance":29.130064933854243,"lane":{"startLaneIndex":0,"endLaneIndex":1},"lap":0}}],"gameId":"00bb1462-cce4-4ff6-bf15-70da2eb92bfc","gameTick":72}


>>>>>>>>>>>>>>>>>>>>>>>>>>>>> 3



THROTTLE = 0.01

{"msgType":"carPositions","data":[{"id":{"name":"speedbooster","color":"red"},"angle":0.0,"piecePosition":{"pieceIndex":3,"inPieceDistance":36.747463635177155,"lane":{"startLaneIndex":0,"endLaneIndex":1},"lap":0}}],"gameId":"00bb1462-cce4-4ff6-bf15-70da2eb92bfc","gameTick":73}


>>>>>>>>>>>>>>>>>>>>>>>>>>>>> 3



THROTTLE = 0.01

{"msgType":"carPositions","data":[{"id":{"name":"speedbooster","color":"red"},"angle":0.0,"piecePosition":{"pieceIndex":3,"inPieceDistance":44.21451436247361,"lane":{"startLaneIndex":0,"endLaneIndex":1},"lap":0}}],"gameId":"00bb1462-cce4-4ff6-bf15-70da2eb92bfc","gameTick":74}


>>>>>>>>>>>>>>>>>>>>>>>>>>>>> 3



THROTTLE = 0.11

{"msgType":"carPositions","data":[{"id":{"name":"speedbooster","color":"red"},"angle":0.0,"piecePosition":{"pieceIndex":3,"inPieceDistance":51.53422407522413,"lane":{"startLaneIndex":0,"endLaneIndex":1},"lap":0}}],"gameId":"00bb1462-cce4-4ff6-bf15-70da2eb92bfc","gameTick":75}


>>>>>>>>>>>>>>>>>>>>>>>>>>>>> 3



THROTTLE = 0.21

{"msgType":"carPositions","data":[{"id":{"name":"speedbooster","color":"red"},"angle":0.0,"piecePosition":{"pieceIndex":3,"inPieceDistance":58.70953959371965,"lane":{"startLaneIndex":0,"endLaneIndex":1},"lap":0}}],"gameId":"00bb1462-cce4-4ff6-bf15-70da2eb92bfc","gameTick":76}


>>>>>>>>>>>>>>>>>>>>>>>>>>>>> 3



THROTTLE = 0.31

{"msgType":"carPositions","data":[{"id":{"name":"speedbooster","color":"red"},"angle":0.0,"piecePosition":{"pieceIndex":3,"inPieceDistance":65.76334880184525,"lane":{"startLaneIndex":0,"endLaneIndex":1},"lap":0}}],"gameId":"00bb1462-cce4-4ff6-bf15-70da2eb92bfc","gameTick":77}


>>>>>>>>>>>>>>>>>>>>>>>>>>>>> 3



THROTTLE = 0.41

{"msgType":"carPositions","data":[{"id":{"name":"speedbooster","color":"red"},"angle":0.0,"piecePosition":{"pieceIndex":3,"inPieceDistance":72.71808182580834,"lane":{"startLaneIndex":0,"endLaneIndex":1},"lap":0}}],"gameId":"00bb1462-cce4-4ff6-bf15-70da2eb92bfc","gameTick":78}


>>>>>>>>>>>>>>>>>>>>>>>>>>>>> 3



THROTTLE = 0.51

{"msgType":"carPositions","data":[{"id":{"name":"speedbooster","color":"red"},"angle":0.0,"piecePosition":{"pieceIndex":3,"inPieceDistance":79.59572018929217,"lane":{"startLaneIndex":0,"endLaneIndex":1},"lap":0}}],"gameId":"00bb1462-cce4-4ff6-bf15-70da2eb92bfc","gameTick":79}


>>>>>>>>>>>>>>>>>>>>>>>>>>>>> 3



THROTTLE = 0.61

{"msgType":"carPositions","data":[{"id":{"name":"speedbooster","color":"red"},"angle":0.0,"piecePosition":{"pieceIndex":3,"inPieceDistance":86.43780578550633,"lane":{"startLaneIndex":0,"endLaneIndex":1},"lap":0}}],"gameId":"00bb1462-cce4-4ff6-bf15-70da2eb92bfc","gameTick":80}


>>>>>>>>>>>>>>>>>>>>>>>>>>>>> 3



THROTTLE = 0

{"msgType":"carPositions","data":[{"id":{"name":"speedbooster","color":"red"},"angle":0.0,"piecePosition":{"pieceIndex":3,"inPieceDistance":93.2650496697962,"lane":{"startLaneIndex":0,"endLaneIndex":1},"lap":0}}],"gameId":"00bb1462-cce4-4ff6-bf15-70da2eb92bfc","gameTick":81}


>>>>>>>>>>>>>>>>>>>>>>>>>>>>> 3



THROTTLE = 0

{"msgType":"carPositions","data":[{"id":{"name":"speedbooster","color":"red"},"angle":0.0,"piecePosition":{"pieceIndex":3,"inPieceDistance":99.95574867640028,"lane":{"startLaneIndex":0,"endLaneIndex":1},"lap":0}}],"gameId":"00bb1462-cce4-4ff6-bf15-70da2eb92bfc","gameTick":82}


>>>>>>>>>>>>>>>>>>>>>>>>>>>>> 3



THROTTLE = 0

{"msgType":"carPositions","data":[{"id":{"name":"speedbooster","color":"red"},"angle":0.0,"piecePosition":{"pieceIndex":4,"inPieceDistance":4.452358709938494,"lane":{"startLaneIndex":1,"endLaneIndex":1},"lap":0}}],"gameId":"00bb1462-cce4-4ff6-bf15-70da2eb92bfc","gameTick":83}


>>>>>>>>>>>>>>>>>>>>>>>>>>>>> 4



THROTTLE = 0.1

{"msgType":"carPositions","data":[{"id":{"name":"speedbooster","color":"red"},"angle":0.4363017914307145,"piecePosition":{"pieceIndex":4,"inPieceDistance":10.878106035881046,"lane":{"startLaneIndex":1,"endLaneIndex":1},"lap":0}}],"gameId":"00bb1462-cce4-4ff6-bf15-70da2eb92bfc","gameTick":84}


>>>>>>>>>>>>>>>>>>>>>>>>>>>>> 4



THROTTLE = 0.05

{"msgType":"carPositions","data":[{"id":{"name":"speedbooster","color":"red"},"angle":1.2059387039157732,"piecePosition":{"pieceIndex":4,"inPieceDistance":17.195338415304747,"lane":{"startLaneIndex":1,"endLaneIndex":1},"lap":0}}],"gameId":"00bb1462-cce4-4ff6-bf15-70da2eb92bfc","gameTick":85}


>>>>>>>>>>>>>>>>>>>>>>>>>>>>> 4



THROTTLE = 0.15

{"msgType":"carPositions","data":[{"id":{"name":"speedbooster","color":"red"},"angle":2.2248123416167322,"piecePosition":{"pieceIndex":4,"inPieceDistance":23.396226147139974,"lane":{"startLaneIndex":1,"endLaneIndex":1},"lap":0}}],"gameId":"00bb1462-cce4-4ff6-bf15-70da2eb92bfc","gameTick":86}


>>>>>>>>>>>>>>>>>>>>>>>>>>>>> 4



THROTTLE = 0.25

{"msgType":"carPositions","data":[{"id":{"name":"speedbooster","color":"red"},"angle":3.413764260891298,"piecePosition":{"pieceIndex":4,"inPieceDistance":29.503096124338498,"lane":{"startLaneIndex":1,"endLaneIndex":1},"lap":0}}],"gameId":"00bb1462-cce4-4ff6-bf15-70da2eb92bfc","gameTick":87}


>>>>>>>>>>>>>>>>>>>>>>>>>>>>> 4



THROTTLE = 0.35

{"msgType":"carPositions","data":[{"id":{"name":"speedbooster","color":"red"},"angle":4.7104909309108765,"piecePosition":{"pieceIndex":4,"inPieceDistance":35.53782870199305,"lane":{"startLaneIndex":1,"endLaneIndex":1},"lap":0}}],"gameId":"00bb1462-cce4-4ff6-bf15-70da2eb92bfc","gameTick":88}


>>>>>>>>>>>>>>>>>>>>>>>>>>>>> 4



THROTTLE = 0.45

{"msgType":"carPositions","data":[{"id":{"name":"speedbooster","color":"red"},"angle":6.067419907560015,"piecePosition":{"pieceIndex":4,"inPieceDistance":41.521866628094514,"lane":{"startLaneIndex":1,"endLaneIndex":1},"lap":0}}],"gameId":"00bb1462-cce4-4ff6-bf15-70da2eb92bfc","gameTick":89}


>>>>>>>>>>>>>>>>>>>>>>>>>>>>> 4



THROTTLE = 0.55

{"msgType":"carPositions","data":[{"id":{"name":"speedbooster","color":"red"},"angle":7.449827758294573,"piecePosition":{"pieceIndex":4,"inPieceDistance":47.476223795673945,"lane":{"startLaneIndex":1,"endLaneIndex":1},"lap":0}}],"gameId":"00bb1462-cce4-4ff6-bf15-70da2eb92bfc","gameTick":90}


>>>>>>>>>>>>>>>>>>>>>>>>>>>>> 4



THROTTLE = 0.65

{"msgType":"carPositions","data":[{"id":{"name":"speedbooster","color":"red"},"angle":8.834198499731004,"piecePosition":{"pieceIndex":4,"inPieceDistance":53.42149381990179,"lane":{"startLaneIndex":1,"endLaneIndex":1},"lap":0}}],"gameId":"00bb1462-cce4-4ff6-bf15-70da2eb92bfc","gameTick":91}


>>>>>>>>>>>>>>>>>>>>>>>>>>>>> 4



THROTTLE = 0.75

{"msgType":"carPositions","data":[{"id":{"name":"speedbooster","color":"red"},"angle":10.206813682511859,"piecePosition":{"pieceIndex":4,"inPieceDistance":59.37785844364508,"lane":{"startLaneIndex":1,"endLaneIndex":1},"lap":0}}],"gameId":"00bb1462-cce4-4ff6-bf15-70da2eb92bfc","gameTick":92}


>>>>>>>>>>>>>>>>>>>>>>>>>>>>> 4



THROTTLE = 0.4

{"msgType":"carPositions","data":[{"id":{"name":"speedbooster","color":"red"},"angle":11.562559698867371,"piecePosition":{"pieceIndex":4,"inPieceDistance":65.3650957749135,"lane":{"startLaneIndex":1,"endLaneIndex":1},"lap":0}}],"gameId":"00bb1462-cce4-4ff6-bf15-70da2eb92bfc","gameTick":93}


>>>>>>>>>>>>>>>>>>>>>>>>>>>>> 4



THROTTLE = 0.4

{"msgType":"carPositions","data":[{"id":{"name":"speedbooster","color":"red"},"angle":12.903934004744762,"piecePosition":{"pieceIndex":5,"inPieceDistance":0.62675365378621,"lane":{"startLaneIndex":1,"endLaneIndex":1},"lap":0}}],"gameId":"00bb1462-cce4-4ff6-bf15-70da2eb92bfc","gameTick":94}


>>>>>>>>>>>>>>>>>>>>>>>>>>>>> 5



THROTTLE = 0.35

{"msgType":"carPositions","data":[{"id":{"name":"speedbooster","color":"red"},"angle":14.208382797203505,"piecePosition":{"pieceIndex":5,"inPieceDistance":6.535296386736403,"lane":{"startLaneIndex":1,"endLaneIndex":1},"lap":0}}],"gameId":"00bb1462-cce4-4ff6-bf15-70da2eb92bfc","gameTick":95}


>>>>>>>>>>>>>>>>>>>>>>>>>>>>> 5



THROTTLE = 0.45

{"msgType":"carPositions","data":[{"id":{"name":"speedbooster","color":"red"},"angle":15.456462710225619,"piecePosition":{"pieceIndex":5,"inPieceDistance":12.395668265027592,"lane":{"startLaneIndex":1,"endLaneIndex":1},"lap":0}}],"gameId":"00bb1462-cce4-4ff6-bf15-70da2eb92bfc","gameTick":96}


>>>>>>>>>>>>>>>>>>>>>>>>>>>>> 5



THROTTLE = 0.55

{"msgType":"carPositions","data":[{"id":{"name":"speedbooster","color":"red"},"angle":16.62828294266229,"piecePosition":{"pieceIndex":5,"inPieceDistance":18.228832705752957,"lane":{"startLaneIndex":1,"endLaneIndex":1},"lap":0}}],"gameId":"00bb1462-cce4-4ff6-bf15-70da2eb92bfc","gameTick":97}


>>>>>>>>>>>>>>>>>>>>>>>>>>>>> 5



THROTTLE = 0.65

{"msgType":"carPositions","data":[{"id":{"name":"speedbooster","color":"red"},"angle":17.713827891649377,"piecePosition":{"pieceIndex":5,"inPieceDistance":24.055333857663815,"lane":{"startLaneIndex":1,"endLaneIndex":1},"lap":0}}],"gameId":"00bb1462-cce4-4ff6-bf15-70da2eb92bfc","gameTick":98}


>>>>>>>>>>>>>>>>>>>>>>>>>>>>> 5



THROTTLE = 0.75

{"msgType":"carPositions","data":[{"id":{"name":"speedbooster","color":"red"},"angle":18.711613310728758,"piecePosition":{"pieceIndex":5,"inPieceDistance":29.895304986536456,"lane":{"startLaneIndex":1,"endLaneIndex":1},"lap":0}}],"gameId":"00bb1462-cce4-4ff6-bf15-70da2eb92bfc","gameTick":99}


>>>>>>>>>>>>>>>>>>>>>>>>>>>>> 5



THROTTLE = 0.85

{"msgType":"carPositions","data":[{"id":{"name":"speedbooster","color":"red"},"angle":19.62757689685524,"piecePosition":{"pieceIndex":5,"inPieceDistance":35.76847669283164,"lane":{"startLaneIndex":1,"endLaneIndex":1},"lap":0}}],"gameId":"00bb1462-cce4-4ff6-bf15-70da2eb92bfc","gameTick":100}


>>>>>>>>>>>>>>>>>>>>>>>>>>>>> 5



THROTTLE = 0.8

{"msgType":"carPositions","data":[{"id":{"name":"speedbooster","color":"red"},"angle":20.474178826850125,"piecePosition":{"pieceIndex":5,"inPieceDistance":41.69418496500093,"lane":{"startLaneIndex":1,"endLaneIndex":1},"lap":0}}],"gameId":"00bb1462-cce4-4ff6-bf15-70da2eb92bfc","gameTick":101}


>>>>>>>>>>>>>>>>>>>>>>>>>>>>> 5



THROTTLE = 0.7

{"msgType":"carPositions","data":[{"id":{"name":"speedbooster","color":"red"},"angle":21.26968637837546,"piecePosition":{"pieceIndex":5,"inPieceDistance":47.66137907172683,"lane":{"startLaneIndex":1,"endLaneIndex":1},"lap":0}}],"gameId":"00bb1462-cce4-4ff6-bf15-70da2eb92bfc","gameTick":102}


>>>>>>>>>>>>>>>>>>>>>>>>>>>>> 5



THROTTLE = 0.6

{"msgType":"carPositions","data":[{"id":{"name":"speedbooster","color":"red"},"angle":22.02734898913986,"piecePosition":{"pieceIndex":5,"inPieceDistance":53.64922929631821,"lane":{"startLaneIndex":1,"endLaneIndex":1},"lap":0}}],"gameId":"00bb1462-cce4-4ff6-bf15-70da2eb92bfc","gameTick":103}


>>>>>>>>>>>>>>>>>>>>>>>>>>>>> 5



THROTTLE = 0.5

{"msgType":"carPositions","data":[{"id":{"name":"speedbooster","color":"red"},"angle":22.75233880288653,"piecePosition":{"pieceIndex":5,"inPieceDistance":59.63732251641776,"lane":{"startLaneIndex":1,"endLaneIndex":1},"lap":0}}],"gameId":"00bb1462-cce4-4ff6-bf15-70da2eb92bfc","gameTick":104}


>>>>>>>>>>>>>>>>>>>>>>>>>>>>> 5



THROTTLE = 0.4

{"msgType":"carPositions","data":[{"id":{"name":"speedbooster","color":"red"},"angle":23.442579556307223,"piecePosition":{"pieceIndex":5,"inPieceDistance":65.60565387211533,"lane":{"startLaneIndex":1,"endLaneIndex":1},"lap":0}}],"gameId":"00bb1462-cce4-4ff6-bf15-70da2eb92bfc","gameTick":105}


>>>>>>>>>>>>>>>>>>>>>>>>>>>>> 5



THROTTLE = 0.4

{"msgType":"carPositions","data":[{"id":{"name":"speedbooster","color":"red"},"angle":24.08967874570516,"piecePosition":{"pieceIndex":6,"inPieceDistance":0.8487838949285873,"lane":{"startLaneIndex":1,"endLaneIndex":1},"lap":0}}],"gameId":"00bb1462-cce4-4ff6-bf15-70da2eb92bfc","gameTick":106}


>>>>>>>>>>>>>>>>>>>>>>>>>>>>> 6



THROTTLE = 0.5

{"msgType":"carPositions","data":[{"id":{"name":"speedbooster","color":"red"},"angle":24.6799363796465,"piecePosition":{"pieceIndex":6,"inPieceDistance":6.739169328940526,"lane":{"startLaneIndex":1,"endLaneIndex":1},"lap":0}}],"gameId":"00bb1462-cce4-4ff6-bf15-70da2eb92bfc","gameTick":107}


>>>>>>>>>>>>>>>>>>>>>>>>>>>>> 6



THROTTLE = 0.6

{"msgType":"carPositions","data":[{"id":{"name":"speedbooster","color":"red"},"angle":25.20193586993047,"piecePosition":{"pieceIndex":6,"inPieceDistance":12.611747054272225,"lane":{"startLaneIndex":1,"endLaneIndex":1},"lap":0}}],"gameId":"00bb1462-cce4-4ff6-bf15-70da2eb92bfc","gameTick":108}


>>>>>>>>>>>>>>>>>>>>>>>>>>>>> 6



THROTTLE = 0.7

{"msgType":"carPositions","data":[{"id":{"name":"speedbooster","color":"red"},"angle":25.652853048273087,"piecePosition":{"pieceIndex":6,"inPieceDistance":18.48687322509729,"lane":{"startLaneIndex":1,"endLaneIndex":1},"lap":0}}],"gameId":"00bb1462-cce4-4ff6-bf15-70da2eb92bfc","gameTick":109}


>>>>>>>>>>>>>>>>>>>>>>>>>>>>> 6



THROTTLE = 0.8

{"msgType":"carPositions","data":[{"id":{"name":"speedbooster","color":"red"},"angle":26.03731344236741,"piecePosition":{"pieceIndex":6,"inPieceDistance":24.384496872505856,"lane":{"startLaneIndex":1,"endLaneIndex":1},"lap":0}}],"gameId":"00bb1462-cce4-4ff6-bf15-70da2eb92bfc","gameTick":110}


>>>>>>>>>>>>>>>>>>>>>>>>>>>>> 6



THROTTLE = 0.7

{"msgType":"carPositions","data":[{"id":{"name":"speedbooster","color":"red"},"angle":26.366463794237614,"piecePosition":{"pieceIndex":6,"inPieceDistance":30.32416804696625,"lane":{"startLaneIndex":1,"endLaneIndex":1},"lap":0}}],"gameId":"00bb1462-cce4-4ff6-bf15-70da2eb92bfc","gameTick":111}


>>>>>>>>>>>>>>>>>>>>>>>>>>>>> 6



THROTTLE = 0.6

{"msgType":"carPositions","data":[{"id":{"name":"speedbooster","color":"red"},"angle":26.657232433637038,"piecePosition":{"pieceIndex":6,"inPieceDistance":36.285045797937435,"lane":{"startLaneIndex":1,"endLaneIndex":1},"lap":0}}],"gameId":"00bb1462-cce4-4ff6-bf15-70da2eb92bfc","gameTick":112}


>>>>>>>>>>>>>>>>>>>>>>>>>>>>> 6



THROTTLE = 0.5

{"msgType":"carPositions","data":[{"id":{"name":"speedbooster","color":"red"},"angle":26.918337991798182,"piecePosition":{"pieceIndex":6,"inPieceDistance":42.246705993889194,"lane":{"startLaneIndex":1,"endLaneIndex":1},"lap":0}}],"gameId":"00bb1462-cce4-4ff6-bf15-70da2eb92bfc","gameTick":113}


>>>>>>>>>>>>>>>>>>>>>>>>>>>>> 6



THROTTLE = 0.4

{"msgType":"carPositions","data":[{"id":{"name":"speedbooster","color":"red"},"angle":27.151061684671316,"piecePosition":{"pieceIndex":6,"inPieceDistance":48.18913298592192,"lane":{"startLaneIndex":1,"endLaneIndex":1},"lap":0}}],"gameId":"00bb1462-cce4-4ff6-bf15-70da2eb92bfc","gameTick":114}


>>>>>>>>>>>>>>>>>>>>>>>>>>>>> 6



THROTTLE = 0.3

{"msgType":"carPositions","data":[{"id":{"name":"speedbooster","color":"red"},"angle":27.350131234917985,"piecePosition":{"pieceIndex":6,"inPieceDistance":54.092711438113994,"lane":{"startLaneIndex":1,"endLaneIndex":1},"lap":0}}],"gameId":"00bb1462-cce4-4ff6-bf15-70da2eb92bfc","gameTick":115}


>>>>>>>>>>>>>>>>>>>>>>>>>>>>> 6



THROTTLE = 0.4

{"msgType":"carPositions","data":[{"id":{"name":"speedbooster","color":"red"},"angle":27.504690101356786,"piecePosition":{"pieceIndex":6,"inPieceDistance":59.93821832126223,"lane":{"startLaneIndex":1,"endLaneIndex":1},"lap":0}}],"gameId":"00bb1462-cce4-4ff6-bf15-70da2eb92bfc","gameTick":116}


>>>>>>>>>>>>>>>>>>>>>>>>>>>>> 6



THROTTLE = 0.4

{"msgType":"carPositions","data":[{"id":{"name":"speedbooster","color":"red"},"angle":27.599325762069935,"piecePosition":{"pieceIndex":6,"inPieceDistance":65.74681506674749,"lane":{"startLaneIndex":1,"endLaneIndex":1},"lap":0}}],"gameId":"00bb1462-cce4-4ff6-bf15-70da2eb92bfc","gameTick":117}


>>>>>>>>>>>>>>>>>>>>>>>>>>>>> 6



THROTTLE = 0.4

{"msgType":"carPositions","data":[{"id":{"name":"speedbooster","color":"red"},"angle":27.627639084369807,"piecePosition":{"pieceIndex":7,"inPieceDistance":0.8334051715526982,"lane":{"startLaneIndex":1,"endLaneIndex":1},"lap":0}}],"gameId":"00bb1462-cce4-4ff6-bf15-70da2eb92bfc","gameTick":118}


>>>>>>>>>>>>>>>>>>>>>>>>>>>>> 7



THROTTLE = 0.5

{"msgType":"carPositions","data":[{"id":{"name":"speedbooster","color":"red"},"angle":27.584739821429004,"piecePosition":{"pieceIndex":7,"inPieceDistance":6.570381485916747,"lane":{"startLaneIndex":1,"endLaneIndex":1},"lap":0}}],"gameId":"00bb1462-cce4-4ff6-bf15-70da2eb92bfc","gameTick":119}


>>>>>>>>>>>>>>>>>>>>>>>>>>>>> 7



THROTTLE = 0.6

{"msgType":"carPositions","data":[{"id":{"name":"speedbooster","color":"red"},"angle":27.467108230387883,"piecePosition":{"pieceIndex":7,"inPieceDistance":12.272618273993515,"lane":{"startLaneIndex":1,"endLaneIndex":1},"lap":0}}],"gameId":"00bb1462-cce4-4ff6-bf15-70da2eb92bfc","gameTick":120}


>>>>>>>>>>>>>>>>>>>>>>>>>>>>> 7



THROTTLE = 0.7

{"msgType":"carPositions","data":[{"id":{"name":"speedbooster","color":"red"},"angle":27.272460771578253,"piecePosition":{"pieceIndex":7,"inPieceDistance":17.98081032630875,"lane":{"startLaneIndex":1,"endLaneIndex":1},"lap":0}}],"gameId":"00bb1462-cce4-4ff6-bf15-70da2eb92bfc","gameTick":121}


>>>>>>>>>>>>>>>>>>>>>>>>>>>>> 7



THROTTLE = 0.8

{"msgType":"carPositions","data":[{"id":{"name":"speedbooster","color":"red"},"angle":27.011695480415277,"piecePosition":{"pieceIndex":7,"inPieceDistance":23.714838537577677,"lane":{"startLaneIndex":1,"endLaneIndex":1},"lap":0}}],"gameId":"00bb1462-cce4-4ff6-bf15-70da2eb92bfc","gameTick":122}


>>>>>>>>>>>>>>>>>>>>>>>>>>>>> 7



THROTTLE = 0.7

{"msgType":"carPositions","data":[{"id":{"name":"speedbooster","color":"red"},"angle":26.70118739662423,"piecePosition":{"pieceIndex":7,"inPieceDistance":29.494186184621228,"lane":{"startLaneIndex":1,"endLaneIndex":1},"lap":0}}],"gameId":"00bb1462-cce4-4ff6-bf15-70da2eb92bfc","gameTick":123}


>>>>>>>>>>>>>>>>>>>>>>>>>>>>> 7



THROTTLE = 0.6

{"msgType":"carPositions","data":[{"id":{"name":"speedbooster","color":"red"},"angle":26.36219631477849,"piecePosition":{"pieceIndex":7,"inPieceDistance":35.297946878723906,"lane":{"startLaneIndex":1,"endLaneIndex":1},"lap":0}}],"gameId":"00bb1462-cce4-4ff6-bf15-70da2eb92bfc","gameTick":124}


>>>>>>>>>>>>>>>>>>>>>>>>>>>>> 7



THROTTLE = 0.5

{"msgType":"carPositions","data":[{"id":{"name":"speedbooster","color":"red"},"angle":26.007698902714402,"piecePosition":{"pieceIndex":7,"inPieceDistance":41.10563235894453,"lane":{"startLaneIndex":1,"endLaneIndex":1},"lap":0}}],"gameId":"00bb1462-cce4-4ff6-bf15-70da2eb92bfc","gameTick":125}


>>>>>>>>>>>>>>>>>>>>>>>>>>>>> 7



THROTTLE = 0.4

{"msgType":"carPositions","data":[{"id":{"name":"speedbooster","color":"red"},"angle":25.643060113979253,"piecePosition":{"pieceIndex":7,"inPieceDistance":46.89716412956074,"lane":{"startLaneIndex":1,"endLaneIndex":1},"lap":0}}],"gameId":"00bb1462-cce4-4ff6-bf15-70da2eb92bfc","gameTick":126}


>>>>>>>>>>>>>>>>>>>>>>>>>>>>> 7



THROTTLE = 0.3

{"msgType":"carPositions","data":[{"id":{"name":"speedbooster","color":"red"},"angle":25.266830798489487,"piecePosition":{"pieceIndex":7,"inPieceDistance":52.65286526476463,"lane":{"startLaneIndex":1,"endLaneIndex":1},"lap":0}}],"gameId":"00bb1462-cce4-4ff6-bf15-70da2eb92bfc","gameTick":127}


>>>>>>>>>>>>>>>>>>>>>>>>>>>>> 7



THROTTLE = 0.4

{"msgType":"carPositions","data":[{"id":{"name":"speedbooster","color":"red"},"angle":24.871645506408225,"piecePosition":{"pieceIndex":7,"inPieceDistance":58.37345237726444,"lane":{"startLaneIndex":1,"endLaneIndex":1},"lap":0}}],"gameId":"00bb1462-cce4-4ff6-bf15-70da2eb92bfc","gameTick":128}


>>>>>>>>>>>>>>>>>>>>>>>>>>>>> 7



THROTTLE = 0.5

{"msgType":"carPositions","data":[{"id":{"name":"speedbooster","color":"red"},"angle":24.451341741001535,"piecePosition":{"pieceIndex":7,"inPieceDistance":64.03962774751426,"lane":{"startLaneIndex":1,"endLaneIndex":1},"lap":0}}],"gameId":"00bb1462-cce4-4ff6-bf15-70da2eb92bfc","gameTick":129}


>>>>>>>>>>>>>>>>>>>>>>>>>>>>> 7



THROTTLE = 0.4

{"msgType":"carPositions","data":[{"id":{"name":"speedbooster","color":"red"},"angle":23.994788186443852,"piecePosition":{"pieceIndex":7,"inPieceDistance":69.67247961035908,"lane":{"startLaneIndex":1,"endLaneIndex":1},"lap":0}}],"gameId":"00bb1462-cce4-4ff6-bf15-70da2eb92bfc","gameTick":130}


>>>>>>>>>>>>>>>>>>>>>>>>>>>>> 7



THROTTLE = 0.4

{"msgType":"carPositions","data":[{"id":{"name":"speedbooster","color":"red"},"angle":23.49879171488608,"piecePosition":{"pieceIndex":8,"inPieceDistance":4.606839730176645,"lane":{"startLaneIndex":1,"endLaneIndex":1},"lap":0}}],"gameId":"00bb1462-cce4-4ff6-bf15-70da2eb92bfc","gameTick":131}


>>>>>>>>>>>>>>>>>>>>>>>>>>>>> 8



THROTTLE = 0.6

{"msgType":"carPositions","data":[{"id":{"name":"speedbooster","color":"red"},"angle":22.887310155979623,"piecePosition":{"pieceIndex":8,"inPieceDistance":10.194630659252809,"lane":{"startLaneIndex":1,"endLaneIndex":1},"lap":0}}],"gameId":"00bb1462-cce4-4ff6-bf15-70da2eb92bfc","gameTick":132}


>>>>>>>>>>>>>>>>>>>>>>>>>>>>> 8



THROTTLE = 0.8

{"msgType":"carPositions","data":[{"id":{"name":"speedbooster","color":"red"},"angle":22.177114872863143,"piecePosition":{"pieceIndex":8,"inPieceDistance":15.75066576974745,"lane":{"startLaneIndex":1,"endLaneIndex":1},"lap":0}}],"gameId":"00bb1462-cce4-4ff6-bf15-70da2eb92bfc","gameTick":133}


>>>>>>>>>>>>>>>>>>>>>>>>>>>>> 8



THROTTLE = 0.7

{"msgType":"carPositions","data":[{"id":{"name":"speedbooster","color":"red"},"angle":21.383918081954434,"piecePosition":{"pieceIndex":8,"inPieceDistance":21.315580178032196,"lane":{"startLaneIndex":1,"endLaneIndex":1},"lap":0}}],"gameId":"00bb1462-cce4-4ff6-bf15-70da2eb92bfc","gameTick":134}


>>>>>>>>>>>>>>>>>>>>>>>>>>>>> 8



THROTTLE = 0.6

{"msgType":"carPositions","data":[{"id":{"name":"speedbooster","color":"red"},"angle":20.521291377836786,"piecePosition":{"pieceIndex":8,"inPieceDistance":26.929196298151247,"lane":{"startLaneIndex":1,"endLaneIndex":1},"lap":0}}],"gameId":"00bb1462-cce4-4ff6-bf15-70da2eb92bfc","gameTick":135}


>>>>>>>>>>>>>>>>>>>>>>>>>>>>> 8



THROTTLE = 0.5

{"msgType":"carPositions","data":[{"id":{"name":"speedbooster","color":"red"},"angle":19.600929029025544,"piecePosition":{"pieceIndex":8,"inPieceDistance":32.57054009586792,"lane":{"startLaneIndex":1,"endLaneIndex":1},"lap":0}}],"gameId":"00bb1462-cce4-4ff6-bf15-70da2eb92bfc","gameTick":136}


>>>>>>>>>>>>>>>>>>>>>>>>>>>>> 8



THROTTLE = 0.45

{"msgType":"carPositions","data":[{"id":{"name":"speedbooster","color":"red"},"angle":18.634383440836203,"piecePosition":{"pieceIndex":8,"inPieceDistance":38.19905701763025,"lane":{"startLaneIndex":1,"endLaneIndex":1},"lap":0}}],"gameId":"00bb1462-cce4-4ff6-bf15-70da2eb92bfc","gameTick":137}


>>>>>>>>>>>>>>>>>>>>>>>>>>>>> 8



THROTTLE = 0.4

{"msgType":"carPositions","data":[{"id":{"name":"speedbooster","color":"red"},"angle":17.633387483311605,"piecePosition":{"pieceIndex":8,"inPieceDistance":43.80500360095734,"lane":{"startLaneIndex":1,"endLaneIndex":1},"lap":0}}],"gameId":"00bb1462-cce4-4ff6-bf15-70da2eb92bfc","gameTick":138}


>>>>>>>>>>>>>>>>>>>>>>>>>>>>> 8



THROTTLE = 0.35

{"msgType":"carPositions","data":[{"id":{"name":"speedbooster","color":"red"},"angle":16.608926336146276,"piecePosition":{"pieceIndex":8,"inPieceDistance":49.37883125261789,"lane":{"startLaneIndex":1,"endLaneIndex":1},"lap":0}}],"gameId":"00bb1462-cce4-4ff6-bf15-70da2eb92bfc","gameTick":139}


>>>>>>>>>>>>>>>>>>>>>>>>>>>>> 8



THROTTLE = 0.3

{"msgType":"carPositions","data":[{"id":{"name":"speedbooster","color":"red"},"angle":15.571192187601472,"piecePosition":{"pieceIndex":8,"inPieceDistance":54.91118235124523,"lane":{"startLaneIndex":1,"endLaneIndex":1},"lap":0}}],"gameId":"00bb1462-cce4-4ff6-bf15-70da2eb92bfc","gameTick":140}


>>>>>>>>>>>>>>>>>>>>>>>>>>>>> 8



THROTTLE = 0.25

{"msgType":"carPositions","data":[{"id":{"name":"speedbooster","color":"red"},"angle":14.52954982615363,"piecePosition":{"pieceIndex":8,"inPieceDistance":60.392886427900024,"lane":{"startLaneIndex":1,"endLaneIndex":1},"lap":0}}],"gameId":"00bb1462-cce4-4ff6-bf15-70da2eb92bfc","gameTick":141}


>>>>>>>>>>>>>>>>>>>>>>>>>>>>> 8



THROTTLE = 0.2

{"msgType":"carPositions","data":[{"id":{"name":"speedbooster","color":"red"},"angle":13.492513335208091,"piecePosition":{"pieceIndex":8,"inPieceDistance":65.81495642302171,"lane":{"startLaneIndex":1,"endLaneIndex":1},"lap":0}}],"gameId":"00bb1462-cce4-4ff6-bf15-70da2eb92bfc","gameTick":142}


>>>>>>>>>>>>>>>>>>>>>>>>>>>>> 8



THROTTLE = 0.15

{"msgType":"carPositions","data":[{"id":{"name":"speedbooster","color":"red"},"angle":12.467733803715092,"piecePosition":{"pieceIndex":8,"inPieceDistance":71.16858501824098,"lane":{"startLaneIndex":1,"endLaneIndex":1},"lap":0}}],"gameId":"00bb1462-cce4-4ff6-bf15-70da2eb92bfc","gameTick":143}


>>>>>>>>>>>>>>>>>>>>>>>>>>>>> 8



THROTTLE = 0.1

{"msgType":"carPositions","data":[{"id":{"name":"speedbooster","color":"red"},"angle":11.461997705109955,"piecePosition":{"pieceIndex":9,"inPieceDistance":1.8323155187982678,"lane":{"startLaneIndex":1,"endLaneIndex":1},"lap":0}}],"gameId":"00bb1462-cce4-4ff6-bf15-70da2eb92bfc","gameTick":144}


>>>>>>>>>>>>>>>>>>>>>>>>>>>>> 9



THROTTLE = 0.05

{"msgType":"carPositions","data":[{"id":{"name":"speedbooster","color":"red"},"angle":10.481235375077683,"piecePosition":{"pieceIndex":9,"inPieceDistance":7.023340421646846,"lane":{"startLaneIndex":1,"endLaneIndex":1},"lap":0}}],"gameId":"00bb1462-cce4-4ff6-bf15-70da2eb92bfc","gameTick":145}


>>>>>>>>>>>>>>>>>>>>>>>>>>>>> 9



THROTTLE = 6.9388939039072E-17

{"msgType":"carPositions","data":[{"id":{"name":"speedbooster","color":"red"},"angle":9.53053883574283,"piecePosition":{"pieceIndex":9,"inPieceDistance":12.12054482643845,"lane":{"startLaneIndex":1,"endLaneIndex":1},"lap":0}}],"gameId":"00bb1462-cce4-4ff6-bf15-70da2eb92bfc","gameTick":146}


>>>>>>>>>>>>>>>>>>>>>>>>>>>>> 9



THROTTLE = 0.1

{"msgType":"carPositions","data":[{"id":{"name":"speedbooster","color":"red"},"angle":8.61418806967448,"piecePosition":{"pieceIndex":9,"inPieceDistance":17.115805143134224,"lane":{"startLaneIndex":1,"endLaneIndex":1},"lap":0}}],"gameId":"00bb1462-cce4-4ff6-bf15-70da2eb92bfc","gameTick":147}


>>>>>>>>>>>>>>>>>>>>>>>>>>>>> 9



THROTTLE = 1

{"msgType":"carPositions","data":[{"id":{"name":"speedbooster","color":"red"},"angle":7.735684740431716,"piecePosition":{"pieceIndex":9,"inPieceDistance":22.031160253496083,"lane":{"startLaneIndex":1,"endLaneIndex":1},"lap":0}}],"gameId":"00bb1462-cce4-4ff6-bf15-70da2eb92bfc","gameTick":148}


>>>>>>>>>>>>>>>>>>>>>>>>>>>>> 9



THROTTLE = 1

{"msgType":"carPositions","data":[{"id":{"name":"speedbooster","color":"red"},"angle":6.897502197211942,"piecePosition":{"pieceIndex":9,"inPieceDistance":27.048208261650704,"lane":{"startLaneIndex":1,"endLaneIndex":1},"lap":0}}],"gameId":"00bb1462-cce4-4ff6-bf15-70da2eb92bfc","gameTick":149}


>>>>>>>>>>>>>>>>>>>>>>>>>>>>> 9



THROTTLE = 0.95

{"msgType":"carPositions","data":[{"id":{"name":"speedbooster","color":"red"},"angle":6.09988153373944,"piecePosition":{"pieceIndex":9,"inPieceDistance":32.16491530964223,"lane":{"startLaneIndex":1,"endLaneIndex":1},"lap":0}}],"gameId":"00bb1462-cce4-4ff6-bf15-70da2eb92bfc","gameTick":150}


>>>>>>>>>>>>>>>>>>>>>>>>>>>>> 9



THROTTLE = 0.9

{"msgType":"carPositions","data":[{"id":{"name":"speedbooster","color":"red"},"angle":5.343008803069691,"piecePosition":{"pieceIndex":9,"inPieceDistance":37.36928821667393,"lane":{"startLaneIndex":1,"endLaneIndex":1},"lap":0}}],"gameId":"00bb1462-cce4-4ff6-bf15-70da2eb92bfc","gameTick":151}


>>>>>>>>>>>>>>>>>>>>>>>>>>>>> 9



THROTTLE = 0.85

{"msgType":"carPositions","data":[{"id":{"name":"speedbooster","color":"red"},"angle":4.627064582646007,"piecePosition":{"pieceIndex":9,"inPieceDistance":42.64957366556499,"lane":{"startLaneIndex":1,"endLaneIndex":1},"lap":0}}],"gameId":"00bb1462-cce4-4ff6-bf15-70da2eb92bfc","gameTick":152}


>>>>>>>>>>>>>>>>>>>>>>>>>>>>> 9



THROTTLE = 0.8

{"msgType":"carPositions","data":[{"id":{"name":"speedbooster","color":"red"},"angle":3.95217450703116,"piecePosition":{"pieceIndex":9,"inPieceDistance":47.99425340547823,"lane":{"startLaneIndex":1,"endLaneIndex":1},"lap":0}}],"gameId":"00bb1462-cce4-4ff6-bf15-70da2eb92bfc","gameTick":153}


>>>>>>>>>>>>>>>>>>>>>>>>>>>>> 9



THROTTLE = 0.75

{"msgType":"carPositions","data":[{"id":{"name":"speedbooster","color":"red"},"angle":3.3183695552073837,"piecePosition":{"pieceIndex":9,"inPieceDistance":53.39203955059321,"lane":{"startLaneIndex":1,"endLaneIndex":1},"lap":0}}],"gameId":"00bb1462-cce4-4ff6-bf15-70da2eb92bfc","gameTick":154}


>>>>>>>>>>>>>>>>>>>>>>>>>>>>> 9



THROTTLE = 0.7

{"msgType":"carPositions","data":[{"id":{"name":"speedbooster","color":"red"},"angle":2.725555287054148,"piecePosition":{"pieceIndex":9,"inPieceDistance":58.83186997280589,"lane":{"startLaneIndex":1,"endLaneIndex":1},"lap":0}}],"gameId":"00bb1462-cce4-4ff6-bf15-70da2eb92bfc","gameTick":155}


>>>>>>>>>>>>>>>>>>>>>>>>>>>>> 9



THROTTLE = 0.9

