{"msgType":"joinRace","data":{"botId":{"name":"speedbooster","key":"w5TYojUOXuT/gw"},"trackName":"germany","carCount":2}}
{"msgType":"yourCar","data":{"name":"speedbooster","color":"red"},"gameId":"826af23b-7c09-4a16-bf1b-c7beb36b18e2"}
{"msgType":"gameInit","data":{"race":{"track":{"id":"germany","name":"Germany","pieces":[{"length":100.0},{"length":100.0,"switch":true},{"radius":50,"angle":45.0},{"radius":50,"angle":45.0},{"radius":50,"angle":45.0},{"length":50.0},{"radius":50,"angle":-45.0},{"radius":50,"angle":-45.0},{"radius":50,"angle":-45.0},{"length":50.0},{"radius":50,"angle":-45.0},{"radius":50,"angle":-45.0},{"radius":100,"angle":-22.5},{"radius":50,"angle":45.0},{"length":100.0,"switch":true},{"length":100.0},{"radius":50,"angle":-45.0},{"length":50.0},{"radius":50,"angle":45.0},{"radius":50,"angle":45.0},{"radius":100,"angle":22.5},{"length":100.0,"switch":true},{"length":100.0},{"radius":50,"angle":45.0},{"radius":50,"angle":45.0},{"radius":50,"angle":45.0},{"radius":50,"angle":45.0},{"length":100.0,"switch":true},{"radius":50,"angle":-45.0},{"radius":50,"angle":-45.0},{"length":50.0},{"radius":100,"angle":22.5},{"length":100.0},{"length":50.0},{"radius":100,"angle":-22.5},{"radius":100,"angle":-22.5},{"length":100.0,"switch":true},{"radius":50,"angle":45.0},{"radius":50,"angle":45.0},{"radius":100,"angle":22.5},{"length":100.0},{"length":100.0},{"length":100.0},{"radius":100,"angle":45.0},{"length":70.0},{"length":100.0,"switch":true},{"radius":50,"angle":-45.0},{"radius":50,"angle":-45.0},{"radius":100,"angle":45.0},{"radius":100,"angle":45.0},{"length":50.0},{"radius":100,"angle":45.0},{"radius":100,"angle":45.0},{"radius":100,"angle":45.0,"switch":true},{"length":100.0},{"length":100.0},{"length":59.0}],"lanes":[{"distanceFromCenter":-10,"index":0},{"distanceFromCenter":10,"index":1}],"startingPoint":{"position":{"x":-12.0,"y":192.0},"angle":-90.0}},"cars":[{"id":{"name":"speedbooster","color":"red"},"dimensions":{"length":40.0,"width":20.0,"guideFlagPosition":10.0}},{"id":{"name":"Tehoturskat","color":"blue"},"dimensions":{"length":40.0,"width":20.0,"guideFlagPosition":10.0}}],"raceSession":{"laps":3,"maxLapTimeMs":60000,"quickRace":true}}},"gameId":"826af23b-7c09-4a16-bf1b-c7beb36b18e2"}
{"msgType":"carPositions","data":[{"id":{"name":"speedbooster","color":"red"},"angle":0.0,"piecePosition":{"pieceIndex":0,"inPieceDistance":0.0,"lane":{"startLaneIndex":0,"endLaneIndex":0},"lap":0}},{"id":{"name":"Tehoturskat","color":"blue"},"angle":0.0,"piecePosition":{"pieceIndex":56,"inPieceDistance":34.0,"lane":{"startLaneIndex":1,"endLaneIndex":1},"lap":-1}}],"gameId":"826af23b-7c09-4a16-bf1b-c7beb36b18e2"}


>>>>>>>>>>>>>>>>>>>>>>>>>>>>> 0



THROTTLE = 1

{"msgType":"gameStart","data":null,"gameId":"826af23b-7c09-4a16-bf1b-c7beb36b18e2","gameTick":0}
{"msgType":"carPositions","data":[{"id":{"name":"speedbooster","color":"red"},"angle":0.0,"piecePosition":{"pieceIndex":0,"inPieceDistance":0.0,"lane":{"startLaneIndex":0,"endLaneIndex":0},"lap":0}},{"id":{"name":"Tehoturskat","color":"blue"},"angle":0.0,"piecePosition":{"pieceIndex":56,"inPieceDistance":34.0,"lane":{"startLaneIndex":1,"endLaneIndex":1},"lap":-1}}],"gameId":"826af23b-7c09-4a16-bf1b-c7beb36b18e2","gameTick":1}


>>>>>>>>>>>>>>>>>>>>>>>>>>>>> 0



THROTTLE = 1

