{"msgType":"joinRace","data":{"botId":{"name":"speedbooster","key":"w5TYojUOXuT/gw"},"trackName":"keimola"}}
{"msgType":"yourCar","data":{"name":"speedbooster","color":"red"},"gameId":"f9175b43-990d-44dc-899a-da3bcc33b77a"}
{"msgType":"gameInit","data":{"race":{"track":{"id":"keimola","name":"Keimola","pieces":[{"length":100.0},{"length":100.0},{"length":100.0},{"length":100.0,"switch":true},{"radius":100,"angle":45.0},{"radius":100,"angle":45.0},{"radius":100,"angle":45.0},{"radius":100,"angle":45.0},{"radius":200,"angle":22.5,"switch":true},{"length":100.0},{"length":100.0},{"radius":200,"angle":-22.5},{"length":100.0},{"length":100.0,"switch":true},{"radius":100,"angle":-45.0},{"radius":100,"angle":-45.0},{"radius":100,"angle":-45.0},{"radius":100,"angle":-45.0},{"length":100.0,"switch":true},{"radius":100,"angle":45.0},{"radius":100,"angle":45.0},{"radius":100,"angle":45.0},{"radius":100,"angle":45.0},{"radius":200,"angle":22.5},{"radius":200,"angle":-22.5},{"length":100.0,"switch":true},{"radius":100,"angle":45.0},{"radius":100,"angle":45.0},{"length":62.0},{"radius":100,"angle":-45.0,"switch":true},{"radius":100,"angle":-45.0},{"radius":100,"angle":45.0},{"radius":100,"angle":45.0},{"radius":100,"angle":45.0},{"radius":100,"angle":45.0},{"length":100.0,"switch":true},{"length":100.0},{"length":100.0},{"length":100.0},{"length":90.0}],"lanes":[{"distanceFromCenter":-10,"index":0},{"distanceFromCenter":10,"index":1}],"startingPoint":{"position":{"x":-300.0,"y":-44.0},"angle":90.0}},"cars":[{"id":{"name":"speedbooster","color":"red"},"dimensions":{"length":40.0,"width":20.0,"guideFlagPosition":10.0}}],"raceSession":{"laps":3,"maxLapTimeMs":60000,"quickRace":true}}},"gameId":"f9175b43-990d-44dc-899a-da3bcc33b77a"}
{"msgType":"carPositions","data":[{"id":{"name":"speedbooster","color":"red"},"angle":0.0,"piecePosition":{"pieceIndex":0,"inPieceDistance":0.0,"lane":{"startLaneIndex":0,"endLaneIndex":0},"lap":0}}],"gameId":"f9175b43-990d-44dc-899a-da3bcc33b77a"}


>>>>>>>>>>>>>>>>>>>>>>>>>>>>> 0



THROTTLE = 1

{"msgType":"gameStart","data":null,"gameId":"f9175b43-990d-44dc-899a-da3bcc33b77a","gameTick":0}
{"msgType":"carPositions","data":[{"id":{"name":"speedbooster","color":"red"},"angle":0.0,"piecePosition":{"pieceIndex":0,"inPieceDistance":0.0,"lane":{"startLaneIndex":0,"endLaneIndex":0},"lap":0}}],"gameId":"f9175b43-990d-44dc-899a-da3bcc33b77a","gameTick":1}


>>>>>>>>>>>>>>>>>>>>>>>>>>>>> 0



THROTTLE = 1

{"msgType":"carPositions","data":[{"id":{"name":"speedbooster","color":"red"},"angle":0.0,"piecePosition":{"pieceIndex":0,"inPieceDistance":0.0,"lane":{"startLaneIndex":0,"endLaneIndex":0},"lap":0}}],"gameId":"f9175b43-990d-44dc-899a-da3bcc33b77a","gameTick":2}


>>>>>>>>>>>>>>>>>>>>>>>>>>>>> 0



THROTTLE = 1

{"msgType":"carPositions","data":[{"id":{"name":"speedbooster","color":"red"},"angle":0.0,"piecePosition":{"pieceIndex":0,"inPieceDistance":0.21969399983268076,"lane":{"startLaneIndex":0,"endLaneIndex":0},"lap":0}}],"gameId":"f9175b43-990d-44dc-899a-da3bcc33b77a","gameTick":3}


>>>>>>>>>>>>>>>>>>>>>>>>>>>>> 0



THROTTLE = 1

{"msgType":"carPositions","data":[{"id":{"name":"speedbooster","color":"red"},"angle":0.0,"piecePosition":{"pieceIndex":0,"inPieceDistance":0.6543823910387306,"lane":{"startLaneIndex":0,"endLaneIndex":0},"lap":0}}],"gameId":"f9175b43-990d-44dc-899a-da3bcc33b77a","gameTick":4}


>>>>>>>>>>>>>>>>>>>>>>>>>>>>> 0



THROTTLE = 1

{"msgType":"carPositions","data":[{"id":{"name":"speedbooster","color":"red"},"angle":0.0,"piecePosition":{"pieceIndex":0,"inPieceDistance":1.2994660973521963,"lane":{"startLaneIndex":0,"endLaneIndex":0},"lap":0}}],"gameId":"f9175b43-990d-44dc-899a-da3bcc33b77a","gameTick":5}


>>>>>>>>>>>>>>>>>>>>>>>>>>>>> 0



THROTTLE = 1

{"msgType":"carPositions","data":[{"id":{"name":"speedbooster","color":"red"},"angle":0.0,"piecePosition":{"pieceIndex":0,"inPieceDistance":2.1504444241549665,"lane":{"startLaneIndex":0,"endLaneIndex":0},"lap":0}}],"gameId":"f9175b43-990d-44dc-899a-da3bcc33b77a","gameTick":6}


>>>>>>>>>>>>>>>>>>>>>>>>>>>>> 0



THROTTLE = 1

{"msgType":"carPositions","data":[{"id":{"name":"speedbooster","color":"red"},"angle":0.0,"piecePosition":{"pieceIndex":0,"inPieceDistance":3.202912953934886,"lane":{"startLaneIndex":0,"endLaneIndex":0},"lap":0}}],"gameId":"f9175b43-990d-44dc-899a-da3bcc33b77a","gameTick":7}


>>>>>>>>>>>>>>>>>>>>>>>>>>>>> 0



THROTTLE = 1

{"msgType":"carPositions","data":[{"id":{"name":"speedbooster","color":"red"},"angle":0.0,"piecePosition":{"pieceIndex":0,"inPieceDistance":4.452561486763415,"lane":{"startLaneIndex":0,"endLaneIndex":0},"lap":0}}],"gameId":"f9175b43-990d-44dc-899a-da3bcc33b77a","gameTick":8}


>>>>>>>>>>>>>>>>>>>>>>>>>>>>> 0



THROTTLE = 1

{"msgType":"carPositions","data":[{"id":{"name":"speedbooster","color":"red"},"angle":0.0,"piecePosition":{"pieceIndex":0,"inPieceDistance":5.895172024829778,"lane":{"startLaneIndex":0,"endLaneIndex":0},"lap":0}}],"gameId":"f9175b43-990d-44dc-899a-da3bcc33b77a","gameTick":9}


>>>>>>>>>>>>>>>>>>>>>>>>>>>>> 0



THROTTLE = 1

{"msgType":"carPositions","data":[{"id":{"name":"speedbooster","color":"red"},"angle":0.0,"piecePosition":{"pieceIndex":0,"inPieceDistance":7.526616800089186,"lane":{"startLaneIndex":0,"endLaneIndex":0},"lap":0}}],"gameId":"f9175b43-990d-44dc-899a-da3bcc33b77a","gameTick":10}


>>>>>>>>>>>>>>>>>>>>>>>>>>>>> 0



THROTTLE = 1

{"msgType":"carPositions","data":[{"id":{"name":"speedbooster","color":"red"},"angle":0.0,"piecePosition":{"pieceIndex":0,"inPieceDistance":9.342856344102827,"lane":{"startLaneIndex":0,"endLaneIndex":0},"lap":0}}],"gameId":"f9175b43-990d-44dc-899a-da3bcc33b77a","gameTick":11}


>>>>>>>>>>>>>>>>>>>>>>>>>>>>> 0



THROTTLE = 1

{"msgType":"carPositions","data":[{"id":{"name":"speedbooster","color":"red"},"angle":0.0,"piecePosition":{"pieceIndex":0,"inPieceDistance":11.3399375991671,"lane":{"startLaneIndex":0,"endLaneIndex":0},"lap":0}}],"gameId":"f9175b43-990d-44dc-899a-da3bcc33b77a","gameTick":12}


>>>>>>>>>>>>>>>>>>>>>>>>>>>>> 0



THROTTLE = 1

{"msgType":"carPositions","data":[{"id":{"name":"speedbooster","color":"red"},"angle":0.0,"piecePosition":{"pieceIndex":0,"inPieceDistance":13.513992069848825,"lane":{"startLaneIndex":0,"endLaneIndex":0},"lap":0}}],"gameId":"f9175b43-990d-44dc-899a-da3bcc33b77a","gameTick":13}


>>>>>>>>>>>>>>>>>>>>>>>>>>>>> 0



THROTTLE = 1

{"msgType":"carPositions","data":[{"id":{"name":"speedbooster","color":"red"},"angle":0.0,"piecePosition":{"pieceIndex":0,"inPieceDistance":15.861234014062095,"lane":{"startLaneIndex":0,"endLaneIndex":0},"lap":0}}],"gameId":"f9175b43-990d-44dc-899a-da3bcc33b77a","gameTick":14}


>>>>>>>>>>>>>>>>>>>>>>>>>>>>> 0



THROTTLE = 1

{"msgType":"carPositions","data":[{"id":{"name":"speedbooster","color":"red"},"angle":0.0,"piecePosition":{"pieceIndex":0,"inPieceDistance":18.377958672840915,"lane":{"startLaneIndex":0,"endLaneIndex":0},"lap":0}}],"gameId":"f9175b43-990d-44dc-899a-da3bcc33b77a","gameTick":15}


>>>>>>>>>>>>>>>>>>>>>>>>>>>>> 0



THROTTLE = 1

{"msgType":"carPositions","data":[{"id":{"name":"speedbooster","color":"red"},"angle":0.0,"piecePosition":{"pieceIndex":0,"inPieceDistance":21.060540537979847,"lane":{"startLaneIndex":0,"endLaneIndex":0},"lap":0}}],"gameId":"f9175b43-990d-44dc-899a-da3bcc33b77a","gameTick":16}


>>>>>>>>>>>>>>>>>>>>>>>>>>>>> 0



THROTTLE = 1

{"msgType":"carPositions","data":[{"id":{"name":"speedbooster","color":"red"},"angle":0.0,"piecePosition":{"pieceIndex":0,"inPieceDistance":23.905431656732606,"lane":{"startLaneIndex":0,"endLaneIndex":0},"lap":0}}],"gameId":"f9175b43-990d-44dc-899a-da3bcc33b77a","gameTick":17}


>>>>>>>>>>>>>>>>>>>>>>>>>>>>> 0



THROTTLE = 1

{"msgType":"carPositions","data":[{"id":{"name":"speedbooster","color":"red"},"angle":0.0,"piecePosition":{"pieceIndex":0,"inPieceDistance":26.909159972775903,"lane":{"startLaneIndex":0,"endLaneIndex":0},"lap":0}}],"gameId":"f9175b43-990d-44dc-899a-da3bcc33b77a","gameTick":18}


>>>>>>>>>>>>>>>>>>>>>>>>>>>>> 0



THROTTLE = 1

{"msgType":"carPositions","data":[{"id":{"name":"speedbooster","color":"red"},"angle":0.0,"piecePosition":{"pieceIndex":0,"inPieceDistance":30.068327702662724,"lane":{"startLaneIndex":0,"endLaneIndex":0},"lap":0}}],"gameId":"f9175b43-990d-44dc-899a-da3bcc33b77a","gameTick":19}


>>>>>>>>>>>>>>>>>>>>>>>>>>>>> 0



THROTTLE = 1

{"msgType":"carPositions","data":[{"id":{"name":"speedbooster","color":"red"},"angle":0.0,"piecePosition":{"pieceIndex":0,"inPieceDistance":33.379609747005894,"lane":{"startLaneIndex":0,"endLaneIndex":0},"lap":0}}],"gameId":"f9175b43-990d-44dc-899a-da3bcc33b77a","gameTick":20}


>>>>>>>>>>>>>>>>>>>>>>>>>>>>> 0



THROTTLE = 1

{"msgType":"carPositions","data":[{"id":{"name":"speedbooster","color":"red"},"angle":0.0,"piecePosition":{"pieceIndex":0,"inPieceDistance":36.839752135648986,"lane":{"startLaneIndex":0,"endLaneIndex":0},"lap":0}}],"gameId":"f9175b43-990d-44dc-899a-da3bcc33b77a","gameTick":21}


>>>>>>>>>>>>>>>>>>>>>>>>>>>>> 0



THROTTLE = 1

{"msgType":"carPositions","data":[{"id":{"name":"speedbooster","color":"red"},"angle":0.0,"piecePosition":{"pieceIndex":0,"inPieceDistance":40.44557050609753,"lane":{"startLaneIndex":0,"endLaneIndex":0},"lap":0}}],"gameId":"f9175b43-990d-44dc-899a-da3bcc33b77a","gameTick":22}


>>>>>>>>>>>>>>>>>>>>>>>>>>>>> 0



THROTTLE = 1

{"msgType":"carPositions","data":[{"id":{"name":"speedbooster","color":"red"},"angle":0.0,"piecePosition":{"pieceIndex":0,"inPieceDistance":44.193948614499014,"lane":{"startLaneIndex":0,"endLaneIndex":0},"lap":0}}],"gameId":"f9175b43-990d-44dc-899a-da3bcc33b77a","gameTick":23}


>>>>>>>>>>>>>>>>>>>>>>>>>>>>> 0



THROTTLE = 1

{"msgType":"carPositions","data":[{"id":{"name":"speedbooster","color":"red"},"angle":0.0,"piecePosition":{"pieceIndex":0,"inPieceDistance":48.08183687847545,"lane":{"startLaneIndex":0,"endLaneIndex":0},"lap":0}}],"gameId":"f9175b43-990d-44dc-899a-da3bcc33b77a","gameTick":24}


>>>>>>>>>>>>>>>>>>>>>>>>>>>>> 0



THROTTLE = 1

{"msgType":"carPositions","data":[{"id":{"name":"speedbooster","color":"red"},"angle":0.0,"piecePosition":{"pieceIndex":0,"inPieceDistance":52.10625095112705,"lane":{"startLaneIndex":0,"endLaneIndex":0},"lap":0}}],"gameId":"f9175b43-990d-44dc-899a-da3bcc33b77a","gameTick":25}


>>>>>>>>>>>>>>>>>>>>>>>>>>>>> 0



THROTTLE = 1

{"msgType":"carPositions","data":[{"id":{"name":"speedbooster","color":"red"},"angle":0.0,"piecePosition":{"pieceIndex":0,"inPieceDistance":56.26427032554034,"lane":{"startLaneIndex":0,"endLaneIndex":0},"lap":0}}],"gameId":"f9175b43-990d-44dc-899a-da3bcc33b77a","gameTick":26}


>>>>>>>>>>>>>>>>>>>>>>>>>>>>> 0



THROTTLE = 1

{"msgType":"carPositions","data":[{"id":{"name":"speedbooster","color":"red"},"angle":0.0,"piecePosition":{"pieceIndex":0,"inPieceDistance":60.553036969147975,"lane":{"startLaneIndex":0,"endLaneIndex":0},"lap":0}}],"gameId":"f9175b43-990d-44dc-899a-da3bcc33b77a","gameTick":27}


>>>>>>>>>>>>>>>>>>>>>>>>>>>>> 0



THROTTLE = 1

{"msgType":"carPositions","data":[{"id":{"name":"speedbooster","color":"red"},"angle":0.0,"piecePosition":{"pieceIndex":0,"inPieceDistance":64.96975398730193,"lane":{"startLaneIndex":0,"endLaneIndex":0},"lap":0}}],"gameId":"f9175b43-990d-44dc-899a-da3bcc33b77a","gameTick":28}


>>>>>>>>>>>>>>>>>>>>>>>>>>>>> 0



THROTTLE = 1

{"msgType":"carPositions","data":[{"id":{"name":"speedbooster","color":"red"},"angle":0.0,"piecePosition":{"pieceIndex":0,"inPieceDistance":69.5116843154349,"lane":{"startLaneIndex":0,"endLaneIndex":0},"lap":0}}],"gameId":"f9175b43-990d-44dc-899a-da3bcc33b77a","gameTick":29}


>>>>>>>>>>>>>>>>>>>>>>>>>>>>> 0



THROTTLE = 1

{"msgType":"carPositions","data":[{"id":{"name":"speedbooster","color":"red"},"angle":0.0,"piecePosition":{"pieceIndex":0,"inPieceDistance":74.17614943919855,"lane":{"startLaneIndex":0,"endLaneIndex":0},"lap":0}}],"gameId":"f9175b43-990d-44dc-899a-da3bcc33b77a","gameTick":30}


>>>>>>>>>>>>>>>>>>>>>>>>>>>>> 0



THROTTLE = 1

{"msgType":"carPositions","data":[{"id":{"name":"speedbooster","color":"red"},"angle":0.0,"piecePosition":{"pieceIndex":0,"inPieceDistance":78.96052814198003,"lane":{"startLaneIndex":0,"endLaneIndex":0},"lap":0}}],"gameId":"f9175b43-990d-44dc-899a-da3bcc33b77a","gameTick":31}


>>>>>>>>>>>>>>>>>>>>>>>>>>>>> 0



THROTTLE = 1

{"msgType":"carPositions","data":[{"id":{"name":"speedbooster","color":"red"},"angle":0.0,"piecePosition":{"pieceIndex":0,"inPieceDistance":83.86225527921113,"lane":{"startLaneIndex":0,"endLaneIndex":0},"lap":0}}],"gameId":"f9175b43-990d-44dc-899a-da3bcc33b77a","gameTick":32}


>>>>>>>>>>>>>>>>>>>>>>>>>>>>> 0



THROTTLE = 1

{"msgType":"carPositions","data":[{"id":{"name":"speedbooster","color":"red"},"angle":0.0,"piecePosition":{"pieceIndex":0,"inPieceDistance":88.87882057889695,"lane":{"startLaneIndex":0,"endLaneIndex":0},"lap":0}}],"gameId":"f9175b43-990d-44dc-899a-da3bcc33b77a","gameTick":33}


>>>>>>>>>>>>>>>>>>>>>>>>>>>>> 0



THROTTLE = 1

{"msgType":"carPositions","data":[{"id":{"name":"speedbooster","color":"red"},"angle":0.0,"piecePosition":{"pieceIndex":0,"inPieceDistance":94.0077674678032,"lane":{"startLaneIndex":0,"endLaneIndex":0},"lap":0}}],"gameId":"f9175b43-990d-44dc-899a-da3bcc33b77a","gameTick":34}


>>>>>>>>>>>>>>>>>>>>>>>>>>>>> 0



THROTTLE = 1

{"msgType":"carPositions","data":[{"id":{"name":"speedbooster","color":"red"},"angle":0.0,"piecePosition":{"pieceIndex":0,"inPieceDistance":99.24669192275323,"lane":{"startLaneIndex":0,"endLaneIndex":0},"lap":0}}],"gameId":"f9175b43-990d-44dc-899a-da3bcc33b77a","gameTick":35}


>>>>>>>>>>>>>>>>>>>>>>>>>>>>> 0



THROTTLE = 1

{"msgType":"carPositions","data":[{"id":{"name":"speedbooster","color":"red"},"angle":0.0,"piecePosition":{"pieceIndex":1,"inPieceDistance":4.593241346497621,"lane":{"startLaneIndex":0,"endLaneIndex":0},"lap":0}}],"gameId":"f9175b43-990d-44dc-899a-da3bcc33b77a","gameTick":36}


>>>>>>>>>>>>>>>>>>>>>>>>>>>>> 1



THROTTLE = 1

{"msgType":"carPositions","data":[{"id":{"name":"speedbooster","color":"red"},"angle":0.0,"piecePosition":{"pieceIndex":1,"inPieceDistance":10.045113467630872,"lane":{"startLaneIndex":0,"endLaneIndex":0},"lap":0}}],"gameId":"f9175b43-990d-44dc-899a-da3bcc33b77a","gameTick":37}


>>>>>>>>>>>>>>>>>>>>>>>>>>>>> 1



THROTTLE = 1

{"msgType":"carPositions","data":[{"id":{"name":"speedbooster","color":"red"},"angle":0.0,"piecePosition":{"pieceIndex":1,"inPieceDistance":15.600055264040481,"lane":{"startLaneIndex":0,"endLaneIndex":0},"lap":0}}],"gameId":"f9175b43-990d-44dc-899a-da3bcc33b77a","gameTick":38}


>>>>>>>>>>>>>>>>>>>>>>>>>>>>> 1



THROTTLE = 1

{"msgType":"carPositions","data":[{"id":{"name":"speedbooster","color":"red"},"angle":0.0,"piecePosition":{"pieceIndex":1,"inPieceDistance":21.255861909385285,"lane":{"startLaneIndex":0,"endLaneIndex":0},"lap":0}}],"gameId":"f9175b43-990d-44dc-899a-da3bcc33b77a","gameTick":39}


>>>>>>>>>>>>>>>>>>>>>>>>>>>>> 1



THROTTLE = 1

{"msgType":"carPositions","data":[{"id":{"name":"speedbooster","color":"red"},"angle":0.0,"piecePosition":{"pieceIndex":1,"inPieceDistance":27.01037574211028,"lane":{"startLaneIndex":0,"endLaneIndex":0},"lap":0}}],"gameId":"f9175b43-990d-44dc-899a-da3bcc33b77a","gameTick":40}


>>>>>>>>>>>>>>>>>>>>>>>>>>>>> 1



THROTTLE = 1

{"msgType":"carPositions","data":[{"id":{"name":"speedbooster","color":"red"},"angle":0.0,"piecePosition":{"pieceIndex":1,"inPieceDistance":32.861485256515905,"lane":{"startLaneIndex":0,"endLaneIndex":0},"lap":0}}],"gameId":"f9175b43-990d-44dc-899a-da3bcc33b77a","gameTick":41}


>>>>>>>>>>>>>>>>>>>>>>>>>>>>> 1



THROTTLE = 1

{"msgType":"carPositions","data":[{"id":{"name":"speedbooster","color":"red"},"angle":0.0,"piecePosition":{"pieceIndex":1,"inPieceDistance":38.80712411540995,"lane":{"startLaneIndex":0,"endLaneIndex":0},"lap":0}}],"gameId":"f9175b43-990d-44dc-899a-da3bcc33b77a","gameTick":42}


>>>>>>>>>>>>>>>>>>>>>>>>>>>>> 1



THROTTLE = 0.9

{"msgType":"carPositions","data":[{"id":{"name":"speedbooster","color":"red"},"angle":0.0,"piecePosition":{"pieceIndex":1,"inPieceDistance":44.82330078389718,"lane":{"startLaneIndex":0,"endLaneIndex":0},"lap":0}}],"gameId":"f9175b43-990d-44dc-899a-da3bcc33b77a","gameTick":43}


>>>>>>>>>>>>>>>>>>>>>>>>>>>>> 1



THROTTLE = 0.8

{"msgType":"carPositions","data":[{"id":{"name":"speedbooster","color":"red"},"angle":0.0,"piecePosition":{"pieceIndex":1,"inPieceDistance":50.88653694465059,"lane":{"startLaneIndex":0,"endLaneIndex":0},"lap":0}}],"gameId":"f9175b43-990d-44dc-899a-da3bcc33b77a","gameTick":44}


>>>>>>>>>>>>>>>>>>>>>>>>>>>>> 1



THROTTLE = 0.7

{"msgType":"carPositions","data":[{"id":{"name":"speedbooster","color":"red"},"angle":0.0,"piecePosition":{"pieceIndex":1,"inPieceDistance":56.973856519361064,"lane":{"startLaneIndex":0,"endLaneIndex":0},"lap":0}}],"gameId":"f9175b43-990d-44dc-899a-da3bcc33b77a","gameTick":45}


>>>>>>>>>>>>>>>>>>>>>>>>>>>>> 1



THROTTLE = 0.6

{"msgType":"carPositions","data":[{"id":{"name":"speedbooster","color":"red"},"angle":0.0,"piecePosition":{"pieceIndex":1,"inPieceDistance":63.06277492503604,"lane":{"startLaneIndex":0,"endLaneIndex":0},"lap":0}}],"gameId":"f9175b43-990d-44dc-899a-da3bcc33b77a","gameTick":46}


>>>>>>>>>>>>>>>>>>>>>>>>>>>>> 1



THROTTLE = 0.5

{"msgType":"carPositions","data":[{"id":{"name":"speedbooster","color":"red"},"angle":0.0,"piecePosition":{"pieceIndex":1,"inPieceDistance":69.1312885601231,"lane":{"startLaneIndex":0,"endLaneIndex":0},"lap":0}}],"gameId":"f9175b43-990d-44dc-899a-da3bcc33b77a","gameTick":47}


>>>>>>>>>>>>>>>>>>>>>>>>>>>>> 1



THROTTLE = 0.4

{"msgType":"carPositions","data":[{"id":{"name":"speedbooster","color":"red"},"angle":0.0,"piecePosition":{"pieceIndex":1,"inPieceDistance":75.1578645155424,"lane":{"startLaneIndex":0,"endLaneIndex":0},"lap":0}}],"gameId":"f9175b43-990d-44dc-899a-da3bcc33b77a","gameTick":48}


>>>>>>>>>>>>>>>>>>>>>>>>>>>>> 1



THROTTLE = 0.3

{"msgType":"carPositions","data":[{"id":{"name":"speedbooster","color":"red"},"angle":0.0,"piecePosition":{"pieceIndex":1,"inPieceDistance":81.12143050581669,"lane":{"startLaneIndex":0,"endLaneIndex":0},"lap":0}}],"gameId":"f9175b43-990d-44dc-899a-da3bcc33b77a","gameTick":49}


>>>>>>>>>>>>>>>>>>>>>>>>>>>>> 1



THROTTLE = 0.2

{"msgType":"carPositions","data":[{"id":{"name":"speedbooster","color":"red"},"angle":0.0,"piecePosition":{"pieceIndex":1,"inPieceDistance":87.00136501559058,"lane":{"startLaneIndex":0,"endLaneIndex":0},"lap":0}}],"gameId":"f9175b43-990d-44dc-899a-da3bcc33b77a","gameTick":50}


>>>>>>>>>>>>>>>>>>>>>>>>>>>>> 1



THROTTLE = 0.1

{"msgType":"carPositions","data":[{"id":{"name":"speedbooster","color":"red"},"angle":0.0,"piecePosition":{"pieceIndex":1,"inPieceDistance":92.77748765693177,"lane":{"startLaneIndex":0,"endLaneIndex":0},"lap":0}}],"gameId":"f9175b43-990d-44dc-899a-da3bcc33b77a","gameTick":51}


>>>>>>>>>>>>>>>>>>>>>>>>>>>>> 1



THROTTLE = 1.3877787807814E-16

{"msgType":"carPositions","data":[{"id":{"name":"speedbooster","color":"red"},"angle":0.0,"piecePosition":{"pieceIndex":1,"inPieceDistance":98.43004973290503,"lane":{"startLaneIndex":0,"endLaneIndex":0},"lap":0}}],"gameId":"f9175b43-990d-44dc-899a-da3bcc33b77a","gameTick":52}


>>>>>>>>>>>>>>>>>>>>>>>>>>>>> 1



THROTTLE = 0.1

{"msgType":"carPositions","data":[{"id":{"name":"speedbooster","color":"red"},"angle":0.0,"piecePosition":{"pieceIndex":2,"inPieceDistance":3.9836638029730977,"lane":{"startLaneIndex":0,"endLaneIndex":0},"lap":0}}],"gameId":"f9175b43-990d-44dc-899a-da3bcc33b77a","gameTick":53}


>>>>>>>>>>>>>>>>>>>>>>>>>>>>> 2



THROTTLE = 0

{"msgType":"carPositions","data":[{"id":{"name":"speedbooster","color":"red"},"angle":0.0,"piecePosition":{"pieceIndex":2,"inPieceDistance":9.440446524331609,"lane":{"startLaneIndex":0,"endLaneIndex":0},"lap":0}}],"gameId":"f9175b43-990d-44dc-899a-da3bcc33b77a","gameTick":54}


>>>>>>>>>>>>>>>>>>>>>>>>>>>>> 2



THROTTLE = 0.1

{"msgType":"carPositions","data":[{"id":{"name":"speedbooster","color":"red"},"angle":0.0,"piecePosition":{"pieceIndex":2,"inPieceDistance":14.802469275470045,"lane":{"startLaneIndex":0,"endLaneIndex":0},"lap":0}}],"gameId":"f9175b43-990d-44dc-899a-da3bcc33b77a","gameTick":55}


>>>>>>>>>>>>>>>>>>>>>>>>>>>>> 2



THROTTLE = 0

{"msgType":"carPositions","data":[{"id":{"name":"speedbooster","color":"red"},"angle":0.0,"piecePosition":{"pieceIndex":2,"inPieceDistance":20.049789724772914,"lane":{"startLaneIndex":0,"endLaneIndex":0},"lap":0}}],"gameId":"f9175b43-990d-44dc-899a-da3bcc33b77a","gameTick":56}


>>>>>>>>>>>>>>>>>>>>>>>>>>>>> 2



THROTTLE = 0.1

{"msgType":"carPositions","data":[{"id":{"name":"speedbooster","color":"red"},"angle":0.0,"piecePosition":{"pieceIndex":2,"inPieceDistance":25.206830939180335,"lane":{"startLaneIndex":0,"endLaneIndex":0},"lap":0}}],"gameId":"f9175b43-990d-44dc-899a-da3bcc33b77a","gameTick":57}


>>>>>>>>>>>>>>>>>>>>>>>>>>>>> 2



THROTTLE = 0

{"msgType":"carPositions","data":[{"id":{"name":"speedbooster","color":"red"},"angle":0.0,"piecePosition":{"pieceIndex":2,"inPieceDistance":30.25355473693229,"lane":{"startLaneIndex":0,"endLaneIndex":0},"lap":0}}],"gameId":"f9175b43-990d-44dc-899a-da3bcc33b77a","gameTick":58}


>>>>>>>>>>>>>>>>>>>>>>>>>>>>> 2



THROTTLE = 0.1

{"msgType":"carPositions","data":[{"id":{"name":"speedbooster","color":"red"},"angle":0.0,"piecePosition":{"pieceIndex":2,"inPieceDistance":35.21429038521333,"lane":{"startLaneIndex":0,"endLaneIndex":0},"lap":0}}],"gameId":"f9175b43-990d-44dc-899a-da3bcc33b77a","gameTick":59}


>>>>>>>>>>>>>>>>>>>>>>>>>>>>> 2



THROTTLE = 0.1

{"msgType":"carPositions","data":[{"id":{"name":"speedbooster","color":"red"},"angle":0.0,"piecePosition":{"pieceIndex":2,"inPieceDistance":40.09087730901896,"lane":{"startLaneIndex":0,"endLaneIndex":0},"lap":0}}],"gameId":"f9175b43-990d-44dc-899a-da3bcc33b77a","gameTick":60}


>>>>>>>>>>>>>>>>>>>>>>>>>>>>> 2



THROTTLE = 0.1

{"msgType":"carPositions","data":[{"id":{"name":"speedbooster","color":"red"},"angle":0.0,"piecePosition":{"pieceIndex":2,"inPieceDistance":44.88511558508174,"lane":{"startLaneIndex":0,"endLaneIndex":0},"lap":0}}],"gameId":"f9175b43-990d-44dc-899a-da3bcc33b77a","gameTick":61}


>>>>>>>>>>>>>>>>>>>>>>>>>>>>> 2



THROTTLE = 0.1

{"msgType":"carPositions","data":[{"id":{"name":"speedbooster","color":"red"},"angle":0.0,"piecePosition":{"pieceIndex":2,"inPieceDistance":49.598766783594044,"lane":{"startLaneIndex":0,"endLaneIndex":0},"lap":0}}],"gameId":"f9175b43-990d-44dc-899a-da3bcc33b77a","gameTick":62}


>>>>>>>>>>>>>>>>>>>>>>>>>>>>> 2



THROTTLE = 0.1

{"msgType":"carPositions","data":[{"id":{"name":"speedbooster","color":"red"},"angle":0.0,"piecePosition":{"pieceIndex":2,"inPieceDistance":54.23355479192491,"lane":{"startLaneIndex":0,"endLaneIndex":0},"lap":0}}],"gameId":"f9175b43-990d-44dc-899a-da3bcc33b77a","gameTick":63}


>>>>>>>>>>>>>>>>>>>>>>>>>>>>> 2



THROTTLE = 0.1

{"msgType":"carPositions","data":[{"id":{"name":"speedbooster","color":"red"},"angle":0.0,"piecePosition":{"pieceIndex":2,"inPieceDistance":58.79116662071636,"lane":{"startLaneIndex":0,"endLaneIndex":0},"lap":0}}],"gameId":"f9175b43-990d-44dc-899a-da3bcc33b77a","gameTick":64}


>>>>>>>>>>>>>>>>>>>>>>>>>>>>> 2



THROTTLE = 0.1

{"msgType":"carPositions","data":[{"id":{"name":"speedbooster","color":"red"},"angle":0.0,"piecePosition":{"pieceIndex":2,"inPieceDistance":63.27325319273596,"lane":{"startLaneIndex":0,"endLaneIndex":0},"lap":0}}],"gameId":"f9175b43-990d-44dc-899a-da3bcc33b77a","gameTick":65}


>>>>>>>>>>>>>>>>>>>>>>>>>>>>> 2



THROTTLE = 0.1

{"msgType":"carPositions","data":[{"id":{"name":"speedbooster","color":"red"},"angle":0.0,"piecePosition":{"pieceIndex":2,"inPieceDistance":67.68143011485456,"lane":{"startLaneIndex":0,"endLaneIndex":0},"lap":0}}],"gameId":"f9175b43-990d-44dc-899a-da3bcc33b77a","gameTick":66}


>>>>>>>>>>>>>>>>>>>>>>>>>>>>> 2



THROTTLE = 0.1

{"msgType":"carPositions","data":[{"id":{"name":"speedbooster","color":"red"},"angle":0.0,"piecePosition":{"pieceIndex":2,"inPieceDistance":72.01727843351024,"lane":{"startLaneIndex":0,"endLaneIndex":0},"lap":0}}],"gameId":"f9175b43-990d-44dc-899a-da3bcc33b77a","gameTick":67}


>>>>>>>>>>>>>>>>>>>>>>>>>>>>> 2



THROTTLE = 0.1

{"msgType":"carPositions","data":[{"id":{"name":"speedbooster","color":"red"},"angle":0.0,"piecePosition":{"pieceIndex":2,"inPieceDistance":76.28234537401157,"lane":{"startLaneIndex":0,"endLaneIndex":0},"lap":0}}],"gameId":"f9175b43-990d-44dc-899a-da3bcc33b77a","gameTick":68}


>>>>>>>>>>>>>>>>>>>>>>>>>>>>> 2



THROTTLE = 0.1

{"msgType":"carPositions","data":[{"id":{"name":"speedbooster","color":"red"},"angle":0.0,"piecePosition":{"pieceIndex":2,"inPieceDistance":80.47814506402608,"lane":{"startLaneIndex":0,"endLaneIndex":0},"lap":0}}],"gameId":"f9175b43-990d-44dc-899a-da3bcc33b77a","gameTick":69}


>>>>>>>>>>>>>>>>>>>>>>>>>>>>> 2



THROTTLE = 0.1

{"msgType":"carPositions","data":[{"id":{"name":"speedbooster","color":"red"},"angle":0.0,"piecePosition":{"pieceIndex":2,"inPieceDistance":84.60615924159208,"lane":{"startLaneIndex":0,"endLaneIndex":0},"lap":0}}],"gameId":"f9175b43-990d-44dc-899a-da3bcc33b77a","gameTick":70}


>>>>>>>>>>>>>>>>>>>>>>>>>>>>> 2



THROTTLE = 0.1

{"msgType":"carPositions","data":[{"id":{"name":"speedbooster","color":"red"},"angle":0.0,"piecePosition":{"pieceIndex":2,"inPieceDistance":88.66783794798499,"lane":{"startLaneIndex":0,"endLaneIndex":0},"lap":0}}],"gameId":"f9175b43-990d-44dc-899a-da3bcc33b77a","gameTick":71}


>>>>>>>>>>>>>>>>>>>>>>>>>>>>> 2



THROTTLE = 0.1

{"msgType":"carPositions","data":[{"id":{"name":"speedbooster","color":"red"},"angle":0.0,"piecePosition":{"pieceIndex":2,"inPieceDistance":92.66460020576218,"lane":{"startLaneIndex":0,"endLaneIndex":0},"lap":0}}],"gameId":"f9175b43-990d-44dc-899a-da3bcc33b77a","gameTick":72}


>>>>>>>>>>>>>>>>>>>>>>>>>>>>> 2



THROTTLE = 0.1

{"msgType":"carPositions","data":[{"id":{"name":"speedbooster","color":"red"},"angle":0.0,"piecePosition":{"pieceIndex":2,"inPieceDistance":96.59783468230326,"lane":{"startLaneIndex":0,"endLaneIndex":0},"lap":0}}],"gameId":"f9175b43-990d-44dc-899a-da3bcc33b77a","gameTick":73}


>>>>>>>>>>>>>>>>>>>>>>>>>>>>> 2



THROTTLE = 0.1

{"msgType":"carPositions","data":[{"id":{"name":"speedbooster","color":"red"},"angle":0.0,"piecePosition":{"pieceIndex":3,"inPieceDistance":0.46890033915620677,"lane":{"startLaneIndex":0,"endLaneIndex":1},"lap":0}}],"gameId":"f9175b43-990d-44dc-899a-da3bcc33b77a","gameTick":74}


>>>>>>>>>>>>>>>>>>>>>>>>>>>>> 3



THROTTLE = 0.1

{"msgType":"carPositions","data":[{"id":{"name":"speedbooster","color":"red"},"angle":0.0,"piecePosition":{"pieceIndex":3,"inPieceDistance":4.279127067492997,"lane":{"startLaneIndex":0,"endLaneIndex":1},"lap":0}}],"gameId":"f9175b43-990d-44dc-899a-da3bcc33b77a","gameTick":75}


>>>>>>>>>>>>>>>>>>>>>>>>>>>>> 3



THROTTLE = 0.1

{"msgType":"carPositions","data":[{"id":{"name":"speedbooster","color":"red"},"angle":0.0,"piecePosition":{"pieceIndex":3,"inPieceDistance":8.029816309971729,"lane":{"startLaneIndex":0,"endLaneIndex":1},"lap":0}}],"gameId":"f9175b43-990d-44dc-899a-da3bcc33b77a","gameTick":76}


>>>>>>>>>>>>>>>>>>>>>>>>>>>>> 3



THROTTLE = 0.1

{"msgType":"carPositions","data":[{"id":{"name":"speedbooster","color":"red"},"angle":0.0,"piecePosition":{"pieceIndex":3,"inPieceDistance":11.722241669296151,"lane":{"startLaneIndex":0,"endLaneIndex":1},"lap":0}}],"gameId":"f9175b43-990d-44dc-899a-da3bcc33b77a","gameTick":77}


>>>>>>>>>>>>>>>>>>>>>>>>>>>>> 3



THROTTLE = 0.1

{"msgType":"carPositions","data":[{"id":{"name":"speedbooster","color":"red"},"angle":0.0,"piecePosition":{"pieceIndex":3,"inPieceDistance":15.357649503757129,"lane":{"startLaneIndex":0,"endLaneIndex":1},"lap":0}}],"gameId":"f9175b43-990d-44dc-899a-da3bcc33b77a","gameTick":78}


>>>>>>>>>>>>>>>>>>>>>>>>>>>>> 3



THROTTLE = 0.1

{"msgType":"carPositions","data":[{"id":{"name":"speedbooster","color":"red"},"angle":0.0,"piecePosition":{"pieceIndex":3,"inPieceDistance":18.937259510034504,"lane":{"startLaneIndex":0,"endLaneIndex":1},"lap":0}}],"gameId":"f9175b43-990d-44dc-899a-da3bcc33b77a","gameTick":79}


>>>>>>>>>>>>>>>>>>>>>>>>>>>>> 3



THROTTLE = 0.1

{"msgType":"carPositions","data":[{"id":{"name":"speedbooster","color":"red"},"angle":0.0,"piecePosition":{"pieceIndex":3,"inPieceDistance":22.462265293531896,"lane":{"startLaneIndex":0,"endLaneIndex":1},"lap":0}}],"gameId":"f9175b43-990d-44dc-899a-da3bcc33b77a","gameTick":80}


>>>>>>>>>>>>>>>>>>>>>>>>>>>>> 3



THROTTLE = 0.1

{"msgType":"carPositions","data":[{"id":{"name":"speedbooster","color":"red"},"angle":0.0,"piecePosition":{"pieceIndex":3,"inPieceDistance":25.933834926511114,"lane":{"startLaneIndex":0,"endLaneIndex":1},"lap":0}}],"gameId":"f9175b43-990d-44dc-899a-da3bcc33b77a","gameTick":81}


>>>>>>>>>>>>>>>>>>>>>>>>>>>>> 3



THROTTLE = 0.1

{"msgType":"carPositions","data":[{"id":{"name":"speedbooster","color":"red"},"angle":0.0,"piecePosition":{"pieceIndex":3,"inPieceDistance":29.353111494287187,"lane":{"startLaneIndex":0,"endLaneIndex":1},"lap":0}}],"gameId":"f9175b43-990d-44dc-899a-da3bcc33b77a","gameTick":82}


>>>>>>>>>>>>>>>>>>>>>>>>>>>>> 3



THROTTLE = 0.1

{"msgType":"carPositions","data":[{"id":{"name":"speedbooster","color":"red"},"angle":0.0,"piecePosition":{"pieceIndex":3,"inPieceDistance":32.72121362973939,"lane":{"startLaneIndex":0,"endLaneIndex":1},"lap":0}}],"gameId":"f9175b43-990d-44dc-899a-da3bcc33b77a","gameTick":83}


>>>>>>>>>>>>>>>>>>>>>>>>>>>>> 3



THROTTLE = 0.1

{"msgType":"carPositions","data":[{"id":{"name":"speedbooster","color":"red"},"angle":0.0,"piecePosition":{"pieceIndex":3,"inPieceDistance":36.03923603638822,"lane":{"startLaneIndex":0,"endLaneIndex":1},"lap":0}}],"gameId":"f9175b43-990d-44dc-899a-da3bcc33b77a","gameTick":84}


>>>>>>>>>>>>>>>>>>>>>>>>>>>>> 3



THROTTLE = 0.1

{"msgType":"carPositions","data":[{"id":{"name":"speedbooster","color":"red"},"angle":0.0,"piecePosition":{"pieceIndex":3,"inPieceDistance":39.308250000282925,"lane":{"startLaneIndex":0,"endLaneIndex":1},"lap":0}}],"gameId":"f9175b43-990d-44dc-899a-da3bcc33b77a","gameTick":85}


>>>>>>>>>>>>>>>>>>>>>>>>>>>>> 3



THROTTLE = 0.1

{"msgType":"carPositions","data":[{"id":{"name":"speedbooster","color":"red"},"angle":0.0,"piecePosition":{"pieceIndex":3,"inPieceDistance":42.52930389093893,"lane":{"startLaneIndex":0,"endLaneIndex":1},"lap":0}}],"gameId":"f9175b43-990d-44dc-899a-da3bcc33b77a","gameTick":86}


>>>>>>>>>>>>>>>>>>>>>>>>>>>>> 3



THROTTLE = 0.1

{"msgType":"carPositions","data":[{"id":{"name":"speedbooster","color":"red"},"angle":0.0,"piecePosition":{"pieceIndex":3,"inPieceDistance":45.703423651559376,"lane":{"startLaneIndex":0,"endLaneIndex":1},"lap":0}}],"gameId":"f9175b43-990d-44dc-899a-da3bcc33b77a","gameTick":87}


>>>>>>>>>>>>>>>>>>>>>>>>>>>>> 3



THROTTLE = 0.1

{"msgType":"carPositions","data":[{"id":{"name":"speedbooster","color":"red"},"angle":0.0,"piecePosition":{"pieceIndex":3,"inPieceDistance":48.8316132787701,"lane":{"startLaneIndex":0,"endLaneIndex":1},"lap":0}}],"gameId":"f9175b43-990d-44dc-899a-da3bcc33b77a","gameTick":88}


>>>>>>>>>>>>>>>>>>>>>>>>>>>>> 3



THROTTLE = 0.1

{"msgType":"carPositions","data":[{"id":{"name":"speedbooster","color":"red"},"angle":0.0,"piecePosition":{"pieceIndex":3,"inPieceDistance":51.91485529209222,"lane":{"startLaneIndex":0,"endLaneIndex":1},"lap":0}}],"gameId":"f9175b43-990d-44dc-899a-da3bcc33b77a","gameTick":89}


>>>>>>>>>>>>>>>>>>>>>>>>>>>>> 3



THROTTLE = 0.1

{"msgType":"carPositions","data":[{"id":{"name":"speedbooster","color":"red"},"angle":0.0,"piecePosition":{"pieceIndex":3,"inPieceDistance":54.95411119337202,"lane":{"startLaneIndex":0,"endLaneIndex":1},"lap":0}}],"gameId":"f9175b43-990d-44dc-899a-da3bcc33b77a","gameTick":90}


>>>>>>>>>>>>>>>>>>>>>>>>>>>>> 3



THROTTLE = 0.2

{"msgType":"carPositions","data":[{"id":{"name":"speedbooster","color":"red"},"angle":0.0,"piecePosition":{"pieceIndex":3,"inPieceDistance":57.97229131636613,"lane":{"startLaneIndex":0,"endLaneIndex":1},"lap":0}}],"gameId":"f9175b43-990d-44dc-899a-da3bcc33b77a","gameTick":91}


>>>>>>>>>>>>>>>>>>>>>>>>>>>>> 3



THROTTLE = 0.3

{"msgType":"carPositions","data":[{"id":{"name":"speedbooster","color":"red"},"angle":0.0,"piecePosition":{"pieceIndex":3,"inPieceDistance":60.991815905896516,"lane":{"startLaneIndex":0,"endLaneIndex":1},"lap":0}}],"gameId":"f9175b43-990d-44dc-899a-da3bcc33b77a","gameTick":92}


>>>>>>>>>>>>>>>>>>>>>>>>>>>>> 3



THROTTLE = 0.4

{"msgType":"carPositions","data":[{"id":{"name":"speedbooster","color":"red"},"angle":0.0,"piecePosition":{"pieceIndex":3,"inPieceDistance":64.03462560164205,"lane":{"startLaneIndex":0,"endLaneIndex":1},"lap":0}}],"gameId":"f9175b43-990d-44dc-899a-da3bcc33b77a","gameTick":93}


>>>>>>>>>>>>>>>>>>>>>>>>>>>>> 3



THROTTLE = 0.5

{"msgType":"carPositions","data":[{"id":{"name":"speedbooster","color":"red"},"angle":0.0,"piecePosition":{"pieceIndex":3,"inPieceDistance":67.12219169766492,"lane":{"startLaneIndex":0,"endLaneIndex":1},"lap":0}}],"gameId":"f9175b43-990d-44dc-899a-da3bcc33b77a","gameTick":94}


>>>>>>>>>>>>>>>>>>>>>>>>>>>>> 3



THROTTLE = 0.5

{"msgType":"carPositions","data":[{"id":{"name":"speedbooster","color":"red"},"angle":0.0,"piecePosition":{"pieceIndex":3,"inPieceDistance":70.25355678248592,"lane":{"startLaneIndex":0,"endLaneIndex":1},"lap":0}}],"gameId":"f9175b43-990d-44dc-899a-da3bcc33b77a","gameTick":95}


>>>>>>>>>>>>>>>>>>>>>>>>>>>>> 3



THROTTLE = 0.5

{"msgType":"carPositions","data":[{"id":{"name":"speedbooster","color":"red"},"angle":0.0,"piecePosition":{"pieceIndex":3,"inPieceDistance":73.42778392519924,"lane":{"startLaneIndex":0,"endLaneIndex":1},"lap":0}}],"gameId":"f9175b43-990d-44dc-899a-da3bcc33b77a","gameTick":96}


>>>>>>>>>>>>>>>>>>>>>>>>>>>>> 3



THROTTLE = 0.5

{"msgType":"carPositions","data":[{"id":{"name":"speedbooster","color":"red"},"angle":0.0,"piecePosition":{"pieceIndex":3,"inPieceDistance":76.64395623736,"lane":{"startLaneIndex":0,"endLaneIndex":1},"lap":0}}],"gameId":"f9175b43-990d-44dc-899a-da3bcc33b77a","gameTick":97}


>>>>>>>>>>>>>>>>>>>>>>>>>>>>> 3



THROTTLE = 0.5

{"msgType":"carPositions","data":[{"id":{"name":"speedbooster","color":"red"},"angle":0.0,"piecePosition":{"pieceIndex":3,"inPieceDistance":79.90117644424376,"lane":{"startLaneIndex":0,"endLaneIndex":1},"lap":0}}],"gameId":"f9175b43-990d-44dc-899a-da3bcc33b77a","gameTick":98}


>>>>>>>>>>>>>>>>>>>>>>>>>>>>> 3



THROTTLE = 0.5

{"msgType":"carPositions","data":[{"id":{"name":"speedbooster","color":"red"},"angle":0.0,"piecePosition":{"pieceIndex":3,"inPieceDistance":83.19856646527744,"lane":{"startLaneIndex":0,"endLaneIndex":1},"lap":0}}],"gameId":"f9175b43-990d-44dc-899a-da3bcc33b77a","gameTick":99}


>>>>>>>>>>>>>>>>>>>>>>>>>>>>> 3



THROTTLE = 0.5

{"msgType":"carPositions","data":[{"id":{"name":"speedbooster","color":"red"},"angle":0.0,"piecePosition":{"pieceIndex":3,"inPieceDistance":86.53526700344548,"lane":{"startLaneIndex":0,"endLaneIndex":1},"lap":0}}],"gameId":"f9175b43-990d-44dc-899a-da3bcc33b77a","gameTick":100}


>>>>>>>>>>>>>>>>>>>>>>>>>>>>> 3



THROTTLE = 0.5

{"msgType":"carPositions","data":[{"id":{"name":"speedbooster","color":"red"},"angle":0.0,"piecePosition":{"pieceIndex":3,"inPieceDistance":89.91043714347937,"lane":{"startLaneIndex":0,"endLaneIndex":1},"lap":0}}],"gameId":"f9175b43-990d-44dc-899a-da3bcc33b77a","gameTick":101}


>>>>>>>>>>>>>>>>>>>>>>>>>>>>> 3



THROTTLE = 0.5

{"msgType":"carPositions","data":[{"id":{"name":"speedbooster","color":"red"},"angle":0.0,"piecePosition":{"pieceIndex":3,"inPieceDistance":93.3232539586424,"lane":{"startLaneIndex":0,"endLaneIndex":1},"lap":0}}],"gameId":"f9175b43-990d-44dc-899a-da3bcc33b77a","gameTick":102}


>>>>>>>>>>>>>>>>>>>>>>>>>>>>> 3



THROTTLE = 0.5

{"msgType":"carPositions","data":[{"id":{"name":"speedbooster","color":"red"},"angle":0.0,"piecePosition":{"pieceIndex":3,"inPieceDistance":96.77291212592603,"lane":{"startLaneIndex":0,"endLaneIndex":1},"lap":0}}],"gameId":"f9175b43-990d-44dc-899a-da3bcc33b77a","gameTick":103}


>>>>>>>>>>>>>>>>>>>>>>>>>>>>> 3



THROTTLE = 0.5

{"msgType":"carPositions","data":[{"id":{"name":"speedbooster","color":"red"},"angle":0.0,"piecePosition":{"pieceIndex":3,"inPieceDistance":100.2586235494778,"lane":{"startLaneIndex":0,"endLaneIndex":1},"lap":0}}],"gameId":"f9175b43-990d-44dc-899a-da3bcc33b77a","gameTick":104}


>>>>>>>>>>>>>>>>>>>>>>>>>>>>> 3



THROTTLE = 0.5

{"msgType":"carPositions","data":[{"id":{"name":"speedbooster","color":"red"},"angle":0.0,"piecePosition":{"pieceIndex":4,"inPieceDistance":1.7193419991509558,"lane":{"startLaneIndex":1,"endLaneIndex":1},"lap":0}}],"gameId":"f9175b43-990d-44dc-899a-da3bcc33b77a","gameTick":105}


>>>>>>>>>>>>>>>>>>>>>>>>>>>>> 4



THROTTLE = 1

{"msgType":"carPositions","data":[{"id":{"name":"speedbooster","color":"red"},"angle":0.0,"piecePosition":{"pieceIndex":4,"inPieceDistance":5.384709721522373,"lane":{"startLaneIndex":1,"endLaneIndex":1},"lap":0}}],"gameId":"f9175b43-990d-44dc-899a-da3bcc33b77a","gameTick":106}


>>>>>>>>>>>>>>>>>>>>>>>>>>>>> 4



THROTTLE = 1

{"msgType":"carPositions","data":[{"id":{"name":"speedbooster","color":"red"},"angle":0.0,"piecePosition":{"pieceIndex":4,"inPieceDistance":9.191363325308746,"lane":{"startLaneIndex":1,"endLaneIndex":1},"lap":0}}],"gameId":"f9175b43-990d-44dc-899a-da3bcc33b77a","gameTick":107}


>>>>>>>>>>>>>>>>>>>>>>>>>>>>> 4



THROTTLE = 1

{"msgType":"carPositions","data":[{"id":{"name":"speedbooster","color":"red"},"angle":0.0,"piecePosition":{"pieceIndex":4,"inPieceDistance":13.136280477974891,"lane":{"startLaneIndex":1,"endLaneIndex":1},"lap":0}}],"gameId":"f9175b43-990d-44dc-899a-da3bcc33b77a","gameTick":108}


>>>>>>>>>>>>>>>>>>>>>>>>>>>>> 4



THROTTLE = 1

{"msgType":"carPositions","data":[{"id":{"name":"speedbooster","color":"red"},"angle":0.0,"piecePosition":{"pieceIndex":4,"inPieceDistance":17.216503499545823,"lane":{"startLaneIndex":1,"endLaneIndex":1},"lap":0}}],"gameId":"f9175b43-990d-44dc-899a-da3bcc33b77a","gameTick":109}


>>>>>>>>>>>>>>>>>>>>>>>>>>>>> 4



THROTTLE = 1

{"msgType":"carPositions","data":[{"id":{"name":"speedbooster","color":"red"},"angle":0.0,"piecePosition":{"pieceIndex":4,"inPieceDistance":21.429137979584368,"lane":{"startLaneIndex":1,"endLaneIndex":1},"lap":0}}],"gameId":"f9175b43-990d-44dc-899a-da3bcc33b77a","gameTick":110}


>>>>>>>>>>>>>>>>>>>>>>>>>>>>> 4



THROTTLE = 1

{"msgType":"carPositions","data":[{"id":{"name":"speedbooster","color":"red"},"angle":0.0,"piecePosition":{"pieceIndex":4,"inPieceDistance":25.771351423753867,"lane":{"startLaneIndex":1,"endLaneIndex":1},"lap":0}}],"gameId":"f9175b43-990d-44dc-899a-da3bcc33b77a","gameTick":111}


>>>>>>>>>>>>>>>>>>>>>>>>>>>>> 4



THROTTLE = 1

{"msgType":"carPositions","data":[{"id":{"name":"speedbooster","color":"red"},"angle":0.0,"piecePosition":{"pieceIndex":4,"inPieceDistance":30.240371929333072,"lane":{"startLaneIndex":1,"endLaneIndex":1},"lap":0}}],"gameId":"f9175b43-990d-44dc-899a-da3bcc33b77a","gameTick":112}


>>>>>>>>>>>>>>>>>>>>>>>>>>>>> 4



THROTTLE = 1

{"msgType":"carPositions","data":[{"id":{"name":"speedbooster","color":"red"},"angle":0.0,"piecePosition":{"pieceIndex":4,"inPieceDistance":34.833486889063906,"lane":{"startLaneIndex":1,"endLaneIndex":1},"lap":0}}],"gameId":"f9175b43-990d-44dc-899a-da3bcc33b77a","gameTick":113}


>>>>>>>>>>>>>>>>>>>>>>>>>>>>> 4



THROTTLE = 1

{"msgType":"carPositions","data":[{"id":{"name":"speedbooster","color":"red"},"angle":0.0,"piecePosition":{"pieceIndex":4,"inPieceDistance":39.548041722726026,"lane":{"startLaneIndex":1,"endLaneIndex":1},"lap":0}}],"gameId":"f9175b43-990d-44dc-899a-da3bcc33b77a","gameTick":114}


>>>>>>>>>>>>>>>>>>>>>>>>>>>>> 4



THROTTLE = 1

{"msgType":"carPositions","data":[{"id":{"name":"speedbooster","color":"red"},"angle":0.0,"piecePosition":{"pieceIndex":4,"inPieceDistance":44.38143863584502,"lane":{"startLaneIndex":1,"endLaneIndex":1},"lap":0}}],"gameId":"f9175b43-990d-44dc-899a-da3bcc33b77a","gameTick":115}


>>>>>>>>>>>>>>>>>>>>>>>>>>>>> 4



THROTTLE = 1

{"msgType":"carPositions","data":[{"id":{"name":"speedbooster","color":"red"},"angle":0.0,"piecePosition":{"pieceIndex":4,"inPieceDistance":49.331135404953876,"lane":{"startLaneIndex":1,"endLaneIndex":1},"lap":0}}],"gameId":"f9175b43-990d-44dc-899a-da3bcc33b77a","gameTick":116}


>>>>>>>>>>>>>>>>>>>>>>>>>>>>> 4



THROTTLE = 1

{"msgType":"carPositions","data":[{"id":{"name":"speedbooster","color":"red"},"angle":0.0,"piecePosition":{"pieceIndex":4,"inPieceDistance":54.39464418883962,"lane":{"startLaneIndex":1,"endLaneIndex":1},"lap":0}}],"gameId":"f9175b43-990d-44dc-899a-da3bcc33b77a","gameTick":117}


>>>>>>>>>>>>>>>>>>>>>>>>>>>>> 4



THROTTLE = 1

{"msgType":"carPositions","data":[{"id":{"name":"speedbooster","color":"red"},"angle":0.0,"piecePosition":{"pieceIndex":4,"inPieceDistance":59.56953036521933,"lane":{"startLaneIndex":1,"endLaneIndex":1},"lap":0}}],"gameId":"f9175b43-990d-44dc-899a-da3bcc33b77a","gameTick":118}


>>>>>>>>>>>>>>>>>>>>>>>>>>>>> 4



THROTTLE = 1

{"msgType":"carPositions","data":[{"id":{"name":"speedbooster","color":"red"},"angle":0.0,"piecePosition":{"pieceIndex":4,"inPieceDistance":64.85341139230151,"lane":{"startLaneIndex":1,"endLaneIndex":1},"lap":0}}],"gameId":"f9175b43-990d-44dc-899a-da3bcc33b77a","gameTick":119}


>>>>>>>>>>>>>>>>>>>>>>>>>>>>> 4



THROTTLE = 1

{"msgType":"carPositions","data":[{"id":{"name":"speedbooster","color":"red"},"angle":0.0,"piecePosition":{"pieceIndex":4,"inPieceDistance":70.24395569470053,"lane":{"startLaneIndex":1,"endLaneIndex":1},"lap":0}}],"gameId":"f9175b43-990d-44dc-899a-da3bcc33b77a","gameTick":120}


>>>>>>>>>>>>>>>>>>>>>>>>>>>>> 4



THROTTLE = 1

{"msgType":"carPositions","data":[{"id":{"name":"speedbooster","color":"red"},"angle":0.0,"piecePosition":{"pieceIndex":5,"inPieceDistance":5.05304686741276,"lane":{"startLaneIndex":1,"endLaneIndex":1},"lap":0}}],"gameId":"f9175b43-990d-44dc-899a-da3bcc33b77a","gameTick":121}


>>>>>>>>>>>>>>>>>>>>>>>>>>>>> 5



THROTTLE = 1

{"msgType":"carPositions","data":[{"id":{"name":"speedbooster","color":"red"},"angle":0.008798720065827133,"piecePosition":{"pieceIndex":5,"inPieceDistance":10.650121431966713,"lane":{"startLaneIndex":1,"endLaneIndex":1},"lap":0}}],"gameId":"f9175b43-990d-44dc-899a-da3bcc33b77a","gameTick":122}


>>>>>>>>>>>>>>>>>>>>>>>>>>>>> 5



THROTTLE = 0.75

{"msgType":"carPositions","data":[{"id":{"name":"speedbooster","color":"red"},"angle":0.056999177960010826,"piecePosition":{"pieceIndex":5,"inPieceDistance":16.292236057735,"lane":{"startLaneIndex":1,"endLaneIndex":1},"lap":0}}],"gameId":"f9175b43-990d-44dc-899a-da3bcc33b77a","gameTick":123}


>>>>>>>>>>>>>>>>>>>>>>>>>>>>> 5



THROTTLE = 0.5

{"msgType":"carPositions","data":[{"id":{"name":"speedbooster","color":"red"},"angle":0.15459341563419457,"piecePosition":{"pieceIndex":5,"inPieceDistance":21.923503765315985,"lane":{"startLaneIndex":1,"endLaneIndex":1},"lap":0}}],"gameId":"f9175b43-990d-44dc-899a-da3bcc33b77a","gameTick":124}


>>>>>>>>>>>>>>>>>>>>>>>>>>>>> 5



THROTTLE = 0.25

{"msgType":"carPositions","data":[{"id":{"name":"speedbooster","color":"red"},"angle":0.2924982392624828,"piecePosition":{"pieceIndex":5,"inPieceDistance":27.489233087799786,"lane":{"startLaneIndex":1,"endLaneIndex":1},"lap":0}}],"gameId":"f9175b43-990d-44dc-899a-da3bcc33b77a","gameTick":125}


>>>>>>>>>>>>>>>>>>>>>>>>>>>>> 5



THROTTLE = 0.1

{"msgType":"carPositions","data":[{"id":{"name":"speedbooster","color":"red"},"angle":0.4451192801942576,"piecePosition":{"pieceIndex":5,"inPieceDistance":32.95787189681403,"lane":{"startLaneIndex":1,"endLaneIndex":1},"lap":0}}],"gameId":"f9175b43-990d-44dc-899a-da3bcc33b77a","gameTick":126}


>>>>>>>>>>>>>>>>>>>>>>>>>>>>> 5



THROTTLE = 0.1

{"msgType":"carPositions","data":[{"id":{"name":"speedbooster","color":"red"},"angle":0.5803018141162863,"piecePosition":{"pieceIndex":5,"inPieceDistance":38.33149711479978,"lane":{"startLaneIndex":1,"endLaneIndex":1},"lap":0}}],"gameId":"f9175b43-990d-44dc-899a-da3bcc33b77a","gameTick":127}


>>>>>>>>>>>>>>>>>>>>>>>>>>>>> 5



THROTTLE = 0

{"msgType":"carPositions","data":[{"id":{"name":"speedbooster","color":"red"},"angle":0.6980681890681395,"piecePosition":{"pieceIndex":5,"inPieceDistance":43.590171835499085,"lane":{"startLaneIndex":1,"endLaneIndex":1},"lap":0}}],"gameId":"f9175b43-990d-44dc-899a-da3bcc33b77a","gameTick":128}


>>>>>>>>>>>>>>>>>>>>>>>>>>>>> 5



THROTTLE = 0.1

{"msgType":"carPositions","data":[{"id":{"name":"speedbooster","color":"red"},"angle":0.7994692846008361,"piecePosition":{"pieceIndex":5,"inPieceDistance":48.75832443515246,"lane":{"startLaneIndex":1,"endLaneIndex":1},"lap":0}}],"gameId":"f9175b43-990d-44dc-899a-da3bcc33b77a","gameTick":129}


>>>>>>>>>>>>>>>>>>>>>>>>>>>>> 5



THROTTLE = 0

{"msgType":"carPositions","data":[{"id":{"name":"speedbooster","color":"red"},"angle":0.885565546503322,"piecePosition":{"pieceIndex":5,"inPieceDistance":53.815921927725796,"lane":{"startLaneIndex":1,"endLaneIndex":1},"lap":0}}],"gameId":"f9175b43-990d-44dc-899a-da3bcc33b77a","gameTick":130}


>>>>>>>>>>>>>>>>>>>>>>>>>>>>> 5



THROTTLE = 0.1

{"msgType":"carPositions","data":[{"id":{"name":"speedbooster","color":"red"},"angle":0.9574536396061786,"piecePosition":{"pieceIndex":5,"inPieceDistance":58.787298664984604,"lane":{"startLaneIndex":1,"endLaneIndex":1},"lap":0}}],"gameId":"f9175b43-990d-44dc-899a-da3bcc33b77a","gameTick":131}


>>>>>>>>>>>>>>>>>>>>>>>>>>>>> 5



THROTTLE = 0

{"msgType":"carPositions","data":[{"id":{"name":"speedbooster","color":"red"},"angle":1.0162030949600722,"piecePosition":{"pieceIndex":5,"inPieceDistance":63.65232964775471,"lane":{"startLaneIndex":1,"endLaneIndex":1},"lap":0}}],"gameId":"f9175b43-990d-44dc-899a-da3bcc33b77a","gameTick":132}


>>>>>>>>>>>>>>>>>>>>>>>>>>>>> 5



THROTTLE = 0.1

{"msgType":"carPositions","data":[{"id":{"name":"speedbooster","color":"red"},"angle":1.0628977803513668,"piecePosition":{"pieceIndex":5,"inPieceDistance":68.43525918297082,"lane":{"startLaneIndex":1,"endLaneIndex":1},"lap":0}}],"gameId":"f9175b43-990d-44dc-899a-da3bcc33b77a","gameTick":133}


>>>>>>>>>>>>>>>>>>>>>>>>>>>>> 5



THROTTLE = 0

{"msgType":"carPositions","data":[{"id":{"name":"speedbooster","color":"red"},"angle":1.0985682907203342,"piecePosition":{"pieceIndex":6,"inPieceDistance":2.430039447061546,"lane":{"startLaneIndex":1,"endLaneIndex":1},"lap":0}}],"gameId":"f9175b43-990d-44dc-899a-da3bcc33b77a","gameTick":134}


>>>>>>>>>>>>>>>>>>>>>>>>>>>>> 6



THROTTLE = 0.1

