{"msgType":"joinRace","data":{"botId":{"name":"speedbooster","key":"w5TYojUOXuT/gw"},"trackName":"keimola","carCount":1}}
{"msgType":"yourCar","data":{"name":"speedbooster","color":"red"},"gameId":"6052f3cc-c0fa-4cd3-be00-cec0265fd9a6"}
{"msgType":"gameInit","data":{"race":{"track":{"id":"keimola","name":"Keimola","pieces":[{"length":100.0},{"length":100.0},{"length":100.0},{"length":100.0,"switch":true},{"radius":100,"angle":45.0},{"radius":100,"angle":45.0},{"radius":100,"angle":45.0},{"radius":100,"angle":45.0},{"radius":200,"angle":22.5,"switch":true},{"length":100.0},{"length":100.0},{"radius":200,"angle":-22.5},{"length":100.0},{"length":100.0,"switch":true},{"radius":100,"angle":-45.0},{"radius":100,"angle":-45.0},{"radius":100,"angle":-45.0},{"radius":100,"angle":-45.0},{"length":100.0,"switch":true},{"radius":100,"angle":45.0},{"radius":100,"angle":45.0},{"radius":100,"angle":45.0},{"radius":100,"angle":45.0},{"radius":200,"angle":22.5},{"radius":200,"angle":-22.5},{"length":100.0,"switch":true},{"radius":100,"angle":45.0},{"radius":100,"angle":45.0},{"length":62.0},{"radius":100,"angle":-45.0,"switch":true},{"radius":100,"angle":-45.0},{"radius":100,"angle":45.0},{"radius":100,"angle":45.0},{"radius":100,"angle":45.0},{"radius":100,"angle":45.0},{"length":100.0,"switch":true},{"length":100.0},{"length":100.0},{"length":100.0},{"length":90.0}],"lanes":[{"distanceFromCenter":-10,"index":0},{"distanceFromCenter":10,"index":1}],"startingPoint":{"position":{"x":-300.0,"y":-44.0},"angle":90.0}},"cars":[{"id":{"name":"speedbooster","color":"red"},"dimensions":{"length":40.0,"width":20.0,"guideFlagPosition":10.0}}],"raceSession":{"laps":3,"maxLapTimeMs":60000,"quickRace":true}}},"gameId":"6052f3cc-c0fa-4cd3-be00-cec0265fd9a6"}
{"msgType":"carPositions","data":[{"id":{"name":"speedbooster","color":"red"},"angle":0.0,"piecePosition":{"pieceIndex":0,"inPieceDistance":0.0,"lane":{"startLaneIndex":0,"endLaneIndex":0},"lap":0}}],"gameId":"6052f3cc-c0fa-4cd3-be00-cec0265fd9a6"}


>>>>>>>>>>>>>>>>>>>>>>>>>>>>> 0



THROTTLE = 1

{"msgType":"gameStart","data":null,"gameId":"6052f3cc-c0fa-4cd3-be00-cec0265fd9a6","gameTick":0}
{"msgType":"carPositions","data":[{"id":{"name":"speedbooster","color":"red"},"angle":0.0,"piecePosition":{"pieceIndex":0,"inPieceDistance":0.0,"lane":{"startLaneIndex":0,"endLaneIndex":0},"lap":0}}],"gameId":"6052f3cc-c0fa-4cd3-be00-cec0265fd9a6","gameTick":1}


>>>>>>>>>>>>>>>>>>>>>>>>>>>>> 0



THROTTLE = 1

{"msgType":"carPositions","data":[{"id":{"name":"speedbooster","color":"red"},"angle":0.0,"piecePosition":{"pieceIndex":0,"inPieceDistance":0.0,"lane":{"startLaneIndex":0,"endLaneIndex":0},"lap":0}}],"gameId":"6052f3cc-c0fa-4cd3-be00-cec0265fd9a6","gameTick":2}


>>>>>>>>>>>>>>>>>>>>>>>>>>>>> 0



THROTTLE = 1

{"msgType":"carPositions","data":[{"id":{"name":"speedbooster","color":"red"},"angle":0.0,"piecePosition":{"pieceIndex":0,"inPieceDistance":0.2003837681533387,"lane":{"startLaneIndex":0,"endLaneIndex":0},"lap":0}}],"gameId":"6052f3cc-c0fa-4cd3-be00-cec0265fd9a6","gameTick":3}


>>>>>>>>>>>>>>>>>>>>>>>>>>>>> 0



THROTTLE = 1

