{"msgType":"joinRace","data":{"botId":{"name":"speedbooster","key":"w5TYojUOXuT/gw"},"trackName":"keimola","carCount":2,"password":"uu"}}
{"msgType":"yourCar","data":{"name":"speedbooster","color":"red"},"gameId":"324ac81c-a3f1-47fc-9e3e-fed39c4e2149"}
{"msgType":"gameInit","data":{"race":{"track":{"id":"keimola","name":"Keimola","pieces":[{"length":100.0},{"length":100.0},{"length":100.0},{"length":100.0,"switch":true},{"radius":100,"angle":45.0},{"radius":100,"angle":45.0},{"radius":100,"angle":45.0},{"radius":100,"angle":45.0},{"radius":200,"angle":22.5,"switch":true},{"length":100.0},{"length":100.0},{"radius":200,"angle":-22.5},{"length":100.0},{"length":100.0,"switch":true},{"radius":100,"angle":-45.0},{"radius":100,"angle":-45.0},{"radius":100,"angle":-45.0},{"radius":100,"angle":-45.0},{"length":100.0,"switch":true},{"radius":100,"angle":45.0},{"radius":100,"angle":45.0},{"radius":100,"angle":45.0},{"radius":100,"angle":45.0},{"radius":200,"angle":22.5},{"radius":200,"angle":-22.5},{"length":100.0,"switch":true},{"radius":100,"angle":45.0},{"radius":100,"angle":45.0},{"length":62.0},{"radius":100,"angle":-45.0,"switch":true},{"radius":100,"angle":-45.0},{"radius":100,"angle":45.0},{"radius":100,"angle":45.0},{"radius":100,"angle":45.0},{"radius":100,"angle":45.0},{"length":100.0,"switch":true},{"length":100.0},{"length":100.0},{"length":100.0},{"length":90.0}],"lanes":[{"distanceFromCenter":-10,"index":0},{"distanceFromCenter":10,"index":1}],"startingPoint":{"position":{"x":-300.0,"y":-44.0},"angle":90.0}},"cars":[{"id":{"name":"speedbooster","color":"red"},"dimensions":{"length":40.0,"width":20.0,"guideFlagPosition":10.0}},{"id":{"name":"speedbooster1","color":"blue"},"dimensions":{"length":40.0,"width":20.0,"guideFlagPosition":10.0}}],"raceSession":{"laps":3,"maxLapTimeMs":60000,"quickRace":true}}},"gameId":"324ac81c-a3f1-47fc-9e3e-fed39c4e2149"}
{"msgType":"carPositions","data":[{"id":{"name":"speedbooster","color":"red"},"angle":0.0,"piecePosition":{"pieceIndex":0,"inPieceDistance":0.0,"lane":{"startLaneIndex":0,"endLaneIndex":0},"lap":0}},{"id":{"name":"speedbooster1","color":"blue"},"angle":0.0,"piecePosition":{"pieceIndex":39,"inPieceDistance":65.0,"lane":{"startLaneIndex":1,"endLaneIndex":1},"lap":-1}}],"gameId":"324ac81c-a3f1-47fc-9e3e-fed39c4e2149"}


>>>>>>>>>>>>>>>>>>>>>>>>>>>>> 



THROTTLE = 1

{"msgType":"gameStart","data":null,"gameId":"324ac81c-a3f1-47fc-9e3e-fed39c4e2149","gameTick":0}
{"msgType":"carPositions","data":[{"id":{"name":"speedbooster","color":"red"},"angle":0.0,"piecePosition":{"pieceIndex":0,"inPieceDistance":0.0,"lane":{"startLaneIndex":0,"endLaneIndex":0},"lap":0}},{"id":{"name":"speedbooster1","color":"blue"},"angle":0.0,"piecePosition":{"pieceIndex":39,"inPieceDistance":65.0,"lane":{"startLaneIndex":1,"endLaneIndex":1},"lap":-1}}],"gameId":"324ac81c-a3f1-47fc-9e3e-fed39c4e2149","gameTick":1}


>>>>>>>>>>>>>>>>>>>>>>>>>>>>> 0



THROTTLE = 1

{"msgType":"carPositions","data":[{"id":{"name":"speedbooster","color":"red"},"angle":0.0,"piecePosition":{"pieceIndex":0,"inPieceDistance":0.19892838483347092,"lane":{"startLaneIndex":0,"endLaneIndex":0},"lap":0}},{"id":{"name":"speedbooster1","color":"blue"},"angle":0.0,"piecePosition":{"pieceIndex":39,"inPieceDistance":65.0,"lane":{"startLaneIndex":1,"endLaneIndex":1},"lap":-1}}],"gameId":"324ac81c-a3f1-47fc-9e3e-fed39c4e2149","gameTick":2}


>>>>>>>>>>>>>>>>>>>>>>>>>>>>> 0



THROTTLE = 1

{"msgType":"carPositions","data":[{"id":{"name":"speedbooster","color":"red"},"angle":0.0,"piecePosition":{"pieceIndex":0,"inPieceDistance":0.5926264470413289,"lane":{"startLaneIndex":0,"endLaneIndex":0},"lap":0}},{"id":{"name":"speedbooster1","color":"blue"},"angle":0.0,"piecePosition":{"pieceIndex":39,"inPieceDistance":65.19892838483347,"lane":{"startLaneIndex":1,"endLaneIndex":1},"lap":-1}}],"gameId":"324ac81c-a3f1-47fc-9e3e-fed39c4e2149","gameTick":3}


>>>>>>>>>>>>>>>>>>>>>>>>>>>>> 0



THROTTLE = 1

{"msgType":"carPositions","data":[{"id":{"name":"speedbooster","color":"red"},"angle":0.0,"piecePosition":{"pieceIndex":0,"inPieceDistance":1.17702241923463,"lane":{"startLaneIndex":0,"endLaneIndex":0},"lap":0}},{"id":{"name":"speedbooster1","color":"blue"},"angle":0.0,"piecePosition":{"pieceIndex":39,"inPieceDistance":65.59262644704133,"lane":{"startLaneIndex":1,"endLaneIndex":1},"lap":-1}}],"gameId":"324ac81c-a3f1-47fc-9e3e-fed39c4e2149","gameTick":4}


>>>>>>>>>>>>>>>>>>>>>>>>>>>>> 0



THROTTLE = 1

{"msgType":"carPositions","data":[{"id":{"name":"speedbooster","color":"red"},"angle":0.0,"piecePosition":{"pieceIndex":0,"inPieceDistance":1.948129656564515,"lane":{"startLaneIndex":0,"endLaneIndex":0},"lap":0}},{"id":{"name":"speedbooster1","color":"blue"},"angle":0.0,"piecePosition":{"pieceIndex":39,"inPieceDistance":66.17702241923463,"lane":{"startLaneIndex":1,"endLaneIndex":1},"lap":-1}}],"gameId":"324ac81c-a3f1-47fc-9e3e-fed39c4e2149","gameTick":5}


>>>>>>>>>>>>>>>>>>>>>>>>>>>>> 0



THROTTLE = 1

{"msgType":"carPositions","data":[{"id":{"name":"speedbooster","color":"red"},"angle":0.0,"piecePosition":{"pieceIndex":0,"inPieceDistance":2.902044857188623,"lane":{"startLaneIndex":0,"endLaneIndex":0},"lap":0}},{"id":{"name":"speedbooster1","color":"blue"},"angle":0.0,"piecePosition":{"pieceIndex":39,"inPieceDistance":66.94812965656452,"lane":{"startLaneIndex":1,"endLaneIndex":1},"lap":-1}}],"gameId":"324ac81c-a3f1-47fc-9e3e-fed39c4e2149","gameTick":6}


>>>>>>>>>>>>>>>>>>>>>>>>>>>>> 0



THROTTLE = 1

{"msgType":"carPositions","data":[{"id":{"name":"speedbooster","color":"red"},"angle":0.0,"piecePosition":{"pieceIndex":0,"inPieceDistance":4.034946319939631,"lane":{"startLaneIndex":0,"endLaneIndex":0},"lap":0}},{"id":{"name":"speedbooster1","color":"blue"},"angle":0.0,"piecePosition":{"pieceIndex":39,"inPieceDistance":67.90204485718863,"lane":{"startLaneIndex":1,"endLaneIndex":1},"lap":-1}}],"gameId":"324ac81c-a3f1-47fc-9e3e-fed39c4e2149","gameTick":7}


>>>>>>>>>>>>>>>>>>>>>>>>>>>>> 0



THROTTLE = 1

{"msgType":"carPositions","data":[{"id":{"name":"speedbooster","color":"red"},"angle":0.0,"piecePosition":{"pieceIndex":0,"inPieceDistance":5.343092238418198,"lane":{"startLaneIndex":0,"endLaneIndex":0},"lap":0}},{"id":{"name":"speedbooster1","color":"blue"},"angle":0.0,"piecePosition":{"pieceIndex":39,"inPieceDistance":69.03494631993964,"lane":{"startLaneIndex":1,"endLaneIndex":1},"lap":-1}}],"gameId":"324ac81c-a3f1-47fc-9e3e-fed39c4e2149","gameTick":8}


>>>>>>>>>>>>>>>>>>>>>>>>>>>>> 0



THROTTLE = 1

{"msgType":"carPositions","data":[{"id":{"name":"speedbooster","color":"red"},"angle":0.0,"piecePosition":{"pieceIndex":0,"inPieceDistance":6.8228190307488275,"lane":{"startLaneIndex":0,"endLaneIndex":0},"lap":0}},{"id":{"name":"speedbooster1","color":"blue"},"angle":0.0,"piecePosition":{"pieceIndex":39,"inPieceDistance":70.34309223841821,"lane":{"startLaneIndex":1,"endLaneIndex":1},"lap":-1}}],"gameId":"324ac81c-a3f1-47fc-9e3e-fed39c4e2149","gameTick":9}


>>>>>>>>>>>>>>>>>>>>>>>>>>>>> 0



THROTTLE = 1

{"msgType":"carPositions","data":[{"id":{"name":"speedbooster","color":"red"},"angle":0.0,"piecePosition":{"pieceIndex":0,"inPieceDistance":8.470539704253115,"lane":{"startLaneIndex":0,"endLaneIndex":0},"lap":0}},{"id":{"name":"speedbooster1","color":"blue"},"angle":0.0,"piecePosition":{"pieceIndex":39,"inPieceDistance":71.82281903074883,"lane":{"startLaneIndex":1,"endLaneIndex":1},"lap":-1}}],"gameId":"324ac81c-a3f1-47fc-9e3e-fed39c4e2149","gameTick":10}


>>>>>>>>>>>>>>>>>>>>>>>>>>>>> 0



THROTTLE = 1

{"msgType":"carPositions","data":[{"id":{"name":"speedbooster","color":"red"},"angle":0.0,"piecePosition":{"pieceIndex":0,"inPieceDistance":10.282742254310392,"lane":{"startLaneIndex":0,"endLaneIndex":0},"lap":0}},{"id":{"name":"speedbooster1","color":"blue"},"angle":0.0,"piecePosition":{"pieceIndex":39,"inPieceDistance":73.47053970425311,"lane":{"startLaneIndex":1,"endLaneIndex":1},"lap":-1}}],"gameId":"324ac81c-a3f1-47fc-9e3e-fed39c4e2149","gameTick":11}


>>>>>>>>>>>>>>>>>>>>>>>>>>>>> 0



THROTTLE = 1

{"msgType":"carPositions","data":[{"id":{"name":"speedbooster","color":"red"},"angle":0.0,"piecePosition":{"pieceIndex":0,"inPieceDistance":12.255988096691075,"lane":{"startLaneIndex":0,"endLaneIndex":0},"lap":0}},{"id":{"name":"speedbooster1","color":"blue"},"angle":0.0,"piecePosition":{"pieceIndex":39,"inPieceDistance":75.28274225431039,"lane":{"startLaneIndex":1,"endLaneIndex":1},"lap":-1}}],"gameId":"324ac81c-a3f1-47fc-9e3e-fed39c4e2149","gameTick":12}


>>>>>>>>>>>>>>>>>>>>>>>>>>>>> 0



THROTTLE = 1

{"msgType":"carPositions","data":[{"id":{"name":"speedbooster","color":"red"},"angle":0.0,"piecePosition":{"pieceIndex":0,"inPieceDistance":14.386910532662945,"lane":{"startLaneIndex":0,"endLaneIndex":0},"lap":0}},{"id":{"name":"speedbooster1","color":"blue"},"angle":0.0,"piecePosition":{"pieceIndex":39,"inPieceDistance":77.25598809669107,"lane":{"startLaneIndex":1,"endLaneIndex":1},"lap":-1}}],"gameId":"324ac81c-a3f1-47fc-9e3e-fed39c4e2149","gameTick":13}


>>>>>>>>>>>>>>>>>>>>>>>>>>>>> 0



THROTTLE = 1

{"msgType":"carPositions","data":[{"id":{"name":"speedbooster","color":"red"},"angle":0.0,"piecePosition":{"pieceIndex":0,"inPieceDistance":16.672213246185237,"lane":{"startLaneIndex":0,"endLaneIndex":0},"lap":0}},{"id":{"name":"speedbooster1","color":"blue"},"angle":0.0,"piecePosition":{"pieceIndex":39,"inPieceDistance":79.38691053266294,"lane":{"startLaneIndex":1,"endLaneIndex":1},"lap":-1}}],"gameId":"324ac81c-a3f1-47fc-9e3e-fed39c4e2149","gameTick":14}


>>>>>>>>>>>>>>>>>>>>>>>>>>>>> 0



THROTTLE = 1

{"msgType":"carPositions","data":[{"id":{"name":"speedbooster","color":"red"},"angle":0.0,"piecePosition":{"pieceIndex":0,"inPieceDistance":19.108668832519697,"lane":{"startLaneIndex":0,"endLaneIndex":0},"lap":0}},{"id":{"name":"speedbooster1","color":"blue"},"angle":0.0,"piecePosition":{"pieceIndex":39,"inPieceDistance":81.67221324618522,"lane":{"startLaneIndex":1,"endLaneIndex":1},"lap":-1}}],"gameId":"324ac81c-a3f1-47fc-9e3e-fed39c4e2149","gameTick":15}


>>>>>>>>>>>>>>>>>>>>>>>>>>>>> 0



THROTTLE = 1

{"msgType":"carPositions","data":[{"id":{"name":"speedbooster","color":"red"},"angle":0.0,"piecePosition":{"pieceIndex":0,"inPieceDistance":21.693117357601853,"lane":{"startLaneIndex":0,"endLaneIndex":0},"lap":0}},{"id":{"name":"speedbooster1","color":"blue"},"angle":0.0,"piecePosition":{"pieceIndex":39,"inPieceDistance":84.10866883251968,"lane":{"startLaneIndex":1,"endLaneIndex":1},"lap":-1}}],"gameId":"324ac81c-a3f1-47fc-9e3e-fed39c4e2149","gameTick":16}


>>>>>>>>>>>>>>>>>>>>>>>>>>>>> 0



THROTTLE = 1

{"msgType":"carPositions","data":[{"id":{"name":"speedbooster","color":"red"},"angle":0.0,"piecePosition":{"pieceIndex":0,"inPieceDistance":24.42246494752941,"lane":{"startLaneIndex":0,"endLaneIndex":0},"lap":0}},{"id":{"name":"speedbooster1","color":"blue"},"angle":0.0,"piecePosition":{"pieceIndex":39,"inPieceDistance":86.69311735760184,"lane":{"startLaneIndex":1,"endLaneIndex":1},"lap":-1}}],"gameId":"324ac81c-a3f1-47fc-9e3e-fed39c4e2149","gameTick":17}


>>>>>>>>>>>>>>>>>>>>>>>>>>>>> 0



THROTTLE = 1

{"msgType":"carPositions","data":[{"id":{"name":"speedbooster","color":"red"},"angle":0.0,"piecePosition":{"pieceIndex":0,"inPieceDistance":27.293682407538174,"lane":{"startLaneIndex":0,"endLaneIndex":0},"lap":0}},{"id":{"name":"speedbooster1","color":"blue"},"angle":0.0,"piecePosition":{"pieceIndex":39,"inPieceDistance":89.42246494752939,"lane":{"startLaneIndex":1,"endLaneIndex":1},"lap":-1}}],"gameId":"324ac81c-a3f1-47fc-9e3e-fed39c4e2149","gameTick":18}


>>>>>>>>>>>>>>>>>>>>>>>>>>>>> 0



THROTTLE = 1

{"msgType":"carPositions","data":[{"id":{"name":"speedbooster","color":"red"},"angle":0.0,"piecePosition":{"pieceIndex":0,"inPieceDistance":30.303803869849048,"lane":{"startLaneIndex":0,"endLaneIndex":0},"lap":0}},{"id":{"name":"speedbooster1","color":"blue"},"angle":0.0,"piecePosition":{"pieceIndex":0,"inPieceDistance":2.2936824075381566,"lane":{"startLaneIndex":1,"endLaneIndex":1},"lap":0}}],"gameId":"324ac81c-a3f1-47fc-9e3e-fed39c4e2149","gameTick":19}


>>>>>>>>>>>>>>>>>>>>>>>>>>>>> 0



THROTTLE = 1

{"msgType":"carPositions","data":[{"id":{"name":"speedbooster","color":"red"},"angle":0.0,"piecePosition":{"pieceIndex":0,"inPieceDistance":33.449925469782514,"lane":{"startLaneIndex":0,"endLaneIndex":0},"lap":0}},{"id":{"name":"speedbooster1","color":"blue"},"angle":0.0,"piecePosition":{"pieceIndex":0,"inPieceDistance":5.303803869849029,"lane":{"startLaneIndex":1,"endLaneIndex":1},"lap":0}}],"gameId":"324ac81c-a3f1-47fc-9e3e-fed39c4e2149","gameTick":20}


>>>>>>>>>>>>>>>>>>>>>>>>>>>>> 0



THROTTLE = 1

{"msgType":"carPositions","data":[{"id":{"name":"speedbooster","color":"red"},"angle":0.0,"piecePosition":{"pieceIndex":0,"inPieceDistance":36.7292040495497,"lane":{"startLaneIndex":0,"endLaneIndex":0},"lap":0}},{"id":{"name":"speedbooster1","color":"blue"},"angle":0.0,"piecePosition":{"pieceIndex":0,"inPieceDistance":8.449925469782498,"lane":{"startLaneIndex":1,"endLaneIndex":1},"lap":0}}],"gameId":"324ac81c-a3f1-47fc-9e3e-fed39c4e2149","gameTick":21}


>>>>>>>>>>>>>>>>>>>>>>>>>>>>> 0



THROTTLE = 1

{"msgType":"carPositions","data":[{"id":{"name":"speedbooster","color":"red"},"angle":0.0,"piecePosition":{"pieceIndex":0,"inPieceDistance":40.13885588914139,"lane":{"startLaneIndex":0,"endLaneIndex":0},"lap":0}},{"id":{"name":"speedbooster1","color":"blue"},"angle":0.0,"piecePosition":{"pieceIndex":0,"inPieceDistance":11.729204049549688,"lane":{"startLaneIndex":1,"endLaneIndex":1},"lap":0}}],"gameId":"324ac81c-a3f1-47fc-9e3e-fed39c4e2149","gameTick":22}


>>>>>>>>>>>>>>>>>>>>>>>>>>>>> 0



THROTTLE = 1

{"msgType":"carPositions","data":[{"id":{"name":"speedbooster","color":"red"},"angle":0.0,"piecePosition":{"pieceIndex":0,"inPieceDistance":43.67615546374848,"lane":{"startLaneIndex":0,"endLaneIndex":0},"lap":0}},{"id":{"name":"speedbooster1","color":"blue"},"angle":0.0,"piecePosition":{"pieceIndex":0,"inPieceDistance":15.138855889141375,"lane":{"startLaneIndex":1,"endLaneIndex":1},"lap":0}}],"gameId":"324ac81c-a3f1-47fc-9e3e-fed39c4e2149","gameTick":23}


>>>>>>>>>>>>>>>>>>>>>>>>>>>>> 0



THROTTLE = 1

{"msgType":"carPositions","data":[{"id":{"name":"speedbooster","color":"red"},"angle":0.0,"piecePosition":{"pieceIndex":0,"inPieceDistance":47.33843422715928,"lane":{"startLaneIndex":0,"endLaneIndex":0},"lap":0}},{"id":{"name":"speedbooster1","color":"blue"},"angle":0.0,"piecePosition":{"pieceIndex":0,"inPieceDistance":18.67615546374846,"lane":{"startLaneIndex":1,"endLaneIndex":1},"lap":0}}],"gameId":"324ac81c-a3f1-47fc-9e3e-fed39c4e2149","gameTick":24}


>>>>>>>>>>>>>>>>>>>>>>>>>>>>> 0



THROTTLE = 0.504375

{"msgType":"carPositions","data":[{"id":{"name":"speedbooster","color":"red"},"angle":0.0,"piecePosition":{"pieceIndex":0,"inPieceDistance":51.02448553985748,"lane":{"startLaneIndex":0,"endLaneIndex":0},"lap":0}},{"id":{"name":"speedbooster1","color":"blue"},"angle":0.0,"piecePosition":{"pieceIndex":0,"inPieceDistance":22.338434227159265,"lane":{"startLaneIndex":1,"endLaneIndex":1},"lap":0}}],"gameId":"324ac81c-a3f1-47fc-9e3e-fed39c4e2149","gameTick":25}


>>>>>>>>>>>>>>>>>>>>>>>>>>>>> 0



THROTTLE = 0.504375

{"msgType":"carPositions","data":[{"id":{"name":"speedbooster","color":"red"},"angle":0.0,"piecePosition":{"pieceIndex":0,"inPieceDistance":54.73381242360578,"lane":{"startLaneIndex":0,"endLaneIndex":0},"lap":0}},{"id":{"name":"speedbooster1","color":"blue"},"angle":0.0,"piecePosition":{"pieceIndex":0,"inPieceDistance":26.12307942059055,"lane":{"startLaneIndex":1,"endLaneIndex":1},"lap":0}}],"gameId":"324ac81c-a3f1-47fc-9e3e-fed39c4e2149","gameTick":26}


>>>>>>>>>>>>>>>>>>>>>>>>>>>>> 0



THROTTLE = 0.504375

{"msgType":"carPositions","data":[{"id":{"name":"speedbooster","color":"red"},"angle":0.0,"piecePosition":{"pieceIndex":0,"inPieceDistance":58.465928289770666,"lane":{"startLaneIndex":0,"endLaneIndex":0},"lap":0}},{"id":{"name":"speedbooster1","color":"blue"},"angle":0.0,"piecePosition":{"pieceIndex":0,"inPieceDistance":30.027532906420614,"lane":{"startLaneIndex":1,"endLaneIndex":1},"lap":0}}],"gameId":"324ac81c-a3f1-47fc-9e3e-fed39c4e2149","gameTick":27}


>>>>>>>>>>>>>>>>>>>>>>>>>>>>> 0



THROTTLE = 0.504375

{"msgType":"carPositions","data":[{"id":{"name":"speedbooster","color":"red"},"angle":0.0,"piecePosition":{"pieceIndex":0,"inPieceDistance":62.22035672212206,"lane":{"startLaneIndex":0,"endLaneIndex":0},"lap":0}},{"id":{"name":"speedbooster1","color":"blue"},"angle":0.0,"piecePosition":{"pieceIndex":0,"inPieceDistance":34.04929002630381,"lane":{"startLaneIndex":1,"endLaneIndex":1},"lap":0}}],"gameId":"324ac81c-a3f1-47fc-9e3e-fed39c4e2149","gameTick":28}


>>>>>>>>>>>>>>>>>>>>>>>>>>>>> 0



THROTTLE = 0.504375

{"msgType":"carPositions","data":[{"id":{"name":"speedbooster","color":"red"},"angle":0.0,"piecePosition":{"pieceIndex":0,"inPieceDistance":65.99663126417357,"lane":{"startLaneIndex":0,"endLaneIndex":0},"lap":0}},{"id":{"name":"speedbooster1","color":"blue"},"angle":0.0,"piecePosition":{"pieceIndex":0,"inPieceDistance":38.185898483156826,"lane":{"startLaneIndex":1,"endLaneIndex":1},"lap":0}}],"gameId":"324ac81c-a3f1-47fc-9e3e-fed39c4e2149","gameTick":29}


>>>>>>>>>>>>>>>>>>>>>>>>>>>>> 0



THROTTLE = 0.504375

{"msgType":"carPositions","data":[{"id":{"name":"speedbooster","color":"red"},"angle":0.0,"piecePosition":{"pieceIndex":0,"inPieceDistance":69.79429521096861,"lane":{"startLaneIndex":0,"endLaneIndex":0},"lap":0}},{"id":{"name":"speedbooster1","color":"blue"},"angle":0.0,"piecePosition":{"pieceIndex":0,"inPieceDistance":42.43495724651766,"lane":{"startLaneIndex":1,"endLaneIndex":1},"lap":0}}],"gameId":"324ac81c-a3f1-47fc-9e3e-fed39c4e2149","gameTick":30}


>>>>>>>>>>>>>>>>>>>>>>>>>>>>> 0



THROTTLE = 0.504375

{"msgType":"carPositions","data":[{"id":{"name":"speedbooster","color":"red"},"angle":0.0,"piecePosition":{"pieceIndex":0,"inPieceDistance":73.61290140521925,"lane":{"startLaneIndex":0,"endLaneIndex":0},"lap":0}},{"id":{"name":"speedbooster1","color":"blue"},"angle":0.0,"piecePosition":{"pieceIndex":0,"inPieceDistance":46.79411548078866,"lane":{"startLaneIndex":1,"endLaneIndex":1},"lap":0}}],"gameId":"324ac81c-a3f1-47fc-9e3e-fed39c4e2149","gameTick":31}


>>>>>>>>>>>>>>>>>>>>>>>>>>>>> 0



THROTTLE = 0.504375

{"msgType":"carPositions","data":[{"id":{"name":"speedbooster","color":"red"},"angle":0.0,"piecePosition":{"pieceIndex":0,"inPieceDistance":77.45201203770698,"lane":{"startLaneIndex":0,"endLaneIndex":0},"lap":0}},{"id":{"name":"speedbooster1","color":"blue"},"angle":0.0,"piecePosition":{"pieceIndex":0,"inPieceDistance":51.16247761515215,"lane":{"startLaneIndex":1,"endLaneIndex":1},"lap":0}}],"gameId":"324ac81c-a3f1-47fc-9e3e-fed39c4e2149","gameTick":32}


>>>>>>>>>>>>>>>>>>>>>>>>>>>>> 0



THROTTLE = 0.504375

{"msgType":"carPositions","data":[{"id":{"name":"speedbooster","color":"red"},"angle":0.0,"piecePosition":{"pieceIndex":0,"inPieceDistance":81.31119845185616,"lane":{"startLaneIndex":0,"endLaneIndex":0},"lap":0}},{"id":{"name":"speedbooster1","color":"blue"},"angle":0.0,"piecePosition":{"pieceIndex":0,"inPieceDistance":55.53985123700698,"lane":{"startLaneIndex":1,"endLaneIndex":1},"lap":0}}],"gameId":"324ac81c-a3f1-47fc-9e3e-fed39c4e2149","gameTick":33}


>>>>>>>>>>>>>>>>>>>>>>>>>>>>> 0



THROTTLE = 0.504375

{"msgType":"carPositions","data":[{"id":{"name":"speedbooster","color":"red"},"angle":0.0,"piecePosition":{"pieceIndex":0,"inPieceDistance":85.19004095239296,"lane":{"startLaneIndex":0,"endLaneIndex":0},"lap":0}},{"id":{"name":"speedbooster1","color":"blue"},"angle":0.0,"piecePosition":{"pieceIndex":0,"inPieceDistance":59.92604795624341,"lane":{"startLaneIndex":1,"endLaneIndex":1},"lap":0}}],"gameId":"324ac81c-a3f1-47fc-9e3e-fed39c4e2149","gameTick":34}


>>>>>>>>>>>>>>>>>>>>>>>>>>>>> 0



THROTTLE = 0.504375

{"msgType":"carPositions","data":[{"id":{"name":"speedbooster","color":"red"},"angle":0.0,"piecePosition":{"pieceIndex":0,"inPieceDistance":89.08812861800446,"lane":{"startLaneIndex":0,"endLaneIndex":0},"lap":0}},{"id":{"name":"speedbooster1","color":"blue"},"angle":0.0,"piecePosition":{"pieceIndex":0,"inPieceDistance":64.32088332115073,"lane":{"startLaneIndex":1,"endLaneIndex":1},"lap":0}}],"gameId":"324ac81c-a3f1-47fc-9e3e-fed39c4e2149","gameTick":35}


>>>>>>>>>>>>>>>>>>>>>>>>>>>>> 0



THROTTLE = 0.504375

{"msgType":"carPositions","data":[{"id":{"name":"speedbooster","color":"red"},"angle":0.0,"piecePosition":{"pieceIndex":0,"inPieceDistance":93.00505911791412,"lane":{"startLaneIndex":0,"endLaneIndex":0},"lap":0}},{"id":{"name":"speedbooster1","color":"blue"},"angle":0.0,"piecePosition":{"pieceIndex":0,"inPieceDistance":68.72417673608284,"lane":{"startLaneIndex":1,"endLaneIndex":1},"lap":0}}],"gameId":"324ac81c-a3f1-47fc-9e3e-fed39c4e2149","gameTick":36}


>>>>>>>>>>>>>>>>>>>>>>>>>>>>> 0



THROTTLE = 0.504375

{"msgType":"carPositions","data":[{"id":{"name":"speedbooster","color":"red"},"angle":0.0,"piecePosition":{"pieceIndex":0,"inPieceDistance":96.94043853229185,"lane":{"startLaneIndex":0,"endLaneIndex":0},"lap":0}},{"id":{"name":"speedbooster1","color":"blue"},"angle":0.0,"piecePosition":{"pieceIndex":0,"inPieceDistance":73.13575138084508,"lane":{"startLaneIndex":1,"endLaneIndex":1},"lap":0}}],"gameId":"324ac81c-a3f1-47fc-9e3e-fed39c4e2149","gameTick":37}


>>>>>>>>>>>>>>>>>>>>>>>>>>>>> 0



THROTTLE = 0.504375

{"msgType":"carPositions","data":[{"id":{"name":"speedbooster","color":"red"},"angle":0.0,"piecePosition":{"pieceIndex":1,"inPieceDistance":0.8938811764186596,"lane":{"startLaneIndex":0,"endLaneIndex":0},"lap":0}},{"id":{"name":"speedbooster1","color":"blue"},"angle":0.0,"piecePosition":{"pieceIndex":0,"inPieceDistance":77.55543413176636,"lane":{"startLaneIndex":1,"endLaneIndex":1},"lap":0}}],"gameId":"324ac81c-a3f1-47fc-9e3e-fed39c4e2149","gameTick":38}


>>>>>>>>>>>>>>>>>>>>>>>>>>>>> 1



THROTTLE = 0.504375

{"msgType":"carPositions","data":[{"id":{"name":"speedbooster","color":"red"},"angle":0.0,"piecePosition":{"pieceIndex":1,"inPieceDistance":4.865009428527011,"lane":{"startLaneIndex":0,"endLaneIndex":0},"lap":0}},{"id":{"name":"speedbooster1","color":"blue"},"angle":0.0,"piecePosition":{"pieceIndex":0,"inPieceDistance":81.98305548442131,"lane":{"startLaneIndex":1,"endLaneIndex":1},"lap":0}}],"gameId":"324ac81c-a3f1-47fc-9e3e-fed39c4e2149","gameTick":39}


>>>>>>>>>>>>>>>>>>>>>>>>>>>>> 1



THROTTLE = 0.504375

{"msgType":"carPositions","data":[{"id":{"name":"speedbooster","color":"red"},"angle":0.0,"piecePosition":{"pieceIndex":1,"inPieceDistance":8.853453561240425,"lane":{"startLaneIndex":0,"endLaneIndex":0},"lap":0}},{"id":{"name":"speedbooster1","color":"blue"},"angle":0.0,"piecePosition":{"pieceIndex":0,"inPieceDistance":86.41844947796794,"lane":{"startLaneIndex":1,"endLaneIndex":1},"lap":0}}],"gameId":"324ac81c-a3f1-47fc-9e3e-fed39c4e2149","gameTick":40}


>>>>>>>>>>>>>>>>>>>>>>>>>>>>> 1



THROTTLE = 0.504375

{"msgType":"carPositions","data":[{"id":{"name":"speedbooster","color":"red"},"angle":0.0,"piecePosition":{"pieceIndex":1,"inPieceDistance":12.858851576536885,"lane":{"startLaneIndex":0,"endLaneIndex":0},"lap":0}},{"id":{"name":"speedbooster1","color":"blue"},"angle":0.0,"piecePosition":{"pieceIndex":0,"inPieceDistance":90.86145362106706,"lane":{"startLaneIndex":1,"endLaneIndex":1},"lap":0}}],"gameId":"324ac81c-a3f1-47fc-9e3e-fed39c4e2149","gameTick":41}


>>>>>>>>>>>>>>>>>>>>>>>>>>>>> 1



THROTTLE = 0.504375

{"msgType":"carPositions","data":[{"id":{"name":"speedbooster","color":"red"},"angle":0.0,"piecePosition":{"pieceIndex":1,"inPieceDistance":16.88084904416242,"lane":{"startLaneIndex":0,"endLaneIndex":0},"lap":0}},{"id":{"name":"speedbooster1","color":"blue"},"angle":0.0,"piecePosition":{"pieceIndex":0,"inPieceDistance":95.31190881935044,"lane":{"startLaneIndex":1,"endLaneIndex":1},"lap":0}}],"gameId":"324ac81c-a3f1-47fc-9e3e-fed39c4e2149","gameTick":42}


>>>>>>>>>>>>>>>>>>>>>>>>>>>>> 1



THROTTLE = 0.504375

{"msgType":"carPositions","data":[{"id":{"name":"speedbooster","color":"red"},"angle":0.0,"piecePosition":{"pieceIndex":1,"inPieceDistance":20.919098943422746,"lane":{"startLaneIndex":0,"endLaneIndex":0},"lap":0}},{"id":{"name":"speedbooster1","color":"blue"},"angle":0.0,"piecePosition":{"pieceIndex":0,"inPieceDistance":99.76965930440524,"lane":{"startLaneIndex":1,"endLaneIndex":1},"lap":0}}],"gameId":"324ac81c-a3f1-47fc-9e3e-fed39c4e2149","gameTick":43}


>>>>>>>>>>>>>>>>>>>>>>>>>>>>> 1



THROTTLE = 0.504375

{"msgType":"carPositions","data":[{"id":{"name":"speedbooster","color":"red"},"angle":0.0,"piecePosition":{"pieceIndex":1,"inPieceDistance":24.97326150828234,"lane":{"startLaneIndex":0,"endLaneIndex":0},"lap":0}},{"id":{"name":"speedbooster1","color":"blue"},"angle":0.0,"piecePosition":{"pieceIndex":1,"inPieceDistance":4.234552564243103,"lane":{"startLaneIndex":1,"endLaneIndex":1},"lap":0}}],"gameId":"324ac81c-a3f1-47fc-9e3e-fed39c4e2149","gameTick":44}


>>>>>>>>>>>>>>>>>>>>>>>>>>>>> 1



THROTTLE = 0.504375

{"msgType":"carPositions","data":[{"id":{"name":"speedbooster","color":"red"},"angle":0.0,"piecePosition":{"pieceIndex":1,"inPieceDistance":29.043004075701806,"lane":{"startLaneIndex":0,"endLaneIndex":0},"lap":0}},{"id":{"name":"speedbooster1","color":"blue"},"angle":0.0,"piecePosition":{"pieceIndex":1,"inPieceDistance":8.706439275222795,"lane":{"startLaneIndex":1,"endLaneIndex":1},"lap":0}}],"gameId":"324ac81c-a3f1-47fc-9e3e-fed39c4e2149","gameTick":45}


>>>>>>>>>>>>>>>>>>>>>>>>>>>>> 1



THROTTLE = 0.504375

{"msgType":"carPositions","data":[{"id":{"name":"speedbooster","color":"red"},"angle":0.0,"piecePosition":{"pieceIndex":1,"inPieceDistance":33.12800093714581,"lane":{"startLaneIndex":0,"endLaneIndex":0},"lap":0}},{"id":{"name":"speedbooster1","color":"blue"},"angle":0.0,"piecePosition":{"pieceIndex":1,"inPieceDistance":13.185173235396046,"lane":{"startLaneIndex":1,"endLaneIndex":1},"lap":0}}],"gameId":"324ac81c-a3f1-47fc-9e3e-fed39c4e2149","gameTick":46}


>>>>>>>>>>>>>>>>>>>>>>>>>>>>> 1



THROTTLE = 0.504375

{"msgType":"carPositions","data":[{"id":{"name":"speedbooster","color":"red"},"angle":0.0,"piecePosition":{"pieceIndex":1,"inPieceDistance":37.22793319319538,"lane":{"startLaneIndex":0,"endLaneIndex":0},"lap":0}},{"id":{"name":"speedbooster1","color":"blue"},"angle":0.0,"piecePosition":{"pieceIndex":1,"inPieceDistance":17.670611299246847,"lane":{"startLaneIndex":1,"endLaneIndex":1},"lap":0}}],"gameId":"324ac81c-a3f1-47fc-9e3e-fed39c4e2149","gameTick":47}


>>>>>>>>>>>>>>>>>>>>>>>>>>>>> 1



THROTTLE = 0.504375

{"msgType":"carPositions","data":[{"id":{"name":"speedbooster","color":"red"},"angle":0.0,"piecePosition":{"pieceIndex":1,"inPieceDistance":41.34248861119954,"lane":{"startLaneIndex":0,"endLaneIndex":0},"lap":0}},{"id":{"name":"speedbooster1","color":"blue"},"angle":0.0,"piecePosition":{"pieceIndex":1,"inPieceDistance":22.162613313795053,"lane":{"startLaneIndex":1,"endLaneIndex":1},"lap":0}}],"gameId":"324ac81c-a3f1-47fc-9e3e-fed39c4e2149","gameTick":48}


>>>>>>>>>>>>>>>>>>>>>>>>>>>>> 1



THROTTLE = 0.504375

{"msgType":"carPositions","data":[{"id":{"name":"speedbooster","color":"red"},"angle":0.0,"piecePosition":{"pieceIndex":1,"inPieceDistance":45.47136148590287,"lane":{"startLaneIndex":0,"endLaneIndex":0},"lap":0}},{"id":{"name":"speedbooster1","color":"blue"},"angle":0.0,"piecePosition":{"pieceIndex":1,"inPieceDistance":26.661042056035765,"lane":{"startLaneIndex":1,"endLaneIndex":1},"lap":0}}],"gameId":"324ac81c-a3f1-47fc-9e3e-fed39c4e2149","gameTick":49}


>>>>>>>>>>>>>>>>>>>>>>>>>>>>> 1



THROTTLE = 0.504375

{"msgType":"carPositions","data":[{"id":{"name":"speedbooster","color":"red"},"angle":0.0,"piecePosition":{"pieceIndex":1,"inPieceDistance":49.614252502986695,"lane":{"startLaneIndex":0,"endLaneIndex":0},"lap":0}},{"id":{"name":"speedbooster1","color":"blue"},"angle":0.0,"piecePosition":{"pieceIndex":1,"inPieceDistance":31.16576317168659,"lane":{"startLaneIndex":1,"endLaneIndex":1},"lap":0}}],"gameId":"324ac81c-a3f1-47fc-9e3e-fed39c4e2149","gameTick":50}


>>>>>>>>>>>>>>>>>>>>>>>>>>>>> 1



THROTTLE = 0.504375

{"msgType":"carPositions","data":[{"id":{"name":"speedbooster","color":"red"},"angle":0.0,"piecePosition":{"pieceIndex":1,"inPieceDistance":53.77086860546305,"lane":{"startLaneIndex":0,"endLaneIndex":0},"lap":0}},{"id":{"name":"speedbooster1","color":"blue"},"angle":0.0,"piecePosition":{"pieceIndex":1,"inPieceDistance":35.67664511521541,"lane":{"startLaneIndex":1,"endLaneIndex":1},"lap":0}}],"gameId":"324ac81c-a3f1-47fc-9e3e-fed39c4e2149","gameTick":51}


>>>>>>>>>>>>>>>>>>>>>>>>>>>>> 1



THROTTLE = 0.504375

{"msgType":"carPositions","data":[{"id":{"name":"speedbooster","color":"red"},"angle":0.0,"piecePosition":{"pieceIndex":1,"inPieceDistance":57.94092286286173,"lane":{"startLaneIndex":0,"endLaneIndex":0},"lap":0}},{"id":{"name":"speedbooster1","color":"blue"},"angle":0.0,"piecePosition":{"pieceIndex":1,"inPieceDistance":40.19355909112191,"lane":{"startLaneIndex":1,"endLaneIndex":1},"lap":0}}],"gameId":"324ac81c-a3f1-47fc-9e3e-fed39c4e2149","gameTick":52}


>>>>>>>>>>>>>>>>>>>>>>>>>>>>> 1



THROTTLE = 0.504375

{"msgType":"carPositions","data":[{"id":{"name":"speedbooster","color":"red"},"angle":0.0,"piecePosition":{"pieceIndex":1,"inPieceDistance":62.12413434315205,"lane":{"startLaneIndex":0,"endLaneIndex":0},"lap":0}},{"id":{"name":"speedbooster1","color":"blue"},"angle":0.0,"piecePosition":{"pieceIndex":1,"inPieceDistance":44.71637899644667,"lane":{"startLaneIndex":1,"endLaneIndex":1},"lap":0}}],"gameId":"324ac81c-a3f1-47fc-9e3e-fed39c4e2149","gameTick":53}


>>>>>>>>>>>>>>>>>>>>>>>>>>>>> 1



THROTTLE = 0.504375

{"msgType":"carPositions","data":[{"id":{"name":"speedbooster","color":"red"},"angle":0.0,"piecePosition":{"pieceIndex":1,"inPieceDistance":66.32022798734218,"lane":{"startLaneIndex":0,"endLaneIndex":0},"lap":0}},{"id":{"name":"speedbooster1","color":"blue"},"angle":0.0,"piecePosition":{"pieceIndex":1,"inPieceDistance":49.24498136448208,"lane":{"startLaneIndex":1,"endLaneIndex":1},"lap":0}}],"gameId":"324ac81c-a3f1-47fc-9e3e-fed39c4e2149","gameTick":54}


>>>>>>>>>>>>>>>>>>>>>>>>>>>>> 1



THROTTLE = 0.504375

{"msgType":"carPositions","data":[{"id":{"name":"speedbooster","color":"red"},"angle":0.0,"piecePosition":{"pieceIndex":1,"inPieceDistance":70.5289344867,"lane":{"startLaneIndex":0,"endLaneIndex":0},"lap":0}},{"id":{"name":"speedbooster1","color":"blue"},"angle":0.0,"piecePosition":{"pieceIndex":1,"inPieceDistance":53.77924530966006,"lane":{"startLaneIndex":1,"endLaneIndex":1},"lap":0}}],"gameId":"324ac81c-a3f1-47fc-9e3e-fed39c4e2149","gameTick":55}


>>>>>>>>>>>>>>>>>>>>>>>>>>>>> 1



THROTTLE = 0.504375

{"msgType":"carPositions","data":[{"id":{"name":"speedbooster","color":"red"},"angle":0.0,"piecePosition":{"pieceIndex":1,"inPieceDistance":74.7499901625408,"lane":{"startLaneIndex":0,"endLaneIndex":0},"lap":0}},{"id":{"name":"speedbooster1","color":"blue"},"angle":0.0,"piecePosition":{"pieceIndex":1,"inPieceDistance":58.31905247359193,"lane":{"startLaneIndex":1,"endLaneIndex":1},"lap":0}}],"gameId":"324ac81c-a3f1-47fc-9e3e-fed39c4e2149","gameTick":56}


>>>>>>>>>>>>>>>>>>>>>>>>>>>>> 1



THROTTLE = 0.504375

{"msgType":"carPositions","data":[{"id":{"name":"speedbooster","color":"red"},"angle":0.0,"piecePosition":{"pieceIndex":1,"inPieceDistance":78.98313684852799,"lane":{"startLaneIndex":0,"endLaneIndex":0},"lap":0}},{"id":{"name":"speedbooster1","color":"blue"},"angle":0.0,"piecePosition":{"pieceIndex":1,"inPieceDistance":62.86428697223631,"lane":{"startLaneIndex":1,"endLaneIndex":1},"lap":0}}],"gameId":"324ac81c-a3f1-47fc-9e3e-fed39c4e2149","gameTick":57}


>>>>>>>>>>>>>>>>>>>>>>>>>>>>> 1



THROTTLE = 0.504375

{"msgType":"carPositions","data":[{"id":{"name":"speedbooster","color":"red"},"angle":0.0,"piecePosition":{"pieceIndex":1,"inPieceDistance":83.22812177543449,"lane":{"startLaneIndex":0,"endLaneIndex":0},"lap":0}},{"id":{"name":"speedbooster1","color":"blue"},"angle":0.0,"piecePosition":{"pieceIndex":1,"inPieceDistance":67.41483534417154,"lane":{"startLaneIndex":1,"endLaneIndex":1},"lap":0}}],"gameId":"324ac81c-a3f1-47fc-9e3e-fed39c4e2149","gameTick":58}


>>>>>>>>>>>>>>>>>>>>>>>>>>>>> 1



THROTTLE = 0.504375

{"msgType":"carPositions","data":[{"id":{"name":"speedbooster","color":"red"},"angle":0.0,"piecePosition":{"pieceIndex":1,"inPieceDistance":87.4846974583131,"lane":{"startLaneIndex":0,"endLaneIndex":0},"lap":0}},{"id":{"name":"speedbooster1","color":"blue"},"angle":0.0,"piecePosition":{"pieceIndex":1,"inPieceDistance":71.97058649994946,"lane":{"startLaneIndex":1,"endLaneIndex":1},"lap":0}}],"gameId":"324ac81c-a3f1-47fc-9e3e-fed39c4e2149","gameTick":59}


>>>>>>>>>>>>>>>>>>>>>>>>>>>>> 1



THROTTLE = 0.504375

{"msgType":"carPositions","data":[{"id":{"name":"speedbooster","color":"red"},"angle":0.0,"piecePosition":{"pieceIndex":1,"inPieceDistance":91.75262158602577,"lane":{"startLaneIndex":0,"endLaneIndex":0},"lap":0}},{"id":{"name":"speedbooster1","color":"blue"},"angle":0.0,"piecePosition":{"pieceIndex":1,"inPieceDistance":76.53143167250806,"lane":{"startLaneIndex":1,"endLaneIndex":1},"lap":0}}],"gameId":"324ac81c-a3f1-47fc-9e3e-fed39c4e2149","gameTick":60}


>>>>>>>>>>>>>>>>>>>>>>>>>>>>> 1



THROTTLE = 0.504375

{"msgType":"carPositions","data":[{"id":{"name":"speedbooster","color":"red"},"angle":0.0,"piecePosition":{"pieceIndex":1,"inPieceDistance":96.03165691308229,"lane":{"startLaneIndex":0,"endLaneIndex":0},"lap":0}},{"id":{"name":"speedbooster1","color":"blue"},"angle":0.0,"piecePosition":{"pieceIndex":1,"inPieceDistance":81.09726436862063,"lane":{"startLaneIndex":1,"endLaneIndex":1},"lap":0}}],"gameId":"324ac81c-a3f1-47fc-9e3e-fed39c4e2149","gameTick":61}


>>>>>>>>>>>>>>>>>>>>>>>>>>>>> 1



THROTTLE = 0.504375

{"msgType":"carPositions","data":[{"id":{"name":"speedbooster","color":"red"},"angle":0.0,"piecePosition":{"pieceIndex":2,"inPieceDistance":0.3215711537400807,"lane":{"startLaneIndex":0,"endLaneIndex":0},"lap":0}},{"id":{"name":"speedbooster1","color":"blue"},"angle":0.0,"piecePosition":{"pieceIndex":1,"inPieceDistance":85.66798032136003,"lane":{"startLaneIndex":1,"endLaneIndex":1},"lap":0}}],"gameId":"324ac81c-a3f1-47fc-9e3e-fed39c4e2149","gameTick":62}


>>>>>>>>>>>>>>>>>>>>>>>>>>>>> 2



THROTTLE = 0.504375

{"msgType":"carPositions","data":[{"id":{"name":"speedbooster","color":"red"},"angle":0.0,"piecePosition":{"pieceIndex":2,"inPieceDistance":4.622136878317957,"lane":{"startLaneIndex":0,"endLaneIndex":0},"lap":0}},{"id":{"name":"speedbooster1","color":"blue"},"angle":0.0,"piecePosition":{"pieceIndex":1,"inPieceDistance":90.24347744355669,"lane":{"startLaneIndex":1,"endLaneIndex":1},"lap":0}}],"gameId":"324ac81c-a3f1-47fc-9e3e-fed39c4e2149","gameTick":63}


>>>>>>>>>>>>>>>>>>>>>>>>>>>>> 2



THROTTLE = 0.504375

{"msgType":"carPositions","data":[{"id":{"name":"speedbooster","color":"red"},"angle":0.0,"piecePosition":{"pieceIndex":2,"inPieceDistance":8.933131411677499,"lane":{"startLaneIndex":0,"endLaneIndex":0},"lap":0}},{"id":{"name":"speedbooster1","color":"blue"},"angle":0.0,"piecePosition":{"pieceIndex":1,"inPieceDistance":94.82365578222951,"lane":{"startLaneIndex":1,"endLaneIndex":1},"lap":0}}],"gameId":"324ac81c-a3f1-47fc-9e3e-fed39c4e2149","gameTick":64}


>>>>>>>>>>>>>>>>>>>>>>>>>>>>> 2



THROTTLE = 0.504375

{"msgType":"carPositions","data":[{"id":{"name":"speedbooster","color":"red"},"angle":0.0,"piecePosition":{"pieceIndex":2,"inPieceDistance":13.254336733826706,"lane":{"startLaneIndex":0,"endLaneIndex":0},"lap":0}},{"id":{"name":"speedbooster1","color":"blue"},"angle":0.0,"piecePosition":{"pieceIndex":1,"inPieceDistance":99.40841747396955,"lane":{"startLaneIndex":1,"endLaneIndex":1},"lap":0}}],"gameId":"324ac81c-a3f1-47fc-9e3e-fed39c4e2149","gameTick":65}


>>>>>>>>>>>>>>>>>>>>>>>>>>>>> 2



THROTTLE = 0.504375

{"msgType":"carPositions","data":[{"id":{"name":"speedbooster","color":"red"},"angle":0.0,"piecePosition":{"pieceIndex":2,"inPieceDistance":17.585539382601606,"lane":{"startLaneIndex":0,"endLaneIndex":0},"lap":0}},{"id":{"name":"speedbooster1","color":"blue"},"angle":0.0,"piecePosition":{"pieceIndex":2,"inPieceDistance":3.997666701256321,"lane":{"startLaneIndex":1,"endLaneIndex":1},"lap":0}}],"gameId":"324ac81c-a3f1-47fc-9e3e-fed39c4e2149","gameTick":66}


>>>>>>>>>>>>>>>>>>>>>>>>>>>>> 2



THROTTLE = 0.504375

{"msgType":"carPositions","data":[{"id":{"name":"speedbooster","color":"red"},"angle":0.0,"piecePosition":{"pieceIndex":2,"inPieceDistance":21.926530358382337,"lane":{"startLaneIndex":0,"endLaneIndex":0},"lap":0}},{"id":{"name":"speedbooster1","color":"blue"},"angle":0.0,"piecePosition":{"pieceIndex":2,"inPieceDistance":8.591309649687393,"lane":{"startLaneIndex":1,"endLaneIndex":1},"lap":0}}],"gameId":"324ac81c-a3f1-47fc-9e3e-fed39c4e2149","gameTick":67}


>>>>>>>>>>>>>>>>>>>>>>>>>>>>> 2



THROTTLE = 0.504375

{"msgType":"carPositions","data":[{"id":{"name":"speedbooster","color":"red"},"angle":0.0,"piecePosition":{"pieceIndex":2,"inPieceDistance":26.277105030801216,"lane":{"startLaneIndex":0,"endLaneIndex":0},"lap":0}},{"id":{"name":"speedbooster1","color":"blue"},"angle":0.0,"piecePosition":{"pieceIndex":2,"inPieceDistance":13.189254466102081,"lane":{"startLaneIndex":1,"endLaneIndex":1},"lap":0}}],"gameId":"324ac81c-a3f1-47fc-9e3e-fed39c4e2149","gameTick":68}


>>>>>>>>>>>>>>>>>>>>>>>>>>>>> 2



THROTTLE = 0.504375

{"msgType":"carPositions","data":[{"id":{"name":"speedbooster","color":"red"},"angle":0.0,"piecePosition":{"pieceIndex":2,"inPieceDistance":30.637063047401114,"lane":{"startLaneIndex":0,"endLaneIndex":0},"lap":0}},{"id":{"name":"speedbooster1","color":"blue"},"angle":0.0,"piecePosition":{"pieceIndex":2,"inPieceDistance":17.791411217580627,"lane":{"startLaneIndex":1,"endLaneIndex":1},"lap":0}}],"gameId":"324ac81c-a3f1-47fc-9e3e-fed39c4e2149","gameTick":69}


>>>>>>>>>>>>>>>>>>>>>>>>>>>>> 2



THROTTLE = 0.504375

{"msgType":"carPositions","data":[{"id":{"name":"speedbooster","color":"red"},"angle":0.0,"piecePosition":{"pieceIndex":2,"inPieceDistance":35.00620824420337,"lane":{"startLaneIndex":0,"endLaneIndex":0},"lap":0}},{"id":{"name":"speedbooster1","color":"blue"},"angle":0.0,"piecePosition":{"pieceIndex":2,"inPieceDistance":22.397691851300493,"lane":{"startLaneIndex":1,"endLaneIndex":1},"lap":0}}],"gameId":"324ac81c-a3f1-47fc-9e3e-fed39c4e2149","gameTick":70}


>>>>>>>>>>>>>>>>>>>>>>>>>>>>> 2



THROTTLE = 0.504375

{"msgType":"carPositions","data":[{"id":{"name":"speedbooster","color":"red"},"angle":0.0,"piecePosition":{"pieceIndex":2,"inPieceDistance":39.38434855814536,"lane":{"startLaneIndex":0,"endLaneIndex":0},"lap":0}},{"id":{"name":"speedbooster1","color":"blue"},"angle":0.0,"piecePosition":{"pieceIndex":2,"inPieceDistance":27.0080101552319,"lane":{"startLaneIndex":1,"endLaneIndex":1},"lap":0}}],"gameId":"324ac81c-a3f1-47fc-9e3e-fed39c4e2149","gameTick":71}


>>>>>>>>>>>>>>>>>>>>>>>>>>>>> 2



THROTTLE = 0.504375

{"msgType":"carPositions","data":[{"id":{"name":"speedbooster","color":"red"},"angle":0.0,"piecePosition":{"pieceIndex":2,"inPieceDistance":43.77129594134856,"lane":{"startLaneIndex":0,"endLaneIndex":0},"lap":0}},{"id":{"name":"speedbooster1","color":"blue"},"angle":0.0,"piecePosition":{"pieceIndex":2,"inPieceDistance":31.622281719655035,"lane":{"startLaneIndex":1,"endLaneIndex":1},"lap":0}}],"gameId":"324ac81c-a3f1-47fc-9e3e-fed39c4e2149","gameTick":72}


>>>>>>>>>>>>>>>>>>>>>>>>>>>>> 2



THROTTLE = 0.504375

{"msgType":"carPositions","data":[{"id":{"name":"speedbooster","color":"red"},"angle":0.0,"piecePosition":{"pieceIndex":2,"inPieceDistance":48.16686627717895,"lane":{"startLaneIndex":0,"endLaneIndex":0},"lap":0}},{"id":{"name":"speedbooster1","color":"blue"},"angle":0.0,"piecePosition":{"pieceIndex":2,"inPieceDistance":36.240423899481776,"lane":{"startLaneIndex":1,"endLaneIndex":1},"lap":0}}],"gameId":"324ac81c-a3f1-47fc-9e3e-fed39c4e2149","gameTick":73}


>>>>>>>>>>>>>>>>>>>>>>>>>>>>> 2



THROTTLE = 0.504375

{"msgType":"carPositions","data":[{"id":{"name":"speedbooster","color":"red"},"angle":0.0,"piecePosition":{"pieceIndex":2,"inPieceDistance":52.570879298062124,"lane":{"startLaneIndex":0,"endLaneIndex":0},"lap":0}},{"id":{"name":"speedbooster1","color":"blue"},"angle":0.0,"piecePosition":{"pieceIndex":2,"inPieceDistance":40.862355777365096,"lane":{"startLaneIndex":1,"endLaneIndex":1},"lap":0}}],"gameId":"324ac81c-a3f1-47fc-9e3e-fed39c4e2149","gameTick":74}


>>>>>>>>>>>>>>>>>>>>>>>>>>>>> 2



THROTTLE = 0.504375

{"msgType":"carPositions","data":[{"id":{"name":"speedbooster","color":"red"},"angle":0.0,"piecePosition":{"pieceIndex":2,"inPieceDistance":56.983158505016654,"lane":{"startLaneIndex":0,"endLaneIndex":0},"lap":0}},{"id":{"name":"speedbooster1","color":"blue"},"angle":0.0,"piecePosition":{"pieceIndex":2,"inPieceDistance":45.487998127579665,"lane":{"startLaneIndex":1,"endLaneIndex":1},"lap":0}}],"gameId":"324ac81c-a3f1-47fc-9e3e-fed39c4e2149","gameTick":75}


>>>>>>>>>>>>>>>>>>>>>>>>>>>>> 2



THROTTLE = 0.504375

{"msgType":"carPositions","data":[{"id":{"name":"speedbooster","color":"red"},"angle":0.0,"piecePosition":{"pieceIndex":2,"inPieceDistance":61.403531088869514,"lane":{"startLaneIndex":0,"endLaneIndex":0},"lap":0}},{"id":{"name":"speedbooster1","color":"blue"},"angle":0.0,"piecePosition":{"pieceIndex":2,"inPieceDistance":50.11727338065759,"lane":{"startLaneIndex":1,"endLaneIndex":1},"lap":0}}],"gameId":"324ac81c-a3f1-47fc-9e3e-fed39c4e2149","gameTick":76}


>>>>>>>>>>>>>>>>>>>>>>>>>>>>> 2



THROTTLE = 0.504375

{"msgType":"carPositions","data":[{"id":{"name":"speedbooster","color":"red"},"angle":0.0,"piecePosition":{"pieceIndex":2,"inPieceDistance":65.83182785311864,"lane":{"startLaneIndex":0,"endLaneIndex":0},"lap":0}},{"id":{"name":"speedbooster1","color":"blue"},"angle":0.0,"piecePosition":{"pieceIndex":2,"inPieceDistance":54.75010558876344,"lane":{"startLaneIndex":1,"endLaneIndex":1},"lap":0}}],"gameId":"324ac81c-a3f1-47fc-9e3e-fed39c4e2149","gameTick":77}


>>>>>>>>>>>>>>>>>>>>>>>>>>>>> 2



THROTTLE = 0.504375

{"msgType":"carPositions","data":[{"id":{"name":"speedbooster","color":"red"},"angle":0.0,"piecePosition":{"pieceIndex":2,"inPieceDistance":70.26788313840802,"lane":{"startLaneIndex":0,"endLaneIndex":0},"lap":0}},{"id":{"name":"speedbooster1","color":"blue"},"angle":0.0,"piecePosition":{"pieceIndex":2,"inPieceDistance":59.38642039179309,"lane":{"startLaneIndex":1,"endLaneIndex":1},"lap":0}}],"gameId":"324ac81c-a3f1-47fc-9e3e-fed39c4e2149","gameTick":78}


>>>>>>>>>>>>>>>>>>>>>>>>>>>>> 2



THROTTLE = 0.504375

{"msgType":"carPositions","data":[{"id":{"name":"speedbooster","color":"red"},"angle":0.0,"piecePosition":{"pieceIndex":2,"inPieceDistance":74.71153474858177,"lane":{"startLaneIndex":0,"endLaneIndex":0},"lap":0}},{"id":{"name":"speedbooster1","color":"blue"},"angle":0.0,"piecePosition":{"pieceIndex":2,"inPieceDistance":64.02614498418137,"lane":{"startLaneIndex":1,"endLaneIndex":1},"lap":0}}],"gameId":"324ac81c-a3f1-47fc-9e3e-fed39c4e2149","gameTick":79}


>>>>>>>>>>>>>>>>>>>>>>>>>>>>> 2



THROTTLE = 0.504375

{"msgType":"carPositions","data":[{"id":{"name":"speedbooster","color":"red"},"angle":0.0,"piecePosition":{"pieceIndex":2,"inPieceDistance":79.16262387828394,"lane":{"startLaneIndex":0,"endLaneIndex":0},"lap":0}},{"id":{"name":"speedbooster1","color":"blue"},"angle":0.0,"piecePosition":{"pieceIndex":2,"inPieceDistance":68.66920808240357,"lane":{"startLaneIndex":1,"endLaneIndex":1},"lap":0}}],"gameId":"324ac81c-a3f1-47fc-9e3e-fed39c4e2149","gameTick":80}


>>>>>>>>>>>>>>>>>>>>>>>>>>>>> 2



THROTTLE = 0.504375

{"msgType":"carPositions","data":[{"id":{"name":"speedbooster","color":"red"},"angle":0.0,"piecePosition":{"pieceIndex":2,"inPieceDistance":83.62099504207204,"lane":{"startLaneIndex":0,"endLaneIndex":0},"lap":0}},{"id":{"name":"speedbooster1","color":"blue"},"angle":0.0,"piecePosition":{"pieceIndex":2,"inPieceDistance":73.31553989315628,"lane":{"startLaneIndex":1,"endLaneIndex":1},"lap":0}}],"gameId":"324ac81c-a3f1-47fc-9e3e-fed39c4e2149","gameTick":81}


>>>>>>>>>>>>>>>>>>>>>>>>>>>>> 2



THROTTLE = 0.504375

{"msgType":"carPositions","data":[{"id":{"name":"speedbooster","color":"red"},"angle":0.0,"piecePosition":{"pieceIndex":2,"inPieceDistance":88.08649600501239,"lane":{"startLaneIndex":0,"endLaneIndex":0},"lap":0}},{"id":{"name":"speedbooster1","color":"blue"},"angle":0.0,"piecePosition":{"pieceIndex":2,"inPieceDistance":77.9650720822036,"lane":{"startLaneIndex":1,"endLaneIndex":1},"lap":0}}],"gameId":"324ac81c-a3f1-47fc-9e3e-fed39c4e2149","gameTick":82}


>>>>>>>>>>>>>>>>>>>>>>>>>>>>> 2



THROTTLE = 0.504375

{"msgType":"carPositions","data":[{"id":{"name":"speedbooster","color":"red"},"angle":0.0,"piecePosition":{"pieceIndex":2,"inPieceDistance":92.55897771472648,"lane":{"startLaneIndex":0,"endLaneIndex":0},"lap":0}},{"id":{"name":"speedbooster1","color":"blue"},"angle":0.0,"piecePosition":{"pieceIndex":2,"inPieceDistance":82.61773774387443,"lane":{"startLaneIndex":1,"endLaneIndex":1},"lap":0}}],"gameId":"324ac81c-a3f1-47fc-9e3e-fed39c4e2149","gameTick":83}


>>>>>>>>>>>>>>>>>>>>>>>>>>>>> 2



THROTTLE = 0.504375

{"msgType":"carPositions","data":[{"id":{"name":"speedbooster","color":"red"},"angle":0.0,"piecePosition":{"pieceIndex":2,"inPieceDistance":97.03829423485784,"lane":{"startLaneIndex":0,"endLaneIndex":0},"lap":0}},{"id":{"name":"speedbooster1","color":"blue"},"angle":0.0,"piecePosition":{"pieceIndex":2,"inPieceDistance":87.27347137119759,"lane":{"startLaneIndex":1,"endLaneIndex":1},"lap":0}}],"gameId":"324ac81c-a3f1-47fc-9e3e-fed39c4e2149","gameTick":84}


>>>>>>>>>>>>>>>>>>>>>>>>>>>>> 2



THROTTLE = 0.504375

{"msgType":"carPositions","data":[{"id":{"name":"speedbooster","color":"red"},"angle":0.0,"piecePosition":{"pieceIndex":3,"inPieceDistance":1.5243026799299457,"lane":{"startLaneIndex":0,"endLaneIndex":0},"lap":0}},{"id":{"name":"speedbooster1","color":"blue"},"angle":0.0,"piecePosition":{"pieceIndex":2,"inPieceDistance":91.93220882666121,"lane":{"startLaneIndex":1,"endLaneIndex":1},"lap":0}}],"gameId":"324ac81c-a3f1-47fc-9e3e-fed39c4e2149","gameTick":85}


>>>>>>>>>>>>>>>>>>>>>>>>>>>>> 3



THROTTLE = 0.504375

{"msgType":"carPositions","data":[{"id":{"name":"speedbooster","color":"red"},"angle":0.0,"piecePosition":{"pieceIndex":3,"inPieceDistance":6.016863151565847,"lane":{"startLaneIndex":0,"endLaneIndex":0},"lap":0}},{"id":{"name":"speedbooster1","color":"blue"},"angle":0.0,"piecePosition":{"pieceIndex":2,"inPieceDistance":96.59388731358344,"lane":{"startLaneIndex":1,"endLaneIndex":1},"lap":0}}],"gameId":"324ac81c-a3f1-47fc-9e3e-fed39c4e2149","gameTick":86}


>>>>>>>>>>>>>>>>>>>>>>>>>>>>> 3



THROTTLE = 0.504375

