{"msgType":"joinRace","data":{"botId":{"name":"speedbooster","key":"w5TYojUOXuT/gw"},"trackName":"keimola"}}
{"msgType":"yourCar","data":{"name":"speedbooster","color":"red"},"gameId":"56216c20-d5e5-4629-b545-d7f9f20ab72d"}
{"msgType":"gameInit","data":{"race":{"track":{"id":"keimola","name":"Keimola","pieces":[{"length":100.0},{"length":100.0},{"length":100.0},{"length":100.0,"switch":true},{"radius":100,"angle":45.0},{"radius":100,"angle":45.0},{"radius":100,"angle":45.0},{"radius":100,"angle":45.0},{"radius":200,"angle":22.5,"switch":true},{"length":100.0},{"length":100.0},{"radius":200,"angle":-22.5},{"length":100.0},{"length":100.0,"switch":true},{"radius":100,"angle":-45.0},{"radius":100,"angle":-45.0},{"radius":100,"angle":-45.0},{"radius":100,"angle":-45.0},{"length":100.0,"switch":true},{"radius":100,"angle":45.0},{"radius":100,"angle":45.0},{"radius":100,"angle":45.0},{"radius":100,"angle":45.0},{"radius":200,"angle":22.5},{"radius":200,"angle":-22.5},{"length":100.0,"switch":true},{"radius":100,"angle":45.0},{"radius":100,"angle":45.0},{"length":62.0},{"radius":100,"angle":-45.0,"switch":true},{"radius":100,"angle":-45.0},{"radius":100,"angle":45.0},{"radius":100,"angle":45.0},{"radius":100,"angle":45.0},{"radius":100,"angle":45.0},{"length":100.0,"switch":true},{"length":100.0},{"length":100.0},{"length":100.0},{"length":90.0}],"lanes":[{"distanceFromCenter":-10,"index":0},{"distanceFromCenter":10,"index":1}],"startingPoint":{"position":{"x":-300.0,"y":-44.0},"angle":90.0}},"cars":[{"id":{"name":"speedbooster","color":"red"},"dimensions":{"length":40.0,"width":20.0,"guideFlagPosition":10.0}}],"raceSession":{"laps":3,"maxLapTimeMs":60000,"quickRace":true}}},"gameId":"56216c20-d5e5-4629-b545-d7f9f20ab72d"}
{"msgType":"carPositions","data":[{"id":{"name":"speedbooster","color":"red"},"angle":0.0,"piecePosition":{"pieceIndex":0,"inPieceDistance":0.0,"lane":{"startLaneIndex":0,"endLaneIndex":0},"lap":0}}],"gameId":"56216c20-d5e5-4629-b545-d7f9f20ab72d"}


>>>>>>>>>>>>>>>>>>>>>>>>>>>>> 0



THROTTLE = 1

{"msgType":"gameStart","data":null,"gameId":"56216c20-d5e5-4629-b545-d7f9f20ab72d","gameTick":0}
{"msgType":"carPositions","data":[{"id":{"name":"speedbooster","color":"red"},"angle":0.0,"piecePosition":{"pieceIndex":0,"inPieceDistance":0.0,"lane":{"startLaneIndex":0,"endLaneIndex":0},"lap":0}}],"gameId":"56216c20-d5e5-4629-b545-d7f9f20ab72d","gameTick":1}


>>>>>>>>>>>>>>>>>>>>>>>>>>>>> 0



THROTTLE = 1

{"msgType":"carPositions","data":[{"id":{"name":"speedbooster","color":"red"},"angle":0.0,"piecePosition":{"pieceIndex":0,"inPieceDistance":0.0,"lane":{"startLaneIndex":0,"endLaneIndex":0},"lap":0}}],"gameId":"56216c20-d5e5-4629-b545-d7f9f20ab72d","gameTick":2}


>>>>>>>>>>>>>>>>>>>>>>>>>>>>> 0



THROTTLE = 1

{"msgType":"carPositions","data":[{"id":{"name":"speedbooster","color":"red"},"angle":0.0,"piecePosition":{"pieceIndex":0,"inPieceDistance":0.2,"lane":{"startLaneIndex":0,"endLaneIndex":0},"lap":0}}],"gameId":"56216c20-d5e5-4629-b545-d7f9f20ab72d","gameTick":3}


>>>>>>>>>>>>>>>>>>>>>>>>>>>>> 0



THROTTLE = 1

{"msgType":"carPositions","data":[{"id":{"name":"speedbooster","color":"red"},"angle":0.0,"piecePosition":{"pieceIndex":0,"inPieceDistance":0.5960000000000001,"lane":{"startLaneIndex":0,"endLaneIndex":0},"lap":0}}],"gameId":"56216c20-d5e5-4629-b545-d7f9f20ab72d","gameTick":4}


>>>>>>>>>>>>>>>>>>>>>>>>>>>>> 0



THROTTLE = 1

{"msgType":"carPositions","data":[{"id":{"name":"speedbooster","color":"red"},"angle":0.0,"piecePosition":{"pieceIndex":0,"inPieceDistance":1.1840800000000002,"lane":{"startLaneIndex":0,"endLaneIndex":0},"lap":0}}],"gameId":"56216c20-d5e5-4629-b545-d7f9f20ab72d","gameTick":5}


>>>>>>>>>>>>>>>>>>>>>>>>>>>>> 0



THROTTLE = 1

{"msgType":"carPositions","data":[{"id":{"name":"speedbooster","color":"red"},"angle":0.0,"piecePosition":{"pieceIndex":0,"inPieceDistance":1.9603984000000003,"lane":{"startLaneIndex":0,"endLaneIndex":0},"lap":0}}],"gameId":"56216c20-d5e5-4629-b545-d7f9f20ab72d","gameTick":6}


>>>>>>>>>>>>>>>>>>>>>>>>>>>>> 0



THROTTLE = 1

{"msgType":"carPositions","data":[{"id":{"name":"speedbooster","color":"red"},"angle":0.0,"piecePosition":{"pieceIndex":0,"inPieceDistance":2.9211904320000004,"lane":{"startLaneIndex":0,"endLaneIndex":0},"lap":0}}],"gameId":"56216c20-d5e5-4629-b545-d7f9f20ab72d","gameTick":7}


>>>>>>>>>>>>>>>>>>>>>>>>>>>>> 0



THROTTLE = 1

{"msgType":"carPositions","data":[{"id":{"name":"speedbooster","color":"red"},"angle":0.0,"piecePosition":{"pieceIndex":0,"inPieceDistance":4.06276662336,"lane":{"startLaneIndex":0,"endLaneIndex":0},"lap":0}}],"gameId":"56216c20-d5e5-4629-b545-d7f9f20ab72d","gameTick":8}


>>>>>>>>>>>>>>>>>>>>>>>>>>>>> 0



THROTTLE = 1

{"msgType":"carPositions","data":[{"id":{"name":"speedbooster","color":"red"},"angle":0.0,"piecePosition":{"pieceIndex":0,"inPieceDistance":5.3815112908928,"lane":{"startLaneIndex":0,"endLaneIndex":0},"lap":0}}],"gameId":"56216c20-d5e5-4629-b545-d7f9f20ab72d","gameTick":9}


>>>>>>>>>>>>>>>>>>>>>>>>>>>>> 0



THROTTLE = 1

{"msgType":"carPositions","data":[{"id":{"name":"speedbooster","color":"red"},"angle":0.0,"piecePosition":{"pieceIndex":0,"inPieceDistance":6.8738810650749445,"lane":{"startLaneIndex":0,"endLaneIndex":0},"lap":0}}],"gameId":"56216c20-d5e5-4629-b545-d7f9f20ab72d","gameTick":10}


>>>>>>>>>>>>>>>>>>>>>>>>>>>>> 0



THROTTLE = 1

{"msgType":"carPositions","data":[{"id":{"name":"speedbooster","color":"red"},"angle":0.0,"piecePosition":{"pieceIndex":0,"inPieceDistance":8.536403443773445,"lane":{"startLaneIndex":0,"endLaneIndex":0},"lap":0}}],"gameId":"56216c20-d5e5-4629-b545-d7f9f20ab72d","gameTick":11}


>>>>>>>>>>>>>>>>>>>>>>>>>>>>> 0



THROTTLE = 1

{"msgType":"carPositions","data":[{"id":{"name":"speedbooster","color":"red"},"angle":0.0,"piecePosition":{"pieceIndex":0,"inPieceDistance":10.365675374897975,"lane":{"startLaneIndex":0,"endLaneIndex":0},"lap":0}}],"gameId":"56216c20-d5e5-4629-b545-d7f9f20ab72d","gameTick":12}


>>>>>>>>>>>>>>>>>>>>>>>>>>>>> 0



THROTTLE = 1

{"msgType":"carPositions","data":[{"id":{"name":"speedbooster","color":"red"},"angle":0.0,"piecePosition":{"pieceIndex":0,"inPieceDistance":12.358361867400015,"lane":{"startLaneIndex":0,"endLaneIndex":0},"lap":0}}],"gameId":"56216c20-d5e5-4629-b545-d7f9f20ab72d","gameTick":13}


>>>>>>>>>>>>>>>>>>>>>>>>>>>>> 0



THROTTLE = 1

{"msgType":"carPositions","data":[{"id":{"name":"speedbooster","color":"red"},"angle":0.0,"piecePosition":{"pieceIndex":0,"inPieceDistance":14.511194630052014,"lane":{"startLaneIndex":0,"endLaneIndex":0},"lap":0}}],"gameId":"56216c20-d5e5-4629-b545-d7f9f20ab72d","gameTick":14}


>>>>>>>>>>>>>>>>>>>>>>>>>>>>> 0



THROTTLE = 1

{"msgType":"carPositions","data":[{"id":{"name":"speedbooster","color":"red"},"angle":0.0,"piecePosition":{"pieceIndex":0,"inPieceDistance":16.820970737450974,"lane":{"startLaneIndex":0,"endLaneIndex":0},"lap":0}}],"gameId":"56216c20-d5e5-4629-b545-d7f9f20ab72d","gameTick":15}


>>>>>>>>>>>>>>>>>>>>>>>>>>>>> 0



THROTTLE = 1

{"msgType":"carPositions","data":[{"id":{"name":"speedbooster","color":"red"},"angle":0.0,"piecePosition":{"pieceIndex":0,"inPieceDistance":19.284551322701954,"lane":{"startLaneIndex":0,"endLaneIndex":0},"lap":0}}],"gameId":"56216c20-d5e5-4629-b545-d7f9f20ab72d","gameTick":16}


>>>>>>>>>>>>>>>>>>>>>>>>>>>>> 0



THROTTLE = 1

{"msgType":"carPositions","data":[{"id":{"name":"speedbooster","color":"red"},"angle":0.0,"piecePosition":{"pieceIndex":0,"inPieceDistance":21.898860296247914,"lane":{"startLaneIndex":0,"endLaneIndex":0},"lap":0}}],"gameId":"56216c20-d5e5-4629-b545-d7f9f20ab72d","gameTick":17}


>>>>>>>>>>>>>>>>>>>>>>>>>>>>> 0



THROTTLE = 1

{"msgType":"carPositions","data":[{"id":{"name":"speedbooster","color":"red"},"angle":0.0,"piecePosition":{"pieceIndex":0,"inPieceDistance":24.660883090322955,"lane":{"startLaneIndex":0,"endLaneIndex":0},"lap":0}}],"gameId":"56216c20-d5e5-4629-b545-d7f9f20ab72d","gameTick":18}


>>>>>>>>>>>>>>>>>>>>>>>>>>>>> 0



THROTTLE = 1

{"msgType":"carPositions","data":[{"id":{"name":"speedbooster","color":"red"},"angle":0.0,"piecePosition":{"pieceIndex":0,"inPieceDistance":27.567665428516495,"lane":{"startLaneIndex":0,"endLaneIndex":0},"lap":0}}],"gameId":"56216c20-d5e5-4629-b545-d7f9f20ab72d","gameTick":19}


>>>>>>>>>>>>>>>>>>>>>>>>>>>>> 0



THROTTLE = 1

{"msgType":"carPositions","data":[{"id":{"name":"speedbooster","color":"red"},"angle":0.0,"piecePosition":{"pieceIndex":0,"inPieceDistance":30.616312119946166,"lane":{"startLaneIndex":0,"endLaneIndex":0},"lap":0}}],"gameId":"56216c20-d5e5-4629-b545-d7f9f20ab72d","gameTick":20}


>>>>>>>>>>>>>>>>>>>>>>>>>>>>> 0



THROTTLE = 1

{"msgType":"carPositions","data":[{"id":{"name":"speedbooster","color":"red"},"angle":0.0,"piecePosition":{"pieceIndex":0,"inPieceDistance":33.80398587754724,"lane":{"startLaneIndex":0,"endLaneIndex":0},"lap":0}}],"gameId":"56216c20-d5e5-4629-b545-d7f9f20ab72d","gameTick":21}


>>>>>>>>>>>>>>>>>>>>>>>>>>>>> 0



THROTTLE = 1

{"msgType":"carPositions","data":[{"id":{"name":"speedbooster","color":"red"},"angle":0.0,"piecePosition":{"pieceIndex":0,"inPieceDistance":37.12790615999629,"lane":{"startLaneIndex":0,"endLaneIndex":0},"lap":0}}],"gameId":"56216c20-d5e5-4629-b545-d7f9f20ab72d","gameTick":22}


>>>>>>>>>>>>>>>>>>>>>>>>>>>>> 0



THROTTLE = 1

{"msgType":"carPositions","data":[{"id":{"name":"speedbooster","color":"red"},"angle":0.0,"piecePosition":{"pieceIndex":0,"inPieceDistance":40.58534803679637,"lane":{"startLaneIndex":0,"endLaneIndex":0},"lap":0}}],"gameId":"56216c20-d5e5-4629-b545-d7f9f20ab72d","gameTick":23}


>>>>>>>>>>>>>>>>>>>>>>>>>>>>> 0



THROTTLE = 1

{"msgType":"carPositions","data":[{"id":{"name":"speedbooster","color":"red"},"angle":0.0,"piecePosition":{"pieceIndex":0,"inPieceDistance":44.17364107606044,"lane":{"startLaneIndex":0,"endLaneIndex":0},"lap":0}}],"gameId":"56216c20-d5e5-4629-b545-d7f9f20ab72d","gameTick":24}


>>>>>>>>>>>>>>>>>>>>>>>>>>>>> 0



THROTTLE = 1

{"msgType":"carPositions","data":[{"id":{"name":"speedbooster","color":"red"},"angle":0.0,"piecePosition":{"pieceIndex":0,"inPieceDistance":47.89016825453923,"lane":{"startLaneIndex":0,"endLaneIndex":0},"lap":0}}],"gameId":"56216c20-d5e5-4629-b545-d7f9f20ab72d","gameTick":25}


>>>>>>>>>>>>>>>>>>>>>>>>>>>>> 0



THROTTLE = 1

{"msgType":"carPositions","data":[{"id":{"name":"speedbooster","color":"red"},"angle":0.0,"piecePosition":{"pieceIndex":0,"inPieceDistance":51.73236488944845,"lane":{"startLaneIndex":0,"endLaneIndex":0},"lap":0}}],"gameId":"56216c20-d5e5-4629-b545-d7f9f20ab72d","gameTick":26}


>>>>>>>>>>>>>>>>>>>>>>>>>>>>> 0



THROTTLE = 1

{"msgType":"carPositions","data":[{"id":{"name":"speedbooster","color":"red"},"angle":0.0,"piecePosition":{"pieceIndex":0,"inPieceDistance":55.697717591659476,"lane":{"startLaneIndex":0,"endLaneIndex":0},"lap":0}}],"gameId":"56216c20-d5e5-4629-b545-d7f9f20ab72d","gameTick":27}


>>>>>>>>>>>>>>>>>>>>>>>>>>>>> 0



THROTTLE = 1

{"msgType":"carPositions","data":[{"id":{"name":"speedbooster","color":"red"},"angle":0.0,"piecePosition":{"pieceIndex":0,"inPieceDistance":59.783763239826285,"lane":{"startLaneIndex":0,"endLaneIndex":0},"lap":0}}],"gameId":"56216c20-d5e5-4629-b545-d7f9f20ab72d","gameTick":28}


>>>>>>>>>>>>>>>>>>>>>>>>>>>>> 0



THROTTLE = 1

{"msgType":"carPositions","data":[{"id":{"name":"speedbooster","color":"red"},"angle":0.0,"piecePosition":{"pieceIndex":0,"inPieceDistance":63.98808797502976,"lane":{"startLaneIndex":0,"endLaneIndex":0},"lap":0}}],"gameId":"56216c20-d5e5-4629-b545-d7f9f20ab72d","gameTick":29}


>>>>>>>>>>>>>>>>>>>>>>>>>>>>> 0



THROTTLE = 1

{"msgType":"carPositions","data":[{"id":{"name":"speedbooster","color":"red"},"angle":0.0,"piecePosition":{"pieceIndex":0,"inPieceDistance":68.30832621552916,"lane":{"startLaneIndex":0,"endLaneIndex":0},"lap":0}}],"gameId":"56216c20-d5e5-4629-b545-d7f9f20ab72d","gameTick":30}


>>>>>>>>>>>>>>>>>>>>>>>>>>>>> 0



THROTTLE = 1

{"msgType":"carPositions","data":[{"id":{"name":"speedbooster","color":"red"},"angle":0.0,"piecePosition":{"pieceIndex":0,"inPieceDistance":72.74215969121857,"lane":{"startLaneIndex":0,"endLaneIndex":0},"lap":0}}],"gameId":"56216c20-d5e5-4629-b545-d7f9f20ab72d","gameTick":31}


>>>>>>>>>>>>>>>>>>>>>>>>>>>>> 0



THROTTLE = 1

{"msgType":"carPositions","data":[{"id":{"name":"speedbooster","color":"red"},"angle":0.0,"piecePosition":{"pieceIndex":0,"inPieceDistance":77.2873164973942,"lane":{"startLaneIndex":0,"endLaneIndex":0},"lap":0}}],"gameId":"56216c20-d5e5-4629-b545-d7f9f20ab72d","gameTick":32}


>>>>>>>>>>>>>>>>>>>>>>>>>>>>> 0



THROTTLE = 1

{"msgType":"carPositions","data":[{"id":{"name":"speedbooster","color":"red"},"angle":0.0,"piecePosition":{"pieceIndex":0,"inPieceDistance":81.94157016744632,"lane":{"startLaneIndex":0,"endLaneIndex":0},"lap":0}}],"gameId":"56216c20-d5e5-4629-b545-d7f9f20ab72d","gameTick":33}


>>>>>>>>>>>>>>>>>>>>>>>>>>>>> 0



THROTTLE = 1

{"msgType":"carPositions","data":[{"id":{"name":"speedbooster","color":"red"},"angle":0.0,"piecePosition":{"pieceIndex":0,"inPieceDistance":86.70273876409739,"lane":{"startLaneIndex":0,"endLaneIndex":0},"lap":0}}],"gameId":"56216c20-d5e5-4629-b545-d7f9f20ab72d","gameTick":34}


>>>>>>>>>>>>>>>>>>>>>>>>>>>>> 0



THROTTLE = 1

{"msgType":"carPositions","data":[{"id":{"name":"speedbooster","color":"red"},"angle":0.0,"piecePosition":{"pieceIndex":0,"inPieceDistance":91.56868398881544,"lane":{"startLaneIndex":0,"endLaneIndex":0},"lap":0}}],"gameId":"56216c20-d5e5-4629-b545-d7f9f20ab72d","gameTick":35}


>>>>>>>>>>>>>>>>>>>>>>>>>>>>> 0



THROTTLE = 1

{"msgType":"carPositions","data":[{"id":{"name":"speedbooster","color":"red"},"angle":0.0,"piecePosition":{"pieceIndex":0,"inPieceDistance":96.53731030903913,"lane":{"startLaneIndex":0,"endLaneIndex":0},"lap":0}}],"gameId":"56216c20-d5e5-4629-b545-d7f9f20ab72d","gameTick":36}


>>>>>>>>>>>>>>>>>>>>>>>>>>>>> 0



THROTTLE = 1

{"msgType":"carPositions","data":[{"id":{"name":"speedbooster","color":"red"},"angle":0.0,"piecePosition":{"pieceIndex":1,"inPieceDistance":1.6065641028583428,"lane":{"startLaneIndex":0,"endLaneIndex":0},"lap":0}}],"gameId":"56216c20-d5e5-4629-b545-d7f9f20ab72d","gameTick":37}


>>>>>>>>>>>>>>>>>>>>>>>>>>>>> 1



THROTTLE = 1

{"msgType":"carPositions","data":[{"id":{"name":"speedbooster","color":"red"},"angle":0.0,"piecePosition":{"pieceIndex":1,"inPieceDistance":6.774432820801174,"lane":{"startLaneIndex":0,"endLaneIndex":0},"lap":0}}],"gameId":"56216c20-d5e5-4629-b545-d7f9f20ab72d","gameTick":38}


>>>>>>>>>>>>>>>>>>>>>>>>>>>>> 1



THROTTLE = 1

{"msgType":"carPositions","data":[{"id":{"name":"speedbooster","color":"red"},"angle":0.0,"piecePosition":{"pieceIndex":1,"inPieceDistance":12.038944164385148,"lane":{"startLaneIndex":0,"endLaneIndex":0},"lap":0}}],"gameId":"56216c20-d5e5-4629-b545-d7f9f20ab72d","gameTick":39}


>>>>>>>>>>>>>>>>>>>>>>>>>>>>> 1



THROTTLE = 1

{"msgType":"carPositions","data":[{"id":{"name":"speedbooster","color":"red"},"angle":0.0,"piecePosition":{"pieceIndex":1,"inPieceDistance":17.39816528109744,"lane":{"startLaneIndex":0,"endLaneIndex":0},"lap":0}}],"gameId":"56216c20-d5e5-4629-b545-d7f9f20ab72d","gameTick":40}


>>>>>>>>>>>>>>>>>>>>>>>>>>>>> 1



THROTTLE = 1

{"msgType":"carPositions","data":[{"id":{"name":"speedbooster","color":"red"},"angle":0.0,"piecePosition":{"pieceIndex":1,"inPieceDistance":22.85020197547549,"lane":{"startLaneIndex":0,"endLaneIndex":0},"lap":0}}],"gameId":"56216c20-d5e5-4629-b545-d7f9f20ab72d","gameTick":41}


>>>>>>>>>>>>>>>>>>>>>>>>>>>>> 1



THROTTLE = 1

{"msgType":"carPositions","data":[{"id":{"name":"speedbooster","color":"red"},"angle":0.0,"piecePosition":{"pieceIndex":1,"inPieceDistance":28.39319793596598,"lane":{"startLaneIndex":0,"endLaneIndex":0},"lap":0}}],"gameId":"56216c20-d5e5-4629-b545-d7f9f20ab72d","gameTick":42}


>>>>>>>>>>>>>>>>>>>>>>>>>>>>> 1



THROTTLE = 1

{"msgType":"carPositions","data":[{"id":{"name":"speedbooster","color":"red"},"angle":0.0,"piecePosition":{"pieceIndex":1,"inPieceDistance":34.02533397724666,"lane":{"startLaneIndex":0,"endLaneIndex":0},"lap":0}}],"gameId":"56216c20-d5e5-4629-b545-d7f9f20ab72d","gameTick":43}


>>>>>>>>>>>>>>>>>>>>>>>>>>>>> 1



THROTTLE = 1

{"msgType":"carPositions","data":[{"id":{"name":"speedbooster","color":"red"},"angle":0.0,"piecePosition":{"pieceIndex":1,"inPieceDistance":39.744827297701725,"lane":{"startLaneIndex":0,"endLaneIndex":0},"lap":0}}],"gameId":"56216c20-d5e5-4629-b545-d7f9f20ab72d","gameTick":44}


>>>>>>>>>>>>>>>>>>>>>>>>>>>>> 1



THROTTLE = 1

{"msgType":"carPositions","data":[{"id":{"name":"speedbooster","color":"red"},"angle":0.0,"piecePosition":{"pieceIndex":1,"inPieceDistance":45.54993075174769,"lane":{"startLaneIndex":0,"endLaneIndex":0},"lap":0}}],"gameId":"56216c20-d5e5-4629-b545-d7f9f20ab72d","gameTick":45}


>>>>>>>>>>>>>>>>>>>>>>>>>>>>> 1



THROTTLE = 1

{"msgType":"carPositions","data":[{"id":{"name":"speedbooster","color":"red"},"angle":0.0,"piecePosition":{"pieceIndex":1,"inPieceDistance":51.43893213671273,"lane":{"startLaneIndex":0,"endLaneIndex":0},"lap":0}}],"gameId":"56216c20-d5e5-4629-b545-d7f9f20ab72d","gameTick":46}


>>>>>>>>>>>>>>>>>>>>>>>>>>>>> 1



THROTTLE = 1

{"msgType":"carPositions","data":[{"id":{"name":"speedbooster","color":"red"},"angle":0.0,"piecePosition":{"pieceIndex":1,"inPieceDistance":57.41015349397847,"lane":{"startLaneIndex":0,"endLaneIndex":0},"lap":0}}],"gameId":"56216c20-d5e5-4629-b545-d7f9f20ab72d","gameTick":47}


>>>>>>>>>>>>>>>>>>>>>>>>>>>>> 1



THROTTLE = 1

{"msgType":"carPositions","data":[{"id":{"name":"speedbooster","color":"red"},"angle":0.0,"piecePosition":{"pieceIndex":1,"inPieceDistance":63.4619504240989,"lane":{"startLaneIndex":0,"endLaneIndex":0},"lap":0}}],"gameId":"56216c20-d5e5-4629-b545-d7f9f20ab72d","gameTick":48}


>>>>>>>>>>>>>>>>>>>>>>>>>>>>> 1



THROTTLE = 1

{"msgType":"carPositions","data":[{"id":{"name":"speedbooster","color":"red"},"angle":0.0,"piecePosition":{"pieceIndex":1,"inPieceDistance":69.59271141561692,"lane":{"startLaneIndex":0,"endLaneIndex":0},"lap":0}}],"gameId":"56216c20-d5e5-4629-b545-d7f9f20ab72d","gameTick":49}


>>>>>>>>>>>>>>>>>>>>>>>>>>>>> 1



THROTTLE = 1

{"msgType":"carPositions","data":[{"id":{"name":"speedbooster","color":"red"},"angle":0.0,"piecePosition":{"pieceIndex":1,"inPieceDistance":75.80085718730457,"lane":{"startLaneIndex":0,"endLaneIndex":0},"lap":0}}],"gameId":"56216c20-d5e5-4629-b545-d7f9f20ab72d","gameTick":50}


>>>>>>>>>>>>>>>>>>>>>>>>>>>>> 1



THROTTLE = 1

{"msgType":"carPositions","data":[{"id":{"name":"speedbooster","color":"red"},"angle":0.0,"piecePosition":{"pieceIndex":1,"inPieceDistance":82.08484004355847,"lane":{"startLaneIndex":0,"endLaneIndex":0},"lap":0}}],"gameId":"56216c20-d5e5-4629-b545-d7f9f20ab72d","gameTick":51}


>>>>>>>>>>>>>>>>>>>>>>>>>>>>> 1



THROTTLE = 1

{"msgType":"carPositions","data":[{"id":{"name":"speedbooster","color":"red"},"angle":0.0,"piecePosition":{"pieceIndex":1,"inPieceDistance":88.4431432426873,"lane":{"startLaneIndex":0,"endLaneIndex":0},"lap":0}}],"gameId":"56216c20-d5e5-4629-b545-d7f9f20ab72d","gameTick":52}


>>>>>>>>>>>>>>>>>>>>>>>>>>>>> 1



THROTTLE = 1

{"msgType":"carPositions","data":[{"id":{"name":"speedbooster","color":"red"},"angle":0.0,"piecePosition":{"pieceIndex":1,"inPieceDistance":94.87428037783354,"lane":{"startLaneIndex":0,"endLaneIndex":0},"lap":0}}],"gameId":"56216c20-d5e5-4629-b545-d7f9f20ab72d","gameTick":53}


>>>>>>>>>>>>>>>>>>>>>>>>>>>>> 1



THROTTLE = 1

{"msgType":"carPositions","data":[{"id":{"name":"speedbooster","color":"red"},"angle":0.0,"piecePosition":{"pieceIndex":2,"inPieceDistance":1.3767947702768737,"lane":{"startLaneIndex":0,"endLaneIndex":0},"lap":0}}],"gameId":"56216c20-d5e5-4629-b545-d7f9f20ab72d","gameTick":54}


>>>>>>>>>>>>>>>>>>>>>>>>>>>>> 2



THROTTLE = 1

{"msgType":"carPositions","data":[{"id":{"name":"speedbooster","color":"red"},"angle":0.0,"piecePosition":{"pieceIndex":2,"inPieceDistance":7.949258874871334,"lane":{"startLaneIndex":0,"endLaneIndex":0},"lap":0}}],"gameId":"56216c20-d5e5-4629-b545-d7f9f20ab72d","gameTick":55}


>>>>>>>>>>>>>>>>>>>>>>>>>>>>> 2



THROTTLE = 1

{"msgType":"carPositions","data":[{"id":{"name":"speedbooster","color":"red"},"angle":0.0,"piecePosition":{"pieceIndex":2,"inPieceDistance":14.590273697373906,"lane":{"startLaneIndex":0,"endLaneIndex":0},"lap":0}}],"gameId":"56216c20-d5e5-4629-b545-d7f9f20ab72d","gameTick":56}


>>>>>>>>>>>>>>>>>>>>>>>>>>>>> 2



THROTTLE = 1

{"msgType":"carPositions","data":[{"id":{"name":"speedbooster","color":"red"},"angle":0.0,"piecePosition":{"pieceIndex":2,"inPieceDistance":21.298468223426426,"lane":{"startLaneIndex":0,"endLaneIndex":0},"lap":0}}],"gameId":"56216c20-d5e5-4629-b545-d7f9f20ab72d","gameTick":57}


>>>>>>>>>>>>>>>>>>>>>>>>>>>>> 2



THROTTLE = 1

{"msgType":"carPositions","data":[{"id":{"name":"speedbooster","color":"red"},"angle":0.0,"piecePosition":{"pieceIndex":2,"inPieceDistance":28.072498858957893,"lane":{"startLaneIndex":0,"endLaneIndex":0},"lap":0}}],"gameId":"56216c20-d5e5-4629-b545-d7f9f20ab72d","gameTick":58}


>>>>>>>>>>>>>>>>>>>>>>>>>>>>> 2



THROTTLE = 1

{"msgType":"carPositions","data":[{"id":{"name":"speedbooster","color":"red"},"angle":0.0,"piecePosition":{"pieceIndex":2,"inPieceDistance":34.91104888177873,"lane":{"startLaneIndex":0,"endLaneIndex":0},"lap":0}}],"gameId":"56216c20-d5e5-4629-b545-d7f9f20ab72d","gameTick":59}


>>>>>>>>>>>>>>>>>>>>>>>>>>>>> 2



THROTTLE = 1

{"msgType":"carPositions","data":[{"id":{"name":"speedbooster","color":"red"},"angle":0.0,"piecePosition":{"pieceIndex":2,"inPieceDistance":41.812827904143155,"lane":{"startLaneIndex":0,"endLaneIndex":0},"lap":0}}],"gameId":"56216c20-d5e5-4629-b545-d7f9f20ab72d","gameTick":60}


>>>>>>>>>>>>>>>>>>>>>>>>>>>>> 2



THROTTLE = 1

{"msgType":"carPositions","data":[{"id":{"name":"speedbooster","color":"red"},"angle":0.0,"piecePosition":{"pieceIndex":2,"inPieceDistance":48.776571346060294,"lane":{"startLaneIndex":0,"endLaneIndex":0},"lap":0}}],"gameId":"56216c20-d5e5-4629-b545-d7f9f20ab72d","gameTick":61}


>>>>>>>>>>>>>>>>>>>>>>>>>>>>> 2



THROTTLE = 1

{"msgType":"carPositions","data":[{"id":{"name":"speedbooster","color":"red"},"angle":0.0,"piecePosition":{"pieceIndex":2,"inPieceDistance":55.801039919139086,"lane":{"startLaneIndex":0,"endLaneIndex":0},"lap":0}}],"gameId":"56216c20-d5e5-4629-b545-d7f9f20ab72d","gameTick":62}


>>>>>>>>>>>>>>>>>>>>>>>>>>>>> 2



THROTTLE = 1

{"msgType":"carPositions","data":[{"id":{"name":"speedbooster","color":"red"},"angle":0.0,"piecePosition":{"pieceIndex":2,"inPieceDistance":62.885019120756304,"lane":{"startLaneIndex":0,"endLaneIndex":0},"lap":0}}],"gameId":"56216c20-d5e5-4629-b545-d7f9f20ab72d","gameTick":63}


>>>>>>>>>>>>>>>>>>>>>>>>>>>>> 2



THROTTLE = 1

{"msgType":"carPositions","data":[{"id":{"name":"speedbooster","color":"red"},"angle":0.0,"piecePosition":{"pieceIndex":2,"inPieceDistance":70.02731873834118,"lane":{"startLaneIndex":0,"endLaneIndex":0},"lap":0}}],"gameId":"56216c20-d5e5-4629-b545-d7f9f20ab72d","gameTick":64}


>>>>>>>>>>>>>>>>>>>>>>>>>>>>> 2



THROTTLE = 1

{"msgType":"carPositions","data":[{"id":{"name":"speedbooster","color":"red"},"angle":0.0,"piecePosition":{"pieceIndex":2,"inPieceDistance":77.22677236357436,"lane":{"startLaneIndex":0,"endLaneIndex":0},"lap":0}}],"gameId":"56216c20-d5e5-4629-b545-d7f9f20ab72d","gameTick":65}


>>>>>>>>>>>>>>>>>>>>>>>>>>>>> 2



THROTTLE = 1

{"msgType":"carPositions","data":[{"id":{"name":"speedbooster","color":"red"},"angle":0.0,"piecePosition":{"pieceIndex":2,"inPieceDistance":84.48223691630287,"lane":{"startLaneIndex":0,"endLaneIndex":0},"lap":0}}],"gameId":"56216c20-d5e5-4629-b545-d7f9f20ab72d","gameTick":66}


>>>>>>>>>>>>>>>>>>>>>>>>>>>>> 2



THROTTLE = 1

