{"msgType":"joinRace","data":{"botId":{"name":"speedbooster","key":"w5TYojUOXuT/gw"},"trackName":"keimola","carCount":1,"password":"foo333"}}
{"msgType":"yourCar","data":{"name":"speedbooster","color":"red"},"gameId":"cdd6c8c0-c694-4746-9047-957101988f9e"}
{"msgType":"gameInit","data":{"race":{"track":{"id":"keimola","name":"Keimola","pieces":[{"length":100.0},{"length":100.0},{"length":100.0},{"length":100.0,"switch":true},{"radius":100,"angle":45.0},{"radius":100,"angle":45.0},{"radius":100,"angle":45.0},{"radius":100,"angle":45.0},{"radius":200,"angle":22.5,"switch":true},{"length":100.0},{"length":100.0},{"radius":200,"angle":-22.5},{"length":100.0},{"length":100.0,"switch":true},{"radius":100,"angle":-45.0},{"radius":100,"angle":-45.0},{"radius":100,"angle":-45.0},{"radius":100,"angle":-45.0},{"length":100.0,"switch":true},{"radius":100,"angle":45.0},{"radius":100,"angle":45.0},{"radius":100,"angle":45.0},{"radius":100,"angle":45.0},{"radius":200,"angle":22.5},{"radius":200,"angle":-22.5},{"length":100.0,"switch":true},{"radius":100,"angle":45.0},{"radius":100,"angle":45.0},{"length":62.0},{"radius":100,"angle":-45.0,"switch":true},{"radius":100,"angle":-45.0},{"radius":100,"angle":45.0},{"radius":100,"angle":45.0},{"radius":100,"angle":45.0},{"radius":100,"angle":45.0},{"length":100.0,"switch":true},{"length":100.0},{"length":100.0},{"length":100.0},{"length":90.0}],"lanes":[{"distanceFromCenter":-10,"index":0},{"distanceFromCenter":10,"index":1}],"startingPoint":{"position":{"x":-300.0,"y":-44.0},"angle":90.0}},"cars":[{"id":{"name":"speedbooster","color":"red"},"dimensions":{"length":40.0,"width":20.0,"guideFlagPosition":10.0}}],"raceSession":{"laps":3,"maxLapTimeMs":60000,"quickRace":true}}},"gameId":"cdd6c8c0-c694-4746-9047-957101988f9e"}
{"msgType":"carPositions","data":[{"id":{"name":"speedbooster","color":"red"},"angle":0.0,"piecePosition":{"pieceIndex":0,"inPieceDistance":0.0,"lane":{"startLaneIndex":0,"endLaneIndex":0},"lap":0}}],"gameId":"cdd6c8c0-c694-4746-9047-957101988f9e"}


>>>>>>>>>>>>>>>>>>>>>>>>>>>>> 0



THROTTLE = 1

{"msgType":"gameStart","data":null,"gameId":"cdd6c8c0-c694-4746-9047-957101988f9e","gameTick":0}
{"msgType":"carPositions","data":[{"id":{"name":"speedbooster","color":"red"},"angle":0.0,"piecePosition":{"pieceIndex":0,"inPieceDistance":0.0,"lane":{"startLaneIndex":0,"endLaneIndex":0},"lap":0}}],"gameId":"cdd6c8c0-c694-4746-9047-957101988f9e","gameTick":1}


>>>>>>>>>>>>>>>>>>>>>>>>>>>>> 0



THROTTLE = 1

{"msgType":"carPositions","data":[{"id":{"name":"speedbooster","color":"red"},"angle":0.0,"piecePosition":{"pieceIndex":0,"inPieceDistance":0.0,"lane":{"startLaneIndex":0,"endLaneIndex":0},"lap":0}}],"gameId":"cdd6c8c0-c694-4746-9047-957101988f9e","gameTick":2}


>>>>>>>>>>>>>>>>>>>>>>>>>>>>> 0



THROTTLE = 1

{"msgType":"carPositions","data":[{"id":{"name":"speedbooster","color":"red"},"angle":0.0,"piecePosition":{"pieceIndex":0,"inPieceDistance":0.21271992383834518,"lane":{"startLaneIndex":0,"endLaneIndex":0},"lap":0}}],"gameId":"cdd6c8c0-c694-4746-9047-957101988f9e","gameTick":3}


>>>>>>>>>>>>>>>>>>>>>>>>>>>>> 0



THROTTLE = 1

{"msgType":"carPositions","data":[{"id":{"name":"speedbooster","color":"red"},"angle":0.0,"piecePosition":{"pieceIndex":0,"inPieceDistance":0.633491924892985,"lane":{"startLaneIndex":0,"endLaneIndex":0},"lap":0}}],"gameId":"cdd6c8c0-c694-4746-9047-957101988f9e","gameTick":4}


>>>>>>>>>>>>>>>>>>>>>>>>>>>>> 0



THROTTLE = 1

{"msgType":"carPositions","data":[{"id":{"name":"speedbooster","color":"red"},"angle":0.0,"piecePosition":{"pieceIndex":0,"inPieceDistance":1.2577505860261122,"lane":{"startLaneIndex":0,"endLaneIndex":0},"lap":0}}],"gameId":"cdd6c8c0-c694-4746-9047-957101988f9e","gameTick":5}


>>>>>>>>>>>>>>>>>>>>>>>>>>>>> 0



THROTTLE = 1

{"msgType":"carPositions","data":[{"id":{"name":"speedbooster","color":"red"},"angle":0.0,"piecePosition":{"pieceIndex":0,"inPieceDistance":2.0810306719097866,"lane":{"startLaneIndex":0,"endLaneIndex":0},"lap":0}}],"gameId":"cdd6c8c0-c694-4746-9047-957101988f9e","gameTick":6}


>>>>>>>>>>>>>>>>>>>>>>>>>>>>> 0



THROTTLE = 1

{"msgType":"carPositions","data":[{"id":{"name":"speedbooster","color":"red"},"angle":0.0,"piecePosition":{"pieceIndex":0,"inPieceDistance":3.098964930673687,"lane":{"startLaneIndex":0,"endLaneIndex":0},"lap":0}}],"gameId":"cdd6c8c0-c694-4746-9047-957101988f9e","gameTick":7}


>>>>>>>>>>>>>>>>>>>>>>>>>>>>> 0



THROTTLE = 1

{"msgType":"carPositions","data":[{"id":{"name":"speedbooster","color":"red"},"angle":0.0,"piecePosition":{"pieceIndex":0,"inPieceDistance":4.3072819437926855,"lane":{"startLaneIndex":0,"endLaneIndex":0},"lap":0}}],"gameId":"cdd6c8c0-c694-4746-9047-957101988f9e","gameTick":8}


>>>>>>>>>>>>>>>>>>>>>>>>>>>>> 0



THROTTLE = 1

{"msgType":"carPositions","data":[{"id":{"name":"speedbooster","color":"red"},"angle":0.0,"piecePosition":{"pieceIndex":0,"inPieceDistance":5.701804023155685,"lane":{"startLaneIndex":0,"endLaneIndex":0},"lap":0}}],"gameId":"cdd6c8c0-c694-4746-9047-957101988f9e","gameTick":9}


>>>>>>>>>>>>>>>>>>>>>>>>>>>>> 0



THROTTLE = 1

{"msgType":"carPositions","data":[{"id":{"name":"speedbooster","color":"red"},"angle":0.0,"piecePosition":{"pieceIndex":0,"inPieceDistance":7.278445154280391,"lane":{"startLaneIndex":0,"endLaneIndex":0},"lap":0}}],"gameId":"cdd6c8c0-c694-4746-9047-957101988f9e","gameTick":10}


>>>>>>>>>>>>>>>>>>>>>>>>>>>>> 0



THROTTLE = 1

{"msgType":"carPositions","data":[{"id":{"name":"speedbooster","color":"red"},"angle":0.0,"piecePosition":{"pieceIndex":0,"inPieceDistance":9.033208984661417,"lane":{"startLaneIndex":0,"endLaneIndex":0},"lap":0}}],"gameId":"cdd6c8c0-c694-4746-9047-957101988f9e","gameTick":11}


>>>>>>>>>>>>>>>>>>>>>>>>>>>>> 0



THROTTLE = 1

{"msgType":"carPositions","data":[{"id":{"name":"speedbooster","color":"red"},"angle":0.0,"piecePosition":{"pieceIndex":0,"inPieceDistance":10.962186856261326,"lane":{"startLaneIndex":0,"endLaneIndex":0},"lap":0}}],"gameId":"cdd6c8c0-c694-4746-9047-957101988f9e","gameTick":12}


>>>>>>>>>>>>>>>>>>>>>>>>>>>>> 0



THROTTLE = 1

{"msgType":"carPositions","data":[{"id":{"name":"speedbooster","color":"red"},"angle":0.0,"piecePosition":{"pieceIndex":0,"inPieceDistance":13.061555881175948,"lane":{"startLaneIndex":0,"endLaneIndex":0},"lap":0}}],"gameId":"cdd6c8c0-c694-4746-9047-957101988f9e","gameTick":13}


>>>>>>>>>>>>>>>>>>>>>>>>>>>>> 0



THROTTLE = 1

{"msgType":"carPositions","data":[{"id":{"name":"speedbooster","color":"red"},"angle":0.0,"piecePosition":{"pieceIndex":0,"inPieceDistance":15.32757705952659,"lane":{"startLaneIndex":0,"endLaneIndex":0},"lap":0}}],"gameId":"cdd6c8c0-c694-4746-9047-957101988f9e","gameTick":14}


>>>>>>>>>>>>>>>>>>>>>>>>>>>>> 0



THROTTLE = 1

{"msgType":"carPositions","data":[{"id":{"name":"speedbooster","color":"red"},"angle":0.0,"piecePosition":{"pieceIndex":0,"inPieceDistance":17.75659343865251,"lane":{"startLaneIndex":0,"endLaneIndex":0},"lap":0}}],"gameId":"cdd6c8c0-c694-4746-9047-957101988f9e","gameTick":15}


>>>>>>>>>>>>>>>>>>>>>>>>>>>>> 0



THROTTLE = 1

{"msgType":"carPositions","data":[{"id":{"name":"speedbooster","color":"red"},"angle":0.0,"piecePosition":{"pieceIndex":0,"inPieceDistance":20.34502831269738,"lane":{"startLaneIndex":0,"endLaneIndex":0},"lap":0}}],"gameId":"cdd6c8c0-c694-4746-9047-957101988f9e","gameTick":16}


>>>>>>>>>>>>>>>>>>>>>>>>>>>>> 0



THROTTLE = 1

{"msgType":"carPositions","data":[{"id":{"name":"speedbooster","color":"red"},"angle":0.0,"piecePosition":{"pieceIndex":0,"inPieceDistance":23.08938346170337,"lane":{"startLaneIndex":0,"endLaneIndex":0},"lap":0}}],"gameId":"cdd6c8c0-c694-4746-9047-957101988f9e","gameTick":17}


>>>>>>>>>>>>>>>>>>>>>>>>>>>>> 0



THROTTLE = 1

{"msgType":"carPositions","data":[{"id":{"name":"speedbooster","color":"red"},"angle":0.0,"piecePosition":{"pieceIndex":0,"inPieceDistance":25.986237429345874,"lane":{"startLaneIndex":0,"endLaneIndex":0},"lap":0}}],"gameId":"cdd6c8c0-c694-4746-9047-957101988f9e","gameTick":18}


>>>>>>>>>>>>>>>>>>>>>>>>>>>>> 0



THROTTLE = 1

{"msgType":"carPositions","data":[{"id":{"name":"speedbooster","color":"red"},"angle":0.0,"piecePosition":{"pieceIndex":0,"inPieceDistance":29.032243838460992,"lane":{"startLaneIndex":0,"endLaneIndex":0},"lap":0}}],"gameId":"cdd6c8c0-c694-4746-9047-957101988f9e","gameTick":19}


>>>>>>>>>>>>>>>>>>>>>>>>>>>>> 0



THROTTLE = 1

{"msgType":"carPositions","data":[{"id":{"name":"speedbooster","color":"red"},"angle":0.0,"piecePosition":{"pieceIndex":0,"inPieceDistance":32.22412974353645,"lane":{"startLaneIndex":0,"endLaneIndex":0},"lap":0}}],"gameId":"cdd6c8c0-c694-4746-9047-957101988f9e","gameTick":20}


>>>>>>>>>>>>>>>>>>>>>>>>>>>>> 0



THROTTLE = 1

{"msgType":"carPositions","data":[{"id":{"name":"speedbooster","color":"red"},"angle":0.0,"piecePosition":{"pieceIndex":0,"inPieceDistance":35.55869401935483,"lane":{"startLaneIndex":0,"endLaneIndex":0},"lap":0}}],"gameId":"cdd6c8c0-c694-4746-9047-957101988f9e","gameTick":21}


>>>>>>>>>>>>>>>>>>>>>>>>>>>>> 0



THROTTLE = 1

{"msgType":"carPositions","data":[{"id":{"name":"speedbooster","color":"red"},"angle":0.0,"piecePosition":{"pieceIndex":0,"inPieceDistance":39.032805784995844,"lane":{"startLaneIndex":0,"endLaneIndex":0},"lap":0}}],"gameId":"cdd6c8c0-c694-4746-9047-957101988f9e","gameTick":22}


>>>>>>>>>>>>>>>>>>>>>>>>>>>>> 0



THROTTLE = 1

{"msgType":"carPositions","data":[{"id":{"name":"speedbooster","color":"red"},"angle":0.0,"piecePosition":{"pieceIndex":0,"inPieceDistance":42.64340286242167,"lane":{"startLaneIndex":0,"endLaneIndex":0},"lap":0}}],"gameId":"cdd6c8c0-c694-4746-9047-957101988f9e","gameTick":23}


>>>>>>>>>>>>>>>>>>>>>>>>>>>>> 0



THROTTLE = 1

{"msgType":"carPositions","data":[{"id":{"name":"speedbooster","color":"red"},"angle":0.0,"piecePosition":{"pieceIndex":0,"inPieceDistance":46.38749026888655,"lane":{"startLaneIndex":0,"endLaneIndex":0},"lap":0}}],"gameId":"cdd6c8c0-c694-4746-9047-957101988f9e","gameTick":24}


>>>>>>>>>>>>>>>>>>>>>>>>>>>>> 0



THROTTLE = 1

{"msgType":"carPositions","data":[{"id":{"name":"speedbooster","color":"red"},"angle":0.0,"piecePosition":{"pieceIndex":0,"inPieceDistance":50.26213874242839,"lane":{"startLaneIndex":0,"endLaneIndex":0},"lap":0}}],"gameId":"cdd6c8c0-c694-4746-9047-957101988f9e","gameTick":25}


>>>>>>>>>>>>>>>>>>>>>>>>>>>>> 0



THROTTLE = 1

{"msgType":"carPositions","data":[{"id":{"name":"speedbooster","color":"red"},"angle":0.0,"piecePosition":{"pieceIndex":0,"inPieceDistance":54.264483299716375,"lane":{"startLaneIndex":0,"endLaneIndex":0},"lap":0}}],"gameId":"cdd6c8c0-c694-4746-9047-957101988f9e","gameTick":26}


>>>>>>>>>>>>>>>>>>>>>>>>>>>>> 0



THROTTLE = 1

{"msgType":"carPositions","data":[{"id":{"name":"speedbooster","color":"red"},"angle":0.0,"piecePosition":{"pieceIndex":0,"inPieceDistance":58.391721825544714,"lane":{"startLaneIndex":0,"endLaneIndex":0},"lap":0}}],"gameId":"cdd6c8c0-c694-4746-9047-957101988f9e","gameTick":27}


>>>>>>>>>>>>>>>>>>>>>>>>>>>>> 0



THROTTLE = 1

{"msgType":"carPositions","data":[{"id":{"name":"speedbooster","color":"red"},"angle":0.0,"piecePosition":{"pieceIndex":0,"inPieceDistance":62.641113693277944,"lane":{"startLaneIndex":0,"endLaneIndex":0},"lap":0}}],"gameId":"cdd6c8c0-c694-4746-9047-957101988f9e","gameTick":28}


>>>>>>>>>>>>>>>>>>>>>>>>>>>>> 0



THROTTLE = 1

{"msgType":"carPositions","data":[{"id":{"name":"speedbooster","color":"red"},"angle":0.0,"piecePosition":{"pieceIndex":0,"inPieceDistance":67.00997841556868,"lane":{"startLaneIndex":0,"endLaneIndex":0},"lap":0}}],"gameId":"cdd6c8c0-c694-4746-9047-957101988f9e","gameTick":29}


>>>>>>>>>>>>>>>>>>>>>>>>>>>>> 0



THROTTLE = 1

{"msgType":"carPositions","data":[{"id":{"name":"speedbooster","color":"red"},"angle":0.0,"piecePosition":{"pieceIndex":0,"inPieceDistance":71.49569432468356,"lane":{"startLaneIndex":0,"endLaneIndex":0},"lap":0}}],"gameId":"cdd6c8c0-c694-4746-9047-957101988f9e","gameTick":30}


>>>>>>>>>>>>>>>>>>>>>>>>>>>>> 0



THROTTLE = 1

{"msgType":"carPositions","data":[{"id":{"name":"speedbooster","color":"red"},"angle":0.0,"piecePosition":{"pieceIndex":0,"inPieceDistance":76.09569728178754,"lane":{"startLaneIndex":0,"endLaneIndex":0},"lap":0}}],"gameId":"cdd6c8c0-c694-4746-9047-957101988f9e","gameTick":31}


>>>>>>>>>>>>>>>>>>>>>>>>>>>>> 0



THROTTLE = 1

{"msgType":"carPositions","data":[{"id":{"name":"speedbooster","color":"red"},"angle":0.0,"piecePosition":{"pieceIndex":0,"inPieceDistance":80.80747941455125,"lane":{"startLaneIndex":0,"endLaneIndex":0},"lap":0}}],"gameId":"cdd6c8c0-c694-4746-9047-957101988f9e","gameTick":32}


>>>>>>>>>>>>>>>>>>>>>>>>>>>>> 0



THROTTLE = 1

{"msgType":"carPositions","data":[{"id":{"name":"speedbooster","color":"red"},"angle":0.0,"piecePosition":{"pieceIndex":0,"inPieceDistance":85.6285878824598,"lane":{"startLaneIndex":0,"endLaneIndex":0},"lap":0}}],"gameId":"cdd6c8c0-c694-4746-9047-957101988f9e","gameTick":33}


>>>>>>>>>>>>>>>>>>>>>>>>>>>>> 0



THROTTLE = 1

{"msgType":"carPositions","data":[{"id":{"name":"speedbooster","color":"red"},"angle":0.0,"piecePosition":{"pieceIndex":0,"inPieceDistance":90.55662366921511,"lane":{"startLaneIndex":0,"endLaneIndex":0},"lap":0}}],"gameId":"cdd6c8c0-c694-4746-9047-957101988f9e","gameTick":34}


>>>>>>>>>>>>>>>>>>>>>>>>>>>>> 0



THROTTLE = 1

{"msgType":"carPositions","data":[{"id":{"name":"speedbooster","color":"red"},"angle":0.0,"piecePosition":{"pieceIndex":0,"inPieceDistance":95.58924040163751,"lane":{"startLaneIndex":0,"endLaneIndex":0},"lap":0}}],"gameId":"cdd6c8c0-c694-4746-9047-957101988f9e","gameTick":35}


>>>>>>>>>>>>>>>>>>>>>>>>>>>>> 0



THROTTLE = 1

{"msgType":"carPositions","data":[{"id":{"name":"speedbooster","color":"red"},"angle":0.0,"piecePosition":{"pieceIndex":1,"inPieceDistance":0.7241431944846539,"lane":{"startLaneIndex":0,"endLaneIndex":0},"lap":0}}],"gameId":"cdd6c8c0-c694-4746-9047-957101988f9e","gameTick":36}


>>>>>>>>>>>>>>>>>>>>>>>>>>>>> 1



THROTTLE = 1

{"msgType":"carPositions","data":[{"id":{"name":"speedbooster","color":"red"},"angle":0.0,"piecePosition":{"pieceIndex":1,"inPieceDistance":5.959087520619556,"lane":{"startLaneIndex":0,"endLaneIndex":0},"lap":0}}],"gameId":"cdd6c8c0-c694-4746-9047-957101988f9e","gameTick":37}


>>>>>>>>>>>>>>>>>>>>>>>>>>>>> 1



THROTTLE = 1

{"msgType":"carPositions","data":[{"id":{"name":"speedbooster","color":"red"},"angle":0.0,"piecePosition":{"pieceIndex":1,"inPieceDistance":11.291878105971048,"lane":{"startLaneIndex":0,"endLaneIndex":0},"lap":0}}],"gameId":"cdd6c8c0-c694-4746-9047-957101988f9e","gameTick":38}


>>>>>>>>>>>>>>>>>>>>>>>>>>>>> 1



THROTTLE = 1

