{"msgType":"joinRace","data":{"botId":{"name":"speedbooster","key":"w5TYojUOXuT/gw"},"trackName":"keimola","carCount":2,"password":"uu"}}
{"msgType":"yourCar","data":{"name":"speedbooster","color":"blue"},"gameId":"5f2b27e0-de59-4a72-91b9-063c2a35da95"}
{"msgType":"gameInit","data":{"race":{"track":{"id":"keimola","name":"Keimola","pieces":[{"length":100.0},{"length":100.0},{"length":100.0},{"length":100.0,"switch":true},{"radius":100,"angle":45.0},{"radius":100,"angle":45.0},{"radius":100,"angle":45.0},{"radius":100,"angle":45.0},{"radius":200,"angle":22.5,"switch":true},{"length":100.0},{"length":100.0},{"radius":200,"angle":-22.5},{"length":100.0},{"length":100.0,"switch":true},{"radius":100,"angle":-45.0},{"radius":100,"angle":-45.0},{"radius":100,"angle":-45.0},{"radius":100,"angle":-45.0},{"length":100.0,"switch":true},{"radius":100,"angle":45.0},{"radius":100,"angle":45.0},{"radius":100,"angle":45.0},{"radius":100,"angle":45.0},{"radius":200,"angle":22.5},{"radius":200,"angle":-22.5},{"length":100.0,"switch":true},{"radius":100,"angle":45.0},{"radius":100,"angle":45.0},{"length":62.0},{"radius":100,"angle":-45.0,"switch":true},{"radius":100,"angle":-45.0},{"radius":100,"angle":45.0},{"radius":100,"angle":45.0},{"radius":100,"angle":45.0},{"radius":100,"angle":45.0},{"length":100.0,"switch":true},{"length":100.0},{"length":100.0},{"length":100.0},{"length":90.0}],"lanes":[{"distanceFromCenter":-10,"index":0},{"distanceFromCenter":10,"index":1}],"startingPoint":{"position":{"x":-300.0,"y":-44.0},"angle":90.0}},"cars":[{"id":{"name":"speedbooster1","color":"red"},"dimensions":{"length":40.0,"width":20.0,"guideFlagPosition":10.0}},{"id":{"name":"speedbooster","color":"blue"},"dimensions":{"length":40.0,"width":20.0,"guideFlagPosition":10.0}}],"raceSession":{"laps":3,"maxLapTimeMs":60000,"quickRace":true}}},"gameId":"5f2b27e0-de59-4a72-91b9-063c2a35da95"}
{"msgType":"carPositions","data":[{"id":{"name":"speedbooster1","color":"red"},"angle":0.0,"piecePosition":{"pieceIndex":0,"inPieceDistance":0.0,"lane":{"startLaneIndex":0,"endLaneIndex":0},"lap":0}},{"id":{"name":"speedbooster","color":"blue"},"angle":0.0,"piecePosition":{"pieceIndex":39,"inPieceDistance":65.0,"lane":{"startLaneIndex":1,"endLaneIndex":1},"lap":-1}}],"gameId":"5f2b27e0-de59-4a72-91b9-063c2a35da95"}


>>>>>>>>>>>>>>>>>>>>>>>>>>>>> 



THROTTLE = 1

{"msgType":"gameStart","data":null,"gameId":"5f2b27e0-de59-4a72-91b9-063c2a35da95","gameTick":0}
{"msgType":"carPositions","data":[{"id":{"name":"speedbooster1","color":"red"},"angle":0.0,"piecePosition":{"pieceIndex":0,"inPieceDistance":0.0,"lane":{"startLaneIndex":0,"endLaneIndex":0},"lap":0}},{"id":{"name":"speedbooster","color":"blue"},"angle":0.0,"piecePosition":{"pieceIndex":39,"inPieceDistance":65.0,"lane":{"startLaneIndex":1,"endLaneIndex":1},"lap":-1}}],"gameId":"5f2b27e0-de59-4a72-91b9-063c2a35da95","gameTick":1}


>>>>>>>>>>>>>>>>>>>>>>>>>>>>> 39



THROTTLE = 1

{"msgType":"carPositions","data":[{"id":{"name":"speedbooster1","color":"red"},"angle":0.0,"piecePosition":{"pieceIndex":0,"inPieceDistance":0.19826183460418856,"lane":{"startLaneIndex":0,"endLaneIndex":0},"lap":0}},{"id":{"name":"speedbooster","color":"blue"},"angle":0.0,"piecePosition":{"pieceIndex":39,"inPieceDistance":65.0,"lane":{"startLaneIndex":1,"endLaneIndex":1},"lap":-1}}],"gameId":"5f2b27e0-de59-4a72-91b9-063c2a35da95","gameTick":2}


>>>>>>>>>>>>>>>>>>>>>>>>>>>>> 39



THROTTLE = 0.904375

{"msgType":"carPositions","data":[{"id":{"name":"speedbooster1","color":"red"},"angle":0.0,"piecePosition":{"pieceIndex":0,"inPieceDistance":0.5910018373213491,"lane":{"startLaneIndex":0,"endLaneIndex":0},"lap":0}},{"id":{"name":"speedbooster","color":"blue"},"angle":0.0,"piecePosition":{"pieceIndex":39,"inPieceDistance":65.19826183460418,"lane":{"startLaneIndex":1,"endLaneIndex":1},"lap":-1}}],"gameId":"5f2b27e0-de59-4a72-91b9-063c2a35da95","gameTick":3}


>>>>>>>>>>>>>>>>>>>>>>>>>>>>> 39



THROTTLE = 0.904375

{"msgType":"carPositions","data":[{"id":{"name":"speedbooster1","color":"red"},"angle":0.0,"piecePosition":{"pieceIndex":0,"inPieceDistance":1.1745085498699055,"lane":{"startLaneIndex":0,"endLaneIndex":0},"lap":0}},{"id":{"name":"speedbooster","color":"blue"},"angle":0.0,"piecePosition":{"pieceIndex":39,"inPieceDistance":65.59100183732134,"lane":{"startLaneIndex":1,"endLaneIndex":1},"lap":-1}}],"gameId":"5f2b27e0-de59-4a72-91b9-063c2a35da95","gameTick":4}


>>>>>>>>>>>>>>>>>>>>>>>>>>>>> 39



THROTTLE = 0.904375

{"msgType":"carPositions","data":[{"id":{"name":"speedbooster1","color":"red"},"angle":0.0,"piecePosition":{"pieceIndex":0,"inPieceDistance":1.94514134414274,"lane":{"startLaneIndex":0,"endLaneIndex":0},"lap":0}},{"id":{"name":"speedbooster","color":"blue"},"angle":0.0,"piecePosition":{"pieceIndex":39,"inPieceDistance":66.15554976193587,"lane":{"startLaneIndex":1,"endLaneIndex":1},"lap":-1}}],"gameId":"5f2b27e0-de59-4a72-91b9-063c2a35da95","gameTick":5}


>>>>>>>>>>>>>>>>>>>>>>>>>>>>> 39



THROTTLE = 0.904375

{"msgType":"carPositions","data":[{"id":{"name":"speedbooster1","color":"red"},"angle":0.0,"piecePosition":{"pieceIndex":0,"inPieceDistance":2.899329070470698,"lane":{"startLaneIndex":0,"endLaneIndex":0},"lap":0}},{"id":{"name":"speedbooster","color":"blue"},"angle":0.0,"piecePosition":{"pieceIndex":39,"inPieceDistance":66.88862679344888,"lane":{"startLaneIndex":1,"endLaneIndex":1},"lap":-1}}],"gameId":"5f2b27e0-de59-4a72-91b9-063c2a35da95","gameTick":6}


>>>>>>>>>>>>>>>>>>>>>>>>>>>>> 39



THROTTLE = 0.904375

{"msgType":"carPositions","data":[{"id":{"name":"speedbooster1","color":"red"},"angle":0.0,"piecePosition":{"pieceIndex":0,"inPieceDistance":4.033568731682886,"lane":{"startLaneIndex":0,"endLaneIndex":0},"lap":0}},{"id":{"name":"speedbooster","color":"blue"},"angle":0.0,"piecePosition":{"pieceIndex":39,"inPieceDistance":67.78701669038938,"lane":{"startLaneIndex":1,"endLaneIndex":1},"lap":-1}}],"gameId":"5f2b27e0-de59-4a72-91b9-063c2a35da95","gameTick":7}


>>>>>>>>>>>>>>>>>>>>>>>>>>>>> 39



THROTTLE = 0.904375

{"msgType":"carPositions","data":[{"id":{"name":"speedbooster1","color":"red"},"angle":0.0,"piecePosition":{"pieceIndex":0,"inPieceDistance":5.3444241824714585,"lane":{"startLaneIndex":0,"endLaneIndex":0},"lap":0}},{"id":{"name":"speedbooster","color":"blue"},"angle":0.0,"piecePosition":{"pieceIndex":39,"inPieceDistance":68.84756459064923,"lane":{"startLaneIndex":1,"endLaneIndex":1},"lap":-1}}],"gameId":"5f2b27e0-de59-4a72-91b9-063c2a35da95","gameTick":8}


>>>>>>>>>>>>>>>>>>>>>>>>>>>>> 39



THROTTLE = 0.904375

{"msgType":"carPositions","data":[{"id":{"name":"speedbooster1","color":"red"},"angle":0.0,"piecePosition":{"pieceIndex":0,"inPieceDistance":6.828524853577969,"lane":{"startLaneIndex":0,"endLaneIndex":0},"lap":0}},{"id":{"name":"speedbooster","color":"blue"},"angle":0.0,"piecePosition":{"pieceIndex":39,"inPieceDistance":70.0671758401077,"lane":{"startLaneIndex":1,"endLaneIndex":1},"lap":-1}}],"gameId":"5f2b27e0-de59-4a72-91b9-063c2a35da95","gameTick":9}


>>>>>>>>>>>>>>>>>>>>>>>>>>>>> 39



THROTTLE = 0.904375

{"msgType":"carPositions","data":[{"id":{"name":"speedbooster1","color":"red"},"angle":0.0,"piecePosition":{"pieceIndex":0,"inPieceDistance":8.482564500327598,"lane":{"startLaneIndex":0,"endLaneIndex":0},"lap":0}},{"id":{"name":"speedbooster","color":"blue"},"angle":0.0,"piecePosition":{"pieceIndex":39,"inPieceDistance":71.44281484361079,"lane":{"startLaneIndex":1,"endLaneIndex":1},"lap":-1}}],"gameId":"5f2b27e0-de59-4a72-91b9-063c2a35da95","gameTick":10}


>>>>>>>>>>>>>>>>>>>>>>>>>>>>> 39



THROTTLE = 0.904375

{"msgType":"carPositions","data":[{"id":{"name":"speedbooster1","color":"red"},"angle":0.0,"piecePosition":{"pieceIndex":0,"inPieceDistance":10.303299975046581,"lane":{"startLaneIndex":0,"endLaneIndex":0},"lap":0}},{"id":{"name":"speedbooster","color":"blue"},"angle":0.0,"piecePosition":{"pieceIndex":39,"inPieceDistance":72.97150393787877,"lane":{"startLaneIndex":1,"endLaneIndex":1},"lap":-1}}],"gameId":"5f2b27e0-de59-4a72-91b9-063c2a35da95","gameTick":11}


>>>>>>>>>>>>>>>>>>>>>>>>>>>>> 39



THROTTLE = 0.904375

{"msgType":"carPositions","data":[{"id":{"name":"speedbooster1","color":"red"},"angle":0.0,"piecePosition":{"pieceIndex":0,"inPieceDistance":12.287550022907066,"lane":{"startLaneIndex":0,"endLaneIndex":0},"lap":0}},{"id":{"name":"speedbooster","color":"blue"},"angle":0.0,"piecePosition":{"pieceIndex":39,"inPieceDistance":74.65032228592318,"lane":{"startLaneIndex":1,"endLaneIndex":1},"lap":-1}}],"gameId":"5f2b27e0-de59-4a72-91b9-063c2a35da95","gameTick":12}


>>>>>>>>>>>>>>>>>>>>>>>>>>>>> 39



THROTTLE = 0.904375

{"msgType":"carPositions","data":[{"id":{"name":"speedbooster1","color":"red"},"angle":0.0,"piecePosition":{"pieceIndex":0,"inPieceDistance":14.432194100752293,"lane":{"startLaneIndex":0,"endLaneIndex":0},"lap":0}},{"id":{"name":"speedbooster","color":"blue"},"angle":0.0,"piecePosition":{"pieceIndex":39,"inPieceDistance":76.47640479256323,"lane":{"startLaneIndex":1,"endLaneIndex":1},"lap":-1}}],"gameId":"5f2b27e0-de59-4a72-91b9-063c2a35da95","gameTick":13}


>>>>>>>>>>>>>>>>>>>>>>>>>>>>> 39



THROTTLE = 0.904375

{"msgType":"carPositions","data":[{"id":{"name":"speedbooster1","color":"red"},"angle":0.0,"piecePosition":{"pieceIndex":0,"inPieceDistance":16.734171218463533,"lane":{"startLaneIndex":0,"endLaneIndex":0},"lap":0}},{"id":{"name":"speedbooster","color":"blue"},"angle":0.0,"piecePosition":{"pieceIndex":39,"inPieceDistance":78.44694104063845,"lane":{"startLaneIndex":1,"endLaneIndex":1},"lap":-1}}],"gameId":"5f2b27e0-de59-4a72-91b9-063c2a35da95","gameTick":14}


>>>>>>>>>>>>>>>>>>>>>>>>>>>>> 39



THROTTLE = 0.904375

{"msgType":"carPositions","data":[{"id":{"name":"speedbooster1","color":"red"},"angle":0.0,"piecePosition":{"pieceIndex":0,"inPieceDistance":19.190478802438605,"lane":{"startLaneIndex":0,"endLaneIndex":0},"lap":0}},{"id":{"name":"speedbooster","color":"blue"},"angle":0.0,"piecePosition":{"pieceIndex":39,"inPieceDistance":80.55917424752303,"lane":{"startLaneIndex":1,"endLaneIndex":1},"lap":-1}}],"gameId":"5f2b27e0-de59-4a72-91b9-063c2a35da95","gameTick":15}


>>>>>>>>>>>>>>>>>>>>>>>>>>>>> 39



THROTTLE = 0.904375

{"msgType":"carPositions","data":[{"id":{"name":"speedbooster1","color":"red"},"angle":0.0,"piecePosition":{"pieceIndex":0,"inPieceDistance":21.798171580759988,"lane":{"startLaneIndex":0,"endLaneIndex":0},"lap":0}},{"id":{"name":"speedbooster","color":"blue"},"angle":0.0,"piecePosition":{"pieceIndex":39,"inPieceDistance":82.81040024155415,"lane":{"startLaneIndex":1,"endLaneIndex":1},"lap":-1}}],"gameId":"5f2b27e0-de59-4a72-91b9-063c2a35da95","gameTick":16}


>>>>>>>>>>>>>>>>>>>>>>>>>>>>> 39



THROTTLE = 0.904375

{"msgType":"carPositions","data":[{"id":{"name":"speedbooster1","color":"red"},"angle":0.0,"piecePosition":{"pieceIndex":0,"inPieceDistance":24.554360489638587,"lane":{"startLaneIndex":0,"endLaneIndex":0},"lap":0}},{"id":{"name":"speedbooster","color":"blue"},"angle":0.0,"piecePosition":{"pieceIndex":39,"inPieceDistance":85.1979664579944,"lane":{"startLaneIndex":1,"endLaneIndex":1},"lap":-1}}],"gameId":"5f2b27e0-de59-4a72-91b9-063c2a35da95","gameTick":17}


>>>>>>>>>>>>>>>>>>>>>>>>>>>>> 39



THROTTLE = 0.904375

{"msgType":"carPositions","data":[{"id":{"name":"speedbooster1","color":"red"},"angle":0.0,"piecePosition":{"pieceIndex":0,"inPieceDistance":27.45621160072714,"lane":{"startLaneIndex":0,"endLaneIndex":0},"lap":0}},{"id":{"name":"speedbooster","color":"blue"},"angle":0.0,"piecePosition":{"pieceIndex":39,"inPieceDistance":87.71927095415538,"lane":{"startLaneIndex":1,"endLaneIndex":1},"lap":-1}}],"gameId":"5f2b27e0-de59-4a72-91b9-063c2a35da95","gameTick":18}


>>>>>>>>>>>>>>>>>>>>>>>>>>>>> 39



THROTTLE = 0.904375

{"msgType":"carPositions","data":[{"id":{"name":"speedbooster1","color":"red"},"angle":0.0,"piecePosition":{"pieceIndex":0,"inPieceDistance":30.500945068904983,"lane":{"startLaneIndex":0,"endLaneIndex":0},"lap":0}},{"id":{"name":"speedbooster","color":"blue"},"angle":0.0,"piecePosition":{"pieceIndex":0,"inPieceDistance":0.3717614433169416,"lane":{"startLaneIndex":1,"endLaneIndex":1},"lap":0}}],"gameId":"5f2b27e0-de59-4a72-91b9-063c2a35da95","gameTick":19}


>>>>>>>>>>>>>>>>>>>>>>>>>>>>> 0



THROTTLE = 0.904375

{"msgType":"carPositions","data":[{"id":{"name":"speedbooster1","color":"red"},"angle":0.0,"piecePosition":{"pieceIndex":0,"inPieceDistance":33.68583410014348,"lane":{"startLaneIndex":0,"endLaneIndex":0},"lap":0}},{"id":{"name":"speedbooster","color":"blue"},"angle":0.0,"piecePosition":{"pieceIndex":0,"inPieceDistance":3.1529343470832685,"lane":{"startLaneIndex":1,"endLaneIndex":1},"lap":0}}],"gameId":"5f2b27e0-de59-4a72-91b9-063c2a35da95","gameTick":20}


>>>>>>>>>>>>>>>>>>>>>>>>>>>>> 0



THROTTLE = 0.904375

{"msgType":"carPositions","data":[{"id":{"name":"speedbooster1","color":"red"},"angle":0.0,"piecePosition":{"pieceIndex":0,"inPieceDistance":37.00820393906892,"lane":{"startLaneIndex":0,"endLaneIndex":0},"lap":0}},{"id":{"name":"speedbooster","color":"blue"},"angle":0.0,"piecePosition":{"pieceIndex":0,"inPieceDistance":6.060333865823924,"lane":{"startLaneIndex":1,"endLaneIndex":1},"lap":0}}],"gameId":"5f2b27e0-de59-4a72-91b9-063c2a35da95","gameTick":21}


>>>>>>>>>>>>>>>>>>>>>>>>>>>>> 0



THROTTLE = 0.904375

{"msgType":"carPositions","data":[{"id":{"name":"speedbooster1","color":"red"},"angle":0.0,"piecePosition":{"pieceIndex":0,"inPieceDistance":40.465430875846934,"lane":{"startLaneIndex":0,"endLaneIndex":0},"lap":0}},{"id":{"name":"speedbooster","color":"blue"},"angle":0.0,"piecePosition":{"pieceIndex":0,"inPieceDistance":9.091551066854855,"lane":{"startLaneIndex":1,"endLaneIndex":1},"lap":0}}],"gameId":"5f2b27e0-de59-4a72-91b9-063c2a35da95","gameTick":22}


>>>>>>>>>>>>>>>>>>>>>>>>>>>>> 0



THROTTLE = 0.904375

{"msgType":"carPositions","data":[{"id":{"name":"speedbooster1","color":"red"},"angle":0.0,"piecePosition":{"pieceIndex":0,"inPieceDistance":44.05494127201974,"lane":{"startLaneIndex":0,"endLaneIndex":0},"lap":0}},{"id":{"name":"speedbooster","color":"blue"},"angle":0.0,"piecePosition":{"pieceIndex":0,"inPieceDistance":12.244222990020686,"lane":{"startLaneIndex":1,"endLaneIndex":1},"lap":0}}],"gameId":"5f2b27e0-de59-4a72-91b9-063c2a35da95","gameTick":23}


>>>>>>>>>>>>>>>>>>>>>>>>>>>>> 0



THROTTLE = 0.904375

{"msgType":"carPositions","data":[{"id":{"name":"speedbooster1","color":"red"},"angle":0.0,"piecePosition":{"pieceIndex":0,"inPieceDistance":47.67594708315879,"lane":{"startLaneIndex":0,"endLaneIndex":0},"lap":0}},{"id":{"name":"speedbooster","color":"blue"},"angle":0.0,"piecePosition":{"pieceIndex":0,"inPieceDistance":15.516031770346247,"lane":{"startLaneIndex":1,"endLaneIndex":1},"lap":0}}],"gameId":"5f2b27e0-de59-4a72-91b9-063c2a35da95","gameTick":24}


>>>>>>>>>>>>>>>>>>>>>>>>>>>>> 0



THROTTLE = 0.904375

{"msgType":"carPositions","data":[{"id":{"name":"speedbooster1","color":"red"},"angle":0.0,"piecePosition":{"pieceIndex":0,"inPieceDistance":51.32784724478552,"lane":{"startLaneIndex":0,"endLaneIndex":0},"lap":0}},{"id":{"name":"speedbooster","color":"blue"},"angle":0.0,"piecePosition":{"pieceIndex":0,"inPieceDistance":18.904703777431596,"lane":{"startLaneIndex":1,"endLaneIndex":1},"lap":0}}],"gameId":"5f2b27e0-de59-4a72-91b9-063c2a35da95","gameTick":25}


>>>>>>>>>>>>>>>>>>>>>>>>>>>>> 0



THROTTLE = 0.904375

{"msgType":"carPositions","data":[{"id":{"name":"speedbooster1","color":"red"},"angle":0.0,"piecePosition":{"pieceIndex":0,"inPieceDistance":55.01005216324998,"lane":{"startLaneIndex":0,"endLaneIndex":0},"lap":0}},{"id":{"name":"speedbooster","color":"blue"},"angle":0.0,"piecePosition":{"pieceIndex":0,"inPieceDistance":22.408008771270993,"lane":{"startLaneIndex":1,"endLaneIndex":1},"lap":0}}],"gameId":"5f2b27e0-de59-4a72-91b9-063c2a35da95","gameTick":26}


>>>>>>>>>>>>>>>>>>>>>>>>>>>>> 0



THROTTLE = 0.904375

{"msgType":"carPositions","data":[{"id":{"name":"speedbooster1","color":"red"},"angle":0.0,"piecePosition":{"pieceIndex":0,"inPieceDistance":58.7219834968194,"lane":{"startLaneIndex":0,"endLaneIndex":0},"lap":0}},{"id":{"name":"speedbooster","color":"blue"},"angle":0.0,"piecePosition":{"pieceIndex":0,"inPieceDistance":26.023759074182365,"lane":{"startLaneIndex":1,"endLaneIndex":1},"lap":0}}],"gameId":"5f2b27e0-de59-4a72-91b9-063c2a35da95","gameTick":27}


>>>>>>>>>>>>>>>>>>>>>>>>>>>>> 0



THROTTLE = 0.904375

{"msgType":"carPositions","data":[{"id":{"name":"speedbooster1","color":"red"},"angle":0.0,"piecePosition":{"pieceIndex":0,"inPieceDistance":62.4630739409444,"lane":{"startLaneIndex":0,"endLaneIndex":0},"lap":0}},{"id":{"name":"speedbooster","color":"blue"},"angle":0.0,"piecePosition":{"pieceIndex":0,"inPieceDistance":29.74980875853986,"lane":{"startLaneIndex":1,"endLaneIndex":1},"lap":0}}],"gameId":"5f2b27e0-de59-4a72-91b9-063c2a35da95","gameTick":28}


>>>>>>>>>>>>>>>>>>>>>>>>>>>>> 0



THROTTLE = 0.904375

{"msgType":"carPositions","data":[{"id":{"name":"speedbooster1","color":"red"},"angle":0.0,"piecePosition":{"pieceIndex":0,"inPieceDistance":66.23276701762333,"lane":{"startLaneIndex":0,"endLaneIndex":0},"lap":0}},{"id":{"name":"speedbooster","color":"blue"},"angle":0.0,"piecePosition":{"pieceIndex":0,"inPieceDistance":33.58405285000783,"lane":{"startLaneIndex":1,"endLaneIndex":1},"lap":0}}],"gameId":"5f2b27e0-de59-4a72-91b9-063c2a35da95","gameTick":29}


>>>>>>>>>>>>>>>>>>>>>>>>>>>>> 0



THROTTLE = 0.904375

{"msgType":"carPositions","data":[{"id":{"name":"speedbooster1","color":"red"},"angle":0.0,"piecePosition":{"pieceIndex":0,"inPieceDistance":70.03051686878639,"lane":{"startLaneIndex":0,"endLaneIndex":0},"lap":0}},{"id":{"name":"speedbooster","color":"blue"},"angle":0.0,"piecePosition":{"pieceIndex":0,"inPieceDistance":37.524426545980475,"lane":{"startLaneIndex":1,"endLaneIndex":1},"lap":0}}],"gameId":"5f2b27e0-de59-4a72-91b9-063c2a35da95","gameTick":30}


>>>>>>>>>>>>>>>>>>>>>>>>>>>>> 0



THROTTLE = 0.904375

{"msgType":"carPositions","data":[{"id":{"name":"speedbooster1","color":"red"},"angle":0.0,"piecePosition":{"pieceIndex":0,"inPieceDistance":73.8557880536228,"lane":{"startLaneIndex":0,"endLaneIndex":0},"lap":0}},{"id":{"name":"speedbooster","color":"blue"},"angle":0.0,"piecePosition":{"pieceIndex":0,"inPieceDistance":41.568904448936934,"lane":{"startLaneIndex":1,"endLaneIndex":1},"lap":0}}],"gameId":"5f2b27e0-de59-4a72-91b9-063c2a35da95","gameTick":31}


>>>>>>>>>>>>>>>>>>>>>>>>>>>>> 0



THROTTLE = 0.904375

{"msgType":"carPositions","data":[{"id":{"name":"speedbooster1","color":"red"},"angle":0.0,"piecePosition":{"pieceIndex":0,"inPieceDistance":77.70805534977586,"lane":{"startLaneIndex":0,"endLaneIndex":0},"lap":0}},{"id":{"name":"speedbooster","color":"blue"},"angle":0.0,"piecePosition":{"pieceIndex":0,"inPieceDistance":45.71549981442713,"lane":{"startLaneIndex":1,"endLaneIndex":1},"lap":0}}],"gameId":"5f2b27e0-de59-4a72-91b9-063c2a35da95","gameTick":32}


>>>>>>>>>>>>>>>>>>>>>>>>>>>>> 0



THROTTLE = 0.904375

{"msgType":"carPositions","data":[{"id":{"name":"speedbooster1","color":"red"},"angle":0.0,"piecePosition":{"pieceIndex":0,"inPieceDistance":81.58680355833204,"lane":{"startLaneIndex":0,"endLaneIndex":0},"lap":0}},{"id":{"name":"speedbooster","color":"blue"},"angle":0.0,"piecePosition":{"pieceIndex":0,"inPieceDistance":49.96226381340928,"lane":{"startLaneIndex":1,"endLaneIndex":1},"lap":0}}],"gameId":"5f2b27e0-de59-4a72-91b9-063c2a35da95","gameTick":33}


>>>>>>>>>>>>>>>>>>>>>>>>>>>>> 0



THROTTLE = 0.904375

{"msgType":"carPositions","data":[{"id":{"name":"speedbooster1","color":"red"},"angle":0.0,"piecePosition":{"pieceIndex":0,"inPieceDistance":85.49152731253169,"lane":{"startLaneIndex":0,"endLaneIndex":0},"lap":0}},{"id":{"name":"speedbooster","color":"blue"},"angle":0.0,"piecePosition":{"pieceIndex":0,"inPieceDistance":54.30728480866499,"lane":{"startLaneIndex":1,"endLaneIndex":1},"lap":0}}],"gameId":"5f2b27e0-de59-4a72-91b9-063c2a35da95","gameTick":34}


>>>>>>>>>>>>>>>>>>>>>>>>>>>>> 0



THROTTLE = 0.904375

{"msgType":"carPositions","data":[{"id":{"name":"speedbooster1","color":"red"},"angle":0.0,"piecePosition":{"pieceIndex":0,"inPieceDistance":89.42173089013033,"lane":{"startLaneIndex":0,"endLaneIndex":0},"lap":0}},{"id":{"name":"speedbooster","color":"blue"},"angle":0.0,"piecePosition":{"pieceIndex":0,"inPieceDistance":58.74868764502347,"lane":{"startLaneIndex":1,"endLaneIndex":1},"lap":0}}],"gameId":"5f2b27e0-de59-4a72-91b9-063c2a35da95","gameTick":35}


>>>>>>>>>>>>>>>>>>>>>>>>>>>>> 0



THROTTLE = 0.904375

{"msgType":"carPositions","data":[{"id":{"name":"speedbooster1","color":"red"},"angle":0.0,"piecePosition":{"pieceIndex":0,"inPieceDistance":93.37692802934095,"lane":{"startLaneIndex":0,"endLaneIndex":0},"lap":0}},{"id":{"name":"speedbooster","color":"blue"},"angle":0.0,"piecePosition":{"pieceIndex":0,"inPieceDistance":63.28463295313122,"lane":{"startLaneIndex":1,"endLaneIndex":1},"lap":0}}],"gameId":"5f2b27e0-de59-4a72-91b9-063c2a35da95","gameTick":36}


>>>>>>>>>>>>>>>>>>>>>>>>>>>>> 0



THROTTLE = 0.904375

{"msgType":"carPositions","data":[{"id":{"name":"speedbooster1","color":"red"},"angle":0.0,"piecePosition":{"pieceIndex":0,"inPieceDistance":97.35664174828874,"lane":{"startLaneIndex":0,"endLaneIndex":0},"lap":0}},{"id":{"name":"speedbooster","color":"blue"},"angle":0.0,"piecePosition":{"pieceIndex":0,"inPieceDistance":67.91331646650866,"lane":{"startLaneIndex":1,"endLaneIndex":1},"lap":0}}],"gameId":"5f2b27e0-de59-4a72-91b9-063c2a35da95","gameTick":37}


>>>>>>>>>>>>>>>>>>>>>>>>>>>>> 0



THROTTLE = 0.904375

{"msgType":"carPositions","data":[{"id":{"name":"speedbooster1","color":"red"},"angle":0.0,"piecePosition":{"pieceIndex":1,"inPieceDistance":1.3604041679115682,"lane":{"startLaneIndex":0,"endLaneIndex":0},"lap":0}},{"id":{"name":"speedbooster","color":"blue"},"angle":0.0,"piecePosition":{"pieceIndex":0,"inPieceDistance":72.63296835164026,"lane":{"startLaneIndex":1,"endLaneIndex":1},"lap":0}}],"gameId":"5f2b27e0-de59-4a72-91b9-063c2a35da95","gameTick":38}


>>>>>>>>>>>>>>>>>>>>>>>>>>>>> 0



THROTTLE = 0.904375

{"msgType":"carPositions","data":[{"id":{"name":"speedbooster1","color":"red"},"angle":0.0,"piecePosition":{"pieceIndex":1,"inPieceDistance":5.3877563382401705,"lane":{"startLaneIndex":0,"endLaneIndex":0},"lap":0}},{"id":{"name":"speedbooster","color":"blue"},"angle":0.0,"piecePosition":{"pieceIndex":0,"inPieceDistance":77.44185255084928,"lane":{"startLaneIndex":1,"endLaneIndex":1},"lap":0}}],"gameId":"5f2b27e0-de59-4a72-91b9-063c2a35da95","gameTick":39}


>>>>>>>>>>>>>>>>>>>>>>>>>>>>> 0



THROTTLE = 0.904375

{"msgType":"carPositions","data":[{"id":{"name":"speedbooster1","color":"red"},"angle":0.0,"piecePosition":{"pieceIndex":1,"inPieceDistance":9.438248067993602,"lane":{"startLaneIndex":0,"endLaneIndex":0},"lap":0}},{"id":{"name":"speedbooster","color":"blue"},"angle":0.0,"piecePosition":{"pieceIndex":0,"inPieceDistance":82.33826613771328,"lane":{"startLaneIndex":1,"endLaneIndex":1},"lap":0}}],"gameId":"5f2b27e0-de59-4a72-91b9-063c2a35da95","gameTick":40}


>>>>>>>>>>>>>>>>>>>>>>>>>>>>> 0



THROTTLE = 0.904375

{"msgType":"carPositions","data":[{"id":{"name":"speedbooster1","color":"red"},"angle":0.0,"piecePosition":{"pieceIndex":1,"inPieceDistance":13.511437757426794,"lane":{"startLaneIndex":0,"endLaneIndex":0},"lap":0}},{"id":{"name":"speedbooster","color":"blue"},"angle":0.0,"piecePosition":{"pieceIndex":0,"inPieceDistance":87.32053868478097,"lane":{"startLaneIndex":1,"endLaneIndex":1},"lap":0}}],"gameId":"5f2b27e0-de59-4a72-91b9-063c2a35da95","gameTick":41}


>>>>>>>>>>>>>>>>>>>>>>>>>>>>> 0



THROTTLE = 0.904375

{"msgType":"carPositions","data":[{"id":{"name":"speedbooster1","color":"red"},"angle":0.0,"piecePosition":{"pieceIndex":1,"inPieceDistance":17.606892234368058,"lane":{"startLaneIndex":0,"endLaneIndex":0},"lap":0}},{"id":{"name":"speedbooster","color":"blue"},"angle":0.0,"piecePosition":{"pieceIndex":0,"inPieceDistance":92.38703164335567,"lane":{"startLaneIndex":1,"endLaneIndex":1},"lap":0}}],"gameId":"5f2b27e0-de59-4a72-91b9-063c2a35da95","gameTick":42}


>>>>>>>>>>>>>>>>>>>>>>>>>>>>> 0



THROTTLE = 0.904375

{"msgType":"carPositions","data":[{"id":{"name":"speedbooster1","color":"red"},"angle":0.0,"piecePosition":{"pieceIndex":1,"inPieceDistance":21.72418659338566,"lane":{"startLaneIndex":0,"endLaneIndex":0},"lap":0}},{"id":{"name":"speedbooster","color":"blue"},"angle":0.0,"piecePosition":{"pieceIndex":0,"inPieceDistance":97.53613773511509,"lane":{"startLaneIndex":1,"endLaneIndex":1},"lap":0}}],"gameId":"5f2b27e0-de59-4a72-91b9-063c2a35da95","gameTick":43}


>>>>>>>>>>>>>>>>>>>>>>>>>>>>> 0



THROTTLE = 0.904375

{"msgType":"carPositions","data":[{"id":{"name":"speedbooster1","color":"red"},"angle":0.0,"piecePosition":{"pieceIndex":1,"inPieceDistance":25.862904038023796,"lane":{"startLaneIndex":0,"endLaneIndex":0},"lap":0}},{"id":{"name":"speedbooster","color":"blue"},"angle":0.0,"piecePosition":{"pieceIndex":1,"inPieceDistance":2.7662803553415927,"lane":{"startLaneIndex":1,"endLaneIndex":1},"lap":0}}],"gameId":"5f2b27e0-de59-4a72-91b9-063c2a35da95","gameTick":44}


>>>>>>>>>>>>>>>>>>>>>>>>>>>>> 1



THROTTLE = 0.904375

{"msgType":"carPositions","data":[{"id":{"name":"speedbooster1","color":"red"},"angle":0.0,"piecePosition":{"pieceIndex":1,"inPieceDistance":30.02263572604935,"lane":{"startLaneIndex":0,"endLaneIndex":0},"lap":0}},{"id":{"name":"speedbooster","color":"blue"},"angle":0.0,"piecePosition":{"pieceIndex":1,"inPieceDistance":8.075912987541285,"lane":{"startLaneIndex":1,"endLaneIndex":1},"lap":0}}],"gameId":"5f2b27e0-de59-4a72-91b9-063c2a35da95","gameTick":45}


>>>>>>>>>>>>>>>>>>>>>>>>>>>>> 1



THROTTLE = 0.904375

{"msgType":"carPositions","data":[{"id":{"name":"speedbooster1","color":"red"},"angle":0.0,"piecePosition":{"pieceIndex":1,"inPieceDistance":34.20298061765201,"lane":{"startLaneIndex":0,"endLaneIndex":0},"lap":0}},{"id":{"name":"speedbooster","color":"blue"},"angle":0.0,"piecePosition":{"pieceIndex":1,"inPieceDistance":13.463518629234638,"lane":{"startLaneIndex":1,"endLaneIndex":1},"lap":0}}],"gameId":"5f2b27e0-de59-4a72-91b9-063c2a35da95","gameTick":46}


>>>>>>>>>>>>>>>>>>>>>>>>>>>>> 1



THROTTLE = 0.904375

{"msgType":"carPositions","data":[{"id":{"name":"speedbooster1","color":"red"},"angle":0.0,"piecePosition":{"pieceIndex":1,"inPieceDistance":38.40354532654133,"lane":{"startLaneIndex":0,"endLaneIndex":0},"lap":0}},{"id":{"name":"speedbooster","color":"blue"},"angle":0.0,"piecePosition":{"pieceIndex":1,"inPieceDistance":18.92760922870545,"lane":{"startLaneIndex":1,"endLaneIndex":1},"lap":0}}],"gameId":"5f2b27e0-de59-4a72-91b9-063c2a35da95","gameTick":47}


>>>>>>>>>>>>>>>>>>>>>>>>>>>>> 1



THROTTLE = 0.904375

{"msgType":"carPositions","data":[{"id":{"name":"speedbooster1","color":"red"},"angle":0.0,"piecePosition":{"pieceIndex":1,"inPieceDistance":42.62394397388551,"lane":{"startLaneIndex":0,"endLaneIndex":0},"lap":0}},{"id":{"name":"speedbooster","color":"blue"},"angle":0.0,"piecePosition":{"pieceIndex":1,"inPieceDistance":24.46672513249897,"lane":{"startLaneIndex":1,"endLaneIndex":1},"lap":0}}],"gameId":"5f2b27e0-de59-4a72-91b9-063c2a35da95","gameTick":48}


>>>>>>>>>>>>>>>>>>>>>>>>>>>>> 1



THROTTLE = 0.904375

{"msgType":"carPositions","data":[{"id":{"name":"speedbooster1","color":"red"},"angle":0.0,"piecePosition":{"pieceIndex":1,"inPieceDistance":46.86379804503765,"lane":{"startLaneIndex":0,"endLaneIndex":0},"lap":0}},{"id":{"name":"speedbooster","color":"blue"},"angle":0.0,"piecePosition":{"pieceIndex":1,"inPieceDistance":30.079434543464092,"lane":{"startLaneIndex":1,"endLaneIndex":1},"lap":0}}],"gameId":"5f2b27e0-de59-4a72-91b9-063c2a35da95","gameTick":49}


>>>>>>>>>>>>>>>>>>>>>>>>>>>>> 1



THROTTLE = 0.904375

{"msgType":"carPositions","data":[{"id":{"name":"speedbooster1","color":"red"},"angle":0.0,"piecePosition":{"pieceIndex":1,"inPieceDistance":51.12273624899622,"lane":{"startLaneIndex":0,"endLaneIndex":0},"lap":0}},{"id":{"name":"speedbooster","color":"blue"},"angle":0.0,"piecePosition":{"pieceIndex":1,"inPieceDistance":35.76433298913837,"lane":{"startLaneIndex":1,"endLaneIndex":1},"lap":0}}],"gameId":"5f2b27e0-de59-4a72-91b9-063c2a35da95","gameTick":50}


>>>>>>>>>>>>>>>>>>>>>>>>>>>>> 1



THROTTLE = 0.904375

{"msgType":"carPositions","data":[{"id":{"name":"speedbooster1","color":"red"},"angle":0.0,"piecePosition":{"pieceIndex":1,"inPieceDistance":55.40039438054766,"lane":{"startLaneIndex":0,"endLaneIndex":0},"lap":0}},{"id":{"name":"speedbooster","color":"blue"},"angle":0.0,"piecePosition":{"pieceIndex":1,"inPieceDistance":41.52004280027846,"lane":{"startLaneIndex":1,"endLaneIndex":1},"lap":0}}],"gameId":"5f2b27e0-de59-4a72-91b9-063c2a35da95","gameTick":51}


>>>>>>>>>>>>>>>>>>>>>>>>>>>>> 1



THROTTLE = 0.904375

{"msgType":"carPositions","data":[{"id":{"name":"speedbooster1","color":"red"},"angle":0.0,"piecePosition":{"pieceIndex":1,"inPieceDistance":59.69641518503984,"lane":{"startLaneIndex":0,"endLaneIndex":0},"lap":0}},{"id":{"name":"speedbooster","color":"blue"},"angle":0.0,"piecePosition":{"pieceIndex":1,"inPieceDistance":47.34521259934242,"lane":{"startLaneIndex":1,"endLaneIndex":1},"lap":0}}],"gameId":"5f2b27e0-de59-4a72-91b9-063c2a35da95","gameTick":52}


>>>>>>>>>>>>>>>>>>>>>>>>>>>>> 1



THROTTLE = 0.904375

{"msgType":"carPositions","data":[{"id":{"name":"speedbooster1","color":"red"},"angle":0.0,"piecePosition":{"pieceIndex":1,"inPieceDistance":64.01044822573624,"lane":{"startLaneIndex":0,"endLaneIndex":0},"lap":0}},{"id":{"name":"speedbooster","color":"blue"},"angle":0.0,"piecePosition":{"pieceIndex":1,"inPieceDistance":53.238516798733855,"lane":{"startLaneIndex":1,"endLaneIndex":1},"lap":0}}],"gameId":"5f2b27e0-de59-4a72-91b9-063c2a35da95","gameTick":53}


>>>>>>>>>>>>>>>>>>>>>>>>>>>>> 1



THROTTLE = 0.904375

{"msgType":"carPositions","data":[{"id":{"name":"speedbooster1","color":"red"},"angle":0.0,"piecePosition":{"pieceIndex":1,"inPieceDistance":68.34214975370156,"lane":{"startLaneIndex":0,"endLaneIndex":0},"lap":0}},{"id":{"name":"speedbooster","color":"blue"},"angle":0.0,"piecePosition":{"pieceIndex":1,"inPieceDistance":59.198655108621736,"lane":{"startLaneIndex":1,"endLaneIndex":1},"lap":0}}],"gameId":"5f2b27e0-de59-4a72-91b9-063c2a35da95","gameTick":54}


>>>>>>>>>>>>>>>>>>>>>>>>>>>>> 1



THROTTLE = 0.904375

{"msgType":"carPositions","data":[{"id":{"name":"speedbooster1","color":"red"},"angle":0.0,"piecePosition":{"pieceIndex":1,"inPieceDistance":72.69118258017042,"lane":{"startLaneIndex":0,"endLaneIndex":0},"lap":0}},{"id":{"name":"speedbooster","color":"blue"},"angle":0.0,"piecePosition":{"pieceIndex":1,"inPieceDistance":65.22435205415302,"lane":{"startLaneIndex":1,"endLaneIndex":1},"lap":0}}],"gameId":"5f2b27e0-de59-4a72-91b9-063c2a35da95","gameTick":55}


>>>>>>>>>>>>>>>>>>>>>>>>>>>>> 1



THROTTLE = 0.904375

{"msgType":"carPositions","data":[{"id":{"name":"speedbooster1","color":"red"},"angle":0.0,"piecePosition":{"pieceIndex":1,"inPieceDistance":77.05721595135188,"lane":{"startLaneIndex":0,"endLaneIndex":0},"lap":0}},{"id":{"name":"speedbooster","color":"blue"},"angle":0.0,"piecePosition":{"pieceIndex":1,"inPieceDistance":71.31435650187889,"lane":{"startLaneIndex":1,"endLaneIndex":1},"lap":0}}],"gameId":"5f2b27e0-de59-4a72-91b9-063c2a35da95","gameTick":56}


>>>>>>>>>>>>>>>>>>>>>>>>>>>>> 1



THROTTLE = 0.904375

{"msgType":"carPositions","data":[{"id":{"name":"speedbooster1","color":"red"},"angle":0.0,"piecePosition":{"pieceIndex":1,"inPieceDistance":81.4399254256231,"lane":{"startLaneIndex":0,"endLaneIndex":0},"lap":0}},{"id":{"name":"speedbooster","color":"blue"},"angle":0.0,"piecePosition":{"pieceIndex":1,"inPieceDistance":77.46744119521884,"lane":{"startLaneIndex":1,"endLaneIndex":1},"lap":0}}],"gameId":"5f2b27e0-de59-4a72-91b9-063c2a35da95","gameTick":57}


>>>>>>>>>>>>>>>>>>>>>>>>>>>>> 1



THROTTLE = 0.904375

{"msgType":"carPositions","data":[{"id":{"name":"speedbooster1","color":"red"},"angle":0.0,"piecePosition":{"pieceIndex":1,"inPieceDistance":85.8389927530668,"lane":{"startLaneIndex":0,"endLaneIndex":0},"lap":0}},{"id":{"name":"speedbooster","color":"blue"},"angle":0.0,"piecePosition":{"pieceIndex":1,"inPieceDistance":83.68240229878988,"lane":{"startLaneIndex":1,"endLaneIndex":1},"lap":0}}],"gameId":"5f2b27e0-de59-4a72-91b9-063c2a35da95","gameTick":58}


>>>>>>>>>>>>>>>>>>>>>>>>>>>>> 1



THROTTLE = 0.904375

{"msgType":"carPositions","data":[{"id":{"name":"speedbooster1","color":"red"},"angle":0.0,"piecePosition":{"pieceIndex":1,"inPieceDistance":90.25410575730754,"lane":{"startLaneIndex":0,"endLaneIndex":0},"lap":0}},{"id":{"name":"speedbooster","color":"blue"},"angle":0.0,"piecePosition":{"pieceIndex":1,"inPieceDistance":89.95805895143205,"lane":{"startLaneIndex":1,"endLaneIndex":1},"lap":0}}],"gameId":"5f2b27e0-de59-4a72-91b9-063c2a35da95","gameTick":59}


>>>>>>>>>>>>>>>>>>>>>>>>>>>>> 1



THROTTLE = 0.904375

{"msgType":"carPositions","data":[{"id":{"name":"speedbooster1","color":"red"},"angle":0.0,"piecePosition":{"pieceIndex":1,"inPieceDistance":94.68495821960308,"lane":{"startLaneIndex":0,"endLaneIndex":0},"lap":0}},{"id":{"name":"speedbooster","color":"blue"},"angle":0.0,"piecePosition":{"pieceIndex":1,"inPieceDistance":96.29325282776395,"lane":{"startLaneIndex":1,"endLaneIndex":1},"lap":0}}],"gameId":"5f2b27e0-de59-4a72-91b9-063c2a35da95","gameTick":60}


>>>>>>>>>>>>>>>>>>>>>>>>>>>>> 1



THROTTLE = 0.704375

{"msgType":"carPositions","data":[{"id":{"name":"speedbooster1","color":"red"},"angle":0.0,"piecePosition":{"pieceIndex":1,"inPieceDistance":99.21055449898945,"lane":{"startLaneIndex":0,"endLaneIndex":0},"lap":0}},{"id":{"name":"speedbooster","color":"blue"},"angle":0.0,"piecePosition":{"pieceIndex":2,"inPieceDistance":2.647195341184812,"lane":{"startLaneIndex":1,"endLaneIndex":1},"lap":0}}],"gameId":"5f2b27e0-de59-4a72-91b9-063c2a35da95","gameTick":61}


>>>>>>>>>>>>>>>>>>>>>>>>>>>>> 2



THROTTLE = 0.504375

{"msgType":"carPositions","data":[{"id":{"name":"speedbooster1","color":"red"},"angle":0.0,"piecePosition":{"pieceIndex":2,"inPieceDistance":3.829086486474381,"lane":{"startLaneIndex":0,"endLaneIndex":0},"lap":0}},{"id":{"name":"speedbooster","color":"blue"},"angle":0.0,"piecePosition":{"pieceIndex":2,"inPieceDistance":8.979876322224198,"lane":{"startLaneIndex":1,"endLaneIndex":1},"lap":0}}],"gameId":"5f2b27e0-de59-4a72-91b9-063c2a35da95","gameTick":62}


>>>>>>>>>>>>>>>>>>>>>>>>>>>>> 2



THROTTLE = 0.304375

{"msgType":"carPositions","data":[{"id":{"name":"speedbooster1","color":"red"},"angle":0.0,"piecePosition":{"pieceIndex":2,"inPieceDistance":8.538780579360848,"lane":{"startLaneIndex":0,"endLaneIndex":0},"lap":0}},{"id":{"name":"speedbooster","color":"blue"},"angle":0.0,"piecePosition":{"pieceIndex":2,"inPieceDistance":15.252049163081704,"lane":{"startLaneIndex":1,"endLaneIndex":1},"lap":0}}],"gameId":"5f2b27e0-de59-4a72-91b9-063c2a35da95","gameTick":63}


>>>>>>>>>>>>>>>>>>>>>>>>>>>>> 2



THROTTLE = 0.104375

{"msgType":"carPositions","data":[{"id":{"name":"speedbooster1","color":"red"},"angle":0.0,"piecePosition":{"pieceIndex":2,"inPieceDistance":13.337897022722416,"lane":{"startLaneIndex":0,"endLaneIndex":0},"lap":0}},{"id":{"name":"speedbooster","color":"blue"},"angle":0.0,"piecePosition":{"pieceIndex":2,"inPieceDistance":21.425216245671074,"lane":{"startLaneIndex":1,"endLaneIndex":1},"lap":0}}],"gameId":"5f2b27e0-de59-4a72-91b9-063c2a35da95","gameTick":64}


>>>>>>>>>>>>>>>>>>>>>>>>>>>>> 2



THROTTLE = 0.05

{"msgType":"carPositions","data":[{"id":{"name":"speedbooster1","color":"red"},"angle":0.0,"piecePosition":{"pieceIndex":2,"inPieceDistance":18.22472926344595,"lane":{"startLaneIndex":0,"endLaneIndex":0},"lap":0}},{"id":{"name":"speedbooster","color":"blue"},"angle":0.0,"piecePosition":{"pieceIndex":2,"inPieceDistance":27.49048652742255,"lane":{"startLaneIndex":1,"endLaneIndex":1},"lap":0}}],"gameId":"5f2b27e0-de59-4a72-91b9-063c2a35da95","gameTick":65}


>>>>>>>>>>>>>>>>>>>>>>>>>>>>> 2



THROTTLE = 0.05

{"msgType":"carPositions","data":[{"id":{"name":"speedbooster1","color":"red"},"angle":0.0,"piecePosition":{"pieceIndex":2,"inPieceDistance":23.197603316601928,"lane":{"startLaneIndex":0,"endLaneIndex":0},"lap":0}},{"id":{"name":"speedbooster","color":"blue"},"angle":0.0,"piecePosition":{"pieceIndex":2,"inPieceDistance":33.449919131367324,"lane":{"startLaneIndex":1,"endLaneIndex":1},"lap":0}}],"gameId":"5f2b27e0-de59-4a72-91b9-063c2a35da95","gameTick":66}


>>>>>>>>>>>>>>>>>>>>>>>>>>>>> 2



THROTTLE = 0.05

{"msgType":"carPositions","data":[{"id":{"name":"speedbooster1","color":"red"},"angle":0.0,"piecePosition":{"pieceIndex":2,"inPieceDistance":28.25487714390701,"lane":{"startLaneIndex":0,"endLaneIndex":0},"lap":0}},{"id":{"name":"speedbooster","color":"blue"},"angle":0.0,"piecePosition":{"pieceIndex":2,"inPieceDistance":39.30553388384174,"lane":{"startLaneIndex":1,"endLaneIndex":1},"lap":0}}],"gameId":"5f2b27e0-de59-4a72-91b9-063c2a35da95","gameTick":67}


>>>>>>>>>>>>>>>>>>>>>>>>>>>>> 2



THROTTLE = 0.05

{"msgType":"carPositions","data":[{"id":{"name":"speedbooster1","color":"red"},"angle":0.0,"piecePosition":{"pieceIndex":2,"inPieceDistance":33.3949400440482,"lane":{"startLaneIndex":0,"endLaneIndex":0},"lap":0}},{"id":{"name":"speedbooster","color":"blue"},"angle":0.0,"piecePosition":{"pieceIndex":2,"inPieceDistance":45.05931206443288,"lane":{"startLaneIndex":1,"endLaneIndex":1},"lap":0}}],"gameId":"5f2b27e0-de59-4a72-91b9-063c2a35da95","gameTick":68}


>>>>>>>>>>>>>>>>>>>>>>>>>>>>> 2



THROTTLE = 0.05

{"msgType":"carPositions","data":[{"id":{"name":"speedbooster1","color":"red"},"angle":0.0,"piecePosition":{"pieceIndex":2,"inPieceDistance":38.61621205464214,"lane":{"startLaneIndex":0,"endLaneIndex":0},"lap":0}},{"id":{"name":"speedbooster","color":"blue"},"angle":0.0,"piecePosition":{"pieceIndex":2,"inPieceDistance":50.71319714161204,"lane":{"startLaneIndex":1,"endLaneIndex":1},"lap":0}}],"gameId":"5f2b27e0-de59-4a72-91b9-063c2a35da95","gameTick":69}


>>>>>>>>>>>>>>>>>>>>>>>>>>>>> 2



THROTTLE = 0.05

{"msgType":"carPositions","data":[{"id":{"name":"speedbooster1","color":"red"},"angle":0.0,"piecePosition":{"pieceIndex":2,"inPieceDistance":43.917143365607565,"lane":{"startLaneIndex":0,"endLaneIndex":0},"lap":0}},{"id":{"name":"speedbooster","color":"blue"},"angle":0.0,"piecePosition":{"pieceIndex":2,"inPieceDistance":56.26909549432926,"lane":{"startLaneIndex":1,"endLaneIndex":1},"lap":0}}],"gameId":"5f2b27e0-de59-4a72-91b9-063c2a35da95","gameTick":70}


>>>>>>>>>>>>>>>>>>>>>>>>>>>>> 2



THROTTLE = 0.05

{"msgType":"carPositions","data":[{"id":{"name":"speedbooster1","color":"red"},"angle":0.0,"piecePosition":{"pieceIndex":2,"inPieceDistance":49.29621374373301,"lane":{"startLaneIndex":0,"endLaneIndex":0},"lap":0}},{"id":{"name":"speedbooster","color":"blue"},"angle":0.0,"piecePosition":{"pieceIndex":2,"inPieceDistance":61.728877119836746,"lane":{"startLaneIndex":1,"endLaneIndex":1},"lap":0}}],"gameId":"5f2b27e0-de59-4a72-91b9-063c2a35da95","gameTick":71}


>>>>>>>>>>>>>>>>>>>>>>>>>>>>> 2



THROTTLE = 0.05

{"msgType":"carPositions","data":[{"id":{"name":"speedbooster1","color":"red"},"angle":0.0,"piecePosition":{"pieceIndex":2,"inPieceDistance":54.75193196822625,"lane":{"startLaneIndex":0,"endLaneIndex":0},"lap":0}},{"id":{"name":"speedbooster","color":"blue"},"angle":0.0,"piecePosition":{"pieceIndex":2,"inPieceDistance":67.09437632800416,"lane":{"startLaneIndex":1,"endLaneIndex":1},"lap":0}}],"gameId":"5f2b27e0-de59-4a72-91b9-063c2a35da95","gameTick":72}


>>>>>>>>>>>>>>>>>>>>>>>>>>>>> 2



THROTTLE = 0.05

{"msgType":"carPositions","data":[{"id":{"name":"speedbooster1","color":"red"},"angle":0.0,"piecePosition":{"pieceIndex":2,"inPieceDistance":60.28283527703575,"lane":{"startLaneIndex":0,"endLaneIndex":0},"lap":0}},{"id":{"name":"speedbooster","color":"blue"},"angle":0.0,"piecePosition":{"pieceIndex":2,"inPieceDistance":72.36739242238335,"lane":{"startLaneIndex":1,"endLaneIndex":1},"lap":0}}],"gameId":"5f2b27e0-de59-4a72-91b9-063c2a35da95","gameTick":73}


>>>>>>>>>>>>>>>>>>>>>>>>>>>>> 2



THROTTLE = 0.05

{"msgType":"carPositions","data":[{"id":{"name":"speedbooster1","color":"red"},"angle":0.0,"piecePosition":{"pieceIndex":2,"inPieceDistance":65.88748882373868,"lane":{"startLaneIndex":0,"endLaneIndex":0},"lap":0}},{"id":{"name":"speedbooster","color":"blue"},"angle":0.0,"piecePosition":{"pieceIndex":2,"inPieceDistance":77.54969036827559,"lane":{"startLaneIndex":1,"endLaneIndex":1},"lap":0}}],"gameId":"5f2b27e0-de59-4a72-91b9-063c2a35da95","gameTick":74}


>>>>>>>>>>>>>>>>>>>>>>>>>>>>> 2



THROTTLE = 0.05

{"msgType":"carPositions","data":[{"id":{"name":"speedbooster1","color":"red"},"angle":0.0,"piecePosition":{"pieceIndex":2,"inPieceDistance":71.56448514479372,"lane":{"startLaneIndex":0,"endLaneIndex":0},"lap":0}},{"id":{"name":"speedbooster","color":"blue"},"angle":0.0,"piecePosition":{"pieceIndex":2,"inPieceDistance":82.64300144804928,"lane":{"startLaneIndex":1,"endLaneIndex":1},"lap":0}}],"gameId":"5f2b27e0-de59-4a72-91b9-063c2a35da95","gameTick":75}


>>>>>>>>>>>>>>>>>>>>>>>>>>>>> 2



THROTTLE = 0.05

{"msgType":"carPositions","data":[{"id":{"name":"speedbooster1","color":"red"},"angle":0.0,"piecePosition":{"pieceIndex":2,"inPieceDistance":77.31244363696102,"lane":{"startLaneIndex":0,"endLaneIndex":0},"lap":0}},{"id":{"name":"speedbooster","color":"blue"},"angle":0.0,"piecePosition":{"pieceIndex":2,"inPieceDistance":87.6490239039514,"lane":{"startLaneIndex":1,"endLaneIndex":1},"lap":0}}],"gameId":"5f2b27e0-de59-4a72-91b9-063c2a35da95","gameTick":76}


>>>>>>>>>>>>>>>>>>>>>>>>>>>>> 2



THROTTLE = 0.05

{"msgType":"carPositions","data":[{"id":{"name":"speedbooster1","color":"red"},"angle":0.0,"piecePosition":{"pieceIndex":2,"inPieceDistance":83.13001004469504,"lane":{"startLaneIndex":0,"endLaneIndex":0},"lap":0}},{"id":{"name":"speedbooster","color":"blue"},"angle":0.0,"piecePosition":{"pieceIndex":2,"inPieceDistance":92.56942356865152,"lane":{"startLaneIndex":1,"endLaneIndex":1},"lap":0}}],"gameId":"5f2b27e0-de59-4a72-91b9-063c2a35da95","gameTick":77}


>>>>>>>>>>>>>>>>>>>>>>>>>>>>> 2



THROTTLE = 0.05

{"msgType":"carPositions","data":[{"id":{"name":"speedbooster1","color":"red"},"angle":0.0,"piecePosition":{"pieceIndex":2,"inPieceDistance":89.01585595732016,"lane":{"startLaneIndex":0,"endLaneIndex":0},"lap":0}},{"id":{"name":"speedbooster","color":"blue"},"angle":0.0,"piecePosition":{"pieceIndex":2,"inPieceDistance":97.40583448375223,"lane":{"startLaneIndex":1,"endLaneIndex":1},"lap":0}}],"gameId":"5f2b27e0-de59-4a72-91b9-063c2a35da95","gameTick":78}


>>>>>>>>>>>>>>>>>>>>>>>>>>>>> 2



THROTTLE = 0.05

{"msgType":"carPositions","data":[{"id":{"name":"speedbooster1","color":"red"},"angle":0.0,"piecePosition":{"pieceIndex":2,"inPieceDistance":94.96867831580231,"lane":{"startLaneIndex":0,"endLaneIndex":0},"lap":0}},{"id":{"name":"speedbooster","color":"blue"},"angle":0.0,"piecePosition":{"pieceIndex":3,"inPieceDistance":2.159859506496005,"lane":{"startLaneIndex":1,"endLaneIndex":1},"lap":0}}],"gameId":"5f2b27e0-de59-4a72-91b9-063c2a35da95","gameTick":79}


>>>>>>>>>>>>>>>>>>>>>>>>>>>>> 3



THROTTLE = 0.05

{"msgType":"carPositions","data":[{"id":{"name":"speedbooster1","color":"red"},"angle":0.0,"piecePosition":{"pieceIndex":3,"inPieceDistance":0.9871989289334095,"lane":{"startLaneIndex":0,"endLaneIndex":0},"lap":0}},{"id":{"name":"speedbooster","color":"blue"},"angle":0.0,"piecePosition":{"pieceIndex":3,"inPieceDistance":6.833070904893388,"lane":{"startLaneIndex":1,"endLaneIndex":1},"lap":0}}],"gameId":"5f2b27e0-de59-4a72-91b9-063c2a35da95","gameTick":80}


>>>>>>>>>>>>>>>>>>>>>>>>>>>>> 3



THROTTLE = 0.05

{"msgType":"carPositions","data":[{"id":{"name":"speedbooster1","color":"red"},"angle":0.0,"piecePosition":{"pieceIndex":3,"inPieceDistance":7.070163998749048,"lane":{"startLaneIndex":0,"endLaneIndex":0},"lap":0}},{"id":{"name":"speedbooster","color":"blue"},"angle":0.0,"piecePosition":{"pieceIndex":3,"inPieceDistance":11.427010941493716,"lane":{"startLaneIndex":1,"endLaneIndex":1},"lap":0}}],"gameId":"5f2b27e0-de59-4a72-91b9-063c2a35da95","gameTick":81}


>>>>>>>>>>>>>>>>>>>>>>>>>>>>> 3



THROTTLE = 0.05

{"msgType":"carPositions","data":[{"id":{"name":"speedbooster1","color":"red"},"angle":0.0,"piecePosition":{"pieceIndex":3,"inPieceDistance":13.2163436550032,"lane":{"startLaneIndex":0,"endLaneIndex":0},"lap":0}},{"id":{"name":"speedbooster","color":"blue"},"angle":0.0,"piecePosition":{"pieceIndex":3,"inPieceDistance":15.94319244601504,"lane":{"startLaneIndex":1,"endLaneIndex":1},"lap":0}}],"gameId":"5f2b27e0-de59-4a72-91b9-063c2a35da95","gameTick":82}


>>>>>>>>>>>>>>>>>>>>>>>>>>>>> 3



THROTTLE = 0.05

{"msgType":"carPositions","data":[{"id":{"name":"speedbooster1","color":"red"},"angle":0.0,"piecePosition":{"pieceIndex":3,"inPieceDistance":19.424531498527106,"lane":{"startLaneIndex":0,"endLaneIndex":0},"lap":0}},{"id":{"name":"speedbooster","color":"blue"},"angle":0.0,"piecePosition":{"pieceIndex":3,"inPieceDistance":20.383099377045866,"lane":{"startLaneIndex":1,"endLaneIndex":1},"lap":0}}],"gameId":"5f2b27e0-de59-4a72-91b9-063c2a35da95","gameTick":83}


>>>>>>>>>>>>>>>>>>>>>>>>>>>>> 3



THROTTLE = 0.05

{"msgType":"carPositions","data":[{"id":{"name":"speedbooster1","color":"red"},"angle":0.0,"piecePosition":{"pieceIndex":3,"inPieceDistance":25.693544153302774,"lane":{"startLaneIndex":0,"endLaneIndex":0},"lap":0}},{"id":{"name":"speedbooster","color":"blue"},"angle":0.0,"piecePosition":{"pieceIndex":3,"inPieceDistance":24.748187373027267,"lane":{"startLaneIndex":1,"endLaneIndex":1},"lap":0}}],"gameId":"5f2b27e0-de59-4a72-91b9-063c2a35da95","gameTick":84}


>>>>>>>>>>>>>>>>>>>>>>>>>>>>> 3



THROTTLE = 0.904375

{"msgType":"carPositions","data":[{"id":{"name":"speedbooster1","color":"red"},"angle":0.0,"piecePosition":{"pieceIndex":3,"inPieceDistance":31.98256846016396,"lane":{"startLaneIndex":0,"endLaneIndex":0},"lap":0}},{"id":{"name":"speedbooster","color":"blue"},"angle":0.0,"piecePosition":{"pieceIndex":3,"inPieceDistance":29.209274247659913,"lane":{"startLaneIndex":1,"endLaneIndex":1},"lap":0}}],"gameId":"5f2b27e0-de59-4a72-91b9-063c2a35da95","gameTick":85}


>>>>>>>>>>>>>>>>>>>>>>>>>>>>> 3



THROTTLE = 0.904375

{"msgType":"carPositions","data":[{"id":{"name":"speedbooster1","color":"red"},"angle":0.0,"piecePosition":{"pieceIndex":3,"inPieceDistance":38.25157014602226,"lane":{"startLaneIndex":0,"endLaneIndex":0},"lap":0}},{"id":{"name":"speedbooster","color":"blue"},"angle":0.0,"piecePosition":{"pieceIndex":3,"inPieceDistance":33.76452794011842,"lane":{"startLaneIndex":1,"endLaneIndex":1},"lap":0}}],"gameId":"5f2b27e0-de59-4a72-91b9-063c2a35da95","gameTick":86}


>>>>>>>>>>>>>>>>>>>>>>>>>>>>> 3



THROTTLE = 0.904375

{"msgType":"carPositions","data":[{"id":{"name":"speedbooster1","color":"red"},"angle":0.0,"piecePosition":{"pieceIndex":3,"inPieceDistance":44.4612789594573,"lane":{"startLaneIndex":0,"endLaneIndex":0},"lap":0}},{"id":{"name":"speedbooster","color":"blue"},"angle":0.0,"piecePosition":{"pieceIndex":3,"inPieceDistance":38.41215135297401,"lane":{"startLaneIndex":1,"endLaneIndex":1},"lap":0}}],"gameId":"5f2b27e0-de59-4a72-91b9-063c2a35da95","gameTick":87}


>>>>>>>>>>>>>>>>>>>>>>>>>>>>> 3



THROTTLE = 0.904375

{"msgType":"carPositions","data":[{"id":{"name":"speedbooster1","color":"red"},"angle":0.0,"piecePosition":{"pieceIndex":3,"inPieceDistance":50.57317408998222,"lane":{"startLaneIndex":0,"endLaneIndex":0},"lap":0}},{"id":{"name":"speedbooster","color":"blue"},"angle":0.0,"piecePosition":{"pieceIndex":3,"inPieceDistance":43.1503816849464,"lane":{"startLaneIndex":1,"endLaneIndex":1},"lap":0}}],"gameId":"5f2b27e0-de59-4a72-91b9-063c2a35da95","gameTick":88}


>>>>>>>>>>>>>>>>>>>>>>>>>>>>> 3



THROTTLE = 0.904375

{"msgType":"carPositions","data":[{"id":{"name":"speedbooster1","color":"red"},"angle":0.0,"piecePosition":{"pieceIndex":3,"inPieceDistance":56.5783417452348,"lane":{"startLaneIndex":0,"endLaneIndex":0},"lap":0}},{"id":{"name":"speedbooster","color":"blue"},"angle":0.0,"piecePosition":{"pieceIndex":3,"inPieceDistance":47.97748977638963,"lane":{"startLaneIndex":1,"endLaneIndex":1},"lap":0}}],"gameId":"5f2b27e0-de59-4a72-91b9-063c2a35da95","gameTick":89}


>>>>>>>>>>>>>>>>>>>>>>>>>>>>> 3



THROTTLE = 0.904375

{"msgType":"carPositions","data":[{"id":{"name":"speedbooster1","color":"red"},"angle":0.0,"piecePosition":{"pieceIndex":3,"inPieceDistance":62.47881873261516,"lane":{"startLaneIndex":0,"endLaneIndex":0},"lap":0}},{"id":{"name":"speedbooster","color":"blue"},"angle":0.0,"piecePosition":{"pieceIndex":3,"inPieceDistance":52.89177946726868,"lane":{"startLaneIndex":1,"endLaneIndex":1},"lap":0}}],"gameId":"5f2b27e0-de59-4a72-91b9-063c2a35da95","gameTick":90}


>>>>>>>>>>>>>>>>>>>>>>>>>>>>> 3



THROTTLE = 0.904375

{"msgType":"carPositions","data":[{"id":{"name":"speedbooster1","color":"red"},"angle":0.0,"piecePosition":{"pieceIndex":3,"inPieceDistance":68.27660298870428,"lane":{"startLaneIndex":0,"endLaneIndex":0},"lap":0}},{"id":{"name":"speedbooster","color":"blue"},"angle":0.0,"piecePosition":{"pieceIndex":3,"inPieceDistance":57.89158696738865,"lane":{"startLaneIndex":1,"endLaneIndex":1},"lap":0}}],"gameId":"5f2b27e0-de59-4a72-91b9-063c2a35da95","gameTick":91}


>>>>>>>>>>>>>>>>>>>>>>>>>>>>> 3



THROTTLE = 0.904375

{"msgType":"carPositions","data":[{"id":{"name":"speedbooster1","color":"red"},"angle":0.0,"piecePosition":{"pieceIndex":3,"inPieceDistance":73.97365432108217,"lane":{"startLaneIndex":0,"endLaneIndex":0},"lap":0}},{"id":{"name":"speedbooster","color":"blue"},"angle":0.0,"piecePosition":{"pieceIndex":3,"inPieceDistance":62.975280238642604,"lane":{"startLaneIndex":1,"endLaneIndex":1},"lap":0}}],"gameId":"5f2b27e0-de59-4a72-91b9-063c2a35da95","gameTick":92}


>>>>>>>>>>>>>>>>>>>>>>>>>>>>> 3



THROTTLE = 0.904375

{"msgType":"carPositions","data":[{"id":{"name":"speedbooster1","color":"red"},"angle":0.0,"piecePosition":{"pieceIndex":3,"inPieceDistance":79.57189513598885,"lane":{"startLaneIndex":0,"endLaneIndex":0},"lap":0}},{"id":{"name":"speedbooster","color":"blue"},"angle":0.0,"piecePosition":{"pieceIndex":3,"inPieceDistance":68.14125838904866,"lane":{"startLaneIndex":1,"endLaneIndex":1},"lap":0}}],"gameId":"5f2b27e0-de59-4a72-91b9-063c2a35da95","gameTick":93}


>>>>>>>>>>>>>>>>>>>>>>>>>>>>> 3



THROTTLE = 0.904375

{"msgType":"carPositions","data":[{"id":{"name":"speedbooster1","color":"red"},"angle":0.0,"piecePosition":{"pieceIndex":3,"inPieceDistance":85.07321115209875,"lane":{"startLaneIndex":0,"endLaneIndex":0},"lap":0}},{"id":{"name":"speedbooster","color":"blue"},"angle":0.0,"piecePosition":{"pieceIndex":3,"inPieceDistance":73.38795107835146,"lane":{"startLaneIndex":1,"endLaneIndex":1},"lap":0}}],"gameId":"5f2b27e0-de59-4a72-91b9-063c2a35da95","gameTick":94}


>>>>>>>>>>>>>>>>>>>>>>>>>>>>> 3



THROTTLE = 0.904375

{"msgType":"carPositions","data":[{"id":{"name":"speedbooster1","color":"red"},"angle":0.0,"piecePosition":{"pieceIndex":3,"inPieceDistance":90.47945210067309,"lane":{"startLaneIndex":0,"endLaneIndex":0},"lap":0}},{"id":{"name":"speedbooster","color":"blue"},"angle":0.0,"piecePosition":{"pieceIndex":3,"inPieceDistance":78.7138179349672,"lane":{"startLaneIndex":1,"endLaneIndex":1},"lap":0}}],"gameId":"5f2b27e0-de59-4a72-91b9-063c2a35da95","gameTick":95}


>>>>>>>>>>>>>>>>>>>>>>>>>>>>> 3



THROTTLE = 0.904375

{"msgType":"carPositions","data":[{"id":{"name":"speedbooster1","color":"red"},"angle":0.0,"piecePosition":{"pieceIndex":3,"inPieceDistance":95.79243241235054,"lane":{"startLaneIndex":0,"endLaneIndex":0},"lap":0}},{"id":{"name":"speedbooster","color":"blue"},"angle":0.0,"piecePosition":{"pieceIndex":3,"inPieceDistance":84.1173479840558,"lane":{"startLaneIndex":1,"endLaneIndex":1},"lap":0}}],"gameId":"5f2b27e0-de59-4a72-91b9-063c2a35da95","gameTick":96}


>>>>>>>>>>>>>>>>>>>>>>>>>>>>> 3



THROTTLE = 0.904375

{"msgType":"carPositions","data":[{"id":{"name":"speedbooster1","color":"red"},"angle":0.0,"piecePosition":{"pieceIndex":4,"inPieceDistance":1.013931890830989,"lane":{"startLaneIndex":0,"endLaneIndex":0},"lap":0}},{"id":{"name":"speedbooster","color":"blue"},"angle":0.0,"piecePosition":{"pieceIndex":3,"inPieceDistance":89.59705908650791,"lane":{"startLaneIndex":1,"endLaneIndex":1},"lap":0}}],"gameId":"5f2b27e0-de59-4a72-91b9-063c2a35da95","gameTick":97}


>>>>>>>>>>>>>>>>>>>>>>>>>>>>> 3



THROTTLE = 0.804375

{"msgType":"carPositions","data":[{"id":{"name":"speedbooster1","color":"red"},"angle":0.0,"piecePosition":{"pieceIndex":4,"inPieceDistance":6.176303044419659,"lane":{"startLaneIndex":0,"endLaneIndex":0},"lap":0}},{"id":{"name":"speedbooster","color":"blue"},"angle":0.0,"piecePosition":{"pieceIndex":3,"inPieceDistance":95.1316712051779,"lane":{"startLaneIndex":1,"endLaneIndex":1},"lap":0}}],"gameId":"5f2b27e0-de59-4a72-91b9-063c2a35da95","gameTick":98}


>>>>>>>>>>>>>>>>>>>>>>>>>>>>> 3



THROTTLE = 0.704375

{"msgType":"carPositions","data":[{"id":{"name":"speedbooster1","color":"red"},"angle":0.0,"piecePosition":{"pieceIndex":4,"inPieceDistance":11.280674289294181,"lane":{"startLaneIndex":0,"endLaneIndex":0},"lap":0}},{"id":{"name":"speedbooster","color":"blue"},"angle":0.0,"piecePosition":{"pieceIndex":4,"inPieceDistance":0.7003104151889801,"lane":{"startLaneIndex":1,"endLaneIndex":1},"lap":0}}],"gameId":"5f2b27e0-de59-4a72-91b9-063c2a35da95","gameTick":99}


>>>>>>>>>>>>>>>>>>>>>>>>>>>>> 4



THROTTLE = 0.204375

{"msgType":"carPositions","data":[{"id":{"name":"speedbooster1","color":"red"},"angle":0.0,"piecePosition":{"pieceIndex":4,"inPieceDistance":16.328152506723626,"lane":{"startLaneIndex":0,"endLaneIndex":0},"lap":0}},{"id":{"name":"speedbooster","color":"blue"},"angle":0.07122676177291175,"piecePosition":{"pieceIndex":4,"inPieceDistance":6.203196419767934,"lane":{"startLaneIndex":1,"endLaneIndex":1},"lap":0}}],"gameId":"5f2b27e0-de59-4a72-91b9-063c2a35da95","gameTick":100}


>>>>>>>>>>>>>>>>>>>>>>>>>>>>> 4



THROTTLE = 0.204375

{"msgType":"carPositions","data":[{"id":{"name":"speedbooster1","color":"red"},"angle":0.0,"piecePosition":{"pieceIndex":4,"inPieceDistance":21.31982345404479,"lane":{"startLaneIndex":0,"endLaneIndex":0},"lap":0}},{"id":{"name":"speedbooster","color":"blue"},"angle":0.18490249855063548,"piecePosition":{"pieceIndex":4,"inPieceDistance":11.641584065570349,"lane":{"startLaneIndex":1,"endLaneIndex":1},"lap":0}}],"gameId":"5f2b27e0-de59-4a72-91b9-063c2a35da95","gameTick":101}


>>>>>>>>>>>>>>>>>>>>>>>>>>>>> 4



THROTTLE = 0.204375

{"msgType":"carPositions","data":[{"id":{"name":"speedbooster1","color":"red"},"angle":0.0,"piecePosition":{"pieceIndex":4,"inPieceDistance":26.296404534716164,"lane":{"startLaneIndex":0,"endLaneIndex":0},"lap":0}},{"id":{"name":"speedbooster","color":"blue"},"angle":0.31572592510177505,"piecePosition":{"pieceIndex":4,"inPieceDistance":17.016704251520004,"lane":{"startLaneIndex":1,"endLaneIndex":1},"lap":0}}],"gameId":"5f2b27e0-de59-4a72-91b9-063c2a35da95","gameTick":102}


>>>>>>>>>>>>>>>>>>>>>>>>>>>>> 4



THROTTLE = 0.204375

{"msgType":"carPositions","data":[{"id":{"name":"speedbooster1","color":"red"},"angle":0.0,"piecePosition":{"pieceIndex":4,"inPieceDistance":31.25818372661767,"lane":{"startLaneIndex":0,"endLaneIndex":0},"lap":0}},{"id":{"name":"speedbooster","color":"blue"},"angle":0.4416697934965301,"piecePosition":{"pieceIndex":4,"inPieceDistance":22.329764385831936,"lane":{"startLaneIndex":1,"endLaneIndex":1},"lap":0}}],"gameId":"5f2b27e0-de59-4a72-91b9-063c2a35da95","gameTick":103}


>>>>>>>>>>>>>>>>>>>>>>>>>>>>> 4



THROTTLE = 0.204375

