{"msgType":"joinRace","data":{"botId":{"name":"speedbooster","key":"w5TYojUOXuT/gw"},"trackName":"keimola","carCount":1}}
{"msgType":"yourCar","data":{"name":"speedbooster","color":"red"},"gameId":"3a5adbac-9ab4-439f-badb-050ca7e2e37b"}
{"msgType":"gameInit","data":{"race":{"track":{"id":"keimola","name":"Keimola","pieces":[{"length":100.0},{"length":100.0},{"length":100.0},{"length":100.0,"switch":true},{"radius":100,"angle":45.0},{"radius":100,"angle":45.0},{"radius":100,"angle":45.0},{"radius":100,"angle":45.0},{"radius":200,"angle":22.5,"switch":true},{"length":100.0},{"length":100.0},{"radius":200,"angle":-22.5},{"length":100.0},{"length":100.0,"switch":true},{"radius":100,"angle":-45.0},{"radius":100,"angle":-45.0},{"radius":100,"angle":-45.0},{"radius":100,"angle":-45.0},{"length":100.0,"switch":true},{"radius":100,"angle":45.0},{"radius":100,"angle":45.0},{"radius":100,"angle":45.0},{"radius":100,"angle":45.0},{"radius":200,"angle":22.5},{"radius":200,"angle":-22.5},{"length":100.0,"switch":true},{"radius":100,"angle":45.0},{"radius":100,"angle":45.0},{"length":62.0},{"radius":100,"angle":-45.0,"switch":true},{"radius":100,"angle":-45.0},{"radius":100,"angle":45.0},{"radius":100,"angle":45.0},{"radius":100,"angle":45.0},{"radius":100,"angle":45.0},{"length":100.0,"switch":true},{"length":100.0},{"length":100.0},{"length":100.0},{"length":90.0}],"lanes":[{"distanceFromCenter":-10,"index":0},{"distanceFromCenter":10,"index":1}],"startingPoint":{"position":{"x":-300.0,"y":-44.0},"angle":90.0}},"cars":[{"id":{"name":"speedbooster","color":"red"},"dimensions":{"length":40.0,"width":20.0,"guideFlagPosition":10.0}}],"raceSession":{"laps":3,"maxLapTimeMs":60000,"quickRace":true}}},"gameId":"3a5adbac-9ab4-439f-badb-050ca7e2e37b"}
{"msgType":"carPositions","data":[{"id":{"name":"speedbooster","color":"red"},"angle":0.0,"piecePosition":{"pieceIndex":0,"inPieceDistance":0.0,"lane":{"startLaneIndex":0,"endLaneIndex":0},"lap":0}}],"gameId":"3a5adbac-9ab4-439f-badb-050ca7e2e37b"}


>>>>>>>>>>>>>>>>>>>>>>>>>>>>> 0



THROTTLE = 0.2

{"msgType":"gameStart","data":null,"gameId":"3a5adbac-9ab4-439f-badb-050ca7e2e37b","gameTick":0}
{"msgType":"carPositions","data":[{"id":{"name":"speedbooster","color":"red"},"angle":0.0,"piecePosition":{"pieceIndex":0,"inPieceDistance":0.0,"lane":{"startLaneIndex":0,"endLaneIndex":0},"lap":0}}],"gameId":"3a5adbac-9ab4-439f-badb-050ca7e2e37b","gameTick":1}


>>>>>>>>>>>>>>>>>>>>>>>>>>>>> 0



THROTTLE = 0.2

{"msgType":"carPositions","data":[{"id":{"name":"speedbooster","color":"red"},"angle":0.0,"piecePosition":{"pieceIndex":0,"inPieceDistance":0.0,"lane":{"startLaneIndex":0,"endLaneIndex":0},"lap":0}}],"gameId":"3a5adbac-9ab4-439f-badb-050ca7e2e37b","gameTick":2}


>>>>>>>>>>>>>>>>>>>>>>>>>>>>> 0



THROTTLE = 0.2

{"msgType":"carPositions","data":[{"id":{"name":"speedbooster","color":"red"},"angle":0.0,"piecePosition":{"pieceIndex":0,"inPieceDistance":0.21554798133085218,"lane":{"startLaneIndex":0,"endLaneIndex":0},"lap":0}}],"gameId":"3a5adbac-9ab4-439f-badb-050ca7e2e37b","gameTick":3}


>>>>>>>>>>>>>>>>>>>>>>>>>>>>> 0



THROTTLE = 0.2

{"msgType":"carPositions","data":[{"id":{"name":"speedbooster","color":"red"},"angle":0.0,"piecePosition":{"pieceIndex":0,"inPieceDistance":0.4695322179440439,"lane":{"startLaneIndex":0,"endLaneIndex":0},"lap":0}}],"gameId":"3a5adbac-9ab4-439f-badb-050ca7e2e37b","gameTick":4}


>>>>>>>>>>>>>>>>>>>>>>>>>>>>> 0



THROTTLE = 0.2

{"msgType":"carPositions","data":[{"id":{"name":"speedbooster","color":"red"},"angle":0.0,"piecePosition":{"pieceIndex":0,"inPieceDistance":0.761119365328683,"lane":{"startLaneIndex":0,"endLaneIndex":0},"lap":0}}],"gameId":"3a5adbac-9ab4-439f-badb-050ca7e2e37b","gameTick":5}


>>>>>>>>>>>>>>>>>>>>>>>>>>>>> 0



THROTTLE = 0.2

{"msgType":"carPositions","data":[{"id":{"name":"speedbooster","color":"red"},"angle":0.0,"piecePosition":{"pieceIndex":0,"inPieceDistance":1.0894941468909711,"lane":{"startLaneIndex":0,"endLaneIndex":0},"lap":0}}],"gameId":"3a5adbac-9ab4-439f-badb-050ca7e2e37b","gameTick":6}


>>>>>>>>>>>>>>>>>>>>>>>>>>>>> 0



THROTTLE = 0.2

{"msgType":"carPositions","data":[{"id":{"name":"speedbooster","color":"red"},"angle":0.0,"piecePosition":{"pieceIndex":0,"inPieceDistance":1.453858962219904,"lane":{"startLaneIndex":0,"endLaneIndex":0},"lap":0}}],"gameId":"3a5adbac-9ab4-439f-badb-050ca7e2e37b","gameTick":7}


>>>>>>>>>>>>>>>>>>>>>>>>>>>>> 0



THROTTLE = 0.2

{"msgType":"carPositions","data":[{"id":{"name":"speedbooster","color":"red"},"angle":0.0,"piecePosition":{"pieceIndex":0,"inPieceDistance":1.8534335038462464,"lane":{"startLaneIndex":0,"endLaneIndex":0},"lap":0}}],"gameId":"3a5adbac-9ab4-439f-badb-050ca7e2e37b","gameTick":8}


>>>>>>>>>>>>>>>>>>>>>>>>>>>>> 0



THROTTLE = 0.2

{"msgType":"carPositions","data":[{"id":{"name":"speedbooster","color":"red"},"angle":0.0,"piecePosition":{"pieceIndex":0,"inPieceDistance":2.287454382310634,"lane":{"startLaneIndex":0,"endLaneIndex":0},"lap":0}}],"gameId":"3a5adbac-9ab4-439f-badb-050ca7e2e37b","gameTick":9}


>>>>>>>>>>>>>>>>>>>>>>>>>>>>> 0



THROTTLE = 0.2

{"msgType":"carPositions","data":[{"id":{"name":"speedbooster","color":"red"},"angle":0.0,"piecePosition":{"pieceIndex":0,"inPieceDistance":2.755174759360655,"lane":{"startLaneIndex":0,"endLaneIndex":0},"lap":0}}],"gameId":"3a5adbac-9ab4-439f-badb-050ca7e2e37b","gameTick":10}


>>>>>>>>>>>>>>>>>>>>>>>>>>>>> 0



THROTTLE = 0.2

{"msgType":"carPositions","data":[{"id":{"name":"speedbooster","color":"red"},"angle":0.0,"piecePosition":{"pieceIndex":0,"inPieceDistance":3.25586398910066,"lane":{"startLaneIndex":0,"endLaneIndex":0},"lap":0}}],"gameId":"3a5adbac-9ab4-439f-badb-050ca7e2e37b","gameTick":11}


>>>>>>>>>>>>>>>>>>>>>>>>>>>>> 0



THROTTLE = 0.2

{"msgType":"carPositions","data":[{"id":{"name":"speedbooster","color":"red"},"angle":0.0,"piecePosition":{"pieceIndex":0,"inPieceDistance":3.7888072669218813,"lane":{"startLaneIndex":0,"endLaneIndex":0},"lap":0}}],"gameId":"3a5adbac-9ab4-439f-badb-050ca7e2e37b","gameTick":12}


>>>>>>>>>>>>>>>>>>>>>>>>>>>>> 0



THROTTLE = 0.2

{"msgType":"carPositions","data":[{"id":{"name":"speedbooster","color":"red"},"angle":0.0,"piecePosition":{"pieceIndex":0,"inPieceDistance":4.3533052860441686,"lane":{"startLaneIndex":0,"endLaneIndex":0},"lap":0}}],"gameId":"3a5adbac-9ab4-439f-badb-050ca7e2e37b","gameTick":13}


>>>>>>>>>>>>>>>>>>>>>>>>>>>>> 0



THROTTLE = 0.2

{"msgType":"carPositions","data":[{"id":{"name":"speedbooster","color":"red"},"angle":0.0,"piecePosition":{"pieceIndex":0,"inPieceDistance":4.948673901504317,"lane":{"startLaneIndex":0,"endLaneIndex":0},"lap":0}}],"gameId":"3a5adbac-9ab4-439f-badb-050ca7e2e37b","gameTick":14}


>>>>>>>>>>>>>>>>>>>>>>>>>>>>> 0



THROTTLE = 0.2

{"msgType":"carPositions","data":[{"id":{"name":"speedbooster","color":"red"},"angle":0.0,"piecePosition":{"pieceIndex":0,"inPieceDistance":5.574243801429534,"lane":{"startLaneIndex":0,"endLaneIndex":0},"lap":0}}],"gameId":"3a5adbac-9ab4-439f-badb-050ca7e2e37b","gameTick":15}


>>>>>>>>>>>>>>>>>>>>>>>>>>>>> 0



THROTTLE = 0.2

{"msgType":"carPositions","data":[{"id":{"name":"speedbooster","color":"red"},"angle":0.0,"piecePosition":{"pieceIndex":0,"inPieceDistance":6.229360185438098,"lane":{"startLaneIndex":0,"endLaneIndex":0},"lap":0}}],"gameId":"3a5adbac-9ab4-439f-badb-050ca7e2e37b","gameTick":16}


>>>>>>>>>>>>>>>>>>>>>>>>>>>>> 0



THROTTLE = 0.2

{"msgType":"carPositions","data":[{"id":{"name":"speedbooster","color":"red"},"angle":0.0,"piecePosition":{"pieceIndex":0,"inPieceDistance":6.913382450012675,"lane":{"startLaneIndex":0,"endLaneIndex":0},"lap":0}}],"gameId":"3a5adbac-9ab4-439f-badb-050ca7e2e37b","gameTick":17}


>>>>>>>>>>>>>>>>>>>>>>>>>>>>> 0



THROTTLE = 0.2

{"msgType":"carPositions","data":[{"id":{"name":"speedbooster","color":"red"},"angle":0.0,"piecePosition":{"pieceIndex":0,"inPieceDistance":7.625683880695124,"lane":{"startLaneIndex":0,"endLaneIndex":0},"lap":0}}],"gameId":"3a5adbac-9ab4-439f-badb-050ca7e2e37b","gameTick":18}


>>>>>>>>>>>>>>>>>>>>>>>>>>>>> 0



THROTTLE = 0.2

{"msgType":"carPositions","data":[{"id":{"name":"speedbooster","color":"red"},"angle":0.0,"piecePosition":{"pieceIndex":0,"inPieceDistance":8.365651350954897,"lane":{"startLaneIndex":0,"endLaneIndex":0},"lap":0}}],"gameId":"3a5adbac-9ab4-439f-badb-050ca7e2e37b","gameTick":19}


>>>>>>>>>>>>>>>>>>>>>>>>>>>>> 0



THROTTLE = 0.2

{"msgType":"carPositions","data":[{"id":{"name":"speedbooster","color":"red"},"angle":0.0,"piecePosition":{"pieceIndex":0,"inPieceDistance":9.132685027586323,"lane":{"startLaneIndex":0,"endLaneIndex":0},"lap":0}}],"gameId":"3a5adbac-9ab4-439f-badb-050ca7e2e37b","gameTick":20}


>>>>>>>>>>>>>>>>>>>>>>>>>>>>> 0



THROTTLE = 0.2

{"msgType":"carPositions","data":[{"id":{"name":"speedbooster","color":"red"},"angle":0.0,"piecePosition":{"pieceIndex":0,"inPieceDistance":9.926198082493254,"lane":{"startLaneIndex":0,"endLaneIndex":0},"lap":0}}],"gameId":"3a5adbac-9ab4-439f-badb-050ca7e2e37b","gameTick":21}


>>>>>>>>>>>>>>>>>>>>>>>>>>>>> 0



THROTTLE = 0.2

{"msgType":"carPositions","data":[{"id":{"name":"speedbooster","color":"red"},"angle":0.0,"piecePosition":{"pieceIndex":0,"inPieceDistance":10.74561641072255,"lane":{"startLaneIndex":0,"endLaneIndex":0},"lap":0}}],"gameId":"3a5adbac-9ab4-439f-badb-050ca7e2e37b","gameTick":22}


>>>>>>>>>>>>>>>>>>>>>>>>>>>>> 0



THROTTLE = 0.2

{"msgType":"carPositions","data":[{"id":{"name":"speedbooster","color":"red"},"angle":0.0,"piecePosition":{"pieceIndex":0,"inPieceDistance":11.59037835461095,"lane":{"startLaneIndex":0,"endLaneIndex":0},"lap":0}}],"gameId":"3a5adbac-9ab4-439f-badb-050ca7e2e37b","gameTick":23}


>>>>>>>>>>>>>>>>>>>>>>>>>>>>> 0



THROTTLE = 0.2

{"msgType":"carPositions","data":[{"id":{"name":"speedbooster","color":"red"},"angle":0.0,"piecePosition":{"pieceIndex":0,"inPieceDistance":12.459934433912771,"lane":{"startLaneIndex":0,"endLaneIndex":0},"lap":0}}],"gameId":"3a5adbac-9ab4-439f-badb-050ca7e2e37b","gameTick":24}


>>>>>>>>>>>>>>>>>>>>>>>>>>>>> 0



THROTTLE = 0.2

{"msgType":"carPositions","data":[{"id":{"name":"speedbooster","color":"red"},"angle":0.0,"piecePosition":{"pieceIndex":0,"inPieceDistance":13.353747081778764,"lane":{"startLaneIndex":0,"endLaneIndex":0},"lap":0}}],"gameId":"3a5adbac-9ab4-439f-badb-050ca7e2e37b","gameTick":25}


>>>>>>>>>>>>>>>>>>>>>>>>>>>>> 0



THROTTLE = 0.2

{"msgType":"carPositions","data":[{"id":{"name":"speedbooster","color":"red"},"angle":0.0,"piecePosition":{"pieceIndex":0,"inPieceDistance":14.271290386459263,"lane":{"startLaneIndex":0,"endLaneIndex":0},"lap":0}}],"gameId":"3a5adbac-9ab4-439f-badb-050ca7e2e37b","gameTick":26}


>>>>>>>>>>>>>>>>>>>>>>>>>>>>> 0



THROTTLE = 0.2

{"msgType":"carPositions","data":[{"id":{"name":"speedbooster","color":"red"},"angle":0.0,"piecePosition":{"pieceIndex":0,"inPieceDistance":15.212049838607538,"lane":{"startLaneIndex":0,"endLaneIndex":0},"lap":0}}],"gameId":"3a5adbac-9ab4-439f-badb-050ca7e2e37b","gameTick":27}


>>>>>>>>>>>>>>>>>>>>>>>>>>>>> 0



THROTTLE = 0.2

{"msgType":"carPositions","data":[{"id":{"name":"speedbooster","color":"red"},"angle":0.0,"piecePosition":{"pieceIndex":0,"inPieceDistance":16.175522084061893,"lane":{"startLaneIndex":0,"endLaneIndex":0},"lap":0}}],"gameId":"3a5adbac-9ab4-439f-badb-050ca7e2e37b","gameTick":28}


>>>>>>>>>>>>>>>>>>>>>>>>>>>>> 0



THROTTLE = 0.2

{"msgType":"carPositions","data":[{"id":{"name":"speedbooster","color":"red"},"angle":0.0,"piecePosition":{"pieceIndex":0,"inPieceDistance":17.161214681987765,"lane":{"startLaneIndex":0,"endLaneIndex":0},"lap":0}}],"gameId":"3a5adbac-9ab4-439f-badb-050ca7e2e37b","gameTick":29}


>>>>>>>>>>>>>>>>>>>>>>>>>>>>> 0



THROTTLE = 0.2

{"msgType":"carPositions","data":[{"id":{"name":"speedbooster","color":"red"},"angle":0.0,"piecePosition":{"pieceIndex":0,"inPieceDistance":18.168645868263592,"lane":{"startLaneIndex":0,"endLaneIndex":0},"lap":0}}],"gameId":"3a5adbac-9ab4-439f-badb-050ca7e2e37b","gameTick":30}


>>>>>>>>>>>>>>>>>>>>>>>>>>>>> 0



THROTTLE = 0.2

