{"msgType":"joinRace","data":{"botId":{"name":"speedbooster","key":"w5TYojUOXuT/gw"},"trackName":"france","carCount":3,"password":"foo"}}
{"msgType":"yourCar","data":{"name":"speedbooster","color":"red"},"gameId":"b8947e3c-c959-4415-b269-77d650c3176c"}
{"msgType":"gameInit","data":{"race":{"track":{"id":"france","name":"France","pieces":[{"length":102.0},{"length":94.0},{"radius":200,"angle":22.5,"switch":true},{"radius":200,"angle":22.5},{"radius":200,"angle":22.5},{"radius":200,"angle":22.5},{"radius":100,"angle":45.0},{"radius":100,"angle":45.0,"switch":true},{"length":53.0},{"radius":200,"angle":-22.5},{"radius":50,"angle":-45.0},{"radius":100,"angle":45.0},{"radius":100,"angle":45.0},{"radius":100,"angle":45.0},{"radius":50,"angle":-45.0},{"radius":50,"angle":-45.0},{"radius":50,"angle":-45.0},{"radius":200,"angle":-22.5,"switch":true},{"length":94.0},{"length":94.0},{"radius":50,"angle":45.0},{"radius":50,"angle":45.0},{"radius":50,"angle":45.0},{"radius":50,"angle":45.0},{"length":99.0,"switch":true},{"length":99.0},{"radius":100,"angle":-45.0},{"radius":100,"angle":-45.0},{"radius":100,"angle":-45.0},{"radius":100,"angle":45.0},{"radius":200,"angle":22.5,"switch":true},{"radius":200,"angle":22.5},{"length":53.0},{"radius":200,"angle":22.5},{"radius":200,"angle":22.5},{"radius":100,"angle":45.0},{"radius":200,"angle":22.5},{"radius":200,"angle":22.5},{"length":94.0,"switch":true},{"length":94.0},{"length":94.0},{"length":94.0},{"length":94.0},{"length":91.0}],"lanes":[{"distanceFromCenter":-10,"index":0},{"distanceFromCenter":10,"index":1}],"startingPoint":{"position":{"x":-303.0,"y":-168.0},"angle":-90.0}},"cars":[{"id":{"name":"speedbooster","color":"red"},"dimensions":{"length":40.0,"width":20.0,"guideFlagPosition":10.0}},{"id":{"name":"speedbooster10","color":"blue"},"dimensions":{"length":40.0,"width":20.0,"guideFlagPosition":10.0}},{"id":{"name":"speedb","color":"yellow"},"dimensions":{"length":40.0,"width":20.0,"guideFlagPosition":10.0}}],"raceSession":{"laps":3,"maxLapTimeMs":60000,"quickRace":true}}},"gameId":"b8947e3c-c959-4415-b269-77d650c3176c"}
{"msgType":"carPositions","data":[{"id":{"name":"speedbooster","color":"red"},"angle":0.0,"piecePosition":{"pieceIndex":0,"inPieceDistance":0.0,"lane":{"startLaneIndex":0,"endLaneIndex":0},"lap":0}},{"id":{"name":"speedbooster10","color":"blue"},"angle":0.0,"piecePosition":{"pieceIndex":43,"inPieceDistance":66.0,"lane":{"startLaneIndex":1,"endLaneIndex":1},"lap":-1}},{"id":{"name":"speedb","color":"yellow"},"angle":0.0,"piecePosition":{"pieceIndex":43,"inPieceDistance":41.0,"lane":{"startLaneIndex":0,"endLaneIndex":0},"lap":-1}}],"gameId":"b8947e3c-c959-4415-b269-77d650c3176c"}


>>>>>>>>>>>>>>>>>>>>>>>>>>>>> 



THROTTLE = 1

{"msgType":"gameStart","data":null,"gameId":"b8947e3c-c959-4415-b269-77d650c3176c","gameTick":0}
{"msgType":"carPositions","data":[{"id":{"name":"speedbooster","color":"red"},"angle":0.0,"piecePosition":{"pieceIndex":0,"inPieceDistance":0.0,"lane":{"startLaneIndex":0,"endLaneIndex":0},"lap":0}},{"id":{"name":"speedbooster10","color":"blue"},"angle":0.0,"piecePosition":{"pieceIndex":43,"inPieceDistance":66.0,"lane":{"startLaneIndex":1,"endLaneIndex":1},"lap":-1}},{"id":{"name":"speedb","color":"yellow"},"angle":0.0,"piecePosition":{"pieceIndex":43,"inPieceDistance":41.0,"lane":{"startLaneIndex":0,"endLaneIndex":0},"lap":-1}}],"gameId":"b8947e3c-c959-4415-b269-77d650c3176c","gameTick":1}


>>>>>>>>>>>>>>>>>>>>>>>>>>>>> 0



THROTTLE = 1

{"msgType":"carPositions","data":[{"id":{"name":"speedbooster","color":"red"},"angle":0.0,"piecePosition":{"pieceIndex":0,"inPieceDistance":0.20382915559802361,"lane":{"startLaneIndex":0,"endLaneIndex":0},"lap":0}},{"id":{"name":"speedbooster10","color":"blue"},"angle":0.0,"piecePosition":{"pieceIndex":43,"inPieceDistance":66.20382915559803,"lane":{"startLaneIndex":1,"endLaneIndex":1},"lap":-1}},{"id":{"name":"speedb","color":"yellow"},"angle":0.0,"piecePosition":{"pieceIndex":43,"inPieceDistance":41.0,"lane":{"startLaneIndex":0,"endLaneIndex":0},"lap":-1}}],"gameId":"b8947e3c-c959-4415-b269-77d650c3176c","gameTick":2}


>>>>>>>>>>>>>>>>>>>>>>>>>>>>> 0



THROTTLE = 1

{"msgType":"carPositions","data":[{"id":{"name":"speedbooster","color":"red"},"angle":0.0,"piecePosition":{"pieceIndex":0,"inPieceDistance":0.6073448690803771,"lane":{"startLaneIndex":0,"endLaneIndex":0},"lap":0}},{"id":{"name":"speedbooster10","color":"blue"},"angle":0.0,"piecePosition":{"pieceIndex":43,"inPieceDistance":66.60734486908038,"lane":{"startLaneIndex":1,"endLaneIndex":1},"lap":-1}},{"id":{"name":"speedb","color":"yellow"},"angle":0.0,"piecePosition":{"pieceIndex":43,"inPieceDistance":41.20382915559802,"lane":{"startLaneIndex":0,"endLaneIndex":0},"lap":-1}}],"gameId":"b8947e3c-c959-4415-b269-77d650c3176c","gameTick":3}


>>>>>>>>>>>>>>>>>>>>>>>>>>>>> 0



THROTTLE = 1

{"msgType":"carPositions","data":[{"id":{"name":"speedbooster","color":"red"},"angle":0.0,"piecePosition":{"pieceIndex":0,"inPieceDistance":1.2064887363599712,"lane":{"startLaneIndex":0,"endLaneIndex":0},"lap":0}},{"id":{"name":"speedbooster10","color":"blue"},"angle":0.0,"piecePosition":{"pieceIndex":43,"inPieceDistance":67.20648873635997,"lane":{"startLaneIndex":1,"endLaneIndex":1},"lap":-1}},{"id":{"name":"speedb","color":"yellow"},"angle":0.0,"piecePosition":{"pieceIndex":43,"inPieceDistance":41.60734486908038,"lane":{"startLaneIndex":0,"endLaneIndex":0},"lap":-1}}],"gameId":"b8947e3c-c959-4415-b269-77d650c3176c","gameTick":4}


>>>>>>>>>>>>>>>>>>>>>>>>>>>>> 0



THROTTLE = 1

{"msgType":"carPositions","data":[{"id":{"name":"speedbooster","color":"red"},"angle":0.0,"piecePosition":{"pieceIndex":0,"inPieceDistance":1.9972848358358117,"lane":{"startLaneIndex":0,"endLaneIndex":0},"lap":0}},{"id":{"name":"speedbooster10","color":"blue"},"angle":0.0,"piecePosition":{"pieceIndex":43,"inPieceDistance":67.99728483583581,"lane":{"startLaneIndex":1,"endLaneIndex":1},"lap":-1}},{"id":{"name":"speedb","color":"yellow"},"angle":0.0,"piecePosition":{"pieceIndex":43,"inPieceDistance":42.111198606117895,"lane":{"startLaneIndex":0,"endLaneIndex":0},"lap":-1}}],"gameId":"b8947e3c-c959-4415-b269-77d650c3176c","gameTick":5}


>>>>>>>>>>>>>>>>>>>>>>>>>>>>> 0



THROTTLE = 1

{"msgType":"carPositions","data":[{"id":{"name":"speedbooster","color":"red"},"angle":0.0,"piecePosition":{"pieceIndex":0,"inPieceDistance":2.9758380520294923,"lane":{"startLaneIndex":0,"endLaneIndex":0},"lap":0}},{"id":{"name":"speedbooster10","color":"blue"},"angle":0.0,"piecePosition":{"pieceIndex":43,"inPieceDistance":68.97583805202949,"lane":{"startLaneIndex":1,"endLaneIndex":1},"lap":-1}},{"id":{"name":"speedb","color":"yellow"},"angle":0.0,"piecePosition":{"pieceIndex":43,"inPieceDistance":42.71335110954074,"lane":{"startLaneIndex":0,"endLaneIndex":0},"lap":-1}}],"gameId":"b8947e3c-c959-4415-b269-77d650c3176c","gameTick":6}


>>>>>>>>>>>>>>>>>>>>>>>>>>>>> 0



THROTTLE = 1

{"msgType":"carPositions","data":[{"id":{"name":"speedbooster","color":"red"},"angle":0.0,"piecePosition":{"pieceIndex":0,"inPieceDistance":4.1383324332918825,"lane":{"startLaneIndex":0,"endLaneIndex":0},"lap":0}},{"id":{"name":"speedbooster10","color":"blue"},"angle":0.0,"piecePosition":{"pieceIndex":43,"inPieceDistance":70.13833243329188,"lane":{"startLaneIndex":1,"endLaneIndex":1},"lap":-1}},{"id":{"name":"speedb","color":"yellow"},"angle":0.0,"piecePosition":{"pieceIndex":43,"inPieceDistance":43.41180456778121,"lane":{"startLaneIndex":0,"endLaneIndex":0},"lap":-1}}],"gameId":"b8947e3c-c959-4415-b269-77d650c3176c","gameTick":7}


>>>>>>>>>>>>>>>>>>>>>>>>>>>>> 0



THROTTLE = 1

{"msgType":"carPositions","data":[{"id":{"name":"speedbooster","color":"red"},"angle":0.0,"piecePosition":{"pieceIndex":0,"inPieceDistance":5.481029582887579,"lane":{"startLaneIndex":0,"endLaneIndex":0},"lap":0}},{"id":{"name":"speedbooster10","color":"blue"},"angle":0.0,"piecePosition":{"pieceIndex":43,"inPieceDistance":71.48102958288757,"lane":{"startLaneIndex":1,"endLaneIndex":1},"lap":-1}},{"id":{"name":"speedb","color":"yellow"},"angle":0.0,"piecePosition":{"pieceIndex":43,"inPieceDistance":44.204601772538645,"lane":{"startLaneIndex":0,"endLaneIndex":0},"lap":-1}}],"gameId":"b8947e3c-c959-4415-b269-77d650c3176c","gameTick":8}


>>>>>>>>>>>>>>>>>>>>>>>>>>>>> 0



THROTTLE = 1

{"msgType":"carPositions","data":[{"id":{"name":"speedbooster","color":"red"},"angle":0.0,"piecePosition":{"pieceIndex":0,"inPieceDistance":7.000267082778746,"lane":{"startLaneIndex":0,"endLaneIndex":0},"lap":0}},{"id":{"name":"speedbooster10","color":"blue"},"angle":0.0,"piecePosition":{"pieceIndex":43,"inPieceDistance":73.00026708277873,"lane":{"startLaneIndex":1,"endLaneIndex":1},"lap":-1}},{"id":{"name":"speedb","color":"yellow"},"angle":0.0,"piecePosition":{"pieceIndex":43,"inPieceDistance":45.0898252935638,"lane":{"startLaneIndex":0,"endLaneIndex":0},"lap":-1}}],"gameId":"b8947e3c-c959-4415-b269-77d650c3176c","gameTick":9}


>>>>>>>>>>>>>>>>>>>>>>>>>>>>> 0



THROTTLE = 1

{"msgType":"carPositions","data":[{"id":{"name":"speedbooster","color":"red"},"angle":0.0,"piecePosition":{"pieceIndex":0,"inPieceDistance":8.692456949443777,"lane":{"startLaneIndex":0,"endLaneIndex":0},"lap":0}},{"id":{"name":"speedbooster10","color":"blue"},"angle":0.0,"piecePosition":{"pieceIndex":43,"inPieceDistance":74.69245694944377,"lane":{"startLaneIndex":1,"endLaneIndex":1},"lap":-1}},{"id":{"name":"speedb","color":"yellow"},"angle":0.0,"piecePosition":{"pieceIndex":43,"inPieceDistance":46.065596670214795,"lane":{"startLaneIndex":0,"endLaneIndex":0},"lap":-1}}],"gameId":"b8947e3c-c959-4415-b269-77d650c3176c","gameTick":10}


>>>>>>>>>>>>>>>>>>>>>>>>>>>>> 0



THROTTLE = 1

{"msgType":"carPositions","data":[{"id":{"name":"speedbooster","color":"red"},"angle":0.0,"piecePosition":{"pieceIndex":0,"inPieceDistance":10.554084121079697,"lane":{"startLaneIndex":0,"endLaneIndex":0},"lap":0}},{"id":{"name":"speedbooster10","color":"blue"},"angle":0.0,"piecePosition":{"pieceIndex":43,"inPieceDistance":76.55408412107968,"lane":{"startLaneIndex":1,"endLaneIndex":1},"lap":-1}},{"id":{"name":"speedb","color":"yellow"},"angle":0.0,"piecePosition":{"pieceIndex":43,"inPieceDistance":47.130075619443836,"lane":{"startLaneIndex":0,"endLaneIndex":0},"lap":-1}}],"gameId":"b8947e3c-c959-4415-b269-77d650c3176c","gameTick":11}


>>>>>>>>>>>>>>>>>>>>>>>>>>>>> 0



THROTTLE = 1

{"msgType":"carPositions","data":[{"id":{"name":"speedbooster","color":"red"},"angle":0.0,"piecePosition":{"pieceIndex":0,"inPieceDistance":12.58170497555047,"lane":{"startLaneIndex":0,"endLaneIndex":0},"lap":0}},{"id":{"name":"speedbooster10","color":"blue"},"angle":0.0,"piecePosition":{"pieceIndex":43,"inPieceDistance":78.58170497555045,"lane":{"startLaneIndex":1,"endLaneIndex":1},"lap":-1}},{"id":{"name":"speedb","color":"yellow"},"angle":0.0,"piecePosition":{"pieceIndex":43,"inPieceDistance":48.281459259880634,"lane":{"startLaneIndex":0,"endLaneIndex":0},"lap":-1}}],"gameId":"b8947e3c-c959-4415-b269-77d650c3176c","gameTick":12}


>>>>>>>>>>>>>>>>>>>>>>>>>>>>> 0



THROTTLE = 1

{"msgType":"carPositions","data":[{"id":{"name":"speedbooster","color":"red"},"angle":0.0,"piecePosition":{"pieceIndex":0,"inPieceDistance":14.77194587845634,"lane":{"startLaneIndex":0,"endLaneIndex":0},"lap":0}},{"id":{"name":"speedbooster10","color":"blue"},"angle":0.0,"piecePosition":{"pieceIndex":43,"inPieceDistance":80.77194587845632,"lane":{"startLaneIndex":1,"endLaneIndex":1},"lap":-1}},{"id":{"name":"speedb","color":"yellow"},"angle":0.0,"piecePosition":{"pieceIndex":43,"inPieceDistance":49.517981351685506,"lane":{"startLaneIndex":0,"endLaneIndex":0},"lap":-1}}],"gameId":"b8947e3c-c959-4415-b269-77d650c3176c","gameTick":13}


>>>>>>>>>>>>>>>>>>>>>>>>>>>>> 0



THROTTLE = 1

{"msgType":"carPositions","data":[{"id":{"name":"speedbooster","color":"red"},"angle":0.0,"piecePosition":{"pieceIndex":0,"inPieceDistance":17.12150176071201,"lane":{"startLaneIndex":0,"endLaneIndex":0},"lap":0}},{"id":{"name":"speedbooster10","color":"blue"},"angle":0.0,"piecePosition":{"pieceIndex":43,"inPieceDistance":83.121501760712,"lane":{"startLaneIndex":1,"endLaneIndex":1},"lap":-1}},{"id":{"name":"speedb","color":"yellow"},"angle":0.0,"piecePosition":{"pieceIndex":43,"inPieceDistance":50.83791155185158,"lane":{"startLaneIndex":0,"endLaneIndex":0},"lap":-1}}],"gameId":"b8947e3c-c959-4415-b269-77d650c3176c","gameTick":14}


>>>>>>>>>>>>>>>>>>>>>>>>>>>>> 0



THROTTLE = 1

{"msgType":"carPositions","data":[{"id":{"name":"speedbooster","color":"red"},"angle":0.0,"piecePosition":{"pieceIndex":0,"inPieceDistance":19.627134725033972,"lane":{"startLaneIndex":0,"endLaneIndex":0},"lap":0}},{"id":{"name":"speedbooster10","color":"blue"},"angle":0.0,"piecePosition":{"pieceIndex":43,"inPieceDistance":85.62713472503395,"lane":{"startLaneIndex":1,"endLaneIndex":1},"lap":-1}},{"id":{"name":"speedb","color":"yellow"},"angle":0.0,"piecePosition":{"pieceIndex":43,"inPieceDistance":52.239554684642165,"lane":{"startLaneIndex":0,"endLaneIndex":0},"lap":-1}}],"gameId":"b8947e3c-c959-4415-b269-77d650c3176c","gameTick":15}


>>>>>>>>>>>>>>>>>>>>>>>>>>>>> 0



THROTTLE = 1

{"msgType":"carPositions","data":[{"id":{"name":"speedbooster","color":"red"},"angle":0.0,"piecePosition":{"pieceIndex":0,"inPieceDistance":22.28567268074937,"lane":{"startLaneIndex":0,"endLaneIndex":0},"lap":0}},{"id":{"name":"speedbooster10","color":"blue"},"angle":0.0,"piecePosition":{"pieceIndex":43,"inPieceDistance":88.28567268074936,"lane":{"startLaneIndex":1,"endLaneIndex":1},"lap":-1}},{"id":{"name":"speedb","color":"yellow"},"angle":0.0,"piecePosition":{"pieceIndex":43,"inPieceDistance":53.721250026855635,"lane":{"startLaneIndex":0,"endLaneIndex":0},"lap":-1}}],"gameId":"b8947e3c-c959-4415-b269-77d650c3176c","gameTick":16}


>>>>>>>>>>>>>>>>>>>>>>>>>>>>> 0



THROTTLE = 1

{"msgType":"carPositions","data":[{"id":{"name":"speedbooster","color":"red"},"angle":0.0,"piecePosition":{"pieceIndex":0,"inPieceDistance":25.094008006350872,"lane":{"startLaneIndex":0,"endLaneIndex":0},"lap":0}},{"id":{"name":"speedbooster10","color":"blue"},"angle":0.0,"piecePosition":{"pieceIndex":0,"inPieceDistance":0.0940080063508617,"lane":{"startLaneIndex":1,"endLaneIndex":1},"lap":0}},{"id":{"name":"speedb","color":"yellow"},"angle":0.0,"piecePosition":{"pieceIndex":43,"inPieceDistance":55.28137060761651,"lane":{"startLaneIndex":0,"endLaneIndex":0},"lap":-1}}],"gameId":"b8947e3c-c959-4415-b269-77d650c3176c","gameTick":17}


>>>>>>>>>>>>>>>>>>>>>>>>>>>>> 0



THROTTLE = 1

{"msgType":"carPositions","data":[{"id":{"name":"speedbooster","color":"red"},"angle":0.0,"piecePosition":{"pieceIndex":0,"inPieceDistance":28.04909623923357,"lane":{"startLaneIndex":0,"endLaneIndex":0},"lap":0}},{"id":{"name":"speedbooster10","color":"blue"},"angle":0.0,"piecePosition":{"pieceIndex":0,"inPieceDistance":3.0490962392335597,"lane":{"startLaneIndex":1,"endLaneIndex":1},"lap":0}},{"id":{"name":"speedb","color":"yellow"},"angle":0.0,"piecePosition":{"pieceIndex":43,"inPieceDistance":56.918322522397496,"lane":{"startLaneIndex":0,"endLaneIndex":0},"lap":-1}}],"gameId":"b8947e3c-c959-4415-b269-77d650c3176c","gameTick":18}


>>>>>>>>>>>>>>>>>>>>>>>>>>>>> 0



THROTTLE = 1

{"msgType":"carPositions","data":[{"id":{"name":"speedbooster","color":"red"},"angle":0.0,"piecePosition":{"pieceIndex":0,"inPieceDistance":31.14795479206153,"lane":{"startLaneIndex":0,"endLaneIndex":0},"lap":0}},{"id":{"name":"speedbooster10","color":"blue"},"angle":0.0,"piecePosition":{"pieceIndex":0,"inPieceDistance":6.147954792061519,"lane":{"startLaneIndex":1,"endLaneIndex":1},"lap":0}},{"id":{"name":"speedb","color":"yellow"},"angle":0.0,"piecePosition":{"pieceIndex":43,"inPieceDistance":58.63054426098324,"lane":{"startLaneIndex":0,"endLaneIndex":0},"lap":-1}}],"gameId":"b8947e3c-c959-4415-b269-77d650c3176c","gameTick":19}


>>>>>>>>>>>>>>>>>>>>>>>>>>>>> 0



THROTTLE = 1

{"msgType":"carPositions","data":[{"id":{"name":"speedbooster","color":"red"},"angle":0.0,"piecePosition":{"pieceIndex":0,"inPieceDistance":34.387661695222725,"lane":{"startLaneIndex":0,"endLaneIndex":0},"lap":0}},{"id":{"name":"speedbooster10","color":"blue"},"angle":0.0,"piecePosition":{"pieceIndex":0,"inPieceDistance":9.387661695222715,"lane":{"startLaneIndex":1,"endLaneIndex":1},"lap":0}},{"id":{"name":"speedb","color":"yellow"},"angle":0.0,"piecePosition":{"pieceIndex":43,"inPieceDistance":60.4165060490925,"lane":{"startLaneIndex":0,"endLaneIndex":0},"lap":-1}}],"gameId":"b8947e3c-c959-4415-b269-77d650c3176c","gameTick":20}


>>>>>>>>>>>>>>>>>>>>>>>>>>>>> 0



THROTTLE = 1

{"msgType":"carPositions","data":[{"id":{"name":"speedbooster","color":"red"},"angle":0.0,"piecePosition":{"pieceIndex":0,"inPieceDistance":37.76535436484217,"lane":{"startLaneIndex":0,"endLaneIndex":0},"lap":0}},{"id":{"name":"speedbooster10","color":"blue"},"angle":0.0,"piecePosition":{"pieceIndex":0,"inPieceDistance":12.765354364842153,"lane":{"startLaneIndex":1,"endLaneIndex":1},"lap":0}},{"id":{"name":"speedb","color":"yellow"},"angle":0.0,"piecePosition":{"pieceIndex":43,"inPieceDistance":62.28490066116093,"lane":{"startLaneIndex":0,"endLaneIndex":0},"lap":-1}}],"gameId":"b8947e3c-c959-4415-b269-77d650c3176c","gameTick":21}


>>>>>>>>>>>>>>>>>>>>>>>>>>>>> 0



THROTTLE = 1

{"msgType":"carPositions","data":[{"id":{"name":"speedbooster","color":"red"},"angle":0.0,"piecePosition":{"pieceIndex":0,"inPieceDistance":41.278228395833764,"lane":{"startLaneIndex":0,"endLaneIndex":0},"lap":0}},{"id":{"name":"speedbooster10","color":"blue"},"angle":0.0,"piecePosition":{"pieceIndex":0,"inPieceDistance":16.27822839583375,"lane":{"startLaneIndex":1,"endLaneIndex":1},"lap":0}},{"id":{"name":"speedb","color":"yellow"},"angle":0.0,"piecePosition":{"pieceIndex":43,"inPieceDistance":64.24424420078732,"lane":{"startLaneIndex":0,"endLaneIndex":0},"lap":-1}}],"gameId":"b8947e3c-c959-4415-b269-77d650c3176c","gameTick":22}


>>>>>>>>>>>>>>>>>>>>>>>>>>>>> 0



THROTTLE = 1

{"msgType":"carPositions","data":[{"id":{"name":"speedbooster","color":"red"},"angle":0.0,"piecePosition":{"pieceIndex":0,"inPieceDistance":44.92353637948206,"lane":{"startLaneIndex":0,"endLaneIndex":0},"lap":0}},{"id":{"name":"speedbooster10","color":"blue"},"angle":0.0,"piecePosition":{"pieceIndex":0,"inPieceDistance":19.923536379482044,"lane":{"startLaneIndex":1,"endLaneIndex":1},"lap":0}},{"id":{"name":"speedb","color":"yellow"},"angle":0.0,"piecePosition":{"pieceIndex":43,"inPieceDistance":66.30287969136906,"lane":{"startLaneIndex":0,"endLaneIndex":0},"lap":-1}}],"gameId":"b8947e3c-c959-4415-b269-77d650c3176c","gameTick":23}


>>>>>>>>>>>>>>>>>>>>>>>>>>>>> 0



THROTTLE = 1

{"msgType":"carPositions","data":[{"id":{"name":"speedbooster","color":"red"},"angle":0.0,"piecePosition":{"pieceIndex":0,"inPieceDistance":48.69858674505527,"lane":{"startLaneIndex":0,"endLaneIndex":0},"lap":0}},{"id":{"name":"speedbooster10","color":"blue"},"angle":0.0,"piecePosition":{"pieceIndex":0,"inPieceDistance":23.69858674505526,"lane":{"startLaneIndex":1,"endLaneIndex":1},"lap":0}},{"id":{"name":"speedb","color":"yellow"},"angle":0.0,"piecePosition":{"pieceIndex":43,"inPieceDistance":68.46898059376205,"lane":{"startLaneIndex":0,"endLaneIndex":0},"lap":-1}}],"gameId":"b8947e3c-c959-4415-b269-77d650c3176c","gameTick":24}


>>>>>>>>>>>>>>>>>>>>>>>>>>>>> 0



THROTTLE = 1

{"msgType":"carPositions","data":[{"id":{"name":"speedbooster","color":"red"},"angle":0.0,"piecePosition":{"pieceIndex":0,"inPieceDistance":52.600742624961256,"lane":{"startLaneIndex":0,"endLaneIndex":0},"lap":0}},{"id":{"name":"speedbooster10","color":"blue"},"angle":0.0,"piecePosition":{"pieceIndex":0,"inPieceDistance":27.600742624961242,"lane":{"startLaneIndex":1,"endLaneIndex":1},"lap":0}},{"id":{"name":"speedb","color":"yellow"},"angle":0.0,"piecePosition":{"pieceIndex":43,"inPieceDistance":70.75055425244817,"lane":{"startLaneIndex":0,"endLaneIndex":0},"lap":-1}}],"gameId":"b8947e3c-c959-4415-b269-77d650c3176c","gameTick":25}


>>>>>>>>>>>>>>>>>>>>>>>>>>>>> 0



THROTTLE = 1

{"msgType":"carPositions","data":[{"id":{"name":"speedbooster","color":"red"},"angle":0.0,"piecePosition":{"pieceIndex":0,"inPieceDistance":56.62742074296788,"lane":{"startLaneIndex":0,"endLaneIndex":0},"lap":0}},{"id":{"name":"speedbooster10","color":"blue"},"angle":0.0,"piecePosition":{"pieceIndex":0,"inPieceDistance":31.627420742967864,"lane":{"startLaneIndex":1,"endLaneIndex":1},"lap":0}},{"id":{"name":"speedb","color":"yellow"},"angle":0.0,"piecePosition":{"pieceIndex":43,"inPieceDistance":73.15544527166317,"lane":{"startLaneIndex":0,"endLaneIndex":0},"lap":-1}}],"gameId":"b8947e3c-c959-4415-b269-77d650c3176c","gameTick":26}


>>>>>>>>>>>>>>>>>>>>>>>>>>>>> 0



THROTTLE = 1

{"msgType":"carPositions","data":[{"id":{"name":"speedbooster","color":"red"},"angle":0.0,"piecePosition":{"pieceIndex":0,"inPieceDistance":60.776090325019055,"lane":{"startLaneIndex":0,"endLaneIndex":0},"lap":0}},{"id":{"name":"speedbooster10","color":"blue"},"angle":0.0,"piecePosition":{"pieceIndex":0,"inPieceDistance":35.77609032501904,"lane":{"startLaneIndex":1,"endLaneIndex":1},"lap":0}},{"id":{"name":"speedb","color":"yellow"},"angle":0.0,"piecePosition":{"pieceIndex":43,"inPieceDistance":75.69133882290869,"lane":{"startLaneIndex":0,"endLaneIndex":0},"lap":-1}}],"gameId":"b8947e3c-c959-4415-b269-77d650c3176c","gameTick":27}


>>>>>>>>>>>>>>>>>>>>>>>>>>>>> 0



THROTTLE = 1

{"msgType":"carPositions","data":[{"id":{"name":"speedbooster","color":"red"},"angle":0.0,"piecePosition":{"pieceIndex":0,"inPieceDistance":65.04427203218725,"lane":{"startLaneIndex":0,"endLaneIndex":0},"lap":0}},{"id":{"name":"speedbooster10","color":"blue"},"angle":0.0,"piecePosition":{"pieceIndex":0,"inPieceDistance":40.04427203218724,"lane":{"startLaneIndex":1,"endLaneIndex":1},"lap":0}},{"id":{"name":"speedb","color":"yellow"},"angle":0.0,"piecePosition":{"pieceIndex":43,"inPieceDistance":78.36576388524276,"lane":{"startLaneIndex":0,"endLaneIndex":0},"lap":-1}}],"gameId":"b8947e3c-c959-4415-b269-77d650c3176c","gameTick":28}


>>>>>>>>>>>>>>>>>>>>>>>>>>>>> 0



THROTTLE = 1

{"msgType":"carPositions","data":[{"id":{"name":"speedbooster","color":"red"},"angle":0.0,"piecePosition":{"pieceIndex":0,"inPieceDistance":69.4295369153125,"lane":{"startLaneIndex":0,"endLaneIndex":0},"lap":0}},{"id":{"name":"speedbooster10","color":"blue"},"angle":0.0,"piecePosition":{"pieceIndex":0,"inPieceDistance":44.429536915312475,"lane":{"startLaneIndex":1,"endLaneIndex":1},"lap":0}},{"id":{"name":"speedb","color":"yellow"},"angle":0.0,"piecePosition":{"pieceIndex":43,"inPieceDistance":81.18609641971504,"lane":{"startLaneIndex":0,"endLaneIndex":0},"lap":-1}}],"gameId":"b8947e3c-c959-4415-b269-77d650c3176c","gameTick":29}


>>>>>>>>>>>>>>>>>>>>>>>>>>>>> 0



THROTTLE = 1

{"msgType":"carPositions","data":[{"id":{"name":"speedbooster","color":"red"},"angle":0.0,"piecePosition":{"pieceIndex":0,"inPieceDistance":73.92950539088717,"lane":{"startLaneIndex":0,"endLaneIndex":0},"lap":0}},{"id":{"name":"speedbooster10","color":"blue"},"angle":0.0,"piecePosition":{"pieceIndex":0,"inPieceDistance":48.929505390887144,"lane":{"startLaneIndex":1,"endLaneIndex":1},"lap":0}},{"id":{"name":"speedb","color":"yellow"},"angle":0.0,"piecePosition":{"pieceIndex":43,"inPieceDistance":84.15293803172841,"lane":{"startLaneIndex":0,"endLaneIndex":0},"lap":-1}}],"gameId":"b8947e3c-c959-4415-b269-77d650c3176c","gameTick":30}


>>>>>>>>>>>>>>>>>>>>>>>>>>>>> 0



THROTTLE = 1

{"msgType":"carPositions","data":[{"id":{"name":"speedbooster","color":"red"},"angle":0.0,"piecePosition":{"pieceIndex":0,"inPieceDistance":78.54184623775481,"lane":{"startLaneIndex":0,"endLaneIndex":0},"lap":0}},{"id":{"name":"speedbooster10","color":"blue"},"angle":0.0,"piecePosition":{"pieceIndex":0,"inPieceDistance":53.54184623775479,"lane":{"startLaneIndex":1,"endLaneIndex":1},"lap":0}},{"id":{"name":"speedb","color":"yellow"},"angle":0.0,"piecePosition":{"pieceIndex":43,"inPieceDistance":87.2633110895114,"lane":{"startLaneIndex":0,"endLaneIndex":0},"lap":-1}}],"gameId":"b8947e3c-c959-4415-b269-77d650c3176c","gameTick":31}


>>>>>>>>>>>>>>>>>>>>>>>>>>>>> 0



THROTTLE = 1

{"msgType":"carPositions","data":[{"id":{"name":"speedbooster","color":"red"},"angle":0.0,"piecePosition":{"pieceIndex":0,"inPieceDistance":83.26427561419987,"lane":{"startLaneIndex":0,"endLaneIndex":0},"lap":0}},{"id":{"name":"speedbooster10","color":"blue"},"angle":0.0,"piecePosition":{"pieceIndex":0,"inPieceDistance":58.26427561419985,"lane":{"startLaneIndex":1,"endLaneIndex":1},"lap":0}},{"id":{"name":"speedb","color":"yellow"},"angle":0.0,"piecePosition":{"pieceIndex":43,"inPieceDistance":90.5142984783002,"lane":{"startLaneIndex":0,"endLaneIndex":0},"lap":-1}}],"gameId":"b8947e3c-c959-4415-b269-77d650c3176c","gameTick":32}


>>>>>>>>>>>>>>>>>>>>>>>>>>>>> 0



THROTTLE = 1

{"msgType":"carPositions","data":[{"id":{"name":"speedbooster","color":"red"},"angle":0.0,"piecePosition":{"pieceIndex":0,"inPieceDistance":88.09455609501401,"lane":{"startLaneIndex":0,"endLaneIndex":0},"lap":0}},{"id":{"name":"speedbooster10","color":"blue"},"angle":0.0,"piecePosition":{"pieceIndex":0,"inPieceDistance":63.094556095013985,"lane":{"startLaneIndex":1,"endLaneIndex":1},"lap":0}},{"id":{"name":"speedb","color":"yellow"},"angle":0.0,"piecePosition":{"pieceIndex":0,"inPieceDistance":2.903042370398751,"lane":{"startLaneIndex":0,"endLaneIndex":0},"lap":0}}],"gameId":"b8947e3c-c959-4415-b269-77d650c3176c","gameTick":33}


>>>>>>>>>>>>>>>>>>>>>>>>>>>>> 0



THROTTLE = 1

{"msgType":"carPositions","data":[{"id":{"name":"speedbooster","color":"red"},"angle":0.0,"piecePosition":{"pieceIndex":0,"inPieceDistance":93.03049572813292,"lane":{"startLaneIndex":0,"endLaneIndex":0},"lap":0}},{"id":{"name":"speedbooster10","color":"blue"},"angle":0.0,"piecePosition":{"pieceIndex":0,"inPieceDistance":68.03049572813289,"lane":{"startLaneIndex":1,"endLaneIndex":1},"lap":0}},{"id":{"name":"speedb","color":"yellow"},"angle":0.0,"piecePosition":{"pieceIndex":0,"inPieceDistance":6.426743020235875,"lane":{"startLaneIndex":0,"endLaneIndex":0},"lap":0}}],"gameId":"b8947e3c-c959-4415-b269-77d650c3176c","gameTick":34}


>>>>>>>>>>>>>>>>>>>>>>>>>>>>> 0



THROTTLE = 1

{"msgType":"carPositions","data":[{"id":{"name":"speedbooster","color":"red"},"angle":0.0,"piecePosition":{"pieceIndex":0,"inPieceDistance":98.06994711044595,"lane":{"startLaneIndex":0,"endLaneIndex":0},"lap":0}},{"id":{"name":"speedbooster10","color":"blue"},"angle":0.0,"piecePosition":{"pieceIndex":0,"inPieceDistance":73.06994711044592,"lane":{"startLaneIndex":1,"endLaneIndex":1},"lap":0}},{"id":{"name":"speedb","color":"yellow"},"angle":0.0,"piecePosition":{"pieceIndex":0,"inPieceDistance":10.082657583911676,"lane":{"startLaneIndex":0,"endLaneIndex":0},"lap":0}}],"gameId":"b8947e3c-c959-4415-b269-77d650c3176c","gameTick":35}


>>>>>>>>>>>>>>>>>>>>>>>>>>>>> 0



THROTTLE = 1

{"msgType":"carPositions","data":[{"id":{"name":"speedbooster","color":"red"},"angle":0.0,"piecePosition":{"pieceIndex":1,"inPieceDistance":1.210806482388918,"lane":{"startLaneIndex":0,"endLaneIndex":0},"lap":0}},{"id":{"name":"speedbooster10","color":"blue"},"angle":0.0,"piecePosition":{"pieceIndex":0,"inPieceDistance":78.21080648238889,"lane":{"startLaneIndex":1,"endLaneIndex":1},"lap":0}},{"id":{"name":"speedb","color":"yellow"},"angle":0.0,"piecePosition":{"pieceIndex":0,"inPieceDistance":13.868098962735193,"lane":{"startLaneIndex":0,"endLaneIndex":0},"lap":0}}],"gameId":"b8947e3c-c959-4415-b269-77d650c3176c","gameTick":36}


>>>>>>>>>>>>>>>>>>>>>>>>>>>>> 1



THROTTLE = 1

{"msgType":"carPositions","data":[{"id":{"name":"speedbooster","color":"red"},"angle":0.0,"piecePosition":{"pieceIndex":1,"inPieceDistance":6.451012840938195,"lane":{"startLaneIndex":0,"endLaneIndex":0},"lap":0}},{"id":{"name":"speedbooster10","color":"blue"},"angle":0.0,"piecePosition":{"pieceIndex":0,"inPieceDistance":83.45101284093816,"lane":{"startLaneIndex":1,"endLaneIndex":1},"lap":0}},{"id":{"name":"speedb","color":"yellow"},"angle":0.0,"piecePosition":{"pieceIndex":0,"inPieceDistance":17.780434670265915,"lane":{"startLaneIndex":0,"endLaneIndex":0},"lap":0}}],"gameId":"b8947e3c-c959-4415-b269-77d650c3176c","gameTick":37}


>>>>>>>>>>>>>>>>>>>>>>>>>>>>> 1



THROTTLE = 1

{"msgType":"carPositions","data":[{"id":{"name":"speedbooster","color":"red"},"angle":0.0,"piecePosition":{"pieceIndex":1,"inPieceDistance":11.788547070632253,"lane":{"startLaneIndex":0,"endLaneIndex":0},"lap":0}},{"id":{"name":"speedbooster10","color":"blue"},"angle":0.0,"piecePosition":{"pieceIndex":0,"inPieceDistance":88.78854707063222,"lane":{"startLaneIndex":1,"endLaneIndex":1},"lap":0}},{"id":{"name":"speedb","color":"yellow"},"angle":0.0,"piecePosition":{"pieceIndex":0,"inPieceDistance":21.817085722381375,"lane":{"startLaneIndex":0,"endLaneIndex":0},"lap":0}}],"gameId":"b8947e3c-c959-4415-b269-77d650c3176c","gameTick":38}


>>>>>>>>>>>>>>>>>>>>>>>>>>>>> 1



THROTTLE = 0.9

{"msgType":"carPositions","data":[{"id":{"name":"speedbooster","color":"red"},"angle":0.0,"piecePosition":{"pieceIndex":1,"inPieceDistance":17.201048176694407,"lane":{"startLaneIndex":0,"endLaneIndex":0},"lap":0}},{"id":{"name":"speedbooster10","color":"blue"},"angle":0.0,"piecePosition":{"pieceIndex":0,"inPieceDistance":94.20104817669437,"lane":{"startLaneIndex":1,"endLaneIndex":1},"lap":0}},{"id":{"name":"speedb","color":"yellow"},"angle":0.0,"piecePosition":{"pieceIndex":0,"inPieceDistance":25.975525549902876,"lane":{"startLaneIndex":0,"endLaneIndex":0},"lap":0}}],"gameId":"b8947e3c-c959-4415-b269-77d650c3176c","gameTick":39}


>>>>>>>>>>>>>>>>>>>>>>>>>>>>> 1



THROTTLE = 0.8

{"msgType":"carPositions","data":[{"id":{"name":"speedbooster","color":"red"},"angle":0.0,"piecePosition":{"pieceIndex":1,"inPieceDistance":22.666609626348595,"lane":{"startLaneIndex":0,"endLaneIndex":0},"lap":0}},{"id":{"name":"speedbooster10","color":"blue"},"angle":0.0,"piecePosition":{"pieceIndex":0,"inPieceDistance":99.66660962634856,"lane":{"startLaneIndex":1,"endLaneIndex":1},"lap":0}},{"id":{"name":"speedb","color":"yellow"},"angle":0.0,"piecePosition":{"pieceIndex":0,"inPieceDistance":30.25327893332087,"lane":{"startLaneIndex":0,"endLaneIndex":0},"lap":0}}],"gameId":"b8947e3c-c959-4415-b269-77d650c3176c","gameTick":40}


>>>>>>>>>>>>>>>>>>>>>>>>>>>>> 1



THROTTLE = 0.7

{"msgType":"carPositions","data":[{"id":{"name":"speedbooster","color":"red"},"angle":0.0,"piecePosition":{"pieceIndex":1,"inPieceDistance":28.16377011239174,"lane":{"startLaneIndex":0,"endLaneIndex":0},"lap":0}},{"id":{"name":"speedbooster10","color":"blue"},"angle":0.0,"piecePosition":{"pieceIndex":1,"inPieceDistance":3.1637701123917026,"lane":{"startLaneIndex":1,"endLaneIndex":1},"lap":0}},{"id":{"name":"speedb","color":"yellow"},"angle":0.0,"piecePosition":{"pieceIndex":0,"inPieceDistance":34.64792095917085,"lane":{"startLaneIndex":0,"endLaneIndex":0},"lap":0}}],"gameId":"b8947e3c-c959-4415-b269-77d650c3176c","gameTick":41}


>>>>>>>>>>>>>>>>>>>>>>>>>>>>> 1



THROTTLE = 0.6

{"msgType":"carPositions","data":[{"id":{"name":"speedbooster","color":"red"},"angle":0.0,"piecePosition":{"pieceIndex":1,"inPieceDistance":33.6715045044861,"lane":{"startLaneIndex":0,"endLaneIndex":0},"lap":0}},{"id":{"name":"speedbooster10","color":"blue"},"angle":0.0,"piecePosition":{"pieceIndex":1,"inPieceDistance":8.691887420045866,"lane":{"startLaneIndex":1,"endLaneIndex":1},"lap":0}},{"id":{"name":"speedb","color":"yellow"},"angle":0.0,"piecePosition":{"pieceIndex":0,"inPieceDistance":39.1570759976197,"lane":{"startLaneIndex":0,"endLaneIndex":0},"lap":0}}],"gameId":"b8947e3c-c959-4415-b269-77d650c3176c","gameTick":42}


>>>>>>>>>>>>>>>>>>>>>>>>>>>>> 1



THROTTLE = 0.5

{"msgType":"carPositions","data":[{"id":{"name":"speedbooster","color":"red"},"angle":0.0,"piecePosition":{"pieceIndex":1,"inPieceDistance":39.169214984356394,"lane":{"startLaneIndex":0,"endLaneIndex":0},"lap":0}},{"id":{"name":"speedbooster10","color":"blue"},"angle":0.0,"piecePosition":{"pieceIndex":1,"inPieceDistance":14.209566555704592,"lane":{"startLaneIndex":1,"endLaneIndex":1},"lap":0}},{"id":{"name":"speedb","color":"yellow"},"angle":0.0,"piecePosition":{"pieceIndex":0,"inPieceDistance":43.7784167008315,"lane":{"startLaneIndex":0,"endLaneIndex":0},"lap":0}}],"gameId":"b8947e3c-c959-4415-b269-77d650c3176c","gameTick":43}


>>>>>>>>>>>>>>>>>>>>>>>>>>>>> 1



THROTTLE = 0.4

{"msgType":"carPositions","data":[{"id":{"name":"speedbooster","color":"red"},"angle":0.0,"piecePosition":{"pieceIndex":1,"inPieceDistance":44.636722361154035,"lane":{"startLaneIndex":0,"endLaneIndex":0},"lap":0}},{"id":{"name":"speedbooster10","color":"blue"},"angle":0.0,"piecePosition":{"pieceIndex":1,"inPieceDistance":19.696636747881954,"lane":{"startLaneIndex":1,"endLaneIndex":1},"lap":0}},{"id":{"name":"speedb","color":"yellow"},"angle":0.0,"piecePosition":{"pieceIndex":0,"inPieceDistance":48.50966302169036,"lane":{"startLaneIndex":0,"endLaneIndex":0},"lap":0}}],"gameId":"b8947e3c-c959-4415-b269-77d650c3176c","gameTick":44}


>>>>>>>>>>>>>>>>>>>>>>>>>>>>> 1



THROTTLE = 0.3

{"msgType":"carPositions","data":[{"id":{"name":"speedbooster","color":"red"},"angle":0.0,"piecePosition":{"pieceIndex":1,"inPieceDistance":50.05425756332681,"lane":{"startLaneIndex":0,"endLaneIndex":0},"lap":0}},{"id":{"name":"speedbooster10","color":"blue"},"angle":0.0,"piecePosition":{"pieceIndex":1,"inPieceDistance":25.13333717327435,"lane":{"startLaneIndex":1,"endLaneIndex":1},"lap":0}},{"id":{"name":"speedb","color":"yellow"},"angle":0.0,"piecePosition":{"pieceIndex":0,"inPieceDistance":53.34858125246662,"lane":{"startLaneIndex":0,"endLaneIndex":0},"lap":0}}],"gameId":"b8947e3c-c959-4415-b269-77d650c3176c","gameTick":45}


>>>>>>>>>>>>>>>>>>>>>>>>>>>>> 1



THROTTLE = 0.2

{"msgType":"carPositions","data":[{"id":{"name":"speedbooster","color":"red"},"angle":0.0,"piecePosition":{"pieceIndex":1,"inPieceDistance":55.40245330340669,"lane":{"startLaneIndex":0,"endLaneIndex":0},"lap":0}},{"id":{"name":"speedbooster10","color":"blue"},"angle":0.0,"piecePosition":{"pieceIndex":1,"inPieceDistance":30.50030862502601,"lane":{"startLaneIndex":1,"endLaneIndex":1},"lap":0}},{"id":{"name":"speedb","color":"yellow"},"angle":0.0,"piecePosition":{"pieceIndex":0,"inPieceDistance":58.29298308302113,"lane":{"startLaneIndex":0,"endLaneIndex":0},"lap":0}}],"gameId":"b8947e3c-c959-4415-b269-77d650c3176c","gameTick":46}


>>>>>>>>>>>>>>>>>>>>>>>>>>>>> 1



THROTTLE = 0.1

{"msgType":"carPositions","data":[{"id":{"name":"speedbooster","color":"red"},"angle":0.0,"piecePosition":{"pieceIndex":1,"inPieceDistance":60.662335912201456,"lane":{"startLaneIndex":0,"endLaneIndex":0},"lap":0}},{"id":{"name":"speedbooster10","color":"blue"},"angle":0.0,"piecePosition":{"pieceIndex":1,"inPieceDistance":35.778585350327646,"lane":{"startLaneIndex":1,"endLaneIndex":1},"lap":0}},{"id":{"name":"speedb","color":"yellow"},"angle":0.0,"piecePosition":{"pieceIndex":0,"inPieceDistance":63.340724678150366,"lane":{"startLaneIndex":0,"endLaneIndex":0},"lap":0}}],"gameId":"b8947e3c-c959-4415-b269-77d650c3176c","gameTick":47}


>>>>>>>>>>>>>>>>>>>>>>>>>>>>> 1



THROTTLE = 0.1

{"msgType":"carPositions","data":[{"id":{"name":"speedbooster","color":"red"},"angle":0.0,"piecePosition":{"pieceIndex":1,"inPieceDistance":65.83570025450697,"lane":{"startLaneIndex":0,"endLaneIndex":0},"lap":0}},{"id":{"name":"speedbooster10","color":"blue"},"angle":0.0,"piecePosition":{"pieceIndex":1,"inPieceDistance":40.96996996946649,"lane":{"startLaneIndex":1,"endLaneIndex":1},"lap":0}},{"id":{"name":"speedb","color":"yellow"},"angle":0.0,"piecePosition":{"pieceIndex":0,"inPieceDistance":68.48970577368355,"lane":{"startLaneIndex":0,"endLaneIndex":0},"lap":0}}],"gameId":"b8947e3c-c959-4415-b269-77d650c3176c","gameTick":48}


>>>>>>>>>>>>>>>>>>>>>>>>>>>>> 1



THROTTLE = 0.1

{"msgType":"carPositions","data":[{"id":{"name":"speedbooster","color":"red"},"angle":0.0,"piecePosition":{"pieceIndex":1,"inPieceDistance":70.92430471651632,"lane":{"startLaneIndex":0,"endLaneIndex":0},"lap":0}},{"id":{"name":"speedbooster10","color":"blue"},"angle":0.0,"piecePosition":{"pieceIndex":1,"inPieceDistance":46.07622846650538,"lane":{"startLaneIndex":1,"endLaneIndex":1},"lap":0}},{"id":{"name":"speedb","color":"yellow"},"angle":0.0,"piecePosition":{"pieceIndex":0,"inPieceDistance":73.73786879095057,"lane":{"startLaneIndex":0,"endLaneIndex":0},"lap":0}}],"gameId":"b8947e3c-c959-4415-b269-77d650c3176c","gameTick":49}


>>>>>>>>>>>>>>>>>>>>>>>>>>>>> 1



THROTTLE = 0.1

{"msgType":"carPositions","data":[{"id":{"name":"speedbooster","color":"red"},"angle":0.0,"piecePosition":{"pieceIndex":1,"inPieceDistance":75.92987194720625,"lane":{"startLaneIndex":0,"endLaneIndex":0},"lap":0}},{"id":{"name":"speedbooster10","color":"blue"},"angle":0.0,"piecePosition":{"pieceIndex":1,"inPieceDistance":51.0990909338727,"lane":{"startLaneIndex":1,"endLaneIndex":1},"lap":0}},{"id":{"name":"speedb","color":"yellow"},"angle":0.0,"piecePosition":{"pieceIndex":0,"inPieceDistance":79.08319796924727,"lane":{"startLaneIndex":0,"endLaneIndex":0},"lap":0}}],"gameId":"b8947e3c-c959-4415-b269-77d650c3176c","gameTick":50}


>>>>>>>>>>>>>>>>>>>>>>>>>>>>> 1



THROTTLE = 0.1

{"msgType":"carPositions","data":[{"id":{"name":"speedbooster","color":"red"},"angle":0.0,"piecePosition":{"pieceIndex":1,"inPieceDistance":80.85408958465587,"lane":{"startLaneIndex":0,"endLaneIndex":0},"lap":0}},{"id":{"name":"speedbooster10","color":"blue"},"angle":0.0,"piecePosition":{"pieceIndex":1,"inPieceDistance":56.040252301819415,"lane":{"startLaneIndex":1,"endLaneIndex":1},"lap":0}},{"id":{"name":"speedb","color":"yellow"},"angle":0.0,"piecePosition":{"pieceIndex":0,"inPieceDistance":84.50333560037268,"lane":{"startLaneIndex":0,"endLaneIndex":0},"lap":0}}],"gameId":"b8947e3c-c959-4415-b269-77d650c3176c","gameTick":51}


>>>>>>>>>>>>>>>>>>>>>>>>>>>>> 1



THROTTLE = 0.1

{"msgType":"carPositions","data":[{"id":{"name":"speedbooster","color":"red"},"angle":0.0,"piecePosition":{"pieceIndex":1,"inPieceDistance":85.69861096760359,"lane":{"startLaneIndex":0,"endLaneIndex":0},"lap":0}},{"id":{"name":"speedbooster10","color":"blue"},"angle":0.0,"piecePosition":{"pieceIndex":1,"inPieceDistance":60.90137305305062,"lane":{"startLaneIndex":1,"endLaneIndex":1},"lap":0}},{"id":{"name":"speedb","color":"yellow"},"angle":0.0,"piecePosition":{"pieceIndex":0,"inPieceDistance":89.97637837133051,"lane":{"startLaneIndex":0,"endLaneIndex":0},"lap":0}}],"gameId":"b8947e3c-c959-4415-b269-77d650c3176c","gameTick":52}


>>>>>>>>>>>>>>>>>>>>>>>>>>>>> 1



THROTTLE = 0.1

{"msgType":"carPositions","data":[{"id":{"name":"speedbooster","color":"red"},"angle":0.0,"piecePosition":{"pieceIndex":1,"inPieceDistance":90.46505583254255,"lane":{"startLaneIndex":0,"endLaneIndex":0},"lap":0}},{"id":{"name":"speedbooster10","color":"blue"},"angle":0.0,"piecePosition":{"pieceIndex":1,"inPieceDistance":65.68407992283309,"lane":{"startLaneIndex":1,"endLaneIndex":1},"lap":0}},{"id":{"name":"speedb","color":"yellow"},"angle":0.0,"piecePosition":{"pieceIndex":0,"inPieceDistance":95.48086812925906,"lane":{"startLaneIndex":0,"endLaneIndex":0},"lap":0}}],"gameId":"b8947e3c-c959-4415-b269-77d650c3176c","gameTick":53}


>>>>>>>>>>>>>>>>>>>>>>>>>>>>> 1



THROTTLE = 0.1

{"msgType":"carPositions","data":[{"id":{"name":"speedbooster","color":"red"},"angle":0.0,"piecePosition":{"pieceIndex":2,"inPieceDistance":1.1550109966483717,"lane":{"startLaneIndex":0,"endLaneIndex":1},"lap":0}},{"id":{"name":"speedbooster10","color":"blue"},"angle":0.0,"piecePosition":{"pieceIndex":1,"inPieceDistance":70.3899665848739,"lane":{"startLaneIndex":1,"endLaneIndex":1},"lap":0}},{"id":{"name":"speedb","color":"yellow"},"angle":0.0,"piecePosition":{"pieceIndex":0,"inPieceDistance":100.99578283405356,"lane":{"startLaneIndex":0,"endLaneIndex":0},"lap":0}}],"gameId":"b8947e3c-c959-4415-b269-77d650c3176c","gameTick":54}


>>>>>>>>>>>>>>>>>>>>>>>>>>>>> 2



THROTTLE = 0.4325

{"msgType":"carPositions","data":[{"id":{"name":"speedbooster","color":"red"},"angle":0.0,"piecePosition":{"pieceIndex":2,"inPieceDistance":5.837804221063515,"lane":{"startLaneIndex":0,"endLaneIndex":1},"lap":0}},{"id":{"name":"speedbooster10","color":"blue"},"angle":0.0,"piecePosition":{"pieceIndex":1,"inPieceDistance":75.02059432325933,"lane":{"startLaneIndex":1,"endLaneIndex":1},"lap":0}},{"id":{"name":"speedb","color":"yellow"},"angle":0.0,"piecePosition":{"pieceIndex":1,"inPieceDistance":4.500527694866136,"lane":{"startLaneIndex":0,"endLaneIndex":0},"lap":0}}],"gameId":"b8947e3c-c959-4415-b269-77d650c3176c","gameTick":55}


>>>>>>>>>>>>>>>>>>>>>>>>>>>>> 2



THROTTLE = 0.4325

{"msgType":"carPositions","data":[{"id":{"name":"speedbooster","color":"red"},"angle":0.0,"piecePosition":{"pieceIndex":2,"inPieceDistance":10.513581064135119,"lane":{"startLaneIndex":0,"endLaneIndex":1},"lap":0}},{"id":{"name":"speedbooster10","color":"blue"},"angle":0.0,"piecePosition":{"pieceIndex":1,"inPieceDistance":79.5774926907374,"lane":{"startLaneIndex":1,"endLaneIndex":1},"lap":0}},{"id":{"name":"speedb","color":"yellow"},"angle":0.0,"piecePosition":{"pieceIndex":1,"inPieceDistance":9.995309402306425,"lane":{"startLaneIndex":0,"endLaneIndex":0},"lap":0}}],"gameId":"b8947e3c-c959-4415-b269-77d650c3176c","gameTick":56}


>>>>>>>>>>>>>>>>>>>>>>>>>>>>> 2



THROTTLE = 0.4325

{"msgType":"carPositions","data":[{"id":{"name":"speedbooster","color":"red"},"angle":0.0,"piecePosition":{"pieceIndex":2,"inPieceDistance":15.182484125901077,"lane":{"startLaneIndex":0,"endLaneIndex":1},"lap":0}},{"id":{"name":"speedbooster10","color":"blue"},"angle":0.0,"piecePosition":{"pieceIndex":1,"inPieceDistance":84.0621601536215,"lane":{"startLaneIndex":1,"endLaneIndex":1},"lap":0}},{"id":{"name":"speedb","color":"yellow"},"angle":0.0,"piecePosition":{"pieceIndex":1,"inPieceDistance":15.439564615110895,"lane":{"startLaneIndex":0,"endLaneIndex":0},"lap":0}}],"gameId":"b8947e3c-c959-4415-b269-77d650c3176c","gameTick":57}


>>>>>>>>>>>>>>>>>>>>>>>>>>>>> 2



THROTTLE = 0.4325

{"msgType":"carPositions","data":[{"id":{"name":"speedbooster","color":"red"},"angle":0.0,"piecePosition":{"pieceIndex":2,"inPieceDistance":19.84465310821433,"lane":{"startLaneIndex":0,"endLaneIndex":1},"lap":0}},{"id":{"name":"speedbooster10","color":"blue"},"angle":0.0,"piecePosition":{"pieceIndex":1,"inPieceDistance":88.47606472358716,"lane":{"startLaneIndex":1,"endLaneIndex":1},"lap":0}},{"id":{"name":"speedb","color":"yellow"},"angle":0.0,"piecePosition":{"pieceIndex":1,"inPieceDistance":20.813937311740595,"lane":{"startLaneIndex":0,"endLaneIndex":0},"lap":0}}],"gameId":"b8947e3c-c959-4415-b269-77d650c3176c","gameTick":58}


>>>>>>>>>>>>>>>>>>>>>>>>>>>>> 2



THROTTLE = 0.4325

{"msgType":"carPositions","data":[{"id":{"name":"speedbooster","color":"red"},"angle":0.0,"piecePosition":{"pieceIndex":2,"inPieceDistance":24.50022487364522,"lane":{"startLaneIndex":0,"endLaneIndex":1},"lap":0}},{"id":{"name":"speedbooster10","color":"blue"},"angle":0.0,"piecePosition":{"pieceIndex":1,"inPieceDistance":92.82064457662817,"lane":{"startLaneIndex":1,"endLaneIndex":1},"lap":0}},{"id":{"name":"speedb","color":"yellow"},"angle":0.0,"piecePosition":{"pieceIndex":1,"inPieceDistance":26.099464859965085,"lane":{"startLaneIndex":0,"endLaneIndex":0},"lap":0}}],"gameId":"b8947e3c-c959-4415-b269-77d650c3176c","gameTick":59}


>>>>>>>>>>>>>>>>>>>>>>>>>>>>> 2



THROTTLE = 0.4325

{"msgType":"carPositions","data":[{"id":{"name":"speedbooster","color":"red"},"angle":0.0,"piecePosition":{"pieceIndex":2,"inPieceDistance":29.14933350318669,"lane":{"startLaneIndex":0,"endLaneIndex":1},"lap":0}},{"id":{"name":"speedbooster10","color":"blue"},"angle":0.0,"piecePosition":{"pieceIndex":2,"inPieceDistance":3.0973086594332244,"lane":{"startLaneIndex":1,"endLaneIndex":1},"lap":0}},{"id":{"name":"speedb","color":"yellow"},"angle":0.0,"piecePosition":{"pieceIndex":1,"inPieceDistance":31.29795293722818,"lane":{"startLaneIndex":0,"endLaneIndex":0},"lap":0}}],"gameId":"b8947e3c-c959-4415-b269-77d650c3176c","gameTick":60}


>>>>>>>>>>>>>>>>>>>>>>>>>>>>> 2



THROTTLE = 0.4325

{"msgType":"carPositions","data":[{"id":{"name":"speedbooster","color":"red"},"angle":0.0,"piecePosition":{"pieceIndex":2,"inPieceDistance":33.792110352786715,"lane":{"startLaneIndex":0,"endLaneIndex":1},"lap":0}},{"id":{"name":"speedbooster10","color":"blue"},"angle":0.0,"piecePosition":{"pieceIndex":2,"inPieceDistance":7.375210477674848,"lane":{"startLaneIndex":1,"endLaneIndex":1},"lap":0}},{"id":{"name":"speedb","color":"yellow"},"angle":0.0,"piecePosition":{"pieceIndex":1,"inPieceDistance":36.41117052261606,"lane":{"startLaneIndex":0,"endLaneIndex":0},"lap":0}}],"gameId":"b8947e3c-c959-4415-b269-77d650c3176c","gameTick":61}


>>>>>>>>>>>>>>>>>>>>>>>>>>>>> 2



THROTTLE = 0.4325

{"msgType":"carPositions","data":[{"id":{"name":"speedbooster","color":"red"},"angle":0.0,"piecePosition":{"pieceIndex":2,"inPieceDistance":38.428684108731765,"lane":{"startLaneIndex":0,"endLaneIndex":1},"lap":0}},{"id":{"name":"speedbooster10","color":"blue"},"angle":0.0,"piecePosition":{"pieceIndex":2,"inPieceDistance":11.654324875776188,"lane":{"startLaneIndex":1,"endLaneIndex":1},"lap":0}},{"id":{"name":"speedb","color":"yellow"},"angle":0.0,"piecePosition":{"pieceIndex":1,"inPieceDistance":41.44085064270998,"lane":{"startLaneIndex":0,"endLaneIndex":0},"lap":0}}],"gameId":"b8947e3c-c959-4415-b269-77d650c3176c","gameTick":62}


>>>>>>>>>>>>>>>>>>>>>>>>>>>>> 2



THROTTLE = 0.4325

{"msgType":"carPositions","data":[{"id":{"name":"speedbooster","color":"red"},"angle":0.0,"piecePosition":{"pieceIndex":2,"inPieceDistance":43.05918084190468,"lane":{"startLaneIndex":0,"endLaneIndex":1},"lap":0}},{"id":{"name":"speedbooster10","color":"blue"},"angle":0.0,"piecePosition":{"pieceIndex":2,"inPieceDistance":15.934627209419116,"lane":{"startLaneIndex":1,"endLaneIndex":1},"lap":0}},{"id":{"name":"speedb","color":"yellow"},"angle":0.0,"piecePosition":{"pieceIndex":1,"inPieceDistance":46.38869110228042,"lane":{"startLaneIndex":0,"endLaneIndex":0},"lap":0}}],"gameId":"b8947e3c-c959-4415-b269-77d650c3176c","gameTick":63}


>>>>>>>>>>>>>>>>>>>>>>>>>>>>> 2



THROTTLE = 0.4325

{"msgType":"carPositions","data":[{"id":{"name":"speedbooster","color":"red"},"angle":0.0,"piecePosition":{"pieceIndex":2,"inPieceDistance":47.68372406093977,"lane":{"startLaneIndex":0,"endLaneIndex":1},"lap":0}},{"id":{"name":"speedbooster10","color":"blue"},"angle":0.0,"piecePosition":{"pieceIndex":2,"inPieceDistance":20.216093335153474,"lane":{"startLaneIndex":1,"endLaneIndex":1},"lap":0}},{"id":{"name":"speedb","color":"yellow"},"angle":0.0,"piecePosition":{"pieceIndex":1,"inPieceDistance":51.25635520013062,"lane":{"startLaneIndex":0,"endLaneIndex":0},"lap":0}}],"gameId":"b8947e3c-c959-4415-b269-77d650c3176c","gameTick":64}


>>>>>>>>>>>>>>>>>>>>>>>>>>>>> 2



THROTTLE = 0.4325

{"msgType":"carPositions","data":[{"id":{"name":"speedbooster","color":"red"},"angle":0.0,"piecePosition":{"pieceIndex":2,"inPieceDistance":52.30243476429765,"lane":{"startLaneIndex":0,"endLaneIndex":1},"lap":0}},{"id":{"name":"speedbooster10","color":"blue"},"angle":0.0,"piecePosition":{"pieceIndex":2,"inPieceDistance":24.498699600217503,"lane":{"startLaneIndex":1,"endLaneIndex":1},"lap":0}},{"id":{"name":"speedb","color":"yellow"},"angle":0.0,"piecePosition":{"pieceIndex":1,"inPieceDistance":56.04547243039149,"lane":{"startLaneIndex":0,"endLaneIndex":0},"lap":0}}],"gameId":"b8947e3c-c959-4415-b269-77d650c3176c","gameTick":65}


>>>>>>>>>>>>>>>>>>>>>>>>>>>>> 2



THROTTLE = 0.4325

{"msgType":"carPositions","data":[{"id":{"name":"speedbooster","color":"red"},"angle":0.0,"piecePosition":{"pieceIndex":2,"inPieceDistance":56.91543149128169,"lane":{"startLaneIndex":0,"endLaneIndex":1},"lap":0}},{"id":{"name":"speedbooster10","color":"blue"},"angle":0.0,"piecePosition":{"pieceIndex":2,"inPieceDistance":28.782422832565146,"lane":{"startLaneIndex":1,"endLaneIndex":1},"lap":0}},{"id":{"name":"speedb","color":"yellow"},"angle":0.0,"piecePosition":{"pieceIndex":1,"inPieceDistance":60.75763916956343,"lane":{"startLaneIndex":0,"endLaneIndex":0},"lap":0}}],"gameId":"b8947e3c-c959-4415-b269-77d650c3176c","gameTick":66}


>>>>>>>>>>>>>>>>>>>>>>>>>>>>> 2



THROTTLE = 0.4325

{"msgType":"carPositions","data":[{"id":{"name":"speedbooster","color":"red"},"angle":0.0,"piecePosition":{"pieceIndex":2,"inPieceDistance":61.52283037201759,"lane":{"startLaneIndex":0,"endLaneIndex":1},"lap":0}},{"id":{"name":"speedbooster10","color":"blue"},"angle":0.0,"piecePosition":{"pieceIndex":2,"inPieceDistance":33.06724033109606,"lane":{"startLaneIndex":1,"endLaneIndex":1},"lap":0}},{"id":{"name":"speedb","color":"yellow"},"angle":0.0,"piecePosition":{"pieceIndex":1,"inPieceDistance":65.39441934959484,"lane":{"startLaneIndex":0,"endLaneIndex":0},"lap":0}}],"gameId":"b8947e3c-c959-4415-b269-77d650c3176c","gameTick":67}


>>>>>>>>>>>>>>>>>>>>>>>>>>>>> 2



THROTTLE = 0.4325

{"msgType":"carPositions","data":[{"id":{"name":"speedbooster","color":"red"},"angle":0.0,"piecePosition":{"pieceIndex":2,"inPieceDistance":66.12474517641722,"lane":{"startLaneIndex":0,"endLaneIndex":1},"lap":0}},{"id":{"name":"speedbooster10","color":"blue"},"angle":0.0,"piecePosition":{"pieceIndex":2,"inPieceDistance":37.35312985608415,"lane":{"startLaneIndex":1,"endLaneIndex":1},"lap":0}},{"id":{"name":"speedb","color":"yellow"},"angle":0.0,"piecePosition":{"pieceIndex":1,"inPieceDistance":69.95734511728101,"lane":{"startLaneIndex":0,"endLaneIndex":0},"lap":0}}],"gameId":"b8947e3c-c959-4415-b269-77d650c3176c","gameTick":68}


>>>>>>>>>>>>>>>>>>>>>>>>>>>>> 2



THROTTLE = 0.4325

{"msgType":"carPositions","data":[{"id":{"name":"speedbooster","color":"red"},"angle":0.0,"piecePosition":{"pieceIndex":2,"inPieceDistance":70.72128736214731,"lane":{"startLaneIndex":0,"endLaneIndex":1},"lap":0}},{"id":{"name":"speedbooster10","color":"blue"},"angle":0.0,"piecePosition":{"pieceIndex":2,"inPieceDistance":41.64006961980069,"lane":{"startLaneIndex":1,"endLaneIndex":1},"lap":0}},{"id":{"name":"speedb","color":"yellow"},"angle":0.0,"piecePosition":{"pieceIndex":1,"inPieceDistance":74.44791748026155,"lane":{"startLaneIndex":0,"endLaneIndex":0},"lap":0}}],"gameId":"b8947e3c-c959-4415-b269-77d650c3176c","gameTick":69}


>>>>>>>>>>>>>>>>>>>>>>>>>>>>> 2



THROTTLE = 0.4325

{"msgType":"carPositions","data":[{"id":{"name":"speedbooster","color":"red"},"angle":0.0,"piecePosition":{"pieceIndex":2,"inPieceDistance":75.31256612162319,"lane":{"startLaneIndex":0,"endLaneIndex":1},"lap":0}},{"id":{"name":"speedbooster10","color":"blue"},"angle":0.0,"piecePosition":{"pieceIndex":2,"inPieceDistance":45.92803827732796,"lane":{"startLaneIndex":1,"endLaneIndex":1},"lap":0}},{"id":{"name":"speedb","color":"yellow"},"angle":0.0,"piecePosition":{"pieceIndex":1,"inPieceDistance":78.86760693988859,"lane":{"startLaneIndex":0,"endLaneIndex":0},"lap":0}}],"gameId":"b8947e3c-c959-4415-b269-77d650c3176c","gameTick":70}


>>>>>>>>>>>>>>>>>>>>>>>>>>>>> 2



THROTTLE = 0.4325

{"msgType":"carPositions","data":[{"id":{"name":"speedbooster","color":"red"},"angle":0.0,"piecePosition":{"pieceIndex":2,"inPieceDistance":79.8986884280475,"lane":{"startLaneIndex":0,"endLaneIndex":1},"lap":0}},{"id":{"name":"speedbooster10","color":"blue"},"angle":0.0,"piecePosition":{"pieceIndex":2,"inPieceDistance":50.21701491755961,"lane":{"startLaneIndex":1,"endLaneIndex":1},"lap":0}},{"id":{"name":"speedb","color":"yellow"},"angle":0.0,"piecePosition":{"pieceIndex":1,"inPieceDistance":83.2178541112327,"lane":{"startLaneIndex":0,"endLaneIndex":0},"lap":0}}],"gameId":"b8947e3c-c959-4415-b269-77d650c3176c","gameTick":71}


>>>>>>>>>>>>>>>>>>>>>>>>>>>>> 2



THROTTLE = 0.4325

{"msgType":"carPositions","data":[{"id":{"name":"speedbooster","color":"red"},"angle":0.0,"piecePosition":{"pieceIndex":3,"inPieceDistance":19.894153531626372,"lane":{"startLaneIndex":1,"endLaneIndex":1},"lap":0}},{"id":{"name":"speedbooster10","color":"blue"},"angle":0.0,"piecePosition":{"pieceIndex":2,"inPieceDistance":54.50697905438396,"lane":{"startLaneIndex":1,"endLaneIndex":1},"lap":0}},{"id":{"name":"speedb","color":"yellow"},"angle":0.0,"piecePosition":{"pieceIndex":1,"inPieceDistance":87.50007033048779,"lane":{"startLaneIndex":0,"endLaneIndex":0},"lap":0}}],"gameId":"b8947e3c-c959-4415-b269-77d650c3176c","gameTick":72}


>>>>>>>>>>>>>>>>>>>>>>>>>>>>> 3



THROTTLE = 0.4325

{"msgType":"carPositions","data":[{"id":{"name":"speedbooster","color":"red"},"angle":0.0,"piecePosition":{"pieceIndex":3,"inPieceDistance":23.76480754990222,"lane":{"startLaneIndex":1,"endLaneIndex":1},"lap":0}},{"id":{"name":"speedbooster10","color":"blue"},"angle":0.0,"piecePosition":{"pieceIndex":2,"inPieceDistance":58.185507610484514,"lane":{"startLaneIndex":1,"endLaneIndex":1},"lap":0}},{"id":{"name":"speedb","color":"yellow"},"angle":0.0,"piecePosition":{"pieceIndex":1,"inPieceDistance":91.71563825003133,"lane":{"startLaneIndex":0,"endLaneIndex":0},"lap":0}}],"gameId":"b8947e3c-c959-4415-b269-77d650c3176c","gameTick":73}


>>>>>>>>>>>>>>>>>>>>>>>>>>>>> 3



THROTTLE = 0.4325

{"msgType":"carPositions","data":[{"id":{"name":"speedbooster","color":"red"},"angle":0.0,"piecePosition":{"pieceIndex":3,"inPieceDistance":27.644951000287378,"lane":{"startLaneIndex":1,"endLaneIndex":1},"lap":0}},{"id":{"name":"speedbooster10","color":"blue"},"angle":0.0,"piecePosition":{"pieceIndex":2,"inPieceDistance":61.877430332038415,"lane":{"startLaneIndex":1,"endLaneIndex":1},"lap":0}},{"id":{"name":"speedb","color":"yellow"},"angle":0.0,"piecePosition":{"pieceIndex":2,"inPieceDistance":1.8659124213905613,"lane":{"startLaneIndex":0,"endLaneIndex":1},"lap":0}}],"gameId":"b8947e3c-c959-4415-b269-77d650c3176c","gameTick":74}


>>>>>>>>>>>>>>>>>>>>>>>>>>>>> 3



THROTTLE = 0.4325

{"msgType":"carPositions","data":[{"id":{"name":"speedbooster","color":"red"},"angle":0.0,"piecePosition":{"pieceIndex":3,"inPieceDistance":31.53439102077619,"lane":{"startLaneIndex":1,"endLaneIndex":1},"lap":0}},{"id":{"name":"speedbooster10","color":"blue"},"angle":0.0,"piecePosition":{"pieceIndex":2,"inPieceDistance":65.58247499773846,"lane":{"startLaneIndex":1,"endLaneIndex":1},"lap":0}},{"id":{"name":"speedb","color":"yellow"},"angle":0.0,"piecePosition":{"pieceIndex":2,"inPieceDistance":6.019993060596859,"lane":{"startLaneIndex":0,"endLaneIndex":1},"lap":0}}],"gameId":"b8947e3c-c959-4415-b269-77d650c3176c","gameTick":75}


>>>>>>>>>>>>>>>>>>>>>>>>>>>>> 3



THROTTLE = 0.4325

{"msgType":"carPositions","data":[{"id":{"name":"speedbooster","color":"red"},"angle":0.0,"piecePosition":{"pieceIndex":3,"inPieceDistance":35.43293866906576,"lane":{"startLaneIndex":1,"endLaneIndex":1},"lap":0}},{"id":{"name":"speedbooster10","color":"blue"},"angle":0.0,"piecePosition":{"pieceIndex":2,"inPieceDistance":69.3003749188685,"lane":{"startLaneIndex":1,"endLaneIndex":1},"lap":0}},{"id":{"name":"speedb","color":"yellow"},"angle":0.0,"piecePosition":{"pieceIndex":2,"inPieceDistance":10.177802805484085,"lane":{"startLaneIndex":0,"endLaneIndex":1},"lap":0}}],"gameId":"b8947e3c-c959-4415-b269-77d650c3176c","gameTick":76}


>>>>>>>>>>>>>>>>>>>>>>>>>>>>> 3



THROTTLE = 0.4325

{"msgType":"carPositions","data":[{"id":{"name":"speedbooster","color":"red"},"angle":0.0,"piecePosition":{"pieceIndex":3,"inPieceDistance":39.340408842892415,"lane":{"startLaneIndex":1,"endLaneIndex":1},"lap":0}},{"id":{"name":"speedbooster10","color":"blue"},"angle":0.0,"piecePosition":{"pieceIndex":2,"inPieceDistance":73.03086882685977,"lane":{"startLaneIndex":1,"endLaneIndex":1},"lap":0}},{"id":{"name":"speedb","color":"yellow"},"angle":0.0,"piecePosition":{"pieceIndex":2,"inPieceDistance":14.339265866184876,"lane":{"startLaneIndex":0,"endLaneIndex":1},"lap":0}}],"gameId":"b8947e3c-c959-4415-b269-77d650c3176c","gameTick":77}


>>>>>>>>>>>>>>>>>>>>>>>>>>>>> 3



THROTTLE = 0.4325

{"msgType":"carPositions","data":[{"id":{"name":"speedbooster","color":"red"},"angle":0.0,"piecePosition":{"pieceIndex":3,"inPieceDistance":43.256620201987225,"lane":{"startLaneIndex":1,"endLaneIndex":1},"lap":0}},{"id":{"name":"speedbooster10","color":"blue"},"angle":0.0,"piecePosition":{"pieceIndex":3,"inPieceDistance":2.1608752403749634,"lane":{"startLaneIndex":1,"endLaneIndex":1},"lap":0}},{"id":{"name":"speedb","color":"yellow"},"angle":0.0,"piecePosition":{"pieceIndex":2,"inPieceDistance":18.504307993175445,"lane":{"startLaneIndex":0,"endLaneIndex":1},"lap":0}}],"gameId":"b8947e3c-c959-4415-b269-77d650c3176c","gameTick":78}


>>>>>>>>>>>>>>>>>>>>>>>>>>>>> 3



THROTTLE = 0.4325

{"msgType":"carPositions","data":[{"id":{"name":"speedbooster","color":"red"},"angle":0.0,"piecePosition":{"pieceIndex":3,"inPieceDistance":47.18139509161772,"lane":{"startLaneIndex":1,"endLaneIndex":1},"lap":0}},{"id":{"name":"speedbooster10","color":"blue"},"angle":0.0,"piecePosition":{"pieceIndex":3,"inPieceDistance":5.915794448418959,"lane":{"startLaneIndex":1,"endLaneIndex":1},"lap":0}},{"id":{"name":"speedb","color":"yellow"},"angle":0.0,"piecePosition":{"pieceIndex":2,"inPieceDistance":22.672856445969842,"lane":{"startLaneIndex":0,"endLaneIndex":1},"lap":0}}],"gameId":"b8947e3c-c959-4415-b269-77d650c3176c","gameTick":79}


>>>>>>>>>>>>>>>>>>>>>>>>>>>>> 3



THROTTLE = 0.4325

{"msgType":"carPositions","data":[{"id":{"name":"speedbooster","color":"red"},"angle":0.0,"piecePosition":{"pieceIndex":3,"inPieceDistance":51.11455946768353,"lane":{"startLaneIndex":1,"endLaneIndex":1},"lap":0}},{"id":{"name":"speedbooster10","color":"blue"},"angle":0.0,"piecePosition":{"pieceIndex":3,"inPieceDistance":9.682555268067173,"lane":{"startLaneIndex":1,"endLaneIndex":1},"lap":0}},{"id":{"name":"speedb","color":"yellow"},"angle":0.0,"piecePosition":{"pieceIndex":2,"inPieceDistance":26.84483996245046,"lane":{"startLaneIndex":0,"endLaneIndex":1},"lap":0}}],"gameId":"b8947e3c-c959-4415-b269-77d650c3176c","gameTick":80}


>>>>>>>>>>>>>>>>>>>>>>>>>>>>> 3



THROTTLE = 0.4325

{"msgType":"carPositions","data":[{"id":{"name":"speedbooster","color":"red"},"angle":0.0,"piecePosition":{"pieceIndex":3,"inPieceDistance":55.055942823334306,"lane":{"startLaneIndex":1,"endLaneIndex":1},"lap":0}},{"id":{"name":"speedbooster10","color":"blue"},"angle":0.0,"piecePosition":{"pieceIndex":3,"inPieceDistance":13.460917031918445,"lane":{"startLaneIndex":1,"endLaneIndex":1},"lap":0}},{"id":{"name":"speedb","color":"yellow"},"angle":0.0,"piecePosition":{"pieceIndex":2,"inPieceDistance":31.02018872882186,"lane":{"startLaneIndex":0,"endLaneIndex":1},"lap":0}}],"gameId":"b8947e3c-c959-4415-b269-77d650c3176c","gameTick":81}


>>>>>>>>>>>>>>>>>>>>>>>>>>>>> 3



THROTTLE = 0.4325

{"msgType":"carPositions","data":[{"id":{"name":"speedbooster","color":"red"},"angle":0.0,"piecePosition":{"pieceIndex":3,"inPieceDistance":59.005378117079175,"lane":{"startLaneIndex":1,"endLaneIndex":1},"lap":0}},{"id":{"name":"speedbooster10","color":"blue"},"angle":0.0,"piecePosition":{"pieceIndex":3,"inPieceDistance":17.250643963865127,"lane":{"startLaneIndex":1,"endLaneIndex":1},"lap":0}},{"id":{"name":"speedb","color":"yellow"},"angle":0.0,"piecePosition":{"pieceIndex":2,"inPieceDistance":35.19883435017527,"lane":{"startLaneIndex":0,"endLaneIndex":1},"lap":0}}],"gameId":"b8947e3c-c959-4415-b269-77d650c3176c","gameTick":82}


>>>>>>>>>>>>>>>>>>>>>>>>>>>>> 3



THROTTLE = 0.4325

{"msgType":"carPositions","data":[{"id":{"name":"speedbooster","color":"red"},"angle":0.0,"piecePosition":{"pieceIndex":3,"inPieceDistance":62.96270170235716,"lane":{"startLaneIndex":1,"endLaneIndex":1},"lap":0}},{"id":{"name":"speedbooster10","color":"blue"},"angle":0.0,"piecePosition":{"pieceIndex":3,"inPieceDistance":21.051505079683054,"lane":{"startLaneIndex":1,"endLaneIndex":1},"lap":0}},{"id":{"name":"speedb","color":"yellow"},"angle":0.0,"piecePosition":{"pieceIndex":2,"inPieceDistance":39.38070982165129,"lane":{"startLaneIndex":0,"endLaneIndex":1},"lap":0}}],"gameId":"b8947e3c-c959-4415-b269-77d650c3176c","gameTick":83}


>>>>>>>>>>>>>>>>>>>>>>>>>>>>> 3



THROTTLE = 0.4325

{"msgType":"carPositions","data":[{"id":{"name":"speedbooster","color":"red"},"angle":0.0,"piecePosition":{"pieceIndex":3,"inPieceDistance":66.92775325853908,"lane":{"startLaneIndex":1,"endLaneIndex":1},"lap":0}},{"id":{"name":"speedbooster10","color":"blue"},"angle":0.0,"piecePosition":{"pieceIndex":3,"inPieceDistance":24.86327408964192,"lane":{"startLaneIndex":1,"endLaneIndex":1},"lap":0}},{"id":{"name":"speedb","color":"yellow"},"angle":0.0,"piecePosition":{"pieceIndex":2,"inPieceDistance":43.56574950018872,"lane":{"startLaneIndex":0,"endLaneIndex":1},"lap":0}}],"gameId":"b8947e3c-c959-4415-b269-77d650c3176c","gameTick":84}


>>>>>>>>>>>>>>>>>>>>>>>>>>>>> 3



THROTTLE = 0.4325

{"msgType":"carPositions","data":[{"id":{"name":"speedbooster","color":"red"},"angle":0.0,"piecePosition":{"pieceIndex":3,"inPieceDistance":70.90037572333175,"lane":{"startLaneIndex":1,"endLaneIndex":1},"lap":0}},{"id":{"name":"speedbooster10","color":"blue"},"angle":0.0,"piecePosition":{"pieceIndex":3,"inPieceDistance":28.685729303094984,"lane":{"startLaneIndex":1,"endLaneIndex":1},"lap":0}},{"id":{"name":"speedb","color":"yellow"},"angle":0.0,"piecePosition":{"pieceIndex":2,"inPieceDistance":47.75388907684758,"lane":{"startLaneIndex":0,"endLaneIndex":1},"lap":0}}],"gameId":"b8947e3c-c959-4415-b269-77d650c3176c","gameTick":85}


>>>>>>>>>>>>>>>>>>>>>>>>>>>>> 3



THROTTLE = 0.4325

{"msgType":"carPositions","data":[{"id":{"name":"speedbooster","color":"red"},"angle":0.0,"piecePosition":{"pieceIndex":4,"inPieceDistance":0.26758970379836455,"lane":{"startLaneIndex":1,"endLaneIndex":1},"lap":0}},{"id":{"name":"speedbooster10","color":"blue"},"angle":0.0,"piecePosition":{"pieceIndex":3,"inPieceDistance":32.51865353500788,"lane":{"startLaneIndex":1,"endLaneIndex":1},"lap":0}},{"id":{"name":"speedb","color":"yellow"},"angle":0.0,"piecePosition":{"pieceIndex":2,"inPieceDistance":51.945065549694526,"lane":{"startLaneIndex":0,"endLaneIndex":1},"lap":0}}],"gameId":"b8947e3c-c959-4415-b269-77d650c3176c","gameTick":86}


>>>>>>>>>>>>>>>>>>>>>>>>>>>>> 4



THROTTLE = 0.4325

{"msgType":"carPositions","data":[{"id":{"name":"speedbooster","color":"red"},"angle":0.0,"piecePosition":{"pieceIndex":4,"inPieceDistance":4.2548955025127375,"lane":{"startLaneIndex":1,"endLaneIndex":1},"lap":0}},{"id":{"name":"speedbooster10","color":"blue"},"angle":0.0,"piecePosition":{"pieceIndex":3,"inPieceDistance":36.36183401438713,"lane":{"startLaneIndex":1,"endLaneIndex":1},"lap":0}},{"id":{"name":"speedb","color":"yellow"},"angle":0.0,"piecePosition":{"pieceIndex":2,"inPieceDistance":56.13921719723948,"lane":{"startLaneIndex":0,"endLaneIndex":1},"lap":0}}],"gameId":"b8947e3c-c959-4415-b269-77d650c3176c","gameTick":87}


>>>>>>>>>>>>>>>>>>>>>>>>>>>>> 4



THROTTLE = 0.4325

{"msgType":"carPositions","data":[{"id":{"name":"speedbooster","color":"red"},"angle":0.0,"piecePosition":{"pieceIndex":4,"inPieceDistance":8.249319917456207,"lane":{"startLaneIndex":1,"endLaneIndex":1},"lap":0}},{"id":{"name":"speedbooster10","color":"blue"},"angle":0.0,"piecePosition":{"pieceIndex":3,"inPieceDistance":40.21506229456974,"lane":{"startLaneIndex":1,"endLaneIndex":1},"lap":0}},{"id":{"name":"speedb","color":"yellow"},"angle":0.0,"piecePosition":{"pieceIndex":2,"inPieceDistance":60.33628355241205,"lane":{"startLaneIndex":0,"endLaneIndex":1},"lap":0}}],"gameId":"b8947e3c-c959-4415-b269-77d650c3176c","gameTick":88}


>>>>>>>>>>>>>>>>>>>>>>>>>>>>> 4



THROTTLE = 0.4325

{"msgType":"carPositions","data":[{"id":{"name":"speedbooster","color":"red"},"angle":0.0,"piecePosition":{"pieceIndex":4,"inPieceDistance":12.25071827078213,"lane":{"startLaneIndex":1,"endLaneIndex":1},"lap":0}},{"id":{"name":"speedbooster10","color":"blue"},"angle":0.0,"piecePosition":{"pieceIndex":3,"inPieceDistance":44.07813416533607,"lane":{"startLaneIndex":1,"endLaneIndex":1},"lap":0}},{"id":{"name":"speedb","color":"yellow"},"angle":0.0,"piecePosition":{"pieceIndex":2,"inPieceDistance":64.53620537706684,"lane":{"startLaneIndex":0,"endLaneIndex":1},"lap":0}}],"gameId":"b8947e3c-c959-4415-b269-77d650c3176c","gameTick":89}


>>>>>>>>>>>>>>>>>>>>>>>>>>>>> 4



THROTTLE = 0.4325

{"msgType":"carPositions","data":[{"id":{"name":"speedbooster","color":"red"},"angle":0.0,"piecePosition":{"pieceIndex":4,"inPieceDistance":16.258948825057928,"lane":{"startLaneIndex":1,"endLaneIndex":1},"lap":0}},{"id":{"name":"speedbooster10","color":"blue"},"angle":0.0,"piecePosition":{"pieceIndex":3,"inPieceDistance":47.95084956680886,"lane":{"startLaneIndex":1,"endLaneIndex":1},"lap":0}},{"id":{"name":"speedb","color":"yellow"},"angle":0.0,"piecePosition":{"pieceIndex":2,"inPieceDistance":68.73892463700695,"lane":{"startLaneIndex":0,"endLaneIndex":1},"lap":0}}],"gameId":"b8947e3c-c959-4415-b269-77d650c3176c","gameTick":90}


>>>>>>>>>>>>>>>>>>>>>>>>>>>>> 4



THROTTLE = 0.4325

{"msgType":"carPositions","data":[{"id":{"name":"speedbooster","color":"red"},"angle":0.0,"piecePosition":{"pieceIndex":4,"inPieceDistance":20.273872723504496,"lane":{"startLaneIndex":1,"endLaneIndex":1},"lap":0}},{"id":{"name":"speedbooster10","color":"blue"},"angle":0.0,"piecePosition":{"pieceIndex":3,"inPieceDistance":51.833012505102275,"lane":{"startLaneIndex":1,"endLaneIndex":1},"lap":0}},{"id":{"name":"speedb","color":"yellow"},"angle":0.0,"piecePosition":{"pieceIndex":2,"inPieceDistance":72.94438447751509,"lane":{"startLaneIndex":0,"endLaneIndex":1},"lap":0}}],"gameId":"b8947e3c-c959-4415-b269-77d650c3176c","gameTick":91}


>>>>>>>>>>>>>>>>>>>>>>>>>>>>> 4



THROTTLE = 0.4325

{"msgType":"carPositions","data":[{"id":{"name":"speedbooster","color":"red"},"angle":0.0,"piecePosition":{"pieceIndex":4,"inPieceDistance":24.295353931450162,"lane":{"startLaneIndex":1,"endLaneIndex":1},"lap":0}},{"id":{"name":"speedbooster10","color":"blue"},"angle":0.0,"piecePosition":{"pieceIndex":3,"inPieceDistance":55.72443096968514,"lane":{"startLaneIndex":1,"endLaneIndex":1},"lap":0}},{"id":{"name":"speedb","color":"yellow"},"angle":0.0,"piecePosition":{"pieceIndex":2,"inPieceDistance":77.15252919938197,"lane":{"startLaneIndex":0,"endLaneIndex":1},"lap":0}}],"gameId":"b8947e3c-c959-4415-b269-77d650c3176c","gameTick":92}


>>>>>>>>>>>>>>>>>>>>>>>>>>>>> 4



THROTTLE = 0.4325

{"msgType":"carPositions","data":[{"id":{"name":"speedbooster","color":"red"},"angle":0.0,"piecePosition":{"pieceIndex":4,"inPieceDistance":28.32325917897454,"lane":{"startLaneIndex":1,"endLaneIndex":1},"lap":0}},{"id":{"name":"speedbooster10","color":"blue"},"angle":0.0,"piecePosition":{"pieceIndex":3,"inPieceDistance":59.62491685242379,"lane":{"startLaneIndex":1,"endLaneIndex":1},"lap":0}},{"id":{"name":"speedb","color":"yellow"},"angle":0.0,"piecePosition":{"pieceIndex":3,"inPieceDistance":0.30940007611677345,"lane":{"startLaneIndex":1,"endLaneIndex":1},"lap":0}}],"gameId":"b8947e3c-c959-4415-b269-77d650c3176c","gameTick":93}


>>>>>>>>>>>>>>>>>>>>>>>>>>>>> 4



THROTTLE = 0.4325

{"msgType":"carPositions","data":[{"id":{"name":"speedbooster","color":"red"},"angle":0.0,"piecePosition":{"pieceIndex":4,"inPieceDistance":32.357457904718075,"lane":{"startLaneIndex":1,"endLaneIndex":1},"lap":0}},{"id":{"name":"speedbooster10","color":"blue"},"angle":0.0,"piecePosition":{"pieceIndex":3,"inPieceDistance":63.53428586827024,"lane":{"startLaneIndex":1,"endLaneIndex":1},"lap":0}},{"id":{"name":"speedb","color":"yellow"},"angle":0.0,"piecePosition":{"pieceIndex":3,"inPieceDistance":4.522751968160673,"lane":{"startLaneIndex":1,"endLaneIndex":1},"lap":0}}],"gameId":"b8947e3c-c959-4415-b269-77d650c3176c","gameTick":94}


>>>>>>>>>>>>>>>>>>>>>>>>>>>>> 4



THROTTLE = 0.4325

{"msgType":"carPositions","data":[{"id":{"name":"speedbooster","color":"red"},"angle":0.0,"piecePosition":{"pieceIndex":4,"inPieceDistance":36.39782220083361,"lane":{"startLaneIndex":1,"endLaneIndex":1},"lap":0}},{"id":{"name":"speedbooster10","color":"blue"},"angle":0.0,"piecePosition":{"pieceIndex":3,"inPieceDistance":67.45235747756226,"lane":{"startLaneIndex":1,"endLaneIndex":1},"lap":0}},{"id":{"name":"speedb","color":"yellow"},"angle":0.0,"piecePosition":{"pieceIndex":3,"inPieceDistance":8.738628344516334,"lane":{"startLaneIndex":1,"endLaneIndex":1},"lap":0}}],"gameId":"b8947e3c-c959-4415-b269-77d650c3176c","gameTick":95}


>>>>>>>>>>>>>>>>>>>>>>>>>>>>> 4



THROTTLE = 0.4325

{"msgType":"carPositions","data":[{"id":{"name":"speedbooster","color":"red"},"angle":0.0,"piecePosition":{"pieceIndex":4,"inPieceDistance":40.44422675905671,"lane":{"startLaneIndex":1,"endLaneIndex":1},"lap":0}},{"id":{"name":"speedbooster10","color":"blue"},"angle":0.0,"piecePosition":{"pieceIndex":3,"inPieceDistance":71.37895480990267,"lane":{"startLaneIndex":1,"endLaneIndex":1},"lap":0}},{"id":{"name":"speedb","color":"yellow"},"angle":0.0,"piecePosition":{"pieceIndex":3,"inPieceDistance":12.956977897887175,"lane":{"startLaneIndex":1,"endLaneIndex":1},"lap":0}}],"gameId":"b8947e3c-c959-4415-b269-77d650c3176c","gameTick":96}


>>>>>>>>>>>>>>>>>>>>>>>>>>>>> 4



THROTTLE = 0.4325

{"msgType":"carPositions","data":[{"id":{"name":"speedbooster","color":"red"},"angle":0.0,"piecePosition":{"pieceIndex":4,"inPieceDistance":44.49654881787212,"lane":{"startLaneIndex":1,"endLaneIndex":1},"lap":0}},{"id":{"name":"speedbooster10","color":"blue"},"angle":0.0,"piecePosition":{"pieceIndex":4,"inPieceDistance":0.7010790668280151,"lane":{"startLaneIndex":1,"endLaneIndex":1},"lap":0}},{"id":{"name":"speedb","color":"yellow"},"angle":0.0,"piecePosition":{"pieceIndex":3,"inPieceDistance":17.177750363739555,"lane":{"startLaneIndex":1,"endLaneIndex":1},"lap":0}}],"gameId":"b8947e3c-c959-4415-b269-77d650c3176c","gameTick":97}


>>>>>>>>>>>>>>>>>>>>>>>>>>>>> 4



THROTTLE = 0.4325

{"msgType":"carPositions","data":[{"id":{"name":"speedbooster","color":"red"},"angle":0.0,"piecePosition":{"pieceIndex":4,"inPieceDistance":48.55466811075391,"lane":{"startLaneIndex":1,"endLaneIndex":1},"lap":0}},{"id":{"name":"speedbooster10","color":"blue"},"angle":0.0,"piecePosition":{"pieceIndex":4,"inPieceDistance":4.64421153978095,"lane":{"startLaneIndex":1,"endLaneIndex":1},"lap":0}},{"id":{"name":"speedb","color":"yellow"},"angle":0.0,"piecePosition":{"pieceIndex":3,"inPieceDistance":21.40089649910979,"lane":{"startLaneIndex":1,"endLaneIndex":1},"lap":0}}],"gameId":"b8947e3c-c959-4415-b269-77d650c3176c","gameTick":98}


>>>>>>>>>>>>>>>>>>>>>>>>>>>>> 4



THROTTLE = 0.4325

{"msgType":"carPositions","data":[{"id":{"name":"speedbooster","color":"red"},"angle":0.0,"piecePosition":{"pieceIndex":4,"inPieceDistance":52.61846681545768,"lane":{"startLaneIndex":1,"endLaneIndex":1},"lap":0}},{"id":{"name":"speedbooster10","color":"blue"},"angle":0.0,"piecePosition":{"pieceIndex":4,"inPieceDistance":8.595360401991421,"lane":{"startLaneIndex":1,"endLaneIndex":1},"lap":0}},{"id":{"name":"speedb","color":"yellow"},"angle":0.0,"piecePosition":{"pieceIndex":3,"inPieceDistance":25.626368061841905,"lane":{"startLaneIndex":1,"endLaneIndex":1},"lap":0}}],"gameId":"b8947e3c-c959-4415-b269-77d650c3176c","gameTick":99}


>>>>>>>>>>>>>>>>>>>>>>>>>>>>> 4



THROTTLE = 0.4325

{"msgType":"carPositions","data":[{"id":{"name":"speedbooster","color":"red"},"angle":0.0,"piecePosition":{"pieceIndex":4,"inPieceDistance":56.687829504343256,"lane":{"startLaneIndex":1,"endLaneIndex":1},"lap":0}},{"id":{"name":"speedbooster10","color":"blue"},"angle":0.0,"piecePosition":{"pieceIndex":4,"inPieceDistance":12.554362729388469,"lane":{"startLaneIndex":1,"endLaneIndex":1},"lap":0}},{"id":{"name":"speedb","color":"yellow"},"angle":0.0,"piecePosition":{"pieceIndex":3,"inPieceDistance":29.85411779024733,"lane":{"startLaneIndex":1,"endLaneIndex":1},"lap":0}}],"gameId":"b8947e3c-c959-4415-b269-77d650c3176c","gameTick":100}


>>>>>>>>>>>>>>>>>>>>>>>>>>>>> 4



THROTTLE = 0.4325

{"msgType":"carPositions","data":[{"id":{"name":"speedbooster","color":"red"},"angle":0.0,"piecePosition":{"pieceIndex":4,"inPieceDistance":60.76264309570707,"lane":{"startLaneIndex":1,"endLaneIndex":1},"lap":0}},{"id":{"name":"speedbooster10","color":"blue"},"angle":0.0,"piecePosition":{"pieceIndex":4,"inPieceDistance":16.521058909149133,"lane":{"startLaneIndex":1,"endLaneIndex":1},"lap":0}},{"id":{"name":"speedb","color":"yellow"},"angle":0.0,"piecePosition":{"pieceIndex":3,"inPieceDistance":34.084099383178014,"lane":{"startLaneIndex":1,"endLaneIndex":1},"lap":0}}],"gameId":"b8947e3c-c959-4415-b269-77d650c3176c","gameTick":101}


>>>>>>>>>>>>>>>>>>>>>>>>>>>>> 4



THROTTLE = 0.4325

{"msgType":"carPositions","data":[{"id":{"name":"speedbooster","color":"red"},"angle":0.0,"piecePosition":{"pieceIndex":4,"inPieceDistance":64.84279680610366,"lane":{"startLaneIndex":1,"endLaneIndex":1},"lap":0}},{"id":{"name":"speedbooster10","color":"blue"},"angle":0.0,"piecePosition":{"pieceIndex":4,"inPieceDistance":20.495292572401073,"lane":{"startLaneIndex":1,"endLaneIndex":1},"lap":0}},{"id":{"name":"speedb","color":"yellow"},"angle":0.0,"piecePosition":{"pieceIndex":3,"inPieceDistance":38.316267480504536,"lane":{"startLaneIndex":1,"endLaneIndex":1},"lap":0}}],"gameId":"b8947e3c-c959-4415-b269-77d650c3176c","gameTick":102}


>>>>>>>>>>>>>>>>>>>>>>>>>>>>> 4



THROTTLE = 0.4325

{"msgType":"carPositions","data":[{"id":{"name":"speedbooster","color":"red"},"angle":0.0,"piecePosition":{"pieceIndex":4,"inPieceDistance":68.92818210363615,"lane":{"startLaneIndex":1,"endLaneIndex":1},"lap":0}},{"id":{"name":"speedbooster10","color":"blue"},"angle":0.0,"piecePosition":{"pieceIndex":4,"inPieceDistance":24.476910528292933,"lane":{"startLaneIndex":1,"endLaneIndex":1},"lap":0}},{"id":{"name":"speedb","color":"yellow"},"angle":0.0,"piecePosition":{"pieceIndex":3,"inPieceDistance":42.550577643990934,"lane":{"startLaneIndex":1,"endLaneIndex":1},"lap":0}}],"gameId":"b8947e3c-c959-4415-b269-77d650c3176c","gameTick":103}


>>>>>>>>>>>>>>>>>>>>>>>>>>>>> 4



THROTTLE = 0.4325

{"msgType":"carPositions","data":[{"id":{"name":"speedbooster","color":"red"},"angle":0.0,"piecePosition":{"pieceIndex":4,"inPieceDistance":73.01869266219606,"lane":{"startLaneIndex":1,"endLaneIndex":1},"lap":0}},{"id":{"name":"speedbooster10","color":"blue"},"angle":0.0,"piecePosition":{"pieceIndex":4,"inPieceDistance":28.46576269940464,"lane":{"startLaneIndex":1,"endLaneIndex":1},"lap":0}},{"id":{"name":"speedb","color":"yellow"},"angle":0.0,"piecePosition":{"pieceIndex":3,"inPieceDistance":46.78698633855828,"lane":{"startLaneIndex":1,"endLaneIndex":1},"lap":0}}],"gameId":"b8947e3c-c959-4415-b269-77d650c3176c","gameTick":104}


>>>>>>>>>>>>>>>>>>>>>>>>>>>>> 4



THROTTLE = 0.4325

{"msgType":"carPositions","data":[{"id":{"name":"speedbooster","color":"red"},"angle":0.0,"piecePosition":{"pieceIndex":5,"inPieceDistance":2.501398793875566,"lane":{"startLaneIndex":1,"endLaneIndex":1},"lap":0}},{"id":{"name":"speedbooster10","color":"blue"},"angle":0.0,"piecePosition":{"pieceIndex":4,"inPieceDistance":32.46170205847043,"lane":{"startLaneIndex":1,"endLaneIndex":1},"lap":0}},{"id":{"name":"speedb","color":"yellow"},"angle":0.0,"piecePosition":{"pieceIndex":3,"inPieceDistance":51.02545091392903,"lane":{"startLaneIndex":1,"endLaneIndex":1},"lap":0}}],"gameId":"b8947e3c-c959-4415-b269-77d650c3176c","gameTick":105}


>>>>>>>>>>>>>>>>>>>>>>>>>>>>> 5



THROTTLE = 0.4325

{"msgType":"carPositions","data":[{"id":{"name":"speedbooster","color":"red"},"angle":0.0,"piecePosition":{"pieceIndex":5,"inPieceDistance":6.601849496078829,"lane":{"startLaneIndex":1,"endLaneIndex":1},"lap":0}},{"id":{"name":"speedbooster10","color":"blue"},"angle":0.0,"piecePosition":{"pieceIndex":4,"inPieceDistance":36.464584566387906,"lane":{"startLaneIndex":1,"endLaneIndex":1},"lap":0}},{"id":{"name":"speedb","color":"yellow"},"angle":0.0,"piecePosition":{"pieceIndex":3,"inPieceDistance":55.26592958664443,"lane":{"startLaneIndex":1,"endLaneIndex":1},"lap":0}}],"gameId":"b8947e3c-c959-4415-b269-77d650c3176c","gameTick":106}


>>>>>>>>>>>>>>>>>>>>>>>>>>>>> 5



THROTTLE = 0.4325

{"msgType":"carPositions","data":[{"id":{"name":"speedbooster","color":"red"},"angle":0.0,"piecePosition":{"pieceIndex":5,"inPieceDistance":10.707119271949999,"lane":{"startLaneIndex":1,"endLaneIndex":1},"lap":0}},{"id":{"name":"speedbooster10","color":"blue"},"angle":0.0,"piecePosition":{"pieceIndex":4,"inPieceDistance":40.474269111486976,"lane":{"startLaneIndex":1,"endLaneIndex":1},"lap":0}},{"id":{"name":"speedb","color":"yellow"},"angle":0.0,"piecePosition":{"pieceIndex":3,"inPieceDistance":59.50838142244741,"lane":{"startLaneIndex":1,"endLaneIndex":1},"lap":0}}],"gameId":"b8947e3c-c959-4415-b269-77d650c3176c","gameTick":107}


>>>>>>>>>>>>>>>>>>>>>>>>>>>>> 5



THROTTLE = 0.4325

{"msgType":"carPositions","data":[{"id":{"name":"speedbooster","color":"red"},"angle":0.0,"piecePosition":{"pieceIndex":5,"inPieceDistance":14.817110179251614,"lane":{"startLaneIndex":1,"endLaneIndex":1},"lap":0}},{"id":{"name":"speedbooster10","color":"blue"},"angle":0.0,"piecePosition":{"pieceIndex":4,"inPieceDistance":44.49061745003311,"lane":{"startLaneIndex":1,"endLaneIndex":1},"lap":0}},{"id":{"name":"speedb","color":"yellow"},"angle":0.0,"piecePosition":{"pieceIndex":3,"inPieceDistance":63.752766319023486,"lane":{"startLaneIndex":1,"endLaneIndex":1},"lap":0}}],"gameId":"b8947e3c-c959-4415-b269-77d650c3176c","gameTick":108}


>>>>>>>>>>>>>>>>>>>>>>>>>>>>> 5



THROTTLE = 0.4325

{"msgType":"carPositions","data":[{"id":{"name":"speedbooster","color":"red"},"angle":0.0,"piecePosition":{"pieceIndex":5,"inPieceDistance":18.931726266311735,"lane":{"startLaneIndex":1,"endLaneIndex":1},"lap":0}},{"id":{"name":"speedbooster10","color":"blue"},"angle":0.0,"piecePosition":{"pieceIndex":4,"inPieceDistance":48.513494147939774,"lane":{"startLaneIndex":1,"endLaneIndex":1},"lap":0}},{"id":{"name":"speedb","color":"yellow"},"angle":0.0,"piecePosition":{"pieceIndex":3,"inPieceDistance":67.99904498909252,"lane":{"startLaneIndex":1,"endLaneIndex":1},"lap":0}}],"gameId":"b8947e3c-c959-4415-b269-77d650c3176c","gameTick":109}


>>>>>>>>>>>>>>>>>>>>>>>>>>>>> 5



THROTTLE = 0.4325

{"msgType":"carPositions","data":[{"id":{"name":"speedbooster","color":"red"},"angle":0.0,"piecePosition":{"pieceIndex":5,"inPieceDistance":23.050873531567944,"lane":{"startLaneIndex":1,"endLaneIndex":1},"lap":0}},{"id":{"name":"speedbooster10","color":"blue"},"angle":0.0,"piecePosition":{"pieceIndex":4,"inPieceDistance":52.54276652366549,"lane":{"startLaneIndex":1,"endLaneIndex":1},"lap":0}},{"id":{"name":"speedb","color":"yellow"},"angle":0.0,"piecePosition":{"pieceIndex":3,"inPieceDistance":72.24717894384402,"lane":{"startLaneIndex":1,"endLaneIndex":1},"lap":0}}],"gameId":"b8947e3c-c959-4415-b269-77d650c3176c","gameTick":110}


>>>>>>>>>>>>>>>>>>>>>>>>>>>>> 5



THROTTLE = 0.4325

{"msgType":"carPositions","data":[{"id":{"name":"speedbooster","color":"red"},"angle":0.0,"piecePosition":{"pieceIndex":5,"inPieceDistance":27.17445988393356,"lane":{"startLaneIndex":1,"endLaneIndex":1},"lap":0}},{"id":{"name":"speedbooster10","color":"blue"},"angle":0.0,"piecePosition":{"pieceIndex":4,"inPieceDistance":56.57830459227149,"lane":{"startLaneIndex":1,"endLaneIndex":1},"lap":0}},{"id":{"name":"speedb","color":"yellow"},"angle":0.0,"piecePosition":{"pieceIndex":4,"inPieceDistance":1.8843049539515704,"lane":{"startLaneIndex":1,"endLaneIndex":1},"lap":0}}],"gameId":"b8947e3c-c959-4415-b269-77d650c3176c","gameTick":111}


>>>>>>>>>>>>>>>>>>>>>>>>>>>>> 5



THROTTLE = 0.4325

{"msgType":"carPositions","data":[{"id":{"name":"speedbooster","color":"red"},"angle":0.0,"piecePosition":{"pieceIndex":5,"inPieceDistance":31.30239510396939,"lane":{"startLaneIndex":1,"endLaneIndex":1},"lap":0}},{"id":{"name":"speedbooster10","color":"blue"},"angle":0.0,"piecePosition":{"pieceIndex":4,"inPieceDistance":60.619981010616286,"lane":{"startLaneIndex":1,"endLaneIndex":1},"lap":0}},{"id":{"name":"speedb","color":"yellow"},"angle":0.0,"piecePosition":{"pieceIndex":4,"inPieceDistance":6.136037124705015,"lane":{"startLaneIndex":1,"endLaneIndex":1},"lap":0}}],"gameId":"b8947e3c-c959-4415-b269-77d650c3176c","gameTick":112}


>>>>>>>>>>>>>>>>>>>>>>>>>>>>> 5



THROTTLE = 0.4325

{"msgType":"carPositions","data":[{"id":{"name":"speedbooster","color":"red"},"angle":0.0,"piecePosition":{"pieceIndex":5,"inPieceDistance":35.434590805844586,"lane":{"startLaneIndex":1,"endLaneIndex":1},"lap":0}},{"id":{"name":"speedbooster10","color":"blue"},"angle":0.0,"piecePosition":{"pieceIndex":4,"inPieceDistance":64.66767102366413,"lane":{"startLaneIndex":1,"endLaneIndex":1},"lap":0}},{"id":{"name":"speedb","color":"yellow"},"angle":0.0,"piecePosition":{"pieceIndex":4,"inPieceDistance":10.389513743889847,"lane":{"startLaneIndex":1,"endLaneIndex":1},"lap":0}}],"gameId":"b8947e3c-c959-4415-b269-77d650c3176c","gameTick":113}


>>>>>>>>>>>>>>>>>>>>>>>>>>>>> 5



THROTTLE = 0.4325

{"msgType":"dnf","data":{"car":{"name":"speedbooster10","color":"blue"},"reason":"disconnected on tick 113 (connection lost)"},"gameId":"b8947e3c-c959-4415-b269-77d650c3176c","gameTick":113}
{"msgType":"carPositions","data":[{"id":{"name":"speedbooster","color":"red"},"angle":0.0,"piecePosition":{"pieceIndex":5,"inPieceDistance":39.57096040007064,"lane":{"startLaneIndex":1,"endLaneIndex":1},"lap":0}},{"id":{"name":"speedbooster10","color":"blue"},"angle":0.0,"piecePosition":{"pieceIndex":4,"inPieceDistance":64.66767102366413,"lane":{"startLaneIndex":1,"endLaneIndex":1},"lap":0}},{"id":{"name":"speedb","color":"yellow"},"angle":0.0,"piecePosition":{"pieceIndex":4,"inPieceDistance":14.644699357559045,"lane":{"startLaneIndex":1,"endLaneIndex":1},"lap":0}}],"gameId":"b8947e3c-c959-4415-b269-77d650c3176c","gameTick":114}


>>>>>>>>>>>>>>>>>>>>>>>>>>>>> 5



THROTTLE = 0.4325

{"msgType":"carPositions","data":[{"id":{"name":"speedbooster","color":"red"},"angle":0.0,"piecePosition":{"pieceIndex":5,"inPieceDistance":43.71141905699273,"lane":{"startLaneIndex":1,"endLaneIndex":1},"lap":0}},{"id":{"name":"speedbooster10","color":"blue"},"angle":0.0,"piecePosition":{"pieceIndex":4,"inPieceDistance":64.66767102366413,"lane":{"startLaneIndex":1,"endLaneIndex":1},"lap":0}},{"id":{"name":"speedb","color":"yellow"},"angle":0.0,"piecePosition":{"pieceIndex":4,"inPieceDistance":18.90155923232708,"lane":{"startLaneIndex":1,"endLaneIndex":1},"lap":0}}],"gameId":"b8947e3c-c959-4415-b269-77d650c3176c","gameTick":115}


>>>>>>>>>>>>>>>>>>>>>>>>>>>>> 5



THROTTLE = 0.4325

{"msgType":"carPositions","data":[{"id":{"name":"speedbooster","color":"red"},"angle":0.0,"piecePosition":{"pieceIndex":5,"inPieceDistance":47.85588367102312,"lane":{"startLaneIndex":1,"endLaneIndex":1},"lap":0}},{"id":{"name":"speedbooster10","color":"blue"},"angle":0.0,"piecePosition":{"pieceIndex":4,"inPieceDistance":64.66767102366413,"lane":{"startLaneIndex":1,"endLaneIndex":1},"lap":0}},{"id":{"name":"speedb","color":"yellow"},"angle":0.0,"piecePosition":{"pieceIndex":4,"inPieceDistance":23.160059340725315,"lane":{"startLaneIndex":1,"endLaneIndex":1},"lap":0}}],"gameId":"b8947e3c-c959-4415-b269-77d650c3176c","gameTick":116}


>>>>>>>>>>>>>>>>>>>>>>>>>>>>> 5



THROTTLE = 0.4325

{"msgType":"carPositions","data":[{"id":{"name":"speedbooster","color":"red"},"angle":0.0,"piecePosition":{"pieceIndex":5,"inPieceDistance":52.00427282560141,"lane":{"startLaneIndex":1,"endLaneIndex":1},"lap":0}},{"id":{"name":"speedbooster10","color":"blue"},"angle":0.0,"piecePosition":{"pieceIndex":4,"inPieceDistance":64.66767102366413,"lane":{"startLaneIndex":1,"endLaneIndex":1},"lap":0}},{"id":{"name":"speedb","color":"yellow"},"angle":0.0,"piecePosition":{"pieceIndex":4,"inPieceDistance":27.42016634685503,"lane":{"startLaneIndex":1,"endLaneIndex":1},"lap":0}}],"gameId":"b8947e3c-c959-4415-b269-77d650c3176c","gameTick":117}


>>>>>>>>>>>>>>>>>>>>>>>>>>>>> 5



THROTTLE = 0.4325

{"msgType":"carPositions","data":[{"id":{"name":"speedbooster","color":"red"},"angle":0.0,"piecePosition":{"pieceIndex":5,"inPieceDistance":56.15650675886697,"lane":{"startLaneIndex":1,"endLaneIndex":1},"lap":0}},{"id":{"name":"speedbooster10","color":"blue"},"angle":0.0,"piecePosition":{"pieceIndex":4,"inPieceDistance":64.66767102366413,"lane":{"startLaneIndex":1,"endLaneIndex":1},"lap":0}},{"id":{"name":"speedb","color":"yellow"},"angle":0.0,"piecePosition":{"pieceIndex":4,"inPieceDistance":31.681847592332055,"lane":{"startLaneIndex":1,"endLaneIndex":1},"lap":0}}],"gameId":"b8947e3c-c959-4415-b269-77d650c3176c","gameTick":118}


>>>>>>>>>>>>>>>>>>>>>>>>>>>>> 5



THROTTLE = 0.4325

{"msgType":"carPositions","data":[{"id":{"name":"speedbooster","color":"red"},"angle":0.0,"piecePosition":{"pieceIndex":5,"inPieceDistance":60.31250733002903,"lane":{"startLaneIndex":1,"endLaneIndex":1},"lap":0}},{"id":{"name":"speedbooster10","color":"blue"},"angle":0.0,"piecePosition":{"pieceIndex":4,"inPieceDistance":64.66767102366413,"lane":{"startLaneIndex":1,"endLaneIndex":1},"lap":0}},{"id":{"name":"speedb","color":"yellow"},"angle":0.0,"piecePosition":{"pieceIndex":4,"inPieceDistance":35.945071082517046,"lane":{"startLaneIndex":1,"endLaneIndex":1},"lap":0}}],"gameId":"b8947e3c-c959-4415-b269-77d650c3176c","gameTick":119}


>>>>>>>>>>>>>>>>>>>>>>>>>>>>> 5



THROTTLE = 0.4325

{"msgType":"carPositions","data":[{"id":{"name":"speedbooster","color":"red"},"angle":0.0,"piecePosition":{"pieceIndex":5,"inPieceDistance":64.47219798642027,"lane":{"startLaneIndex":1,"endLaneIndex":1},"lap":0}},{"id":{"name":"speedbooster10","color":"blue"},"angle":0.0,"piecePosition":{"pieceIndex":4,"inPieceDistance":64.66767102366413,"lane":{"startLaneIndex":1,"endLaneIndex":1},"lap":0}},{"id":{"name":"speedb","color":"yellow"},"angle":0.0,"piecePosition":{"pieceIndex":4,"inPieceDistance":40.209805473025625,"lane":{"startLaneIndex":1,"endLaneIndex":1},"lap":0}}],"gameId":"b8947e3c-c959-4415-b269-77d650c3176c","gameTick":120}


>>>>>>>>>>>>>>>>>>>>>>>>>>>>> 5



THROTTLE = 0.4325

{"msgType":"carPositions","data":[{"id":{"name":"speedbooster","color":"red"},"angle":0.0,"piecePosition":{"pieceIndex":5,"inPieceDistance":68.63550373122001,"lane":{"startLaneIndex":1,"endLaneIndex":1},"lap":0}},{"id":{"name":"speedbooster10","color":"blue"},"angle":0.0,"piecePosition":{"pieceIndex":4,"inPieceDistance":64.66767102366413,"lane":{"startLaneIndex":1,"endLaneIndex":1},"lap":0}},{"id":{"name":"speedb","color":"yellow"},"angle":0.0,"piecePosition":{"pieceIndex":4,"inPieceDistance":44.476020056512674,"lane":{"startLaneIndex":1,"endLaneIndex":1},"lap":0}}],"gameId":"b8947e3c-c959-4415-b269-77d650c3176c","gameTick":121}


>>>>>>>>>>>>>>>>>>>>>>>>>>>>> 5



THROTTLE = 0.4325

{"msgType":"carPositions","data":[{"id":{"name":"speedbooster","color":"red"},"angle":0.0,"piecePosition":{"pieceIndex":5,"inPieceDistance":72.80235109183336,"lane":{"startLaneIndex":1,"endLaneIndex":1},"lap":0}},{"id":{"name":"speedbooster10","color":"blue"},"angle":0.0,"piecePosition":{"pieceIndex":4,"inPieceDistance":64.66767102366413,"lane":{"startLaneIndex":1,"endLaneIndex":1},"lap":0}},{"id":{"name":"speedb","color":"yellow"},"angle":0.0,"piecePosition":{"pieceIndex":4,"inPieceDistance":48.743684749725226,"lane":{"startLaneIndex":1,"endLaneIndex":1},"lap":0}}],"gameId":"b8947e3c-c959-4415-b269-77d650c3176c","gameTick":122}


>>>>>>>>>>>>>>>>>>>>>>>>>>>>> 5



THROTTLE = 0.4325

{"msgType":"carPositions","data":[{"id":{"name":"speedbooster","color":"red"},"angle":0.0,"piecePosition":{"pieceIndex":6,"inPieceDistance":2.3598425661554643,"lane":{"startLaneIndex":1,"endLaneIndex":1},"lap":0}},{"id":{"name":"speedbooster10","color":"blue"},"angle":0.0,"piecePosition":{"pieceIndex":4,"inPieceDistance":64.66767102366413,"lane":{"startLaneIndex":1,"endLaneIndex":1},"lap":0}},{"id":{"name":"speedb","color":"yellow"},"angle":0.0,"piecePosition":{"pieceIndex":4,"inPieceDistance":53.01277008081852,"lane":{"startLaneIndex":1,"endLaneIndex":1},"lap":0}}],"gameId":"b8947e3c-c959-4415-b269-77d650c3176c","gameTick":123}


>>>>>>>>>>>>>>>>>>>>>>>>>>>>> 6



THROTTLE = 0.4325

{"msgType":"carPositions","data":[{"id":{"name":"speedbooster","color":"red"},"angle":0.0,"piecePosition":{"pieceIndex":6,"inPieceDistance":6.533558683253298,"lane":{"startLaneIndex":1,"endLaneIndex":1},"lap":0}},{"id":{"name":"speedbooster10","color":"blue"},"angle":0.0,"piecePosition":{"pieceIndex":4,"inPieceDistance":64.66767102366413,"lane":{"startLaneIndex":1,"endLaneIndex":1},"lap":0}},{"id":{"name":"speedb","color":"yellow"},"angle":0.0,"piecePosition":{"pieceIndex":4,"inPieceDistance":57.283247176929784,"lane":{"startLaneIndex":1,"endLaneIndex":1},"lap":0}}],"gameId":"b8947e3c-c959-4415-b269-77d650c3176c","gameTick":124}


>>>>>>>>>>>>>>>>>>>>>>>>>>>>> 6



THROTTLE = 0.4325

{"msgType":"carPositions","data":[{"id":{"name":"speedbooster","color":"red"},"angle":0.0,"piecePosition":{"pieceIndex":6,"inPieceDistance":10.710604837088356,"lane":{"startLaneIndex":1,"endLaneIndex":1},"lap":0}},{"id":{"name":"speedbooster10","color":"blue"},"angle":0.0,"piecePosition":{"pieceIndex":4,"inPieceDistance":64.66767102366413,"lane":{"startLaneIndex":1,"endLaneIndex":1},"lap":0}},{"id":{"name":"speedb","color":"yellow"},"angle":0.0,"piecePosition":{"pieceIndex":4,"inPieceDistance":61.55508775200464,"lane":{"startLaneIndex":1,"endLaneIndex":1},"lap":0}}],"gameId":"b8947e3c-c959-4415-b269-77d650c3176c","gameTick":125}


>>>>>>>>>>>>>>>>>>>>>>>>>>>>> 6



THROTTLE = 0.4325

{"msgType":"carPositions","data":[{"id":{"name":"speedbooster","color":"red"},"angle":0.0,"piecePosition":{"pieceIndex":6,"inPieceDistance":14.890913348419494,"lane":{"startLaneIndex":1,"endLaneIndex":1},"lap":0}},{"id":{"name":"speedbooster10","color":"blue"},"angle":0.0,"piecePosition":{"pieceIndex":4,"inPieceDistance":64.66767102366413,"lane":{"startLaneIndex":1,"endLaneIndex":1},"lap":0}},{"id":{"name":"speedb","color":"yellow"},"angle":0.0,"piecePosition":{"pieceIndex":4,"inPieceDistance":65.82826409487083,"lane":{"startLaneIndex":1,"endLaneIndex":1},"lap":0}}],"gameId":"b8947e3c-c959-4415-b269-77d650c3176c","gameTick":126}


>>>>>>>>>>>>>>>>>>>>>>>>>>>>> 6



THROTTLE = 0.4325

{"msgType":"carPositions","data":[{"id":{"name":"speedbooster","color":"red"},"angle":0.0,"piecePosition":{"pieceIndex":6,"inPieceDistance":19.074417913509816,"lane":{"startLaneIndex":1,"endLaneIndex":1},"lap":0}},{"id":{"name":"speedbooster10","color":"blue"},"angle":0.0,"piecePosition":{"pieceIndex":4,"inPieceDistance":64.66767102366413,"lane":{"startLaneIndex":1,"endLaneIndex":1},"lap":0}},{"id":{"name":"speedb","color":"yellow"},"angle":0.0,"piecePosition":{"pieceIndex":4,"inPieceDistance":70.10274905755448,"lane":{"startLaneIndex":1,"endLaneIndex":1},"lap":0}}],"gameId":"b8947e3c-c959-4415-b269-77d650c3176c","gameTick":127}


>>>>>>>>>>>>>>>>>>>>>>>>>>>>> 6



THROTTLE = 0.4325

{"msgType":"carPositions","data":[{"id":{"name":"speedbooster","color":"red"},"angle":0.0,"piecePosition":{"pieceIndex":6,"inPieceDistance":23.2610535761711,"lane":{"startLaneIndex":1,"endLaneIndex":1},"lap":0}},{"id":{"name":"speedbooster10","color":"blue"},"angle":0.0,"piecePosition":{"pieceIndex":4,"inPieceDistance":64.66767102366413,"lane":{"startLaneIndex":1,"endLaneIndex":1},"lap":0}},{"id":{"name":"speedb","color":"yellow"},"angle":0.0,"piecePosition":{"pieceIndex":4,"inPieceDistance":74.3785160438336,"lane":{"startLaneIndex":1,"endLaneIndex":1},"lap":0}}],"gameId":"b8947e3c-c959-4415-b269-77d650c3176c","gameTick":128}


>>>>>>>>>>>>>>>>>>>>>>>>>>>>> 6



THROTTLE = 0.5325

{"msgType":"carPositions","data":[{"id":{"name":"speedbooster","color":"red"},"angle":0.0,"piecePosition":{"pieceIndex":6,"inPieceDistance":27.471139615936202,"lane":{"startLaneIndex":1,"endLaneIndex":1},"lap":0}},{"id":{"name":"speedbooster10","color":"blue"},"angle":0.0,"piecePosition":{"pieceIndex":4,"inPieceDistance":64.66767102366413,"lane":{"startLaneIndex":1,"endLaneIndex":1},"lap":0}},{"id":{"name":"speedb","color":"yellow"},"angle":0.0,"piecePosition":{"pieceIndex":5,"inPieceDistance":4.042713475266865,"lane":{"startLaneIndex":1,"endLaneIndex":1},"lap":0}}],"gameId":"b8947e3c-c959-4415-b269-77d650c3176c","gameTick":129}


>>>>>>>>>>>>>>>>>>>>>>>>>>>>> 6



THROTTLE = 0.6325

{"msgType":"carPositions","data":[{"id":{"name":"speedbooster","color":"red"},"angle":0.0,"piecePosition":{"pieceIndex":6,"inPieceDistance":31.724582345897083,"lane":{"startLaneIndex":1,"endLaneIndex":1},"lap":0}},{"id":{"name":"speedbooster10","color":"blue"},"angle":0.0,"piecePosition":{"pieceIndex":4,"inPieceDistance":64.66767102366413,"lane":{"startLaneIndex":1,"endLaneIndex":1},"lap":0}},{"id":{"name":"speedb","color":"yellow"},"angle":0.0,"piecePosition":{"pieceIndex":5,"inPieceDistance":8.32096687123811,"lane":{"startLaneIndex":1,"endLaneIndex":1},"lap":0}}],"gameId":"b8947e3c-c959-4415-b269-77d650c3176c","gameTick":130}


>>>>>>>>>>>>>>>>>>>>>>>>>>>>> 6



THROTTLE = 0.7325

{"msgType":"carPositions","data":[{"id":{"name":"speedbooster","color":"red"},"angle":0.0,"piecePosition":{"pieceIndex":6,"inPieceDistance":36.040883505782,"lane":{"startLaneIndex":1,"endLaneIndex":1},"lap":0}},{"id":{"name":"speedbooster10","color":"blue"},"angle":0.0,"piecePosition":{"pieceIndex":4,"inPieceDistance":64.66767102366413,"lane":{"startLaneIndex":1,"endLaneIndex":1},"lap":0}},{"id":{"name":"speedb","color":"yellow"},"angle":0.0,"piecePosition":{"pieceIndex":5,"inPieceDistance":12.600425701648218,"lane":{"startLaneIndex":1,"endLaneIndex":1},"lap":0}}],"gameId":"b8947e3c-c959-4415-b269-77d650c3176c","gameTick":131}


>>>>>>>>>>>>>>>>>>>>>>>>>>>>> 6



THROTTLE = 0.7325

{"msgType":"carPositions","data":[{"id":{"name":"speedbooster","color":"red"},"angle":0.0,"piecePosition":{"pieceIndex":6,"inPieceDistance":40.41876556889303,"lane":{"startLaneIndex":1,"endLaneIndex":1},"lap":0}},{"id":{"name":"speedbooster10","color":"blue"},"angle":0.0,"piecePosition":{"pieceIndex":4,"inPieceDistance":64.66767102366413,"lane":{"startLaneIndex":1,"endLaneIndex":1},"lap":0}},{"id":{"name":"speedb","color":"yellow"},"angle":0.0,"piecePosition":{"pieceIndex":5,"inPieceDistance":16.881065467401683,"lane":{"startLaneIndex":1,"endLaneIndex":1},"lap":0}}],"gameId":"b8947e3c-c959-4415-b269-77d650c3176c","gameTick":132}


>>>>>>>>>>>>>>>>>>>>>>>>>>>>> 6



THROTTLE = 0.7325

{"msgType":"carPositions","data":[{"id":{"name":"speedbooster","color":"red"},"angle":0.0,"piecePosition":{"pieceIndex":6,"inPieceDistance":44.856976972821634,"lane":{"startLaneIndex":1,"endLaneIndex":1},"lap":0}},{"id":{"name":"speedbooster10","color":"blue"},"angle":0.0,"piecePosition":{"pieceIndex":4,"inPieceDistance":64.66767102366413,"lane":{"startLaneIndex":1,"endLaneIndex":1},"lap":0}},{"id":{"name":"speedb","color":"yellow"},"angle":0.0,"piecePosition":{"pieceIndex":5,"inPieceDistance":21.162862167319478,"lane":{"startLaneIndex":1,"endLaneIndex":1},"lap":0}}],"gameId":"b8947e3c-c959-4415-b269-77d650c3176c","gameTick":133}


>>>>>>>>>>>>>>>>>>>>>>>>>>>>> 6



THROTTLE = 0.7325

{"msgType":"carPositions","data":[{"id":{"name":"speedbooster","color":"red"},"angle":0.0,"piecePosition":{"pieceIndex":6,"inPieceDistance":49.35429159175374,"lane":{"startLaneIndex":1,"endLaneIndex":1},"lap":0}},{"id":{"name":"speedbooster10","color":"blue"},"angle":0.0,"piecePosition":{"pieceIndex":4,"inPieceDistance":64.66767102366413,"lane":{"startLaneIndex":1,"endLaneIndex":1},"lap":0}},{"id":{"name":"speedb","color":"yellow"},"angle":0.0,"piecePosition":{"pieceIndex":5,"inPieceDistance":25.44579228801948,"lane":{"startLaneIndex":1,"endLaneIndex":1},"lap":0}}],"gameId":"b8947e3c-c959-4415-b269-77d650c3176c","gameTick":134}


>>>>>>>>>>>>>>>>>>>>>>>>>>>>> 6



THROTTLE = 0.7325

