			0				1		0		0%			
1	-1	56	0		0		1		0-		50%			
2	-1	56	0		0		1		0-		50%			
3	-1	56	0.1934586		0		1		0-		51%			
4	-1	56	0.3831435		0		1		0-		51%			
5	-1	56	0.5691280		0		1		0-		51%			
6	-1	56	0.7514845		0		1		0-		51%			
7	-1	56	0.9302837		0		1		0-		51%			
8	-1	56	1.1055950		0		1		0-		51%			
9	-1	56	1.2774865		0		1		0-		52%			
10	-1	56	1.4460248		0		1		0-		52%			
11	-1	56	1.6112753		0		1		0-		52%			
12	-1	56	1.7733022		0		1		0-		53%			
13	-1	56	1.9321685		0		1		0-		53%			
