	0	0	0	0	0	1		0
1	0	0	0	0	0	1		0
2	0	0	0	0	0	1		0
3	0	0	0.20346	0	0.20346	1		0
4	0	0	0.40278	0	0.60625	1		0
5	0	0	0.59805	0	1.20430	1		0
6	0	0	0.78934	0	1.99365	1		0
7	0	0	0.97673	0	2.97039	1		0
8	0	0	1.16031	0	4.13071	1		0
9	0	0	1.34016	0	5.47087	1		0
10	0	0	1.51634	0	6.98721	1		0
11	0	0	1.68893	0	8.67615	1		0
12	0	0	1.85801	0	10.5341	1		0
13	0	0	2.02365	0	12.5578	1		0
14	0	0	2.18592	0	14.7437	1		0
15	0	0	2.34488	0	17.0886	1		0
16	0	0	2.50061	0	19.5892	1		0
17	0	0	2.65316	0	22.2424	1		0
18	0	0	2.80261	0	25.0450	1		0
19	0	0	2.94902	0	27.9940	1		0
20	0	0	3.09244	0	31.0864	1		0
21	0	0	3.23295	0	34.3194	1		0
22	0	0	3.37059	0	37.6900	1		0
23	0	0	3.50544	0	41.1954	1		0
24	0	0	3.63754	0	44.8330	1		0
25	0	0	3.76694	0	48.5999	1		0
26	0	0	3.89372	0	52.4937	1		0
27	0	0	4.01791	0	56.5116	1		0
28	0	0	4.13958	0	60.6512	1		0
29	0	0	4.25876	0	64.9099	1		0
30	0	0	4.37552	0	69.2854	1		0
31	0	0	4.48991	0	73.7754	1		0
32	0	0	4.60196	0	78.3773	1		0
33	0	0	4.71174	0	83.0891	1		0
34	0	0	4.81927	0	87.9083	1		0
35	0	0	4.92462	0	92.8330	1		0
36	0	0	5.02783	0	97.8608	1		0
37	0	1	5.02783	0	2.98979	1		0
38	0	1	5.22798	0	8.21777	1		0
39	0	1	5.32500	0	13.5427	1		0
40	0	1	5.42006	0	18.9628	1		0
41	0	1	5.51318	0	24.4760	1		0
42	0	1	5.60440	0	30.0804	1		0
43	0	1	5.69376	0	35.7741	1		0
44	0	1	5.78131	0	41.5555	1		0
45	0	1	5.86707	0	47.4225	1		0
46	0	1	5.95109	0	53.3736	1		0
47	0	1	6.03339	0	59.4070	1		0
48	0	1	6.11402	0	65.5211	1		0
49	0	1	6.19301	0	71.7141	1		0
50	0	1	6.27039	0	77.9845	1		0
51	0	1	6.34620	0	84.3307	1		0
52	0	1	6.42046	0	90.7511	1		0
53	0	1	6.49321	0	97.2444	1		0
54	0	2	6.49321	0	3.80890	1		0
55	0	2	6.63430	0	10.4432	1		0
56	0	2	6.70270	0	17.1459	1		0
57	0	2	6.76970	0	23.9156	1		0
58	0	2	6.83534	0	30.7509	1		0
59	0	2	6.89965	0	37.6506	1		0
60	0	2	6.96264	0	44.6132	1		0
61	0	2	7.02435	0	51.6376	1		0
62	0	2	7.08481	0	58.7224	1		0
63	0	2	7.14403	0	65.8664	1		0
64	0	2	7.20205	0	73.0685	1		0
65	0	2	7.25889	0	80.3274	1		0
66	0	2	7.31457	0	87.6419	1		0
67	0	2	7.36912	0	95.0111	1		0
68	0	3	7.36912	0	2.43367	1		0
69	0	3	7.47490	0	9.90858	1		0
70	0	3	7.52619	0	17.4347	0		0
71	0	3	7.57642	0	25.0112	0		0
72	0	3	7.42217	0	32.4333	0		0
73	0	3	7.27107	0	39.7044	0		0
74	0	3	7.12303	0	46.8274	0		0
75	0	3	6.97801	0	53.8055	0		0
76	0	3	6.83595	0	60.6414	0		0
77	0	3	6.69677	0	67.3382	0		0
78	0	3	6.56043	0	73.8986	0		0
79	0	3	6.42687	0	80.3255	0		0
80	0	3	6.29602	0	86.6215	0		0
81	0	3	6.16784	0	92.7894	0		0
82	0	3	6.04227	0	98.8316	0		0
83	0	4	6.04227	0	2.69067	1	090	0
84	0	4	5.79874	0.16329	8.48942	0.95	090	1
85	0	4	5.68068	0.43037	14.1701	1	090	-0.3644
86	0	4	5.76849	0.74939	19.9386	1	090	-0.4994
87	0	4	5.84435	1.14212	25.7829	0.95	090	0.29516
88	0	4	5.92882	1.62423	31.7117	0.9	090	0.17545
89	0	4	6.01158	2.21279	37.7233	0.85	090	0.16033
90	0	4	6.08249	2.92242	43.8058	0.8	090	0.12079
91	0	4	6.14177	3.76162	49.9476	0.75	090	0.06549
92	0	4	6.19985	4.73309	56.1474	0.7	090	0.02046
93	0	4	6.22622	5.83805	62.3737	0.65	090	0.00911
94	0	4	6.24189	7.06461	68.6156	1	090	-0.0889
95	0	5	6.24189	8.39704	4.18702	1	090	-0.1293
96	0	5	6.26210	9.82021	10.4491	1	090	-0.1429
97	0	5	6.33807	11.3157	16.7872	1	090	-0.2022
98	0	5	6.41250	12.8938	23.1997	0.95	090	0.12316
99	0	5	6.48541	14.5627	29.6851	0.9	090	0.09070
100	0	5	6.54667	16.3288	36.2317	0.85	090	0.06574
101	0	5	6.59650	18.1925	42.8282	0.8	090	0.00529
102	0	5	6.63515	20.1491	49.4634	1	090	-0.0497
103	0	5	6.66283	22.1888	56.1262	1	090	-0.1043
104	0	5	6.73065	24.2978	62.8569	1	090	-0.1675
105	0	5	6.79708	26.4793	69.6540	0.9	090	0.04650
106	0	6	6.79708	28.7355	5.83036	0.8	090	0.02673
107	0	6	6.90558	31.0669	12.7359	0.7	090	0.00940
108	0	6	6.94811	33.4645	19.6840	0.9	090	-0.1216
109	0	6	6.96942	35.9190	26.6534	1	101	-0.1397
110	0	6	6.96995	38.4124	33.6234	1	101	-0.3153
111	0	6	7.01117	40.9194	40.6346	1	101	-0.6518
112	0	6	7.07190	43.4342	47.7065	1	101	-0.4261
113	0	6	7.13138	45.9598	54.8379	0.9	101	0.27793
114	0	6	7.18966	48.4982	62.0275	0.8	101	0.16257
115	0	6	7.24675	51.0507	69.2743	0.7	101	0.08894
116	0	7	7.24675	53.6179	5.89117	0.6	101	0.03345
117	0	7	7.33712	56.1995	13.2283	0.7	101	-0.0143
118	0	7	7.37086	58.7857	20.5991	0.8	101	-0.6838
119	0	7	0	0	20.5991	1	090	-1.0000
120	0	7	0	0	20.5991	0.95	090	1.95786
121	0	7	0	0	20.5991	1	090	-1
122	0	7	0	0	20.5991	1	090	0
123	0	7	0	0	20.5991	1	090	0
