	0	0	0		0		1		0		0.55056179775281
1	0	0	0		0		1		0		0.55056179775281
2	0	0	0		0		1		0		0.55056179775281
3	0	0	0.1885375		0		1		0		0.5507736376644
4	0	0	0.3734972		0		1		0		0.55119329751887
5	0	0	0.5549471		0		1		0		0.55181683363225
6	0	0	0.7329537		0		1		0		0.55264037715764
7	0	0	0.9075824		0		1		0		0.55366013266515
8	0	0	1.0788972		0		1		0		0.55487237674862
9	0	0	1.2469611		0		1		0		0.55627345665894
10	0	0	1.4118357		0		1		0		0.55785978896318
11	0	0	1.5735816		0		1		0		0.55962785822923
12	0	0	1.7322581		0		1		0		0.5615742157354
13	0	0	1.8879235		0		1		0		0.56369547820448
14	0	0	2.0406350		0		1		0		0.56598832656183
15	0	0	2.1904485		0		1		0		0.56844950471706
16	0	0	2.3374191		0		1		0		0.5710758183688
17	0	0	2.4816007		0		1		0		0.57386413383216
18	0	0	2.6230463		0		1		0		0.57681137688848
19	0	0	2.7618077		0		1		0		0.57991453165681
20	0	0	2.8979359		0		1		0		0.58317063948693
21	0	0	3.0314809		0		1		0		0.58657679787328
22	0	0	3.1624917		0		1		0		0.59013015938953
23	0	0	3.2910164		0		1		0		0.5938279306434
24	0	0	3.4171021		0		1		0		0.59766737125125
25	0	0	3.5407952		0		1		0		0.6016457928322
26	0	0	3.6621410		0		1		0		0.60576055802128
27	0	0	3.7811841		0		1		0		0.61000907950133
28	0	0	3.8979682		0		1		0		0.61438881905328
29	0	0	4.0125361		0		1		0		0.61889728662443
30	0	0	4.1249299		0		1		0		0.62353203941444
31	0	0	4.2351909		0		1		0		0.62829068097863
32	0	0	4.3433596		0		1		0		0.63317086034835
33	0	0	4.4494756		0		1		0		0.63817027116794
34	0	0	4.5535779		0		1		0		0.64328665084821
35	0	0	4.6557047		0		1		0		0.64851777973585
36	0	0	4.7558935		0		1		0		0.65386148029869
37	0	0	4.8541810		0		1		0		0.65931561632638
38	0	1	4.8541810		0		1		0		0.66487809214625
39	0	1	5.0451961		0		1		0		0.67054685185406
40	0	1	5.1379937		0		1		0		0.67631987855932
41	0	1	5.2290304		0		1		0		0.68219519364494
42	0	1	5.3183395		0		1		0		0.68817085604097
43	0	1	5.4059538		0		1		0		0.69424496151207
44	0	1	5.4919055		0		0.9		0		0.70041564195851
45	0	1	5.5573725		0		0.8		0		0.70665988073929
46	0	1	5.6027433		0		0.7		0		0.71295509798748
47	0	1	5.6283994		0		0.6		0		0.71927914232176
48	0	1	5.6347149		0		0.5		0		0.72561028271534
49	0	1	5.6220568		0		0.4		0		0.73192720051905
50	0	1	5.5907851		0		0.3		0		0.73820898163596
51	0	1	5.5412532		0		0.2		0		0.74443510884436
52	0	1	5.4738074		0		0.1		0		0.75058545426649
53	0	1	5.3887877		0		1.3877787807814E-16		0		0.75664027198018
54	0	1	5.2865277		0		0.1		0		0.76258019077072
55	0	1	5.2050619		0		0		0		0.76842857500251
56	0	1	5.1062883		0		0.1		0		0.77416597768502
57	0	2	5.1062883		0		0		0		0.77981568884481
58	0	2	4.9516785		0		0		0		0.78537937255538
59	0	2	4.8577132		0		0		0		0.79083747732081
60	0	2	4.7655311		0		0		0		0.7961920066543
61	0	2	4.6750982		0		0		0		0.80144492604947
62	0	2	4.5863815		0		0		0		0.80659816370185
63	0	2	4.4993482		0		0		0		0.81165361121669
64	0	2	4.4139666		0		0		0		0.81661312430327
65	0	2	4.3302052		0		0		0		0.82147852345613
66	0	2	4.2480333		0		0		0		0.82625159462326
67	0	2	4.1674207		0		0		0		0.83093408986174
68	0	2	4.0883379		0		0		0		0.83552772798081
69	0	2	4.0107558		0		0		0		0.84003419517282
70	0	2	3.9346459		0		0		0		0.84445514563219
71	0	2	3.8599803		0		0		0		0.8487922021626
72	0	2	3.7867316		0		0		0		0.85304695677269
73	0	2	3.7148728		0		0		0		0.85722097126043
74	0	2	3.6443778		0		0		0		0.86131577778642
75	0	2	3.5752204		0		0		0		0.86533287943628
76	0	2	3.5073754		0		0		0		0.86927375077244
77	0	2	3.4408179		0		0		0		0.87313983837533
78	0	2	3.3755234		0		0		0		0.87693256137446
79	0	2	3.3114680		0		0		0		0.8806533119693
80	0	2	3.2486281		0		0		0		0.8843034559403
81	0	3	3.2486281		0		0		0		0.88788433315027
82	0	3	3.1265031		0		0		0		0.89139725803618
83	0	3	3.0671732		0		0		0		0.89484352009167
84	0	3	3.0089691		0		0.1		0		0.89822438434035
85	0	3	2.9707233		0		0.2		0		0.90156227579134
86	0	3	2.9520571		0		0.3		0		0.9048791939068
87	0	3	2.9525988		0		0.4		0		0.90819672067726
88	0	3	2.9719840		0		0.5		0		0.91153602854377
89	0	3	3.0098550		0		0.6		0		0.91491788816969
90	0	3	3.0658612		0		0.6		0		0.918362676065
91	0	3	3.1208045		0		0.6		0		0.92186919807478
92	0	3	3.1747053		0		0.6		0		0.92543628270492
93	0	3	3.2275832		0		0.6		0		0.9290627806921
94	0	3	3.2794576		0		0.6		0		0.93274756458195
95	0	3	3.3303477		0		0.6		0		0.93648952831517
96	0	3	3.3802720		0		0.6		0		0.94028758682152
97	0	3	3.4292490		0		0.6		0		0.94414067562157
98	0	3	3.4772965		0		0.6		0		0.94804775043589
99	0	3	3.5244323		0		0.6		0		0.95200778680178
100	0	3	3.5706736		0		0.6		0		0.95601977969722
101	0	3	3.6160374		0		0.6		0		0.9600827431719
102	0	3	3.6605404		0		0.6		0		0.96419570998536
103	0	3	3.7041989		0		0.6		0		0.96835773125193
104	0	3	3.7470289		0		0.6		0		0.97256787609243
105	0	3	3.7890461		0		0.6		0		0.97682523129242
106	0	3	3.8302660		0		0.6		0		0.98112890096706
107	0	3	3.8707036		0		0.6		0		0.98547800623222
108	0	3	3.9103739		0		0.6		0		0.98987168488184
109	0	3	3.9492915		0		0.6		0		0.99430909107148
110	0	3	3.9874705		0		0.6		0		0.99878939500785
111	0	4-	3.9874705		0		1		0-		0.0022593323198391
112	0	4-	4.1370837		0		1		0-		0.01279464027995
113	0	4-	4.2471141		0		1		0-		0.023610146549977
114	0	4-	4.3550565		0		1		0-		0.034700533961739
115	0	4-	4.4609505		0		1		0-		0.046060586248013
116	0	4-	4.5648350		0		1		0-		0.057685186127792
117	0	4-	4.6667482		0		1		0-		0.069569313427874
118	0	4-	4.7667274		0		1		0-		0.081708043240107
119	0	4-	4.8648094		0		1		0-		0.094096544113594
120	0	4-	4.9610301		0		1		0		0.1067300762812
121	0	4-	5.0554249		0		1		0		0.11960398991974
122	0	4-	5.1480284		0		1		0		0.13271372344314
123	0	4-	5.2388747		0		1		0		0.14605480182802
124	0	4-	5.3279970		0		1		0		0.15962283497103
125	0	4-	5.4154280		0		1		0		0.1734135160774
126	0	5-	5.4154280		0		1		0		0.20741731126379
127	0	5-	5.5853443		0		1		0		0.22164069327229
128	0	5-	5.6678918		0		1		0		0.23607428705159
129	0	5-	5.7488729		0.0214035		0.85		0		0.25071410352933
130	0	5-	5.8000366		0.0871738		0.7		0		0.2654842111792
131	0	5-	5.8219488		0.2087159		0.55		0		0.28031011938542
132	0	5-	5.8151645		0.3866411		0.4		0		0.29511875109941
133	0	5-	5.7802284		0.6118234		0.25		0		0.30983841601523
134	0	5-	5.7176746		0.8666961		0.1		0		0.32439878425423
135	0	5-	5.6280272		1.1267343		0.1		0		0.33873086054889
136	0	5-	5.5400810		1.3620703		0		0		0.35283897706904
137	0	5-	5.4349499		1.5644403		0.1		0		0.36667937167374
138	0	6-	5.4349499		1.7359449		0		0		0.40029982805889
139	0	6-	5.2491310		1.8786885		0.1		0		0.41366702465871
140	0	6-	5.1683749		1.9948308		0		0		0.42682857147172
141	0	6-	5.0702975		2.0864714		0.1		0		0.4397403588985
142	0	6-	4.9929350		2.1557242		0		0		0.45245513858619
143	0	6-	4.8981868		2.2045974		0.1		0		0.46492863694
144	0	6-	4.8240904		2.2350852		0		0		0.47721344472377
145	0	6-	4.7325463		2.2490463		0.1		0		0.48926513051241
146	0	6-	4.6615932		2.2483067		0.1		0		0.5011361302345
147	0	6-	4.5919864		2.2345402		0.1		0		0.51282987266948
148	0	6-	4.5237006		2.2093241		0.1		0		0.52434972153073
149	0	6-	4.4567106		2.1741368		0.1		0		0.53569897670032
150	0	6-	4.3909918		2.1303562		0.1		0		0.54688087544028
151	0	6-	4.3265201		2.0792608		0.1		0		0.5578985935809
152	0	6-	4.2632719		2.0220300		0.1		0		0.56875524668651
153	0	6-	4.2012239		1.9597466		0.1		0		0.5794538911991
154	0	7-	4.2012239		1.8934000		0.1		0		0.60999221674402
155	0	7-	4.0806379		1.8238888		0.1		0		0.62038378249554
156	0	7-	4.0220557		1.7520254		0.1		0		0.63062616535923
157	0	7-	3.9645851		1.6785400		0.1		0		0.64072219629615
158	0	7-	3.9082051		1.6040847		0.1		0		0.65067465254579
159	0	7-	3.8528950		1.5292385		0.2		0		0.66048625864547
160	0	7-	3.8174883		1.4545120		0.25		0		0.67020769953208
161	0	7-	3.7921803		1.3803174		0.3		0		0.67986469227171
162	0	7-	3.7767794		1.3069993		0.35		0		0.68948246591194
163	0	7-	3.7710977		1.2348426		0.4		0		0.69908577074269
164	0	7-	3.7749507		1.1640808		0.45		0		0.70869888738132
165	0	7-	3.7881574		1.0949021		0.5		0		0.71834563568537
166	0	7-	3.8105404		1.0274568		0.55		0		0.72804938349613
167	0	7-	3.8419255		0.9618620		0.6		0		0.73783305521629
168	0	7-	3.8821420		0.8982075		0.55		0		0.74771914022487
169	0	7-	3.9121683		0.8365597		0.5		0		0.75768168903081
170	0	7-	3.9321980		0.7769857		0.45		0		0.76769524457219
171	0	7-	3.9424208		0.7195501		0.4		0		0.77773483287166
172	0	8-	3.9424208		0.6643121		0.35		0		0.80777064505298
173	0	8-	3.9341862		0.6113236		0.3		0		0.81778926361264
174	0	8-	3.9160906		0.5606276		0.25		0		0.82776180069996
175	0	8-	3.8889115		0.5122569		0.2		0		0.83766512472674
176	0	8-	3.8528213		0.4662331		0.25		0		0.84747654306011
177	0	8-	3.8268428		0.4225663		0.3		0		0.85722180579432
178	0	8-	3.8107842		0.3812448		0.35		0		0.86692617437833
179	0	8-	3.8044572		0.3422394		0.4		0		0.87661443088855
180	0	8-	3.8076771		0.3055070		0.45		0		0.88631088712567
181	0	8-	3.8202628		0.2709938		0.5		0		0.89603939353879
182	0	8-	3.8420366		0.2386378		0.55		0		0.90582334798025
183	0	8-	3.8728240		0.2083713		0.5		0		0.9156857042943
184	0	8-	3.8936003		0.1801227		0.45		0		0.92560096864124
185	0	8-	3.9045555		0.1538224		0.4		0		0.93554413096383
186	0	8-	3.9058759		0.1294013		0.35		0		0.94549065580686
187	0	8-	3.8977444		0.1067905		0.3		0		0.95541647331087
188	0	8-	3.8803403		0.0859205		0.25		0		0.96529797037677
189	0	8-	3.8538396		0.0667208		0.3		0		0.97511198199821
190	0	8-	3.8372687		0.0491196		0.35		0		0.98488379485987
191	0	9	3.8372687		0.0330430		1		0-		0.0090958442112873
192	0	9	3.9462885		0.0184157		1		0-		0.028827287056715
193	0	9	4.0599395		0.0051604		1		0-		0.049126984843272
194	0	9	4.1714338		-0.006795		1		0-		0.069984154111586
195	0	9	4.2808123		-0.017520		1		0-		0.091388216034023
196	0	9	4.3881152		-0.027079		1		0		0.11332879253151
197	0	9	4.4933819		-0.035533		1		0		0.13579570246401
198	0	9	4.5966510		-0.042942		1		0		0.15877895789339
199	0	9	4.6979605		-0.049364		1		0		0.18226876041703
200	0	9	4.7973474		-0.054853		1		0		0.20625549757122
201	0	9	4.8948483		-0.059465		1		0		0.23072973930263
202	0	9	4.9904990		-0.063252		1		0		0.25568223450682
203	0	9	5.0843346		-0.066265		1		0		0.28110390763246
204	0	9	5.1763895		-0.068556		1		0		0.30698585534993
205	0	9	5.2666975		-0.070174		1		0		0.33331934328314
206	0	9	5.3552919		-0.071169		1		0		0.36009580280344
207	0	9	5.4422050		-0.071587		1		0		0.38730682788431
208	0	9	5.5274688		-0.071477		1		0		0.41494417201572
209	0	9	5.6111146		-0.070884		1		0		0.44299974517711
210	0	9	5.6931731		-0.069853		1		0		0.47146561086774
211	0	10	5.6931731		-0.068428		1		0		0.50033398319348
212	0	10	5.8526481		-0.066652		1		0		0.52959722400878
213	0	10	5.9301232		-0.064565		1		0		0.55924784011296
214	0	10	6.0061280		-0.062209		1		0		0.58927848049964
215	0	10	6.0806906		-0.059621		1		0		0.61968193365845
216	0	10	6.1538382		-0.056839		1		0		0.65045112492784
217	0	10	6.2255977		-0.053898		1		0		0.68157911389818
218	0	10	6.2959955		-0.050832		0.9		0		0.71305909186419
219	0	10	6.3462037		-0.047672		0.8		0		0.74479011056493
220	0	10	6.3766053		-0.044450		0.7		0		0.77667313737872
221	0	10	6.3875763		-0.041196		0.6		0		0.80861101897112
222	0	10	6.3794853		-0.037938		0.5		0		0.8405084456327
223	0	10	6.3526941		-0.034703		0.4		0		0.87227191629363
224	0	10	6.3075575		-0.031517		0.3		0		0.90380970420211
225	0	10	6.2444238		-0.028400		0.2		0		0.9350318232541
226	0	10	6.1636343		-0.025374		0.1		0		0.96584999496206
227	0	10	6.0655242		-0.022455		1.3877787807814E-16		0		0.99617761605041
228	0	11-	6.0655242		-0.019657		1		0-		0.066031454186763
229	0	11-	5.8375042		-0.016993		0.95		0		0.1403590589268
230	0	11-	5.9058398		-0.014471		0.9		0		0.21555676469149
231	0	11-	5.9634517		-0.012095		0.85		0		0.29148802980157
232	0	11-	6.0105435		-0.009866		0.8		0		0.36801890365363
233	0	11-	6.0473147		-0.007786		0.75		0		0.44501797755068
234	0	11-	6.0739613		-0.005855		0.7		0		0.52235633646579
235	0	11-	6.0906754		-0.004073		0.65		0		0.59990751172116
236	0	11-	6.0976454		-0.002438		0.6		0		0.67754743456502
237	0	11-	6.0950563		-0.000947		0.55		0		0.75515439062964
238	0	11-	6.0830894		0.0004004		0.45		0		0.83260897525342
239	0	11-	6.0524959		0.0016109		0.35		0		0.90967401939703
240	0	11-	6.0036291		0.0026881		0.25		0		0.98611685464667
241	0	12	6.0036291		0.0036375		1		0-		0.0045859066112669
242	0	12	5.8713103		0.0044649		1		0-		0.033942458300565
243	0	12	5.9484312		0.0051768		1		0-		0.06368461456995
244	0	12	6.0240886		0.0057791		1		0-		0.093805058014816
245	0	12	6.0983104		0.0062776		1		0		0.1242966100889
246	0	12	6.1711236		0.0066783		1		0		0.15515222846922
247	0	12	6.2425552		0.0069875		1		0		0.18636500447107
248	0	12	6.3126312		0.0072113		1		0		0.21792816051204
249	0	12	6.3813774		0.0073558		1		0		0.24983504762412
250	0	12	6.4488190		0.0074271		1		0		0.28207914301311
251	0	12	6.5149809		0.0074315		1		0		0.31465404766424
252	0	12	6.5798872		0.0073748		1		0		0.34755348399333
253	0	12	6.6435619		0.0072632		1		0		0.38077129354242
254	0	12	6.7060282		0.0071025		1		0		0.41430143471919
255	0	12	6.7673091		0.0068982		1		0		0.44813798057929
256	0	12	6.8274272		0.0066561		1		0		0.4822751166507
257	0	13	6.8274272		0.0063813		1		0		0.51670713879942
258	0	13	6.9442624		0.0060791		1		0		0.55142845113564
259	0	13	7.0010225		0.0057544		1		0		0.58643356395965
260	0	13	7.0567055		0.0054118		1		0		0.62171709174674
261	0	13	7.1113318		0.0050556		1		0		0.65727375117031
262	0	13	7.1649215		0.0046902		1		0		0.69309835916254
263	0	13	7.2174943		0.0043193		0.9		0		0.72918583101181
264	0	13	7.2502157		0.0039465		0.8		0		0.76543690973558
265	0	13	7.2634624		0.0035753		0.7		0		0.80175422189613
266	0	13	7.2576039		0.0032087		0.6		0		0.83804224185756
267	0	13	7.2330029		0.0028496		0.5		0		0.87420725672104
268	0	13	7.1900150		0.0025007		0.4		0		0.91015733192556
269	0	13	7.1289891		0.0021642		0.3		0		0.94580227750135
270	0	13	7.0502674		0.0018421		0.2		0		0.98105361496377
271	0	14-	7.0502674		0.0015359		1		0-		0.0035162628494132
272	0	14-	7.0107577		-0.504436		1		0-		0.025832856065973
273	0	14-	7.0662560		-1.486446		1		0-		0.048326110919414
274	0	14-	7.1207011		-2.913401		1		0-		0.070992674999672
275	0	14-	7.1741130		-4.753071		1		0-		0.093829259513512
276	0	14-	7.2265113		-6.972389		0.85		0		0.11683263807731
277	0	14-	7.2496347		-9.537754		0.7		0		0.1399096228423
278	0	14-	7.2440387		-12.40211		0.4		0		0.16296879433395
279	0	14-	7.1819876		-15.50703		0.1		0		0.18583044520402
280	0	14-	7.0645527		-18.77218		0.1		0		0.20831827831112
281	0	15-	7.0645527		-22.10054		0.1		0		0.2554327513677
282	0	15-	6.8363262		-25.40762		0		0		0.27719409553315
283	0	15-	6.7065970		-28.62080		0.1		0		0.29854248671978
284	0	15-	6.5981834		-31.67141		0		0		0.31954577643456
285	0	15-	6.4729733		-34.50964		0.1		0		0.34015049835009
286	0	15-	6.3689931		-37.08857		0		0		0.36042423099375
287	0	15-	6.2481322		-39.37771		0.1		0		0.38031324023874
288	0	15-	6.1484186		-41.34830		0.1		0		0.39988484189491
289	0	15-	6.0505972		-42.98560		0.1		0		0.41914505923033
290	0	15-	5.9546321		-44.28103		0.1		0		0.43809980121284
291	0	15-	5.8604881		-45.23131		0.1		0		0.45675486467906
292	0	16-	5.8604881		-45.83784		0.1		0		0.50010930044199
293	0	16-	5.6775258		-46.10599		0.1		0		0.51818195945958
294	0	16-	5.5886403		-46.04449		0.2		0		0.53597167876088
295	0	16-	5.5202952		-45.66748		0.3		0		0.5535438426632
296	0	16-	5.4721009		-45.01304		0.4		0		0.57096259472182
297	0	16-	5.4436749		-44.11616		0.5		0		0.5882908612753
298	0	16-	5.4346420		-43.00877		0.6		0		0.60559037454393
299	0	16-	5.4446344		-41.71995		0.7		0		0.62292169528982
300	0	16-	5.4732908		-40.27608		0.8		0		0.64034423504704
301	0	16-	5.5202572		-38.70103		0.9		0		0.65791627792987
302	0	16-	5.5851861		-37.01645		1		0		0.67569500202722
303	0	16-	5.6677367		-35.24189		1		0-		0.69373650039107
304	0	16-	5.7487207		-33.41646		1		0-		0.71203578649968
305	0	17-	5.7487207		-31.58007		1		0-		0.75558133243748
306	0	17-	5.9061075		-29.76932		0.9		0		0.7743816111805
307	0	17-	5.9637144		-28.01758		0.8		0		0.79336526358621
308	0	17-	6.0013743		-26.34922		0.7		0		0.8124687947472
309	0	17-	6.0194658		-24.77996		0.6		0		0.83162991466375
310	0	17-	6.0183602		-23.31734		0.5		0		0.85078751537899
311	0	17-	5.9984219		-21.96133		0.4		0		0.8698816485479
312	0	17-	5.9600082		-20.70517		0.3		0		0.88885350343202
313	0	17-	5.9034696		-19.53620		0.2		0		0.9076453853117
314	0	17-	5.8291503		-18.43678		0.1		0		0.92620069430804
315	0	17-	5.7373875		-17.38536		2.7755575615629E-17		0		0.9444639046067
316	0	17-	5.6285122		-16.35744		0.1		0		0.96238054407599
317	0	18	5.6285122		-15.32660		1		0-		0.015740700959435
318	0	18	5.6239543		-14.29269		1		0-		0.071980244174262
319	0	18	5.7057691		-13.26170		1		0		0.12903793593086
320	0	18	5.7860314		-12.23923		1		0		0.18689825067737
321	0	18	5.8647706		-11.23048		1		0		0.24554595748173
322	0	18	5.9420156		-10.24027		1		0		0.30496611444084
323	0	18	6.0177948		-9.273031		1		0		0.36514406319583
324	0	18	6.0921360		-8.332757		1		0		0.42606542355138
325	0	18	6.1650664		-7.423055		1		0		0.48771608819717
326	0	18	6.2366129		-6.547119		1		0		0.55008221752951
327	0	18	6.3068017		-5.707736		1		0		0.61315023457121
328	0	18	6.3756585		-4.907295		1		0		0.67690681998784
329	0	18	6.4432087		-4.147789		0.9		0		0.74133890719862
330	0	18	6.4906232		-3.430827		0.8		0		0.80624514005871
331	0	18	6.5182843		-2.757726		0.7		0		0.87142798344736
332	0	18	6.5265667		-2.129465		0.6		0		0.9366936507584
333	0	18	6.5158382		-1.546658		0.5		0		1.0018520327668
334	0	19-	6.5158382		-1.009535		1		0-		0.011743148920122
335	0	19-	6.5519070		-0.208870		1		0-		0.028427935369029
336	0	19-	6.6161126		0.8486074		1		0-		0.045276224879577
337	0	19-	6.6790999		2.1545401		1		0-		0.062284914744699
338	0	19-	6.7408918		3.6990988		1		0-		0.079450961135679
339	0	19-	6.8015111		5.4711467		1		0-		0.096771377984856
340	0	19-	6.8609802		7.4584015		0.85		0		0.11424323588952
341	0	19-	6.8910400		9.6475986		0.7		0		0.13179164288428
342	0	19-	6.8922488		12.012543		0.4		0		0.14934312818709
343	0	19-	6.8368735		14.515803		0.1		0		0.16675359707793
344	0	20-	6.8368735		17.098850		0.1		0		0.20387638042625
345	0	20-	6.6172060		19.686662		0.1		0		0.2207274543713
346	0	20-	6.5104887		22.214522		0		0		0.2373067669182
347	0	20-	6.3869428		24.627410		0.1		0		0.25357146303098
348	0	20-	6.2845951		26.872652		0		0		0.26957552511305
349	0	20-	6.1653358		28.913722		0.1		0		0.28527588697056
350	0	20-	6.0671934		30.715512		0		0		0.30072632385604
351	0	20-	5.9520596		32.256932		0.1		0		0.31588356635577
352	0	20-	5.8579644		33.517344		0		0		0.3308011903588
353	0	20-	5.7468011		34.488082		0		0		0.34543573087112
354	0	20-	5.6377472		35.160008		0		0		0.35979255981138
355	0	20-	5.5307628		35.529143		0		0		0.37387694715832
356	0	21-	5.5307628		35.615736		0		0		0.40768875406897
357	0	21-	5.3228460		35.452114		0.1		0		0.42124367004132
358	0	21-	5.2406911		35.068971		0.2		0		0.43458937398027
359	0	21-	5.1789489		34.494411		0.3		0		0.44777784808831
360	0	21-	5.1372321		33.754001		0.4		0		0.46086008813042
361	0	21-	5.1151607		32.870879		0.5		0		0.47388612215322
362	0	21-	5.1123619		31.865895		0.6		0		0.48690502884877
363	0	21-	5.1284699		30.757771		0.7		0		0.49996495556998
364	0	21-	5.1631261		29.563285		0.8		0		0.51311313600409
365	0	21-	5.2159783		28.297448		0.9		0		0.52639590751082
366	0	21-	5.2866813		26.973697		1		0		0.53985872813148
367	0	21-	5.3748964		25.604068		1		0-		0.55354619327527
368	0	21-	5.4614375		24.199379		1		0-		0.56745403998747
369	0	22-	5.4614375		22.769955		1		0-		0.60157277739287
370	0	22-	5.6296241		21.325610		1		0-		0.61590892042552
371	0	22-	5.7113314		19.885344		0.9		0		0.63045313542546
372	0	22-	5.7726344		18.482004		0.8		0		0.64515346182463
373	0	22-	5.8139203		17.139841		0.6		0		0.65995892508187
374	0	22-	5.8167153		15.874791		0.4		0		0.67477150587012
375	0	22-	5.7817497		14.689183		0.3		0		0.68949504492082
376	0	22-	5.7285939		13.573090		0.2		0		0.70408321982816
377	0	22-	5.6575930		12.511683		0.1		0		0.71849058722098
378	0	22-	5.5690858		11.486176		3.6082248300318E-16		0		0.7326725660818
379	0	22-	5.4634043		10.483260		0.1		0		0.74658542138243
380	0	22-	5.3785821		9.5090433		0.15		0		0.76028227223323
381	0	22-	5.3047963		8.5683165		0.2		0		0.77379122368181
382	0	23-	5.3047963		7.6648459		0.25		0		0.80713453862564
383	0	23-	5.1895006		6.8015001		0.3		0		0.82034988319773
384	0	23-	5.1475835		5.9803683		0.35		0		0.83345848379798
385	0	23-	5.1158888		5.2028692		0.4		0		0.84648637209842
386	0	23-	5.0942225		4.4698483		0.45		0		0.85945908578245
387	0	23-	5.0823941		3.7816665		0.5		0		0.87240167791901
388	0	23-	5.0802171		3.1382781		0.55		0		0.88533872615879
389	0	23-	5.0875082		2.5392995		0.6		0		0.89829434175603
390	0	23-	5.1040879		1.9840704		0.65		0		0.91129217841906
391	0	23-	5.1297799		1.4717056		0.7		0		0.92435544099287
392	0	23-	5.1644111		1.0011404		0.75		0		0.93750689397695
393	0	23-	5.2078121		0.5711689		0.8		0		0.95076886988151
394	0	23-	5.2598164		0.1804763		0.85		0		0.96416327742505
395	0	23-	5.3202606		-0.172333		0.85		0		0.97771160957648
396	0	24-	5.3202606		-0.488716		1		0-		0.0070267082163603
397	0	24-	5.4377299		-0.770174		1		0-		0.076264078066993
398	0	24-	5.5230786		-1.018252		0.9		0		0.14658817376518
399	0	24-	5.5879540		-1.234491		0.8		0		0.21773831260845
400	0	24-	5.6327445		-1.420484		0.7		0		0.28945875872561
401	0	24-	5.6578313		-1.577876		0.6		0		0.36149862920352
402	0	24-	5.6635883		-1.708370		0.5		0		0.43361180199513
403	0	24-	5.6503822		-1.813720		0.4		0		0.50555682557524
404	0	24-	5.6185731		-1.895725		0.3		0		0.57709683031052
405	0	24-	5.5685138		-1.956215		0.2		0		0.64799944151153
406	0	24-	5.5005507		-1.997039		0.1		0		0.71803669413463
407	0	24-	5.4150235		-2.020051		1.3877787807814E-16		0		0.7869849491026
408	0	24-	5.3122656		-2.027087		0.1		0		0.85462481121316
409	0	24-	5.2303114		-2.019960		0.1		0		0.9212211696209
410	0	24-	5.1499125		-2.000339		0.1		0		0.98679382631779
411	0	25	5.1499125		-1.969803		1		0-		0.0010455221671322
412	0	25	5.1633464		-1.929835		1		0-		0.052678986732693
413	0	25	5.2539020		-1.881407		1		0		0.10521800684414
414	0	25	5.3427391		-1.825467		1		0		0.15864539827528
415	0	25	5.4298904		-1.762929		1		0		0.2129443028955
416	0	25	5.5153879		-1.694680		1		0		0.26809818248155
417	0	25	5.5992630		-1.621572		1		0		0.32409081264691
418	0	25	5.6815464		-1.544425		1		0		0.38090627688627
419	0	25	5.7622683		-1.464025		1		0		0.43852896073302
420	0	25	5.8414585		-1.381119		1		0		0.49694354602762
421	0	25	5.9191459		-1.296420		1		0		0.55613500529478
422	0	25	5.9953590		-1.210598		1		0		0.61608859622729
423	0	25	6.0701260		-1.124286		1		0		0.67678985627452
424	0	25	6.1434741		-1.038074		0.9		0		0.73822459733368
425	0	25	6.1965765		-0.952512		0.8		0		0.80019036302042
426	0	25	6.2298175		-0.868128		0.7		0		0.86248853885311
427	0	25	6.2435740		-0.785422		0.6		0		0.92492427934714
428	0	25	6.2382157		-0.704857		0.5		0		0.9873064364928
429	0	26-	6.2382157		-0.626852		1		0-		0.031480177997958
430	0	26-	6.2847211		-0.346395		1		0-		0.071491135791325
431	0	26-	6.3539970		0.1402393		0.9		0		0.11194313033199
432	0	26-	6.4031045		0.8347440		0.75		0		0.15270776205591
433	0	26-	6.4229994		1.7296078		0.6		0		0.19359905283951
434	0	26-	6.4142363		2.8052971		0.45		0		0.2344345537631
435	0	26-	6.3773587		4.0317235		0.3		0		0.27503527813911
436	0	26-	6.3129004		5.3699466		0.15		0		0.31522563581124
437	0	26-	6.2213846		6.7740479		0.1		0		0.35483336870034
438	0	26-	6.1221786		8.1931101		0.1		0		0.39380951782737
439	0	26-	6.0248551		9.5797480		0		0		0.43216606840768
440	0	27-	6.0248551		10.893594		0.1		0		0.51978147592536
441	0	27-	5.7983640		12.094753		0		0		0.55669609686686
442	0	27-	5.6883317		13.150577		0.1		0		0.59291020948663
443	0	27-	5.5992411		14.035025		0		0		0.62855713719712
444	0	27-	5.4929874		14.733338		0.1		0		0.66352761289839
445	0	27-	5.4076038		15.260658		0		0		0.69795450349957
446	0	27-	5.3049867		15.632091		0.1		0		0.73172809406021
447	0	27-	5.2231706		15.862721		0.1		0		0.76498081214734
448	0	27-	5.1429072		15.966721		0.1		0		0.79772254206949
449	0	27-	5.0641668		15.957676		0.2		0		0.82996298056613
450	0	27-	5.0057744		15.848521		0.3		0		0.86183167062096
451	0	27-	4.9673439		15.651113		0.4		0		0.89345569695224
452	0	27-	4.9484964		15.376266		0.5		0		0.92495973266187
453	0	28	4.9484964		15.033791		1		0-		0.016347993475809
454	0	28	4.9492172		14.632564		1		0-		0.096174078516039
455	0	28	5.0438362		14.180935		1		0		0.17752627590384
456	0	28	5.1366596		13.685061		1		0		0.26037562545022
457	0	28	5.2277216		13.150905		1		0		0.34469371652763
458	0	28	5.3170555		12.584228		1		0		0.43045267764131
459	0	28	5.4046942		11.990580		1		0		0.51762516619838
460	0	28	5.4906699		11.375290		1		0		0.60618435847125
461	0	28	5.5750140		10.743456		1		0		0.69610393975131
462	0	28	5.6577576		10.099937		0.9		0		0.78735809468964
463	0	28	5.7200772		9.4493422		0.8		0		0.87961740504457
464	0	28	5.7623605		8.7962424		0.7		0		0.97255870376201
465	0	29-	5.7623605		8.1450936		1		0-		0.025997945527341
466	0	29-	5.8637466		7.5001606		1		0-		0.063328817239141
467	0	29-	5.9410111		6.8647471		0.95		0		0.10115158420783
468	0	29-	6.0073824		6.2418956		0.9		0		0.13939689688253
469	0	29-	6.0630674		5.6344574		0.85		0		0.1779967217204
470	0	29-	6.1082689		5.0450604		0.8		0		0.21688431621346
471	0	29-	6.1431856		4.4150564		0.8		0		0.25599420438936
472	0	29-	6.1774398		3.6921978		0.8		0		0.29532216790396
473	0	29-	6.2110440		2.8319787		0.8		0		0.3348640684623
474	0	29-	6.2440105		1.8116054		0.8		0		0.37461584629958
475	0	29-	6.2763513		0.6220362		0.8		0		0.41457351869087
476	0	29-	6.3080785		-0.725954		0.7		0		0.45473317848923
477	0	29-	6.3203499		-2.203029		0.55		0		0.49497096243757
478	0	30-	6.3203499		-3.761849		0.4		0		0.51924948068045
479	0	30-	6.2598932		-5.373911		0.25		0		0.55910237398444
480	0	30-	6.1882370		-7.004975		0.1		0		0.59849907663377
481	0	30-	6.0896600		-8.614696		0.1		0		0.63726820012505
482	0	30-	5.9929537		-10.15852		0		0		0.67542165368046
483	0	30-	5.8792287		-11.59890		0.1		0		0.71285109027357
484	0	30-	5.7865156		-12.89880		0.1		0		0.74969027942729
485	0	30-	5.6955618		-14.03405		0.1		0		0.78595042194044
486	0	30-	5.6063341		-14.98582		0.1		0		0.82164250606051
487	0	30-	5.5187995		-15.74007		0.1		0		0.85677731151708
488	0	30-	5.4329261		-16.31030		0.1		0		0.89136541347879
489	0	30-	5.3486822		-16.71275		0.1		0		0.92541718643513
490	0	31-	5.3486822		-16.96321		1		0-		0.0044647679820586
491	0	31-	5.3546438		-17.07697		1		0-		0.021509631457754
492	0	31-	5.4415692		-17.06505		1		0-		0.038831195266632
493	0	31-	5.5268451		-16.93825		1		0-		0.056424208619678
494	0	31-	5.6105027		-16.70710		1		0-		0.074283520369199
495	0	31-	5.6925729		-16.38190		1		0-		0.092404077117973
496	0	31-	5.7730856		-15.97266		1		0		0.11078092136431
497	0	31-	5.8520704		-15.48907		1		0		0.12940918968226
498	0	31-	5.9295565		-14.94054		1		0		0.14828411093645
499	0	31-	6.0055721		-14.33612		1		0		0.16740100453067
500	0	31-	6.0801452		-13.68453		1		0		0.18675527868981
501	0	31-	6.1533031		-12.99408		1		0		0.20634242877433
502	0	31-	6.2250728		-12.27274		1		0		0.22615803562674
503	0	31-	6.2954806		-11.51690		1		0		0.24619776394945
504	0	31-	6.3645523		-10.71328		1		0		0.26645736071341
505	0	32-	6.3645523		-9.850372		1		0		0.26192454290551
506	0	32-	6.4987883		-8.918427		1		0		0.28261143876283
507	0	32-	6.5640019		-7.909374		1		0		0.30350592212143
508	0	32-	6.6279780		-6.816741		1		0		0.32460405370827
509	0	32-	6.6907400		-5.635584		1		0		0.34590196900366
510	0	32-	6.7523111		-4.362403		0.9		0		0.36739587682279
511	0	32-	6.7938600		-2.995057		0.8		0		0.38902204279711
512	0	32-	6.8157667		-1.539529		0.7		0		0.4107179420099
513	0	32-	6.8184039		-0.009072		0.6		0		0.43242223604515
514	0	32-	6.8021374		1.5767330		0.4		0		0.454074750472
515	0	32-	6.7484720		3.1930068		0.15		0		0.47555643762952
516	0	32-	6.6486906		4.8040193		0.05		0		0.49672050139483
517	0	32-	6.5319489		6.3624338		0.1		0		0.51751295400423
518	0	33-	6.5319489		7.8219126		0		0		0.51296274418888
519	0	33-	6.3048907		9.1469630		0.1		0		0.53303242680774
520	0	33-	6.2041001		10.303088		0		0		0.5527812732992
521	0	33-	6.0863683		11.268483		0.1		0		0.57215535686587
522	0	33-	5.9897244		12.051609		0		0		0.5912218043032
523	0	33-	5.8760607		12.666189		0.1		0		0.60992643832474
524	0	33-	5.7834077		13.126278		0		0		0.62833613999028
525	0	33-	5.6736592		13.445464		0.1		0		0.64639649094089
526	0	33-	5.5848471		13.637375		0		0		0.6641741357386
527	0	33-	5.4788665		13.714892		0.1		0		0.68161442401458
528	0	33-	5.3937508		13.690730		0.1		0		0.69878377272371
529	0	33-	5.3102504		13.576678		0.1		0		0.71568732333612
530	0	33-	5.2283344		13.383912		0.1		0		0.73233011975511
531	0	33-	5.1479730		13.122954		0.1		0		0.74871711016865
532	0	33-	5.0691365		12.803645		0.1		0		0.76485314886564
533	0	34-	5.0691365		12.435138		0.1		0		0.75573488732641
534	0	34-	4.9159233		12.025889		0.1		0		0.77138321873654
535	0	34-	4.8414903		11.583668		0.1		0		0.78679461555304
536	0	34-	4.7684697		11.115566		0.1		0		0.80197357395249
537	0	34-	4.6968349		10.628018		0.1		0		0.81692450479004
538	0	34-	4.6265594		10.126828		0.2		0		0.83165173521847
539	0	34-	4.5764712		9.6171922		0.3		0		0.84621952540353
540	0	34-	4.5461873		9.1035033		0.4		0		0.86069091608138
541	0	34-	4.5353319		8.5894505		0.5		0		0.87512775169904
542	0	34-	4.5435361		8.0781079		0.55		0		0.88959070311571
543	0	34-	4.5610116		7.5720207		0.6		0		0.90410928230981
544	0	34-	4.5875823		7.0733721		0.65		0		0.91871244122728
545	0	34-	4.6230757		6.5840262		0.7		0		0.93342858240902
546	0	34-	4.6673224		6.1055669		0.75		0		0.94828556941663
547	0	34-	4.7201564		5.6393327		0.7		0		0.96331073706034
548	0	34-	4.7625608		5.1864487		0.65		0		0.97847088630587
549	0	34-	4.7947337		4.7479772		0.6		0		0.99373344811861
550	0	34-	4.8168692		4.3248962		0.55		0		1.0090664715085
551	0	34-	4.8291578		3.9180827		0.5		0		1.0244386118018
552	0	35	4.8291578		3.5282993		1		0-		0.0052279531489666
553	0	35	4.9286337		3.1561842		1		0-		0.010765743896566
554	0	35	5.0236433		2.8018361		1		0-		0.016410286967051
555	0	35	5.1168499		2.4653285		1		0-		0.022159556580697
556	0	35	5.2082878		2.1467032		1		0-		0.028011565399885
557	0	35	5.2979905		1.8459647		1		0-		0.033964363799597
558	0	35	5.3859910		1.5630751		1		0-		0.040016039151771
559	0	35	5.4723216		1.2979511		1		0-		0.046164715123231
560	0	35	5.5570139		1.0504610		1		0-		0.052408550986933
561	0	35	5.6400990		0.8204232		1		0-		0.058745740946293
562	0	35	5.7216075		0.6076050		1		0-		0.065174513472328
563	0	35	5.8015692		0.4117230		1		0-		0.071693130653382
564	0	35	5.8800136		0.2324435		1		0-		0.078299887557182
565	0	35	5.9569694		0.0693834		1		0-		0.084993111605014
566	0	35	6.0324648		-0.077887		1		0-		0.091771161957763
567	0	35	6.1065275		-0.209843		1		0-		0.09863242891361
568	0	35	6.1791849		-0.327002		1		0		0.10557533331715
569	0	36	6.1791849		-0.429919		1		0		0.11259832597976
570	0	36	6.3203894		-0.519186		1		0		0.11969988711087
571	0	36	6.3889883		-0.595424		1		0		0.12687852576017
572	0	36	6.4562856		-0.659283		1		0		0.13413277927027
573	0	36	6.5223057		-0.711435		1		0		0.14146121273982
574	0	36	6.5870731		-0.752572		1		0		0.14886241849682
575	0	36	6.6506114		-0.783399		1		0		0.15633501558186
576	0	36	6.7129439		-0.804631		1		0		0.16387764924123
577	0	36	6.7740936		-0.816987		1		0		0.17148899042964
578	0	36	6.8340829		-0.821190		1		0		0.17916773532236
579	0	36	6.8929338		-0.817958		1		0		0.18691260483661
580	0	36	6.9506679		-0.808001		1		0		0.19472234416207
581	0	36	7.0073065		-0.792019		1		0		0.20259572230024
582	0	36	7.0628702		-0.770699		1		0		0.21053153161262
583	0	36	7.1173796		-0.744706		1		0		0.21852858737738
584	0	37	7.1173796		-0.714687		1		0		0.2265857273545
585	0	37	7.2233147		-0.681264		1		0		0.23470181135916
586	0	37	7.2747794		-0.645032		1		0		0.24287572084318
587	0	37	7.3252675		-0.606557		1		0		0.25110635848446
588	0	37	7.3747974		-0.566376		1		0		0.25939264778417
589	0	37	7.4233875		-0.524992		1		0		0.26773353267161
590	0	37	7.4710555		-0.482875		1		0		0.27612797711653
591	0	37	7.5178189		-0.440460		1		0		0.28457496474887
592	0	37	7.5636950		-0.398147		1		0		0.29307349848565
593	0	37	7.6087004		-0.356302		1		0		0.301622600165
594	0	37	7.6528519		-0.315252		1		0		0.31022131018706
595	0	37	7.6961655		-0.275291		1		0		0.31886868716179
596	0	37	7.7386571		-0.236678		1		0		0.32756380756336
597	0	37	7.7803424		-0.199637		1		0		0.33630576539122
598	0	38	7.7803424		-0.164359		1		0		0.34509367183744
599	0	38	7.8613549		-0.131001		1		0		0.35392665496055
600	0	38	7.9007119		-0.099692		1		0		0.3628038593654
601	0	38	7.9393220		-0.070529		1		0		0.37172444588922
602	0	38	7.9771994		-0.043583		1		0		0.38068759129355
603	0	38	8.0143580		-0.018897		1		0		0.38969248796209
604	0	38	8.0508115		0.0035100		1		0		0.39873834360421
605	0	38	8.0865732		0.0236410		1		0		0.40782438096416
606	0	38	8.1216563		0.0415199		1		0		0.41694983753571
607	0	38	8.1560736		0.0571894		1		0		0.42611396528232
608	0	38	8.1898379		0.0707090		1		0		0.43531603036251
609	0	38	8.2229614		0.0821527		1		0		0.44455531286051
610	0	39	8.2229614		0.0916076		1		0		0.45383110652199
611	0	39	8.2873346		0.0991717		1		0		0.46314271849481
612	0	39	8.3186080		0.1049520		1		0		0.47248946907472
613	0	39	8.3492879		0.1090630		1		0		0.48187069145582
614	0	39	8.3793856		0.1116246		1		0		0.49128573148583
615	0	39	8.4089121		0.1127609		1		0		0.50073394742595
616	0	39	8.4378784		0.1125984		1		0		0.51021470971531
617	0	39	8.4662950		0.1112644		1		0		0.51972740073985
618	0	39	8.4941723		0.1088864		1		0		0.52927141460565
619	0	39	8.5215206		0.1055900		1		0		0.5388461569165
620	0	39	8.5483499		0.1014986		1		0		0.5484510445557
621	1	0	8.5483499		0.0967317		1		0		0.55808550547205
622	1	0	8.6004909		0.0914047		1		0		0.56774897846984
623	1	0	8.6258217		0.0856278		1		0		0.57744091300288
624	1	0	8.6506718		0.0795052		1		0		0.58716076897236
625	1	0	8.6750503		0.0731353		1		0		0.59690801652865
626	1	0	8.6989662		0.0666092		1		0		0.60668213587677
627	1	0	8.7224282		0.0600115		1		0		0.61648261708561
628	1	0	8.7454451		0.0534192		1		0		0.62630895990073
629	1	0	8.7680251		0.0469022		1		0		0.63616067356075
630	1	0	8.7901767		0.0405228		1		0		0.64603727661719
631	1	0	8.8119079		0.0343362		1		0		0.65593829675776
632	1	1	8.8119079		0.0283900		1		0		0.66586327063297
633	1	1	8.8541410		0.0227249		1		0		0.67581174368607
634	1	1	8.8746584		0.0173748		1		0		0.68578326998617
635	1	1	8.8947864		0.0123670		1		0		0.69577741206456
636	1	1	8.9145325		0.0077225		0.9		0		0.70579374075414
637	1	1	8.9150501		0.0034563		0.8		0		0.71581065104072
638	1	1	8.8967042		-0.000421		0.7		0		0.72580694789649
639	1	1	8.8598526		-0.003907		0.6		0		0.73576183849996
640	1	1	8.8048466		-0.007000		0.5		0		0.74565492460349
641	1	1	8.7320306		-0.009708		0.4		0		0.7554661950457
642	1	1	8.6417427		-0.012038		0.3		0		0.76517601840593
643	1	1	8.5343144		-0.014006		0.2		0		0.77476513579812
644	1	2	8.5343144		-0.015627		0.1		0		0.78421465380144
645	1	2	8.2881852		-0.016922		1.3877787807814E-16		0		0.79352722151619
646	1	2	8.1309049		-0.017912		0.1		0		0.80266306978985
647	1	2	7.9954630		-0.018621		0.1		0		0.81164673612056
648	1	2	7.8625913		-0.019073		0.1		0		0.82048110838079
649	1	2	7.7322410		-0.019293		0.1		0		0.82916901964144
650	1	2	7.6043643		-0.019303		0.1		0		0.83771324921182
651	1	2	7.4789142		-0.019130		0.1		0		0.8461165236598
652	1	2	7.3558447		-0.018795		0.1		0		0.85438151781268
653	1	2	7.2351107		-0.018320		0.1		0		0.86251085573907
654	1	2	7.1166678		-0.017728		0.1		0		0.87050711171206
655	1	2	7.0004725		-0.017036		0.1		0		0.87837281115418
656	1	2	6.8864821		-0.016265		0.1		0		0.88611043156445
657	1	3	6.8864821		-0.015431		0.1		0		0.89372240342772
658	1	3	6.6649498		-0.014550		0.1		0		0.9012111111069
659	1	3	6.5573265		-0.013636		0.1		0		0.90857889371815
660	1	3	6.4517455		-0.012701		0.1		0		0.91582804598955
661	1	3	6.3481680		-0.011757		0.1		0		0.92296081910335
662	1	3	6.2465561		-0.010815		0.1		0		0.9299794215224
663	1	3	6.1468724		-0.009882		0.1		0		0.93688601980075
664	1	3	6.0490804		-0.008967		0.1		0		0.94368273937896
665	1	3	5.9531441		-0.008075		0.2		0		0.95037166536428
666	1	3	5.8778821		-0.007212		0.3		0		0.9569760272872
667	1	3	5.8229020		-0.006383		0.4		0		0.96351861386426
668	1	3	5.7878190		-0.005590		0.5		0		0.97002178136316
669	1	3	5.7722555		-0.004836		0.6		0		0.97650746180908
670	1	3	5.7758412		-0.004122		0.7		0		0.98299717103529
671	1	3	5.7982125		-0.003450		0.8		0		0.98951201658103
672	1	3	5.8390130		-0.002821		0.9		0		0.99607270543943
673	1	4-	5.8390130		-0.002233		1		0-		0.00087175166799247
674	1	4-	5.9745096		0.0932875		1		0-		0.016086164156196
675	1	4-	6.0496721		0.2993035		1		0-		0.031491982178538
676	1	4-	6.1234084		0.6290874		1		0-		0.047085573538177
677	1	4-	6.1957453		1.0936975		1		0-		0.062863374964465
678	1	4-	6.2667096		1.7020559		1		0-		0.078821890804964
679	1	4-	6.3363273		2.4610356		1		0-		0.094957691742299
680	1	4-	6.4046238		3.3755546		0.85		0		0.11126741353535
681	1	4-	6.4433437		4.4486755		0.7		0		0.127675737632
682	1	4-	6.4530482		5.6707783		0.55		0		0.14410877475859
683	1	4-	6.4342879		7.0208493		0.4		0		0.1604940377973
684	1	4-	6.3876030		8.4680363		0.25		0		0.17676041517819
685	1	5-	6.3876030		9.9734061		0.1		0		0.21283283596001
686	1	5-	6.2125689		11.491839		0.1		0		0.22865347948737
687	1	5-	6.1135302		12.974008		0		0		0.24422191552407
688	1	5-	5.9975171		14.377918		0.1		0		0.25949491797045
689	1	5-	5.9025593		15.662252		0		0		0.27452610520774
690	1	5-	5.7905497		16.799120		0.1		0		0.28927205392769
691	1	5-	5.6995194		17.760641		0		0		0.30378618904527
692	1	5-	5.5913628		18.530659		0.1		0		0.3180248974573
693	1	5-	5.5041123		19.094161		0		0		0.33204141788542
694	1	5-	5.3996638		19.469942		0.1		0		0.34579195456643
695	1	5-	5.3160511		19.676732		0.1		0		0.35932956702816
696	1	5-	5.2340251		19.732089		0.1		0		0.37265829581563
697	1	6-	5.2340251		19.652812		0.2		0		0.40577679598245
698	1	6-	5.0934670		19.454861		0.3		0		0.41874758591229
699	1	6-	5.0533724		19.152840		0.4		0		0.43161627264831
700	1	6-	5.0328923		18.760037		0.5		0		0.44443280584787
701	1	6-	5.0316547		18.288493		0.6		0		0.45724618730131
702	1	6-	5.0492943		17.749077		0.7		0		0.47010448891912
703	1	6-	5.0854529		17.151577		0.8		0		0.48305487037778
704	1	6-	5.1397791		16.504797		0.9		0		0.49614359643069
705	1	6-	5.2119281		15.816657		1		0		0.50941605389066
706	1	6-	5.3015617		15.094286		1		0-		0.52291676829006
707	1	6-	5.3894945		14.344124		1		0		0.53664140812334
708	1	6-	5.4757585		13.572343		1		0		0.55058572408154
709	1	6-	5.5603856		12.784842		1		0		0.56474554749246
710	1	6-	5.6434068		11.987230		1		0		0.57911678879051
711	1	7-	5.6434068		11.198724		0.8		0		0.61369012719927
712	1	7-	5.8047526		10.448025		0.6		0		0.62847224452377
713	1	7-	5.8077216		9.7610853		0.55		0		0.64326192240213
714	1	7-	5.8012073		9.1374338		0.5		0		0.65803501131111
715	1	7-	5.7853898		8.5732448		0.45		0		0.67276781999962
716	1	7-	5.7604455		8.0617555		0.4		0		0.68743710679233
717	1	7-	5.7265477		7.5936938		0.35		0		0.7020200710583
718	1	7-	5.6838663		7.1577089		0.3		0		0.71649434484155
719	1	7-	5.6325680		6.7407983		0.25		0		0.73083798465039
720	1	7-	5.5728163		6.3287253		0.2		0		0.74502946340265
721	1	7-	5.5047715		5.9137736		0.2		0		0.75904766252366
722	1	7-	5.4380180		5.4996245		0.15		0		0.77289587024505
723	1	8-	5.4380180		5.0895066		0.1		0		0.80654799753247
724	1	8-	5.2801855		4.6862810		0.15		0		0.81999427613496
725	1	8-	5.2082669		4.2924474		0.2		0		0.83325741030604
726	1	8-	5.1471401		3.9100519		0.25		0		0.84636488152696
727	1	8-	5.0966000		3.5407389		0.3		0		0.85934364977812
728	1	8-	5.0564459		3.1858002		0.35		0		0.87222016343528
729	1	8-	5.0264807		2.8462192		0.4		0		0.88502036897805
730	1	8-	5.0065109		2.5227133		0.45		0		0.89776972051404
731	1	8-	4.9963470		2.2157704		0.5		0		0.91049318912235
732	1	8-	4.9958029		1.9256834		0.55		0		0.92321527201976
733	1	8-	5.0046959		1.6525797		0.6		0		0.9359600015529
734	1	8-	5.0228471		1.3964480		0.65		0		0.9487509540199
735	1	8-	5.0500807		1.1571619		0.7		0		0.96161125832451
736	1	8-	5.0862244		0.9344996		0.75		0		0.97456360446609
737	1	8-	5.1311091		0.7281622		0.8		0		0.98763025186845
738	1	9	5.1311091		0.5377882		1		0-		0.021258989552013
739	1	9	5.2747217		0.3629664		1		0-		0.047632598204766
740	1	9	5.3631637		0.2032335		1		0-		0.074448417095935
741	1	9	5.4499275		0.0581115		1		0		0.10169805464668
742	1	9	5.5350447		-0.072894		1		0		0.1293732785205
743	1	9	5.6185468		-0.190294		1		0		0.15746601260141
744	1	9	5.7004642		-0.294619		1		0		0.18596833402936
745	1	9	5.7808272		-0.386411		1		0		0.21487247029209
746	1	9	5.8596652		-0.466232		1		0		0.24417079637194
747	1	9	5.9370071		-0.534656		1		0		0.27385583194703
748	1	9	6.0128813		-0.592270		1		0		0.30392023864539
749	1	9	6.0873157		-0.639671		1		0		0.33435681735127
750	1	9	6.1603376		-0.677464		1		0		0.36515850556256
751	1	9	6.2319738		-0.706261		1		0		0.39631837479834
752	1	9	6.3022506		-0.726677		1		0		0.42782962805564
753	1	9	6.3711938		-0.739327		1		0		0.45968559731444
754	1	9	6.4388287		-0.744823		1		0		0.49187974109006
755	1	10	6.4388287		-0.743775		1		0		0.52440564203193
756	1	10	6.5702725		-0.736784		1		0		0.55725700456801
757	1	10	6.6341296		-0.724441		1		0		0.59042765259385
758	1	10	6.6967749		-0.707325		1		0		0.62391152720547
759	1	10	6.7582314		-0.686000		1		0		0.65770268447542
760	1	10	6.8185217		-0.661011		1		0		0.69179529327082
761	1	10	6.8776679		-0.632888		0.9		0		0.72618363311299
762	1	10	6.9168380		-0.602136		0.8		0		0.76076782331694
763	1	10	6.9364110		-0.569253		0.7		0		0.79544987857816
764	1	10	6.9367588		-0.534723		0.6		0		0.83013367300497
765	1	10	6.9182463		-0.499009		0.5		0		0.86472490483353
766	1	10	6.8812313		-0.462551		0.4		0		0.89913106181238
767	1	10	6.8260650		-0.425760		0.3		0		0.93326138724378
768	1	10	6.7530918		-0.389016		0.2		0		0.96702684666964
769	1	11-	6.7530918		-0.352662		1		0-		0.00086607083100389
770	1	11-	6.5739237		-0.317007		1		0-		0.084570336868846
771	1	11-	6.6377116		-0.282312		0.95		0		0.16908679847572
772	1	11-	6.6908620		-0.248744		0.9		0		0.25428001281213
773	1	11-	6.7335770		-0.216452		0.85		0		0.34001710726235
774	1	11-	6.7660545		-0.185568		0.8		0		0.42616773066071
775	1	11-	6.7884889		-0.156203		0.75		0		0.51260400544343
776	1	11-	6.8010706		-0.128449		0.7		0		0.59920048070846
777	1	11-	6.8039867		-0.102378		0.65		0		0.68583408616605
778	1	11-	6.7974206		-0.078044		0.6		0		0.7723840869632
779	1	11-	6.7815523		-0.055480		0.55		0		0.85873203936534
780	1	11-	6.7565581		-0.034702		0.5		0		0.9447617472791
781	1	11-	6.7226114		-0.015708		0.45		0		1.0303592196
782	1	12	6.7226114		0.0015171		1		0-		0.025674560719272
783	1	12	6.6379635		0.0170078		1		0-		0.058864378479728
784	1	12	6.7005361		0.0308083		1		0-		0.092367059052544
785	1	12	6.7619212		0.0429707		1		0		0.12617666541336
786	1	12	6.8221415		0.0535537		1		0		0.16028737320145
787	1	12	6.8812190		0.0626217		1		0		0.19469346858175
788	1	12	6.9391755		0.0702442		1		0		0.22938934614748
789	1	12	6.9960321		0.0764952		1		0		0.26436950686255
790	1	12	7.0518098		0.0814521		1		0		0.29962855604307
791	1	12	7.1065290		0.0851954		1		0		0.33516120137702
792	1	12	7.1602099		0.0878075		1		0		0.37096225098172
793	1	12	7.2128721		0.0893725		1		0		0.40702661149792
794	1	12	7.2645349		0.0899752		1		0		0.44334928622026
795	1	12	7.3152174		0.0897006		1		0		0.47992537326308
796	1	13	7.3152174		0.0886333		1		0		0.51675006376108
797	1	13	7.4137152		0.0868567		1		0		0.55381864010416
798	1	13	7.4615668		0.0844528		1		0		0.59112647420567
799	1	13	7.5085103		0.0815017		1		0		0.62866902580361
800	1	13	7.5545629		0.0780807		1		0		0.66644184079401
801	1	13	7.5997417		0.0742645		0.9		0		0.70444054959597
802	1	13	7.6252094		0.0701244		0.8		0		0.74256659678706
803	1	13	7.6313400		0.0657299		0.7		0		0.78072329717651
804	1	13	7.6185006		0.0611479		0.6		0		0.81881580031489
805	1	13	7.5870510		0.0564418		0.5		0		0.85675105567724
806	1	13	7.5373445		0.0516710		0.4		0		0.89443777850686
807	1	13	7.4697275		0.0468904		0.3		0		0.93178641630738
808	1	13	7.3845399		0.0421501		0.2		0		0.96870911597051
809	1	13	7.2821151		0.0374947		0.1		0		1.0051196915278
810	1	14-	7.2821151		0.0329636		1		0-		0.019501650516959
811	1	14-	7.2153936		-0.572340		1		0-		0.042469639072957
812	1	14-	7.2670085		-1.737642		1		0-		0.065601928097161
813	1	14-	7.3176441		-3.420901		1		0-		0.088895399750562
814	1	14-	7.3673187		-5.579202		0.85		0		0.11234699535965
815	1	14-	7.3877701		-8.169149		0.7		0		0.13586369160325
816	1	14-	7.3795527		-11.13355		0.4		0		0.15935423041225
817	1	14-	7.3149300		-14.40367		0.1		0		0.18263906278093
818	1	14-	7.1949724		-17.88841		0.1		0		0.20554204690568
819	1	15-	7.1949724		-21.47985		0.1		0		0.2530637928889
820	1	15-	6.9618431		-25.08345		0.1		0		0.27522468138818
821	1	15-	6.8485858		-28.61750		0		0		0.297025050104
822	1	15-	6.7186240		-32.01241		0.1		0		0.31841172529371
823	1	15-	6.6099821		-35.20271		0		0		0.33945257251724
824	1	15-	6.4845481		-38.14183		0.1		0		0.36009413923346
825	1	15-	6.3803482		-40.78618		0		0		0.38040401749444
826	1	15-	6.2592719		-43.10854		0		0		0.40032848644138
827	1	15-	6.1404931		-45.08340		0		0		0.41987485977342
828	1	15-	6.0239684		-46.69346		0		0		0.43905031240171
829	1	15-	5.9096549		-47.92863		0		0		0.45786188308304
830	1	16-	5.9096549		-48.78512		0		0		0.50130984098337
831	1	16-	5.6874945		-49.26458		0		0		0.51941423229357
832	1	16-	5.5795660		-49.37332		0		0		0.53717506659441
833	1	16-	5.4736857		-49.12682		0.1		0		0.55459886337701
834	1	16-	5.3886684		-48.56885		0.2		0		0.5717520335427
835	1	16-	5.3241181		-47.73952		0.3		0		0.58869972774988
836	1	16-	5.2796465		-46.67541		0.4		0		0.60550586032899
837	1	16-	5.2548726		-45.40968		0.5		0		0.62223313274362
838	1	16-	5.2494225		-43.97224		0.6		0		0.63894305660639
839	1	16-	5.2629297		-42.39001		0.7		0		0.65569597625812
840	1	16-	5.2950342		-40.68713		0.8		0		0.67255109091847
841	1	16-	5.3453833		-38.88524		0.9		0		0.68956647641631
842	1	16-	5.4136307		-37.00372		1		0		0.70679910650765
843	1	16-	5.4994367		-35.05994		1		0-		0.72430487378906
844	1	17-	5.4994367		-33.06953		1		0-		0.76707195906707
845	1	17-	5.6661949		-31.04735		1		0-		0.78510854956721
846	1	17-	5.7472081		-29.02837		0.9		0		0.80340302094591
847	1	17-	5.8078303		-27.04889		0.8		0		0.82189046441359
848	1	17-	5.8484484		-25.13647		0.7		0		0.8405072029188
849	1	17-	5.8694418		-23.31022		0.6		0		0.85919076777427
850	1	17-	5.8711832		-21.58113		0.5		0		0.8778798757264
851	1	17-	5.8540378		-19.95271		0.4		0		0.89651440645995
852	1	17-	5.8183640		-18.42164		0.3		0		0.91503538052964
853	1	17-	5.7645133		-16.97860		0.2		0		0.93338493771045
854	1	17-	5.6928309		-15.60913		0.1		0		0.95150631575882
855	1	17-	5.6036549		-14.29464		2.7755575615629E-17		0		0.96934382957683
856	1	18	5.6036549		-13.01335		1		0-		0.037183468642162
857	1	18	5.5815354		-11.77076		1		0-		0.092998823434992
858	1	18	5.6641552		-10.57030		1		0		0.1496403763584
859	1	18	5.7452072		-9.415055		1		0		0.20709244910795
860	1	18	5.8247211		-8.307716		1		0		0.26533966089766
861	1	18	5.9027261		-7.250624		1		0		0.32436692281427
862	1	18	5.9792509		-6.245742		1		0		0.38415943227843
863	1	18	6.0543235		-5.294667		1		0		0.44470266761114
864	1	18	6.1279715		-4.398631		1		0		0.50598238270329
865	1	18	6.2002219		-3.558505		1		0		0.56798460178628
866	1	18	6.2711012		-2.774811		1		0		0.63069561430192
867	1	18	6.3406355		-2.047736		1		0		0.69410196986971
868	1	18	6.4088503		-1.377139		0.9		0		0.75819047334957
869	1	18	6.4569169		-0.762569		0.8		0		0.82275964247695
870	1	18	6.4852175		-0.203301		0.7		0		0.88761181840471
871	1	18	6.4941274		0.3016881		0.6		0		0.95255309314817
872	1	18	6.4840145		0.7537294		0.5		0		1.0173932384071
873	1	19-	6.4840145		1.1544576		1		0-		0.015621298312065
874	1	19-	6.5212797		1.8025770		1		0-		0.032228090594344
875	1	19-	6.5860665		2.6940881		1		0-		0.048999865990379
876	1	19-	6.6496239		3.8232431		1		0-		0.065933493706971
877	1	19-	6.7119752		5.1826972		1		0-		0.083025902362252
878	1	19-	6.7731433		6.7636627		0.85		0		0.10027407885827
879	1	19-	6.8048700		8.5560658		0.7		0		0.11760304912261
880	1	19-	6.8077140		10.536818		0.4		0		0.13493926182434
881	1	19-	6.7539428		12.671422		0.1		0		0.15213854322305
882	1	19-	6.6446307		14.904225		0.1		0		0.16905945548357
883	1	20-	6.6446307		17.162890		0.1		0		0.20570197224668
884	1	20-	6.4321902		19.384780		0		0		0.22208189335958
885	1	20-	6.3101301		21.516396		0.1		0		0.23815098177918
886	1	20-	6.2092400		23.506168		0		0		0.25396314810697
887	1	20-	6.0914107		25.318122		0.1		0		0.26947525570966
888	1	20-	5.9946711		26.917373		0		0		0.2847410107371
889	1	20-	5.8809136		28.282627		0.1		0		0.29971707598413
890	1	20-	5.7881685		29.392797		0		0		0.31445696083487
891	1	20-	5.6783296		30.238456		0		0		0.32891713505238
892	1	20-	5.5705751		30.809540		0		0		0.34310290655046
893	1	20-	5.4648654		31.108981		0		0		0.35701948251757
894	1	20-	5.3611616		31.165971		0		0		0.37067197132826
895	1	21-	5.3611616		31.008404		0.1		0		0.40406007560204
896	1	21-	5.1784744		30.662736		0.2		0		0.41724734140942
897	1	21-	5.1179129		30.153152		0.3		0		0.43028038397857
898	1	21-	5.0773543		29.501625		0.4		0		0.44321014202005
899	1	21-	5.0564192		28.728013		0.5		0		0.45608658760872
900	1	21-	5.0547351		27.850185		0.6		0		0.46895874452702
901	1	21-	5.0719367		26.884172		0.7		0		0.48187470626025
902	1	21-	5.1076656		25.844316		0.8		0		0.49488165365024
903	1	21-	5.1615703		24.743441		0.9		0		0.50802587221413
904	1	21-	5.2333058		23.593009		1		0		0.52135276913442
905	1	21-	5.3225338		22.403284		1		0-		0.53490688992664
906	1	21-	5.4100685		21.183479		1		0-		0.54868392268921
907	1	21-	5.4959421		19.942399		1		0-		0.56267963734508
908	1	21-	5.5801862		18.688424		1		0-		0.57688988408905
909	1	22-	5.5801862		17.429491		1		0-		0.61130528304824
910	1	22-	5.7439087		16.192924		0.8		0		0.62593245805266
911	1	22-	5.7857398		15.008843		0.6		0		0.64066615806866
912	1	22-	5.7890695		13.893015		0.4		0		0.65540833742697
913	1	22-	5.7546285		12.847695		0.2		0		0.67006281101668
914	1	22-	5.6831337		11.862973		0.1		0		0.68453521897849
915	1	22-	5.5941417		10.918553		2.7755575615629E-17		0		0.69878100416943
916	1	22-	5.4879848		9.9922255		0.05		0		0.71275645498279
917	1	22-	5.3932692		9.0899839		0.1		0		0.72649070745514
918	1	22-	5.3097779		8.2166855		0.15		0		0.74001234472464
919	1	22-	5.2372978		7.3761810		0.2		0		0.75334940752304
920	1	22-	5.1756200		6.5714379		0.25		0		0.76652940446865
921	1	22-	5.1245395		5.8046550		0.3		0		0.77957932216398
922	1	23-	5.1245395		5.0773676		0.35		0		0.8125203262855
923	1	23-	5.0533698		4.3905433		0.4		0		0.82538900656653
924	1	23-	5.0328898		3.7446676		0.45		0		0.83820553343359
925	1	23-	5.0222254		3.1398213		0.5		0		0.85099490262392
926	1	23-	5.0211901		2.5757485		0.55		0		0.86378163554448
927	1	23-	5.0296014		2.0519164		0.6		0		0.87658978827309
928	1	23-	5.0472800		1.5675671		0.65		0		0.88944296038869
929	1	23-	5.0740499		1.1217627		0.7		0		0.90236430363408
930	1	23-	5.1097388		0.7134240		0.75		0		0.91537653041426
931	1	23-	5.1541772		0.3413623		0.8		0		0.9285019221335
932	1	23-	5.2071993		0.0043076		0.85		0		0.94176233737418
933	1	23-	5.2686420		-0.299069		0.85		0		0.95517921992048
934	1	23-	5.3289188		-0.570139		0.85		0		0.96874960057898
935	1	23-	5.3880518		-0.810304		0.85		0		0.982470566501
936	1	24-	5.3880518		-1.020996		1		0-		0.031668281814544
937	1	24-	5.5029726		-1.203667		0.9		0		0.10173637159525
938	1	24-	5.5682295		-1.359792		0.8		0		0.17263536260357
939	1	24-	5.6133943		-1.490840		0.7		0		0.24410942677918
940	1	24-	5.6388483		-1.598322		0.6		0		0.31590759076922
941	1	24-	5.6449655		-1.683790		0.5		0		0.38778364380316
942	1	24-	5.6321128		-1.748830		0.4		0		0.45949604731594
943	1	24-	5.6006504		-1.795054		0.3		0		0.5308078462861
944	1	24-	5.5509312		-1.824089		0.2		0		0.60148658225644
945	1	24-	5.4833017		-1.837563		0.1		0		0.67130420800516
946	1	24-	5.3981019		-1.837096		0.1		0		0.74003700383634
947	1	24-	5.3145189		-1.824278		0.1		0		0.80770555596665
948	1	24-	5.2325219		-1.800624		0.1		0		0.87433005995951
949	1	24-	5.1520810		-1.767558		0.1		0		0.93993032813834
950	1	24-	5.0731666		-1.726415		0.1		0		1.0045257968591
951	1	25	5.0731666		-1.678439		1		0-		0.014218873168815
952	1	25	5.0894856		-1.624779		1		0-		0.065113729650618
953	1	25	5.1814428		-1.566148		1		0		0.11692815783494
954	1	25	5.2716549		-1.503237		1		0		0.16964470751875
955	1	25	5.3601552		-1.436711		1		0		0.22324625964186
956	1	25	5.4469760		-1.367211		1		0		0.27771602000303
957	1	25	5.5321493		-1.295353		1		0		0.33303751309524
958	1	25	5.6157062		-1.221722		1		0		0.38919457605807
959	1	25	5.6976776		-1.146879		1		0		0.44617135274474
960	1	25	5.7780935		-1.071352		1		0		0.5039522879018
961	1	25	5.8569833		-0.995639		1		0		0.56252212145923
962	1	25	5.9343761		-0.920209		1		0		0.6218658829289
963	1	25	6.0103002		-0.845495		1		0		0.68196888590935
964	1	25	6.0847836		-0.771901		1		0		0.74281672269482
965	1	25	6.1578536		-0.699795		0.9		0		0.80439525898661
966	1	25	6.2106832		-0.629513		0.8		0		0.86650209118348
967	1	25	6.2436565		-0.561373		0.7		0		0.92893865658524
968	1	25	6.2571503		-0.495665		0.6		0		0.99151016050613
969	1	26-	6.2571503		-0.432650		1		0-		0.03439471893761
970	1	26-	6.3214400		-0.153396		1		0-		0.074639443053683
971	1	26-	6.3900190		0.3444411		0.9		0		0.11532076786299
972	1	26-	6.4384430		1.0611878		0.75		0		0.15631037798202
973	1	26-	6.4576673		1.9879303		0.6		0		0.1974223778703
974	1	26-	6.4482463		3.1036831		0.45		0		0.2384743996241
975	1	26-	6.4107234		4.3768850		0.3		0		0.27928753603441
976	1	26-	6.3456319		5.7671304		0.15		0		0.31968627491527
977	1	26-	6.2534949		7.2270686		0.1		0		0.3594984346783
978	1	26-	6.1536796		8.7044070		0.1		0		0.39867513138366
979	1	26-	6.0557584		10.150513		0		0		0.43722842386195
980	1	27-	6.0557584		11.523928		0.1		0		0.52503683981554
981	1	27-	5.8281055		12.783767		0		0		0.56214080657875
982	1	27-	5.7175088		13.896545		0.1		0		0.59854067190941
983	1	27-	5.6278645		14.835523		0		0		0.63436982740444
984	1	27-	5.5210677		15.585416		0.1		0		0.66951907285449
985	1	27-	5.4351512		16.152760		0		0		0.7041213407899
986	1	27-	5.3320113		16.553629		0.1		0		0.73806698064622
987	1	27-	5.2496825		16.804081		0.1		0		0.77148848314481
988	1	27-	5.1689159		16.919217		0.1		0		0.8043957945501
989	1	27-	5.0896820		16.913522		0.2		0		0.83679867238175
990	1	27-	5.0308054		16.800792		0.3		0		0.86882671925029
991	1	27-	4.9918999		16.593682		0.4		0		0.90060707836925
992	1	27-	4.9725863		16.303741		0.5		0		0.93226448022581
993	1	28	4.9725863		15.941454		1		0-		0.03523551071421
994	1	28	4.9724016		15.516310		1		0		0.11543553733118
995	1	28	5.0665806		15.037239		1		0		0.19715458021347
996	1	28	5.1589724		14.510840		1		0		0.28036381383051
997	1	28	5.2496110		13.943505		1		0		0.36503495965786
998	1	28	5.3385296		13.341407		1		0		0.45114027579696
999	1	28	5.4257608		12.710488		1		0		0.53865254679192
1000	1	28	5.5113366		12.056457		1		0		0.62754507363949
1001	1	28	5.5952886		11.384769		1		0		0.7177916639886
1002	1	28	5.6776474		10.700624		1		0		0.80936662252595
1003	1	28	5.7584433		10.008951		1		0		0.90224474154394
1004	1	28	5.8377061		9.3144001		1		0		0.99640129168771
1005	1	29-	5.8377061		8.6213357		1		0-		0.036239661298198
1006	1	29-	5.9917477		7.9338287		1		0-		0.074385437116442
1007	1	29-	6.0665831		7.2556505		0.95		0		0.11300764420756
1008	1	29-	6.1305716		6.5902689		0.9		0		0.15203722647215
1009	1	29-	6.1839189		5.9409228		0.85		0		0.19140643825016
1010	1	29-	6.2268270		5.2647310		0.85		0		0.2310488194534
1011	1	29-	6.2689208		4.5002060		0.85		0		0.27095918629697
1012	1	29-	6.3102159		3.5916158		0.85		0		0.31113245336574
1013	1	29-	6.3507273		2.5007371		0.85		0		0.35156363174771
1014	1	29-	6.3904700		1.2090159		0.85		0		0.3922478272027
1015	1	29-	6.4294584		-0.281360		0.75		0		0.43318023836581
1016	1	29-	6.4488533		-1.949700		0.6		0		0.47423612473108
1017	1	29-	6.4395995		-3.749769		0.45		0		0.51523309779713
1018	1	30-	6.4395995		-5.610585		0.3		0		0.54013636819229
1019	1	30-	6.3373101		-7.516577		0.15		0		0.580482127819
1020	1	30-	6.2453311		-9.423728		0.1		0		0.62024231368585
1021	1	30-	6.1456707		-11.28346		0		0		0.65936802277488
1022	1	30-	6.0290477		-13.05112		0.1		0		0.6977512649467
1023	1	30-	5.9334916		-14.68313		0.1		0		0.73552615983879
1024	1	30-	5.8397487		-16.14990		0.1		0		0.77270425172063
1025	1	30-	5.7477848		-17.42795		0.1		0		0.80929686579248
1026	1	30-	5.6575660		-18.49929		0.1		0		0.84531511234257
1027	1	30-	5.5690593		-19.35091		0.1		0		0.88076989082533
1028	1	30-	5.4822321		-19.98266		0.1		0		0.91567189386227
1029	1	31-	5.4822321		-20.41430		1		0-		9.1695632005357E-6
1030	1	31-	5.4831732		-20.66505		1		0-		0.017463166820005
1031	1	31-	5.5676596		-20.74909		1		0-		0.035186100504767
1032	1	31-	5.6505427		-20.68032		1		0-		0.053172867159805
1033	1	31-	5.7318530		-20.47235		1		0-		0.071418460172929
1034	1	31-	5.8116203		-20.13851		1		0-		0.089917967939654
1035	1	31-	5.8898739		-19.69175		1		0		0.1086665720603
1036	1	31-	5.9666426		-19.14469		1		0		0.12765954557127
1037	1	31-	6.0419544		-18.50955		1		0		0.14689225120997
1038	1	31-	6.1158371		-17.79813		1		0		0.16636013971255
1039	1	31-	6.1883178		-17.02179		1		0		0.18605874814402
1040	1	31-	6.2594230		-16.19137		1		0		0.20598369826004
1041	1	31-	6.3291789		-15.29570		1		0		0.2261306948998
1042	1	31-	6.3976111		-14.32533		1		0		0.24649552440935
1043	1	31-	6.4647447		-13.27248		1		0		0.26707405309495
1044	1	32-	6.4647447		-12.13099		1		0		0.2628541150142
1045	1	32-	6.5952142		-10.89621		1		0		0.28384795325333
1046	1	32-	6.6585980		-9.564956		1		0		0.30504355431813
1047	1	32-	6.7207790		-8.135359		1		0		0.32643708946717
1048	1	32-	6.7817800		-6.606851		1		0		0.34802480261493
1049	1	32-	6.8416235		-4.980029		0.9		0		0.36980300895306
1050	1	32-	6.8814775		-3.256573		0.8		0		0.39170807847081
1051	1	32-	6.9017216		-1.446164		0.7		0		0.4136775886289
1052	1	32-	6.9027277		0.4344189		0.5		0		0.43565030144604
1053	1	32-	6.8660072		2.3623070		0.25		0		0.45750612589324
1054	1	32-	6.7828492		4.3027480		0.1		0		0.479097242279
1055	1	32-	6.6729885		6.2082028		1.5265566588596E-16		0		0.50033865113121
1056	1	32-	6.5463589		8.0281596		0.1		0		0.52117697352913
1057	1	33-	6.5463589		9.7140947		0		0		0.51667176305674
1058	1	33-	6.3187590		11.232161		0.1		0		0.53678559109093
1059	1	33-	6.2177052		12.549699		0		0		0.55657774527462
1060	1	33-	6.0997152		13.646841		0.1		0		0.57599431470743
1061	1	33-	6.0028181		14.530216		0		0		0.59510244178014
1062	1	33-	5.8889059		15.216226		0.1		0		0.61384796450569
1063	1	33-	5.7960092		15.721626		0		0		0.63229777895296
1064	1	33-	5.6860215		16.062583		0.1		0		0.65039748148724
1065	1	33-	5.5969748		16.255279		0		0		0.66821373111541
1066	1	33-	5.4907641		16.314979		0.1		0		0.68569189163936
1067	1	33-	5.4054226		16.256733		0.1		0		0.70289839391578
1068	1	33-	5.3217007		16.094468		0.1		0		0.7198383930528
1069	1	33-	5.2395675		15.841367		0.1		0		0.73651694633294
1070	1	33-	5.1589928		15.509824		0.1		0		0.75293901506946
1071	1	33-	5.0799472		15.111417		0.1		0		0.76910946642753
1072	1	34-	5.0799472		14.656893		0.1		0		0.76002496451937
1073	1	34-	4.9263276		14.156172		0.1		0		0.77570641492274
1074	1	34-	4.8516972		13.618351		0.1		0		0.79115030225167
1075	1	34-	4.7784829		13.051722		0.2		0		0.8063611346091
1076	1	34-	4.7255118		12.463797		0.3		0		0.82140334967713
1077	1	34-	4.6923996		11.861042		0.4		0		0.83634016233963
1078	1	34-	4.6787696		11.248991		0.5		0		0.85123358788666
1079	1	34-	4.6842519		10.632356		0.6		0		0.86614446477842
1080	1	34-	4.7084840		10.015129		0.7		0		0.88113247697736
1081	1	34-	4.7511100		9.4006800		0.75		0		0.89625617585642
1082	1	34-	4.8023539		8.7918459		0.8		0		0.91154299412808
1083	1	34-	4.8620523		8.1911182		0.75		0		0.9270198439294
1084	1	34-	4.9111910		7.6006812		0.7		0		0.94265311157382
1085	1	34-	4.9499703		7.0226274		0.65		0		0.95840982124304
1086	1	34-	4.9785868		6.4589267		0.6		0		0.97425762288265
1087	1	34-	4.9972335		5.9114007		0.55		0		0.99016478032728
1088	1	34-	5.0060994		5.3817015		0.5		0		1.0061001596512
1089	1	34-	5.0053701		4.8712956		0.45		0		1.02203321774
1090	1	35	5.0053701		4.3814519		1		0-		0.0045625453075569
1091	1	35	5.0889737		3.9132347		1		0-		0.010280493387258
1092	1	35	5.1809406		3.4669462		1		0-		0.016101775043907
1093	1	35	5.2711623		3.0428341		1		0-		0.02202442937343
1094	1	35	5.3596719		2.6410841		1		0-		0.028046532682745
1095	1	35	5.4465019		2.2618149		1		0-		0.034166197783628
1096	1	35	5.5316842		1.9050738		1		0-		0.04038157329998
1097	1	35	5.6152500		1.5708341		1		0-		0.046690842988244
1098	1	35	5.6972300		1.2589925		1		0-		0.053092225070708
1099	1	35	5.7776543		0.9693692		1		0-		0.059583971581471
1100	1	35	5.8565525		0.7017073		1		0-		0.066164367724813
1101	1	35	5.9339535		0.4556746		1		0-		0.072831731245742
1102	1	35	6.0098857		0.2308653		1		0-		0.079584411812487
1103	1	35	6.0843769		0.0268025		1		0-		0.086420790410712
1104	1	35	6.1574546		-0.157057		1		0-		0.093339278749217
1105	1	35	6.2291455		-0.321323		1		0		0.10033831867693
1106	1	35	6.2994760		-0.466660		1		0		0.10741638161093
1107	1	36	6.2994760		-0.593788		1		0		0.1145719679754
1108	1	36	6.4361584		-0.703477		1		0		0.12180360665111
1109	1	36	6.5025605		-0.796537		1		0		0.12910985443548
1110	1	36	6.5677025		-0.873817		1		0		0.13648929551274
1111	1	36	6.6316084		-0.936195		1		0		0.14394054093432
1112	1	36	6.6943015		-0.984575		1		0		0.15146222810893
1113	1	36	6.7558050		-1.019878		1		0		0.15905302030242
1114	1	36	6.8161414		-1.043038		1		0		0.16671160614712
1115	1	36	6.8753327		-1.054995		1		0		0.17443669916045
1116	1	36	6.9334009		-1.056690		1		0		0.18222703727269
1117	1	36	6.9903671		-1.049057		1		0		0.19008138236372
1118	1	36	7.0462523		-1.033021		1		0		0.19799851980856
1119	1	36	7.1010770		-1.009490		1		0		0.20597725803146
1120	1	36	7.1548613		-0.979351		1		0		0.21401642806858
1121	1	36	7.2076250		-0.943467		1		0		0.22211488313884
1122	1	37	7.2076250		-0.902672		1		0		0.23027149822299
1123	1	37	7.3101675		-0.857764		1		0		0.23848516965065
1124	1	37	7.3599840		-0.809510		1		0		0.24675481469518
1125	1	37	7.4088552		-0.758634		1		0		0.25507937117625
1126	1	37	7.4567990		-0.705819		1		0		0.26345779706993
1127	1	37	7.5038330		-0.651707		1		0		0.27188907012621
1128	1	37	7.5499744		-0.596893		1		0		0.28037218749374
1129	1	37	7.5952402		-0.541928		1		0		0.28890616535173
1130	1	37	7.6396471		-0.487314		1		0		0.29749003854883
1131	1	37	7.6832113		-0.433508		1		0		0.3061228602488
1132	1	37	7.7259487		-0.380918		1		0		0.31480370158301
1133	1	37	7.7678752		-0.329910		1		0		0.32353165130945
1134	1	37	7.8090061		-0.280798		1		0		0.33230581547825
1135	1	38	7.8090061		-0.233857		1		0		0.34112531710352
1136	1	38	7.8889410		-0.189315		1		0		0.34998929584145
1137	1	38	7.9277745		-0.147361		1		0		0.35889690767451
1138	1	38	7.9658710		-0.108142		1		0		0.36784732460161
1139	1	38	8.0032446		-0.071768		1		0		0.37683973433418
1140	1	38	8.0399090		-0.038313		1		0		0.385873339998
1141	1	38	8.0758776		-0.007819		1		0		0.39494735984069
1142	1	38	8.1111637		0.0197042		1		0		0.40406102694477
1143	1	38	8.1457801		0.0442758		1		0		0.4132135889461
1144	1	38	8.1797397		0.0659394		1		0		0.42240430775776
1145	1	38	8.2130548		0.0847624		1		0		0.43163245929908
1146	1	38	8.2457377		0.1008330		1		0		0.44089733322987
1147	1	39	8.2457377		0.1142571		1		0		0.4501982326897
1148	1	39	8.3092548		0.1251566		1		0		0.45953447404204
1149	1	39	8.3401121		0.1336663		1		0		0.46890538662337
1150	1	39	8.3703840		0.1399314		1		0		0.47831031249696
1151	1	39	8.4000814		0.1441060		1		0		0.48774860621141
1152	1	39	8.4292152		0.1463499		1		0		0.49721963456368
1153	1	39	8.4577962		0.1468275		1		0		0.50672277636668
1154	1	39	8.4858348		0.1457050		1		0		0.51625742222121
1155	1	39	8.5133413		0.1431492		1		0		0.52582297429236
1156	1	39	8.5403258		0.1393256		1		0		0.53541884608995
1157	1	39	8.5667983		0.1343971		1		0		0.54504446225333
1158	2	0	8.5667983		0.1285222		1		0		0.55469925834013
1159	2	0	8.6182458		0.1218543		1		0		0.56438268061911
1160	2	0	8.6432396		0.1145405		1		0		0.57409418586686
1161	2	0	8.6677592		0.1067206		1		0		0.58383324116845
1162	2	0	8.6918134		0.0985264		1		0		0.59359932372174
1163	2	0	8.7154112		0.0900812		1		0		0.60339192064556
1164	2	0	8.7385612		0.0814991		1		0		0.61321052879137
1165	2	0	8.7612719		0.0728849		1		0		0.62305465455862
1166	2	0	8.7835516		0.0643340		1		0		0.63292381371353
1167	2	0	8.8054085		0.0559319		1		0		0.64281753121137
1168	2	0	8.8268507		0.0477543		1		0		0.65273534102205
1169	2	0	8.8478859		0.0398675		1		0		0.66267678595911
1170	2	1	8.8478859		0.0323286		1		0		0.67264141751184
1171	2	1	8.8887665		0.0251851		1		0		0.68262879568066
1172	2	1	8.9086268		0.0184761		1		0		0.69263848881563
1173	2	1	8.9281103		0.0122323		0.9		0		0.70267007345801
1174	2	1	8.9283702		0.0064764		0.8		0		0.71270195019362
1175	2	1	8.9097715		0.0012238		0.7		0		0.72271292948841
1176	2	1	8.8726720		-0.003517		0.6		0		0.73268222391038
1177	2	1	8.8174227		-0.007745		0.5		0		0.74258944049912
1178	2	1	8.7443681		-0.011464		0.4		0		0.75241457328014
1179	2	1	8.6538461		-0.014687		0.3		0		0.76213799592126
1180	2	1	8.5461881		-0.017428		0.2		0		0.77174045452832
1181	2	2	8.5461881		-0.019709		0.1		0		0.78120306057766
1182	2	2	8.2996125		-0.021554		1.3877787807814E-16		0		0.79052846797382
1183	2	2	8.1421154		-0.022992		1.3877787807814E-16		0		0.79967691227737
1184	2	2	7.9876070		-0.024051		1.3877787807814E-16		0		0.80865175161893
1185	2	2	7.8360306		-0.024765		1.3877787807814E-16		0		0.81745628040373
1186	2	2	7.6873306		-0.025164		1.3877787807814E-16		0		0.8260937305209
1187	2	2	7.5414523		-0.025282		1.3877787807814E-16		0		0.83456727252982
1188	2	2	7.3983424		-0.025150		1.3877787807814E-16		0		0.8428800168239
1189	2	2	7.2579481		-0.024798		1.3877787807814E-16		0		0.85103501477232
1190	2	2	7.1202181		-0.024256		1.3877787807814E-16		0		0.85903525984016
1191	2	2	6.9851016		-0.023553		1.3877787807814E-16		0		0.86688368868713
1192	2	2	6.8525492		-0.022714		1.3877787807814E-16		0		0.87458318224561
1193	2	2	6.7225122		-0.021765		1.3877787807814E-16		0		0.88213656677808
1194	2	3	6.7225122		-0.020728		1.3877787807814E-16		0		0.88954661491465
1195	2	3	6.4697942		-0.019623		1.3877787807814E-16		0		0.89681604667072
1196	2	3	6.3470205		-0.018471		1.3877787807814E-16		0		0.90394753044548
1197	2	3	6.2265766		-0.017287		0.1		0		0.91094368400141
1198	2	3	6.1272721		-0.016087		0.2		0		0.91782825941628
1199	2	3	6.0487057		-0.014883		0.3		0		0.92462455803785
1200	2	3	5.9904840		-0.013688		0.4		0		0.93135543903712
1201	2	3	5.9522209		-0.012509		0.5		0		0.93804332779924
1202	2	3	5.9146840		-0.011356		0.6		0		0.94468904016408
1203	2	3	5.9155668		-0.010233		0.7		0		0.9513357444721
1204	2	3	5.9352866		-0.009148		0.8		0		0.95800460589091
1205	2	3	5.9734860		-0.008103		0.9		0		0.96471638794843
1206	2	3	6.0298142		-0.007102		1		0		0.97149146015464
1207	2	3	6.1039273		-0.006147		1		0-		0.97834980547859
1208	2	3	6.1766340		-0.005241		1		0-		0.98528984369243
1209	2	3	6.2479609		-0.004385		1		0		0.99231002455541
1210	2	3	6.3179343		-0.003581		1		0		0.99940882724488
1211	2	4-	6.3179343		-0.002829		1		0-		0.0096773165105498
1212	2	4-	6.4539229		0.2679914		1		0-		0.026112580942712
1213	2	4-	6.5199879		0.8058312		1		0-		0.042716083477664
1214	2	4-	6.5847992		1.6057018		1		0-		0.059484631554085
1215	2	4-	6.6483806		2.6608286		1		0-		0.076415093194122
1216	2	4-	6.7107555		3.9628103		1		0-		0.093504395853729
1217	2	4-	6.7719467		5.5017801		0.85		0		0.11074952529483
1218	2	4-	6.8036961		7.2665692		0.7		0		0.12807550632653
1219	2	4-	6.8065624		9.2329446		0.55		0		0.14540878652064
1220	2	4-	6.7810937		11.365222		0.25		0		0.16267720921263
1221	2	4-	6.6995470		13.618125		0.1		0		0.17973796886274
1222	2	5-	6.6995470		15.927428		0.1		0		0.21651767920897
1223	2	5-	6.4850421		18.225660		0		0		0.23303219045831
1224	2	5-	6.3619790		20.454835		0.1		0		0.24923331497187
1225	2	5-	6.2601050		22.559117		0		0		0.26517501181776
1226	2	5-	6.1413105		24.498781		0.1		0		0.28081419190964
1227	2	5-	6.0436240		26.235427		0		0		0.29620460804199
1228	2	5-	5.9289375		27.744739		0.1		0		0.31130296876918
1229	2	5-	5.8352811		29.002840		0		0		0.32616282836647
1230	2	5-	5.7245482		29.997967		0.1		0		0.34074070063619
1231	2	5-	5.6347703		30.717926		0.1		0		0.35508994879728
1232	2	5-	5.5466962		31.160804		0.1		0		0.36921491132284
1233	2	6-	5.5466962		31.343346		0.1		0		0.40311453554099
1234	2	6-	5.3755301		31.293703		0.2		0		0.41680361446198
1235	2	6-	5.3112292		31.038749		0.3		0		0.43032894751514
1236	2	6-	5.2670022		30.603223		0.4		0		0.4437416541167
1237	2	6-	5.2424682		30.009765		0.5		0		0.45709188361803
1238	2	6-	5.2372535		29.278997		0.6		0		0.47042883371402
1239	2	6-	5.2509916		28.429629		0.7		0		0.48380076850217
1240	2	6-	5.2833227		27.478593		0.8		0		0.49725503619889
1241	2	6-	5.3338940		26.441188		0.9		0		0.51083808651974
1242	2	6-	5.4023594		25.331230		1		0		0.52459548772971
1243	2	6-	5.4883794		24.161207		1		0-		0.5385719433701
1244	2	6-	5.5727670		22.942429		1		0-		0.55276329656625
1245	2	6-	5.6555532		21.685713		1		0-		0.56716546932626
1246	2	7-	5.6555532		20.418980		1		0-		0.60176915222776
1247	2	7-	5.8164424		19.175337		0.8		0		0.61658103821435
1248	2	7-	5.8568970		17.984917		0.6		0		0.6314959440545
1249	2	7-	5.8588765		16.863315		0.4		0		0.64641589059437
1250	2	7-	5.8231108		15.812471		0.2		0		0.66124475797626
1251	2	7-	5.7503164		14.822046		5.5511151231258E-17		0		0.67588825035582
1252	2	7-	5.6411958		13.871242		0.1		0		0.69025386128869
1253	2	7-	5.5529997		12.930937		0		0		0.70439487607878
1254	2	7-	5.4476235		11.994905		0.1		0		0.71826754466117
1255	2	7-	5.3631007		11.070797		0		0		0.73192497139483
1256	2	7-	5.2613281		10.164882		0.1		0		0.74532322870357
1257	2	7-	5.1803406		9.2827087		0.15		0		0.75851524680363
1258	2	7-	5.1103167		8.4286425		0.2		0		0.77152894543306
1259	2	8-	5.1103167		7.6061416		0.25		0		0.80438640569627
1260	2	8-	5.0023320		6.8178671		0.3		0		0.81712511538298
1261	2	8-	4.9639668		6.0657885		0.35		0		0.82976612593415
1262	2	8-	4.9357565		5.3512798		0.4		0		0.84233529738297
1263	2	8-	4.9175084		4.6752062		0.45		0		0.85485799903109
1264	2	8-	4.9090334		4.0380020		0.5		0		0.86735911876095
1265	2	8-	4.9101462		3.4397398		0.55		0		0.87986307217145
1266	2	8-	4.9206647		2.8801919		0.6		0		0.89239381154019
1267	2	8-	4.9404104		2.3588831		0.65		0		0.90497483461565
1268	2	8-	4.9692084		1.8751380		0.7		0		0.91762919324254
1269	2	8-	5.0068868		1.4281199		0.75		0		0.93037950182349
1270	2	8-	5.0532770		1.0168655		0.8		0		0.94324794562014
1271	2	8-	5.1082138		0.6403135		0.85		0		0.95625628889669
1272	2	8-	5.1715349		0.2973281		0.9		0		0.96942588290894
1273	2	8-	5.2430813		-0.013280		0.9		0		0.98277767374177
1274	2	9	5.2430813		-0.292741		1		0-		0.01237476157335
1275	2	9	5.4009806		-0.542312		1		0-		0.03937966465814
1276	2	9	5.4870267		-0.763264		1		0-		0.066814798256461
1277	2	9	5.5714399		-0.956886		1		0-		0.094671998122079
1278	2	9	5.6542513		-1.124482		1		0		0.12294325493714
1279	2	9	5.7354912		-1.267370		1		0		0.15162071137218
1280	2	9	5.8151895		-1.386884		1		0		0.18069665920193
1281	2	9	5.8933754		-1.484365		1		0		0.21016353647583
1282	2	9	5.9700776		-1.561163		1		0		0.24001392474229
1283	2	9	6.0453243		-1.618630		1		0		0.27024054632555
1284	2	9	6.1191430		-1.658120		1		0		0.30083626165428
1285	2	9	6.1915609		-1.680978		1		0		0.33179406664085
1286	2	9	6.2626046		-1.688540		1		0		0.3631070901103
1287	2	9	6.3323002		-1.682127		1		0		0.39476859127818
1288	2	9	6.4006731		-1.663041		1		0		0.42677195727616
1289	2	9	6.4677486		-1.632558		1		0		0.45911070072465
1290	2	9	6.5335513		-1.591925		1		0		0.49177845735147
1291	2	10	6.5335513		-1.542354		1		0		0.52476898365571
1292	2	10	6.6614341		-1.485019		1		0		0.55807615461592
1293	2	10	6.7235613		-1.421052		1		0		0.59169396144181
1294	2	10	6.7845095		-1.351539		1		0		0.62561650936854
1295	2	10	6.8443012		-1.277515		1		0		0.65983801549298
1296	2	10	6.9029582		-1.199964		1		0		0.69435280665095
1297	2	10	6.9605021		-1.119813		0.9		0		0.72915531733475
1298	2	10	6.9981003		-1.037935		0.8		0		0.76414581888962
1299	2	10	7.0161312		-0.955165		0.7		0		0.79922647515621
1300	2	10	7.0149662		-0.872296		0.6		0		0.83430130655783
1301	2	10	6.9949696		-0.790064		0.5		0		0.86927615486906
1302	2	10	6.9564987		-0.709147		0.4		0		0.90405864865298
1303	2	10	6.8999041		-0.630156		0.3		0		0.93855816935429
1304	2	10	6.8255297		-0.553628		0.2		0		0.97268581803584
1305	2	11-	6.8255297		-0.480030		1		0-		0.016181780032186
1306	2	11-	6.6436385		-0.409751		0.95		0		0.10077370751106
1307	2	11-	6.6966765		-0.343097		0.9		0		0.18604095564541
1308	2	11-	6.7392811		-0.280237		0.85		0		0.27185067899518
1309	2	11-	6.7716504		-0.221302		0.8		0		0.35807255305467
1310	2	11-	6.7939785		-0.166387		0.75		0		0.44457872641418
1311	2	11-	6.8064561		-0.115551		0.7		0		0.53124377382941
1312	2	11-	6.8092700		-0.068815		0.65		0		0.61794465018148
1313	2	11-	6.8026037		-0.026167		0.6		0		0.70456064531058
1314	2	11-	6.7866369		0.0124382		0.5		0		0.79097333970679
1315	2	11-	6.7521194		0.0470778		0.4		0		0.87694653078774
1316	2	11-	6.6994032		0.0778561		0.3		0		0.9622484982567
1317	2	11-	6.6288336		0.1049046		0.2		0		1.0466519190447
1318	2	12	6.6288336		0.1283790		1		0-		0.031376836968492
1319	2	12	6.4543367		0.1484564		1		0-		0.063648520878025
1320	2	12	6.5203939		0.1653283		1		0-		0.09625049051763
1321	2	12	6.5851975		0.1791654		1		0		0.12917647823789
1322	2	12	6.6487714		0.1901441		1		0		0.16242033532709
1323	2	12	6.7111388		0.1984446		1		0		0.19597602975424
1324	2	12	6.7723228		0.2042503		1		0		0.22983764395483
1325	2	12	6.8323457		0.2077464		1		0		0.26399937265871
1326	2	12	6.8912296		0.2091187		1		0		0.29845552075913
1327	2	12	6.9489960		0.2085523		1		0		0.33320050122222
1328	2	12	7.0056663		0.2062311		1		0		0.36822883303617
1329	2	12	7.0612612		0.2023360		1		0		0.40353513919928
1330	2	12	7.1158011		0.1970444		1		0		0.43911414474625
1331	2	12	7.1693060		0.1905294		1		0		0.47496067481187
1332	2	13	7.1693060		0.1829584		1		0		0.51106965273146
1333	2	13	7.2732890		0.1744929		1		0		0.54743609817744
1334	2	13	7.3238054		0.1652875		1		0		0.5840551253311
1335	2	13	7.3733631		0.1554895		1		0		0.62092194108925
1336	2	13	7.4219804		0.1452382		1		0		0.65803184330473
1337	2	13	7.4696751		0.1346646		1		0		0.69538021906044
1338	2	13	7.5164647		0.1238910		0.9		0		0.73296254297606
1339	2	13	7.5435127		0.1130307		0.8		0		0.77068010678624
1340	2	13	7.5511937		0.1021906		0.7		0		0.80843607535772
1341	2	13	7.5398751		0.0914700		0.6		0		0.84613545114395
1342	2	13	7.5099176		0.0809593		0.5		0		0.88368503931423
1343	2	13	7.4616748		0.0707397		0.4		0		0.92099341354455
1344	2	13	7.3954937		0.0608822		0.3		0		0.95797088245763
1345	2	13	7.3117148		0.0514477		0.2		0		0.99452945669979
1346	2	14-	7.3117148		0.0424864		1		0-		0.012911947590597
1347	2	14-	7.2623765		-0.589418		1		0-		0.036029492012522
1348	2	14-	7.3131000		-1.800835		1		0-		0.059308498863796
1349	2	14-	7.3628608		-3.547108		1		0-		0.082745904161301
1350	2	14-	7.4116774		-5.782781		0.85		0		0.10633870206543
1351	2	14-	7.4312870		-8.461994		0.7		0		0.1299939210863
1352	2	14-	7.4222439		-11.52508		0.4		0		0.15362035400252
1353	2	14-	7.3568110		-14.90084		0.1		0		0.1770385016912
1354	2	14-	7.2360587		-18.49572		0.1		0		0.20007227128494
1355	2	14-	7.1175977		-22.19931		0.1		0		0.22272895691399
1356	2	15-	7.1175977		-25.91494		0.1		0		0.2700090782717
1357	2	15-	6.8873771		-29.55903		0		0		0.2919329273222
1358	2	15-	6.7566792		-33.06040		0.1		0		0.31344073962865
1359	2	15-	6.6473152		-36.35220		0		0		0.33460042521694
1360	2	15-	6.5211728		-39.38681		0.1		0		0.35535857516807
1361	2	15-	6.4162778		-42.11976		0		0		0.37578282432846
1362	2	15-	6.2945197		-44.52318		0		0		0.39581949382158
1363	2	15-	6.1750721		-46.57112		0		0		0.41547593853217
1364	2	15-	6.0578911		-48.24596		0		0		0.43475937377539
1365	2	15-	5.9429339		-49.53748		0		0		0.45367687794537
1366	2	15-	5.8301581		-50.44190		0		0		0.47223539511347
1367	2	16-	5.8301581		-50.96099		0		0		0.51543510155696
1368	2	16-	5.6109862		-51.10126		0		0		0.53329595234077
1369	2	16-	5.5045096		-50.87317		0.1		0		0.55081786764893
1370	2	16-	5.4189074		-50.31785		0.2		0		0.56806729439924
1371	2	16-	5.3537833		-49.47722		0.3		0		0.58510941858314
1372	2	16-	5.3087487		-48.38954		0.4		0		0.60200818919359
1373	2	16-	5.2834226		-47.08953		0.5		0		0.61882634169892
1374	2	16-	5.2774307		-45.60852		0.6		0		0.63562542107125
1375	2	16-	5.2904064		-43.97474		0.7		0		0.65246580437778
1376	2	16-	5.3219895		-42.21353		0.8		0		0.6694067229436
1377	2	16-	5.3718271		-40.34762		0.9		0		0.6865062840937
1378	2	16-	5.4395727		-38.39738		1		0		0.70382149248255
1379	2	16-	5.5248864		-36.38108		1		0-		0.72140827101885
1380	2	17-	5.5248864		-34.31515		1		0-		0.76425483024601
1381	2	17-	5.6906878		-32.21860		1		0-		0.78236938656219
1382	2	17-	5.7712363		-30.13096		0.9		0		0.8007403442428
1383	2	17-	5.8314025		-28.08848		0.8		0		0.81930282257419
1384	2	17-	5.8715732		-26.11863		0.7		0		0.83799317204805
1385	2	17-	5.8921279		-24.24033		0.6		0		0.85674895099757
1386	2	17-	5.8934388		-22.46440		0.5		0		0.87550890267688
1387	2	17-	5.8758710		-20.79406		0.4		0		0.89421293277542
1388	2	17-	5.8397829		-19.22571		0.3		0		0.91280208735914
1389	2	17-	5.7855258		-17.74971		0.2		0		0.93121853123012
1390	2	17-	5.7134446		-16.35127		0.1		0		0.94940552669696
1391	2	17-	5.6238775		-15.01142		2.7755575615629E-17		0		0.96730741274804
1392	2	18	5.6238775		-13.70800		1		0-		0.0309844530258
1393	2	18	5.6009977		-12.44039		1		0-		0.086994430973516
1394	2	18	5.6832482		-11.21243		1		0		0.14382691379597
1395	2	18	5.7639379		-10.02762		1		0		0.20146629327357
1396	2	18	5.8430964		-8.889046		1		0		0.25989725737529
1397	2	18	5.9207527		-7.799401		1		0		0.31910478463802
1398	2	18	5.9969354		-6.760997		1		0		0.37907413865263
1399	2	18	6.0716724		-5.775752		1		0		0.43979086265469
1400	2	18	6.1449911		-4.845196		1		0		0.50124077421777
1401	2	18	6.2169185		-3.970479		1		0		0.5634099600475
1402	2	18	6.2874810		-3.152378		1		0		0.62628477087438
1403	2	18	6.3567045		-2.391311		1		0		0.68985181644355
1404	2	18	6.4246144		-1.687350		0.9		0		0.7540979605996
1405	2	18	6.4723818		-1.040235		0.8		0		0.81882177894336
1406	2	18	6.5003890		-0.449415		0.7		0		0.88382566939495
1407	2	18	6.5090110		0.0859745		0.6		0		0.94891577965972
1408	2	18	6.4986156		0.5671257		0.5		0		1.0139019360707
1409	2	19-	6.4986156		0.9955549		1		0-		0.014768696190235
1410	2	19-	6.5353319		1.6754949		1		0-		0.031411273208694
1411	2	19-	6.5998521		2.6022688		1		0-		0.048218154273784
1412	2	19-	6.6631478		3.7694782		1		0-		0.065186221478589
1413	2	19-	6.7252425		5.1691567		1		0-		0.082312416082984
1414	2	19-	6.7861588		6.7919267		1		0-		0.099593737390865
1415	2	19-	6.8459192		8.6271582		0.85		0		0.11702724164867
1416	2	19-	6.8762648		10.663127		0.55		0		0.13453802281249
1417	2	19-	6.8494734		12.875146		0.25		0		0.15198057813658
1418	2	19-	6.7666291		15.215358		0.1		0		0.16921216600025
1419	2	20-	6.7666291		17.616878		0.1		0		0.20615946284762
1420	2	20-	6.5496024		20.009723		0		0		0.22283838040186
1421	2	20-	6.4253142		22.333706		0.1		0		0.2392007913729
1422	2	20-	6.3222383		24.531012		0		0		0.25530071403249
1423	2	20-	6.2022647		26.560321		0.1		0		0.2710951173744
1424	2	20-	6.1034215		28.381838		0		0		0.28663781117111
1425	2	20-	5.9876003		29.970188		0.1		0		0.30188555987375
1426	2	20-	5.8928306		31.300601		0		0		0.31689197259359
1427	2	20-	5.7810057		32.360706		0		0		0.3316136169284
1428	2	20-	5.6713027		33.137832		0		0		0.34605589677014
1429	2	20-	5.5636815		33.624780		0		0		0.36022411346412
1430	2	20-	5.4581026		33.829187		0		0		0.37412346775493
1431	2	21-	5.4581026		33.782348		0.1		0		0.40775375287931
1432	2	21-	5.2717711		33.514083		0.2		0		0.42117860380538
1433	2	21-	5.2094391		33.051797		0.3		0		0.43444472297197
1434	2	21-	5.1671437		32.420512		0.4		0		0.44760313464537
1435	2	21-	5.1445047		31.642954		0.5		0		0.46070389483258
1436	2	21-	5.1411491		30.739667		0.6		0		0.47379610965549
1437	2	21-	5.1567108		29.729163		0.7		0		0.48692795337633
1438	2	21-	5.1908310		28.628078		0.8		0		0.50014668608098
1439	2	21-	5.2431575		27.451348		0.9		0		0.51349867102688
1440	2	21-	5.3133448		26.212375		1		0		0.5270293916616
1441	2	21-	5.4010539		24.923206		1		0-		0.54078346831848
1442	2	21-	5.4870986		23.594689		1		0-		0.55475666249397
1443	2	21-	5.5715105		22.237191		1		0-		0.56894481611625
1444	2	22-	5.5715105		20.860574		1		0-		0.60333854120269
1445	2	22-	5.7355592		19.491418		0.9		0		0.61794445362743
1446	2	22-	5.7964024		18.161895		0.7		0		0.63270530665353
1447	2	22-	5.8183836		16.895545		0.5		0		0.64752213585585
1448	2	22-	5.8022401		15.701850		0.3		0		0.66229785480238
1449	2	22-	5.7486954		14.577332		0.2		0		0.67693721941656
1450	2	22-	5.6773131		13.507121		0.1		0		0.69139480511749
1451	2	22-	5.5884317		12.472381		2.4980018054066E-16		0		0.7056260493214
1452	2	22-	5.4823831		11.453988		0.1		0		0.71958723508398
1453	2	22-	5.3972007		10.458941		0		0		0.73333149925631
1454	2	22-	5.2947810		9.4928381		0.05		0		0.74681494613774
1455	2	22-	5.2037317		8.5605167		0.1		0		0.76006653116435
1456	2	22-	5.1238372		7.6657442		0.15		0		0.77311466030097
1457	2	23-	5.1238372		6.8113514		0.2		0		0.80598189165191
1458	2	23-	4.9966693		5.9993596		0.25		0		0.81870618095506
1459	2	23-	4.9489847		5.2310960		0.3		0		0.83130903871953
1460	2	23-	4.9116318		4.5072980		0.35		0		0.84381677533516
1461	2	23-	4.8844146		3.8282070		0.4		0		0.85625520191413
1462	2	23-	4.8671408		3.1936520		0.45		0		0.86864963976539
1463	2	23-	4.8596216		2.6031225		0.5		0		0.88102492968944
1464	2	23-	4.8616720		2.0558332		0.55		0		0.8934054410967
1465	2	23-	4.8731104		1.5507794		0.6		0		0.90581508095273
1466	2	23-	4.8937586		1.0867845		0.65		0		0.91827730255388
1467	2	23-	4.9234418		0.6625411		0.7		0		0.93081511413626
1468	2	23-	4.9619887		0.2766445		0.75		0		0.94345108732143
1469	2	23-	5.0092309		-0.072378		0.75		0		0.9562073654018
1470	2	23-	5.0555766		-0.386045		0.75		0		0.96908166541797
1471	2	23-	5.1010429		-0.665906		0.75		0		0.98207174773303
1472	2	24-	5.1010429		-0.913535		1		0-		0.025849057299655
1473	2	24-	5.1894034		-1.130525		1		0-		0.091924543284333
1474	2	24-	5.2794645		-1.318483		0.9		0		0.15914675643594
1475	2	24-	5.3489628		-1.478943		0.8		0		0.22725387544017
1476	2	24-	5.3982885		-1.613469		0.7		0		0.29598904742084
1477	2	24-	5.4278245		-1.723656		0.6		0		0.36510029365658
1478	2	24-	5.4379461		-1.811128		0.5		0		0.43434041708667
1479	2	24-	5.4290220		-1.877543		0.4		0		0.50346691157216
1480	2	24-	5.4014135		-1.924574		0.3		0		0.57224187287882
1481	2	24-	5.3554751		-1.953909		0.2		0		0.64043191134932
1482	2	24-	5.2915547		-1.967229		0.1		0		0.70780806623265
1483	2	24-	5.2099936		-1.966205		0.1		0		0.7741457216392
1484	2	24-	5.1299801		-1.952479		0.1		0		0.83946458459851
1485	2	24-	5.0514851		-1.927606		0.1		0		0.90378398817073
1486	2	24-	4.9744796		-1.893048		0.1		0		0.96712289854325
1487	2	24-	4.8989354		-1.850174		0.1		0		1.0294999219926
1488	2	25	4.8989354		-1.800258		1		0-		0.032123678120354
1489	2	25	4.9218043		-1.744477		1		0-		0.081341721490713
1490	2	25	5.0169435		-1.683541		1		0		0.13151115651754
1491	2	25	5.1102772		-1.618140		1		0		0.18261392916817
1492	2	25	5.2018398		-1.548944		1		0		0.2346323280113
1493	2	25	5.2916649		-1.476595		1		0		0.28754897771567
1494	2	25	5.3797854		-1.401714		1		0		0.34134683267205
1495	2	25	5.4662338		-1.324895		1		0		0.39600917073631
1496	2	25	5.5510416		-1.246706		1		0		0.45151958709117
1497	2	25	5.6342401		-1.167684		1		0		0.50786198822451
1498	2	25	5.7158597		-1.088341		1		0		0.56502058602185
1499	2	25	5.7959305		-1.009156		1		0		0.62297989197104
1500	2	25	5.8744819		-0.930579		1		0		0.68172471147684
1501	2	25	5.9515426		-0.853026		1		0		0.74124013828343
1502	2	25	6.0271410		-0.776882		1		0		0.80151154900274
1503	2	25	6.1013048		-0.702499		1		0		0.86252459774667
1504	2	25	6.1740613		-0.630198		1		0		0.92426521086107
1505	2	25	6.2454370		-0.560262		1		0		0.98671958175974
1506	2	26-	6.2454370		-0.492947		1		0-		0.031751816556689
1507	2	26-	6.3841509		-0.185432		1		0-		0.072395782647118
1508	2	26-	6.4515399		0.3619980		0.9		0		0.11346877323689
1509	2	26-	6.4987964		1.1470959		0.75		0		0.15484261671175
1510	2	26-	6.5168755		2.1583188		0.6		0		0.19633155857221
1511	2	26-	6.5063309		3.3719787		0.45		0		0.2377533692791
1512	2	26-	6.4677057		4.7537931		0.3		0		0.27892927736229
1513	2	26-	6.4015329		6.2606672		0.15		0		0.31968390379887
1514	2	26-	6.3083352		7.8426402		0.1		0		0.35984519763653
1515	2	26-	6.2074791		9.4449302		0.1		0		0.39936440309251
1516	2	26-	6.1085370		11.016664		0		0		0.4382537047225
1517	2	27-	6.1085370		12.514437		0.1		0		0.52639175356817
1518	2	27-	5.8789001		13.895615		0		0		0.56381909796259
1519	2	27-	5.7673394		15.125248		0.1		0		0.6005362043662
1520	2	27-	5.6767496		16.175396		0		0		0.63667658082601
1521	2	27-	5.5690250		17.029882		0.1		0		0.6721311413729
1522	2	27-	5.4821985		17.680369		0		0		0.70703293060963
1523	2	27-	5.3781658		18.144648		0		0		0.74127240791737
1524	2	27-	5.2761074		18.440519		0		0		0.77486214162287
1525	2	27-	5.1759856		18.585184		0		0		0.8078144615507
1526	2	27-	5.0777638		18.595137		0		0		0.84014146354919
1527	2	27-	4.9814059		18.486068		0.1		0		0.87185501393043
1528	2	27-	4.9057302		18.272798		0.2		0		0.90308678407999
1529	2	27-	4.8503444		17.968802		0.3		0		0.93396594672846
1530	2	28	4.8503444		17.586263		1		0-		0.037003706525987
1531	2	28	4.7800556		17.136133		1		0		0.1141013788994
1532	2	28	4.8778847		16.628627		1		0		0.19277693919682
1533	2	28	4.9738573		16.070480		1		0		0.27300044471281
1534	2	28	5.0680087		15.468233		1		0		0.35474252094805
1535	2	28	5.1603734		14.828219		1		0		0.43797435082686
1536	2	28	5.2509854		14.156558		1		0		0.52266766411922
1537	2	28	5.3398779		13.459143		1		0		0.60879472706363
1538	2	28	5.4270835		12.741631		1		0		0.69632833218682
1539	2	28	5.5126342		12.009434		1		0-		0.78524178831668
1540	2	28	5.5965615		11.267702		1		0-		0.87550891078467
1541	2	28	5.6788962		10.521317		1		0-		0.96710401181425
1542	2	29-	5.6788962		9.7748844		1		0-		0.023683700446771
1543	2	29-	5.8389079		9.0327196		1		0-		0.060856439560329
1544	2	29-	5.9166437		8.2988448		1		0-		0.098524074725532
1545	2	29-	5.9929044		7.5769808		0.95		0		0.13667721457404
1546	2	29-	6.0582910		6.8705431		0.9		0		0.17524663082535
1547	2	29-	6.1130099		6.1827194		0.85		0		0.21416440890571
1548	2	29-	6.1572636		5.4614324		0.85		0		0.25336392301863
1549	2	29-	6.2006775		4.6434953		0.85		0		0.29283982681542
1550	2	29-	6.2432676		3.6871580		0.85		0		0.3325868754021
1551	2	29-	6.2850495		2.5614408		0.85		0		0.3725999234141
1552	2	29-	6.3260385		1.2552951		0.85		0		0.41287392312764
1553	2	29-	6.3662496		-0.222016		0.75		0		0.45340392260676
1554	2	29-	6.3868440		-1.844965		0.6		0		0.49406503363175
1555	2	30-	6.3868440		-3.563128		0.45		0		0.51881886083468
1556	2	30-	6.3425624		-5.348182		0.3		0		0.55919805855073
1557	2	30-	6.2787644		-7.165626		0.15		0		0.59917109335166
1558	2	30-	6.1878964		-8.974366		0.05		0		0.63856562738536
1559	2	30-	6.0798990		-10.72864		0.1		0		0.67727260828668
1560	2	30-	5.9833778		-12.38316		0.1		0		0.71536509849764
1561	2	30-	5.8886884		-13.90339		0.1		0		0.75285475886785
1562	2	30-	5.7957957		-15.26117		0.1		0		0.78975302896539
1563	2	30-	5.7046659		-16.43423		0.1		0		0.826071131276
1564	2	30-	5.6152653		-17.40558		0.1		0		0.86182007532255
1565	2	30-	5.5275613		-18.16299		0.1		0		0.89701066170626
1566	2	30-	5.4415216		-18.71916		0.1		0		0.93165348607134
1567	2	31-	5.4415216		-19.09239		1		0-		0.0078728354768716
1568	2	31-	5.4439931		-19.30045		1		0-		0.025202115022054
1569	2	31-	5.5292230		-19.35636		1		0-		0.042802697694151
1570	2	31-	5.6128355		-19.27290		1		0-		0.060669435123944
1571	2	31-	5.6948614		-19.06256		1		0-		0.07879727663997
1572	2	31-	5.7753307		-18.73756		1		0-		0.097181267414557
1573	2	31-	5.8542729		-18.30979		1		0		0.11581654664506
1574	2	31-	5.9317171		-17.79081		1		0		0.13469834576959
1575	2	31-	6.0076918		-17.19181		1		0		0.15382198671661
1576	2	31-	6.0822246		-16.52362		1		0		0.17318288018778
1577	2	31-	6.1553431		-15.79661		1		0		0.19277652397331
1578	2	31-	6.2270741		-15.02076		1		0		0.21259850129935
1579	2	31-	6.2974439		-14.19384		1		0		0.23264447920675
1580	2	31-	6.3664783		-13.30453		1		0		0.25291020696049
1581	2	31-	6.4342027		-12.34325		1		0		0.27339151448942
1582	2	32-	6.4342027		-11.30208		1		0		0.26907620016407
1583	2	32-	6.5658204		-10.17473		1		0		0.28997647206078
1584	2	32-	6.6297619		-8.956409		1		0		0.31108028233983
1585	2	32-	6.6924901		-7.643770		1		0		0.33238376856603
1586	2	32-	6.7540280		-6.234832		1		0		0.35388314159951
1587	2	32-	6.8143981		-4.728880		0.9		0		0.37557468420479
1588	2	32-	6.8547688		-3.126371		0.8		0		0.39739473455935
1589	2	32-	6.8755196		-1.435812		0.7		0		0.41928083891585
1590	2	32-	6.8770230		0.3271296		0.5		0		0.44117172867711
1591	2	32-	6.8407903		2.1406162		0.25		0		0.46294728277926
1592	2	32-	6.7581108		3.9708746		0.1		0		0.48445965206585
1593	2	32-	6.6487196		5.7712833		1.5265566588596E-16		0		0.50562380815899
1594	2	33-	6.6487196		7.4921255		0.1		0		0.50137823308924
1595	2	33-	6.4176294		9.0855248		0		0		0.52180678469575
1596	2	33-	6.2958456		10.518081		0.1		0		0.54184767498985
1597	2	33-	6.1952266		11.757464		0		0		0.56156827553256
1598	2	33-	6.0776632		12.783970		0.1		0		0.58091464915821
1599	2	33-	5.9811845		13.610705		0		0		0.59995391249073
1600	2	33-	5.8676829		14.253006		0.1		0		0.61863187826516
1601	2	33-	5.7751889		14.726536		0		0		0.63701541775215
1602	2	33-	5.6655963		15.046403		0.1		0		0.65505010298938
1603	2	33-	5.5769372		15.227725		0		0		0.67280256911775
1604	2	33-	5.4711067		15.284759		0.1		0		0.69021815652606
1605	2	33-	5.3861383		15.231560		0.1		0		0.7073632731022
1606	2	33-	5.3027823		15.081131		0.1		0		0.7242430514214
1607	2	33-	5.2210081		14.845780		0.1		0		0.74086252666082
1608	2	33-	5.1407857		14.537077		0.1		0		0.7572266384479
1609	2	33-	5.0620856		14.165829		0.1		0		0.77334023267346
1610	2	34-	5.0620856		13.742070		0.1		0		0.76419995257911
1611	2	34-	4.9091374		13.275059		0.1		0		0.77982668326804
1612	2	34-	4.8348332		12.773287		0.1		0		0.79521688926826
1613	2	34-	4.7619390		12.244497		0.2		0		0.81037505897783
1614	2	34-	4.7092818		11.695701		0.3		0		0.82536561074791
1615	2	34-	4.6764776		11.132937		0.4		0		0.84025174049826
1616	2	34-	4.6631497		10.561371		0.5		0		0.85509544491469
1617	2	34-	4.6689284		9.9854003		0.6		0		0.86995754420623
1618	2	34-	4.6934513		9.4087498		0.7		0		0.88489770443045
1619	2	34-	4.7363625		8.8345649		0.75		0		0.89997445939522
1620	2	34-	4.7878863		8.2654940		0.7		0		0.91521522458126
1621	2	34-	4.8290055		7.7038623		0.65		0		0.93058688009392
1622	2	34-	4.8599176		7.1518912		0.6		0		0.94605693453649
1623	2	34-	4.8808161		6.6116703		0.55		0		0.96159351308348
1624	2	34-	4.8918912		6.0851336		0.5		0		0.97716534578031
1625	2	34-	4.8933292		5.5740407		0.45		0		0.99274175606504
1626	2	34-	4.8853131		5.0799626		0.4		0		1.0082926495078
1627	2	34-	4.8680223		4.6042708		0.35		0		1.0237885027642
1628	2	35	4.8680223		4.1481311		1		0-		0.0050095425155796
1629	2	35	4.9382932		3.7125007		1		0-		0.010558186569742
1630	2	35	5.0331194		3.2975166		1		0-		0.0162133769896
1631	2	35	5.1261462		2.9032848		1		0-		0.021973091903766
1632	2	35	5.2174077		2.5298730		1		0-		0.027835347808789
1633	2	35	5.3069374		2.1773030		1		0-		0.033798198841063
1634	2	35	5.3947681		1.8455466		1		0-		0.039859736062557
1635	2	35	5.4809321		1.5345204		1		0-		0.046018086760103
1636	2	35	5.5654610		1.2440836		1		0-		0.052271413757971
1637	2	35	5.6483858		0.9740356		1		0-		0.0586179147435
1638	2	35	5.7297371		0.7241153		1		0-		0.065055821605516
1639	2	35	5.8095445		0.4940007		1		0-		0.071583399785313
1640	2	35	5.8878375		0.2833102		1		0-		0.078198947639946
1641	2	35	5.9646448		0.0916037		1		0-		0.084900795817605
1642	2	35	6.0399946		-0.081615		1		0-		0.091687306644844
1643	2	35	6.1139145		-0.236895		1		0-		0.098556873525441
1644	2	35	6.1864316		-0.374838		1		0		0.10550792035066
1645	2	36	6.1864316		-0.496087		1		0		0.11253890092071
1646	2	36	6.3273637		-0.601331		1		0		0.11964829837717
1647	2	36	6.3958303		-0.691295		1		0		0.12683462464621
1648	2	36	6.4629977		-0.766735		1		0		0.13409641989235
1649	2	36	6.5288905		-0.828438		1		0		0.1414322519826
1650	2	36	6.5935329		-0.877209		1		0		0.14884071596076
1651	2	36	6.6569486		-0.913873		1		0		0.15632043353171
1652	2	36	6.7191609		-0.939266		1		0		0.16387005255548
1653	2	36	6.7801926		-0.954231		1		0		0.1714882465509
1654	2	36	6.8400662		-0.959612		1		0		0.1791737142087
1655	2	36	6.8988035		-0.956250		1		0		0.18692517891385
1656	2	36	6.9564263		-0.944978		1		0		0.19474138827691
1657	2	36	7.0129556		-0.926616		1		0		0.20262111367437
1658	2	36	7.0684121		-0.901968		1		0		0.21056314979761
1659	2	36	7.1228163		-0.871815		1		0		0.21856631421049
1660	2	37	7.1228163		-0.836915		1		0		0.22662944691529
1661	2	37	7.2285470		-0.797998		1		0		0.23475140992696
1662	2	37	7.2799124		-0.755762		1		0		0.24293108685533
1663	2	37	7.3303031		-0.710872		1		0		0.25116738249537
1664	2	37	7.3797375		-0.663958		1		0		0.25945922242512
1665	2	37	7.4282338		-0.615610		1		0		0.26780555261137
1666	2	37	7.4758099		-0.566381		1		0		0.27620533902268
1667	2	37	7.5224831		-0.516782		1		0		0.28465756724987
1668	2	37	7.5682706		-0.467284		1		0		0.29316124213364
1669	2	37	7.6131892		-0.418314		1		0		0.30171538739927
1670	2	37	7.6572555		-0.370261		1		0		0.31031904529827
1671	2	37	7.7004855		-0.323469		1		0		0.31897127625682
1672	2	37	7.7428952		-0.278243		1		0		0.32767115853085
1673	2	37	7.7845001		-0.234847		1		0		0.33641778786774
1674	2	38	7.7845001		-0.193504		1		0		0.34521027717437
1675	2	38	7.8653563		-0.154404		1		0		0.35404775619147
1676	2	38	7.9046373		-0.117695		1		0		0.36292937117422
1677	2	38	7.9431729		-0.083494		1		0		0.37185428457885
1678	2	38	7.9809772		-0.051884		1		0		0.38082167475517
1679	2	38	8.0180641		-0.022918		1		0		0.38983073564501
1680	2	38	8.0544473		0.0033809		1		0		0.39888067648631
1681	2	38	8.0901400		0.0270163		1		0		0.40797072152287
1682	2	38	8.1251554		0.0480150		1		0		0.41710010971958
1683	2	38	8.1595064		0.0664262		1		0		0.42626809448307
1684	2	38	8.1932055		0.0823187		1		0		0.43547394338767
1685	2	38	8.2262651		0.0957789		1		0		0.44471693790654
1686	2	39	8.2262651		0.1069083		1		0		0.45399637314792
1687	2	39	8.2905141		0.1158210		1		0		0.4633115575964
1688	2	39	8.3217271		0.1226422		1		0		0.47266181285907
1689	2	39	8.3523478		0.1275055		1		0		0.48204647341651
1690	2	39	8.3823875		0.1305513		1		0		0.4914648863785
1691	2	39	8.4118571		0.1319246		1		0		0.50091641124433
1692	2	39	8.4407674		0.1317734		1		0		0.51040041966774
1693	2	39	8.4691292		0.1302469		1		0		0.51991629522625
1694	2	39	8.4969527		0.1274943		1		0		0.52946343319489
1695	2	39	8.5242483		0.1236628		1		0		0.53904124032419
1696	2	39	8.5510259		0.1188968		1		0		0.54864913462249
	3	0	8.5510259		0.1133365		1		0		0.55828654514224
