	0	0	0	0	0	1	0
1	0	0	0	0	0	1	0
2	0	0	0	0	0	1	0
3	0	0	0.20533578549773	0	0.20533578549773	1	0
4	0	0	0.40670578616484	0	0.61204157166257	1	0
5	0	0	0.60418659580734	0	1.2162281674699	1	0
6	0	0	0.79785332892478	0	2.0140814963947	1	0
7	0	0	0.98777964928109	0	3.0018611456758	1	0
8	0	0	1.1740377979235	0	4.1758989435993	1	0
9	0	0	1.3566986206606	0	5.53259756426	1	0
10	0	0	1.5358315950093	0	7.0684291592693	1	0
11	0	0	1.7115048566215	0	8.7799340158907	1	0
12	0	0	1.8837852252006	0	10.663719241091	1	0
13	0	0	2.0527382299174	0	12.716457471009	1	0
14	0	0	2.2184281343344	0	14.934885605343	1	0
15	0	0	2.3809179608501	0	17.315803566193	1	0
16	0	0	2.5402695146699	0	19.856073080863	1	0
17	0	0	2.6965434073146	0	22.552616488178	1	0
18	0	0	2.8497990796751	0	25.402415567853	1	0
19	0	0	3.0000948246211	0	28.402510392474	1	0
20	0	0	3.1474878091742	0	31.549998201648	1	0
21	0	0	3.2920340962513	0	34.8420322979	1	0
22	0	0	3.4337886659899	0	38.275820963889	1	0
23	0	0	3.5728054366595	0	41.848626400549	1	0
24	0	0	3.7091372851711	0	45.55776368572	1	0
25	0	0	3.842836067189	0	49.400599752909	1	0
26	0	0	3.973952636855	0	53.374552389764	1	0
27	0	0	4.1025368661315	0	57.477089255896	1	0
28	0	0	4.2286376637709	0	61.705726919667	1	0
29	0	0	4.3523029939189	0	66.058029913585	1	0
30	0	0	4.4735798943581	0	70.531609807944	1	0
31	0	0	4.5925144943993	0	75.124124302343	1	0
32	0	0	4.7091520324281	0	79.833276334771	1	0
33	0	0	4.823536873111	0	84.656813207882	1	0
34	0	0	4.9357125242708	0	89.592525732153	1	0
35	0	0	5.0457216534352	0	94.638247385588	1	0
36	0	0	5.1536061040658	0	99.791853489654	1	0
37	0	1	5.1536061040658	0	5.0512604011277	1	0
38	0	1	5.3631643184292	0	10.414424719557	1	0
39	0	1	5.4649177904659	0	15.879342510023	1	0
40	0	1	5.5647060308949	0	21.444048540918	1	0
41	0	1	5.6625669955244	0	27.106615536442	1	0
42	0	1	5.7585379070971	0	32.865153443539	1	0
43	0	1	5.8526552694486	0	38.717808712988	1	0
44	0	1	5.9449548813919	0	44.66276359438	1	0
45	0	1	6.035471850334	0	50.698235444714	1	0
46	0	1	6.1242406056295	0	56.822476050343	1	0
47	0	1	6.2112949116762	0	63.033770962019	1	0
48	0	1	6.2966678807581	0	69.330438842778	1	0
49	0	1	6.3803919856397	0	75.710830828417	1	0
50	0	1	6.462499071918	0	82.173329900335	0	0
51	0	1	6.5430203701347	0	88.71635027047	0	0
52	0	1	6.4166507221581	0	95.133000992628	0	0
53	0	2	6.4166507221581	0	1.425722726784	0.1	0
54	0	2	6.1711862680599	0.71752221482506	7.5969089948439	0.05	1
55	0	2	6.0725316747598	2.012074710415	13.669440669604	0	-0.19580151130855
56	0	2	5.9655156731131	3.7663401430365	19.634956342717	1	-0.20331228298402
57	0	2	5.8502997524885	5.8688796147113	25.485256095205	0.4	-0.24240974965379
58	0	2	5.9426448580773	8.2150271612742	31.427900953283	0.4	-0.30052760880345
59	0	2	5.9100049707175	10.806264257921	37.337905924	0.4	0.0060446281585369
60	0	2	5.8779954789308	13.583612588579	43.215901402931	0.4	-0.24063986429855
61	0	3	5.8779954789308	16.493263744278	1.9386158065577	0.3	-0.28911961846825
62	0	3	5.8158192162508	19.486457824017	7.7544350228084	0.2	-0.36854769341301
63	0	3	5.7650952172244	22.519328961052	13.519530240033	0.1	-0.52506980391038
64	0	3	5.6948173055422	25.543856735207	19.214347545575	2.7755575615629E-17	-1.2102817962777
65	0	3	5.6053631387569	28.509417762828	24.819710684332	0.4	-0.85850732201508
66	0	3	5.4971030804727	31.364314537553	30.316813764805	0.4	-0.4671563310518
67	0	3	5.4730682339671	34.057250971153	35.789881998772	0.4	-0.31672005548631
68	0	3	5.4494975882313	36.576804866203	41.239379587003	0.4	-0.065878591477918
69	0	3	5.4263821778509	38.914287405496	46.665761764854	0.4	-0.047722043758859
70	0	4	5.4263821778509	41.063501443645	4.9455851715739	0.4	-0.032916527983618
71	0	4	5.3814820639303	43.020507109635	10.327067235504	0.4	-0.020497915736981
72	0	4	5.3596802820237	44.783395929105	15.686747517528	0.4	-0.0098315751231314
73	0	4	5.3382995722443	46.352074437928	21.025047089772	1	-0.00048125214018322
74	0	4	5.3173318021495	47.728058043742	26.342378891922	0.9	0.0078029206191193
75	0	4	5.4199704676627	48.914275698703	31.762349359584	0.8	0.015199946188957
76	0	4	5.5000932266957	49.957261621221	37.26244258628	0.7	0.24521900900039
77	0	4	5.5581349437322	50.892798859357	42.820577530012	0.6	0.24982626020959
78	0	5	5.5581349437322	51.746324665431	1.2912098105981	0.6	0.23673861125618
79	0	5	5.6096728778465	52.152627945736	6.9008826884445	0.6	-0.81662052482699
80	0	5	5.6245310540404	52.152601919892	12.525413742485	0.6	0.091438192985198
81	0	5	5.639102264523	51.785911085323	18.164516007008	0.6	0.097616629725886
82	0	5	5.6533920516513	51.090856773621	23.817908058659	0.6	0.10445870637395
83	0	5	5.6674058507394	50.104262088594	29.485313909399	0.6	0.11214128967477
84	0	5	5.6811489921255	48.861375386935	35.166462901524	0.4	0.12090386072674
85	0	5	5.6946267031995	47.395791413525	40.861089604724	0.4	0.13107995060803
86	0	5	5.6667769532917	45.739389163203	46.527866558015	0.4	0.14314946289071
87	0	6	5.6667769532917	43.924633492453	2.167331641903	0.3	0.17013494205254
88	0	6	5.6126807065477	41.110789733483	7.7800123484507	0.2	-0.84150204341899
89	0	6	5.565880054922	37.43522915447	13.345892403373	0.1	0.13749665299499
90	0	6	5.4994497164565	33.040217502211	18.845342119829	2.7755575615629E-17	0.16509570602313
91	0	6	5.4137688121803	28.070324990194	24.259110932009	0.4	0.20094516342267
92	0	6	5.3092091409091	22.669854030809	29.568320072919	0.4	0.2510127271433
93	0	7	5.3092091409091	16.980350355163	3.4411967504334	0.35	0.32873389732197
94	0	7	5.2687913989911	11.080213672393	8.7099881494245	0.3	0.27124856366389
95	0	7	5.2388992966043	5.0408116214523	13.948887446029	0.25	0.33882457420815
96	0	7	5.1993177307406	-1.0676228494937	19.148205176769	1	1.0114642115837
97	0	7	5.1502338403693	-7.1768190160462	24.298439017139	0.4	-0.99993729783858
98	0	7	5.2560997785201	-13.221226786222	29.554538795659	0.4	-1.0117566670749

-14-
99	0	8	5.2560997785201	-19.223677179222	3.3753318467675	0.3	0.35239364571614
100	0	8	5.2177136978552	-25.138822460299	8.5930455446227	0.3	-0.51941671852255
101	0	8	5.1785413033687	-30.926961082411	13.771586847991	0.3	-0.31259421645284
102	0	8	5.140125471054	-36.543492405839	18.911712319045	0.3	-0.25989943353711
103	0	8	5.1024515889293	-41.950557590693	24.014163907975	1	-0.18073966583156
104	0	8	5.0655053272234	-47.116545309433	29.079669235198	1	-0.13112518582402

-14-
105	0	9	5.0655053272234	-52.015602448517	2.8367503820741	1	-0.096853322590148
106	0	9	5.2784337747551	-56.088407484829	8.1151841568292	1	-0.67693809339718
107	0	9	5.3818237034084	-59.38385833696	13.497007860238	1	0.059180386259592
108	0	9	0	0	13.497007860238	1	-0.98759791398089
109	0	9	0	0	13.497007860238	1	1.9474236252
110	0	9	0	0	13.497007860238	1	-1
111	0	9	0	0	13.497007860238	1	0
112	0	9	0	0	13.497007860238	1	0
113	0	9	0	0	13.497007860238	1	0
114	0	9	0	0	13.497007860238	1	0
115	0	9	0	0	13.497007860238	1	0
116	0	9	0	0	13.497007860238	1	0
117	0	9	0	0	13.497007860238	1	0
118	0	9	0	0	13.497007860238	1	0
119	0	9	0	0	13.497007860238	1	0
120	0	9	0	0	13.497007860238	1	0
121	0	9	0	0	13.497007860238	1	0
122	0	9	0	0	13.497007860238	1	0
123	0	9	0	0	13.497007860238	1	0
124	0	9	0	0	13.497007860238	1	0
125	0	9	0	0	13.497007860238	1	0
126	0	9	0	0	13.497007860238	1	0
127	0	9	0	0	13.497007860238	1	0
128	0	9	0	0	13.497007860238	1	0
129	0	9	0	0	13.497007860238	1	0
130	0	9	0	0	13.497007860238	1	0
131	0	9	0	0	13.497007860238	1	0
132	0	9	0	0	13.497007860238	1	0
133	0	9	0	0	13.497007860238	1	0
134	0	9	0	0	13.497007860238	1	0
135	0	9	0	0	13.497007860238	1	0
136	0	9	0	0	13.497007860238	1	0
137	0	9	0	0	13.497007860238	1	0
138	0	9	0	0	13.497007860238	1	0
139	0	9	0	0	13.497007860238	1	0
140	0	9	0	0	13.497007860238	1	0
141	0	9	0	0	13.497007860238	1	0
142	0	9	0	0	13.497007860238	1	0
143	0	9	0	0	13.497007860238	1	0
144	0	9	0	0	13.497007860238	1	0
145	0	9	0	0	13.497007860238	1	0
146	0	9	0	0	13.497007860238	1	0
147	0	9	0	0	13.497007860238	1	0
148	0	9	0	0	13.497007860238	1	0
149	0	9	0	0	13.497007860238	1	0
150	0	9	0	0	13.497007860238	1	0
151	0	9	0	0	13.497007860238	1	0
152	0	9	0	0	13.497007860238	1	0
153	0	9	0	0	13.497007860238	1	0
154	0	9	0	0	13.497007860238	1	0
155	0	9	0	0	13.497007860238	1	0
156	0	9	0	0	13.497007860238	1	0
157	0	9	0	0	13.497007860238	1	0
158	0	9	0	0	13.497007860238	1	0
159	0	9	0	0	13.497007860238	1	0
160	0	9	0	0	13.497007860238	1	0
161	0	9	0	0	13.497007860238	1	0
162	0	9	0	0	13.497007860238	1	0
163	0	9	0	0	13.497007860238	1	0
164	0	9	0	0	13.497007860238	1	0
165	0	9	0	0	13.497007860238	1	0
166	0	9	0	0	13.497007860238	1	0
167	0	9	0	0	13.497007860238	1	0
168	0	9	0	0	13.497007860238	1	0
169	0	9	0	0	13.497007860238	1	0
170	0	9	0	0	13.497007860238	1	0
171	0	9	0	0	13.497007860238	1	0
172	0	9	0	0	13.497007860238	1	0
173	0	9	0	0	13.497007860238	1	0
174	0	9	0	0	13.497007860238	1	0
175	0	9	0	0	13.497007860238	1	0
176	0	9	0	0	13.497007860238	1	0
177	0	9	0	0	13.497007860238	1	0
178	0	9	0	0	13.497007860238	1	0
179	0	9	0	0	13.497007860238	1	0
180	0	9	0	0	13.497007860238	1	0
181	0	9	0	0	13.497007860238	1	0
182	0	9	0	0	13.497007860238	1	0
183	0	9	0	0	13.497007860238	1	0
184	0	9	0	0	13.497007860238	1	0
185	0	9	0	0	13.497007860238	1	0
186	0	9	0	0	13.497007860238	1	0
187	0	9	0	0	13.497007860238	1	0
188	0	9	0	0	13.497007860238	1	0
189	0	9	0	0	13.497007860238	1	0
190	0	9	0	0	13.497007860238	1	0
191	0	9	0	0	13.497007860238	1	0
192	0	9	0	0	13.497007860238	1	0
193	0	9	0	0	13.497007860238	1	0
194	0	9	0	0	13.497007860238	1	0
195	0	9	0	0	13.497007860238	1	0
196	0	9	0	0	13.497007860238	1	0
197	0	9	0	0	13.497007860238	1	0
198	0	9	0	0	13.497007860238	1	0
199	0	9	0	0	13.497007860238	1	0
200	0	9	0	0	13.497007860238	1	0
201	0	9	0	0	13.497007860238	1	0
202	0	9	0	0	13.497007860238	1	0
203	0	9	0	0	13.497007860238	1	0
204	0	9	0	0	13.497007860238	1	0
205	0	9	0	0	13.497007860238	1	0
206	0	9	0	0	13.497007860238	1	0
207	0	9	0	0	13.497007860238	1	0
208	0	9	0	0	13.497007860238	1	0
209	0	9	0	0	13.497007860238	1	0
210	0	9	0	0	13.497007860238	1	0
211	0	9	0	0	13.497007860238	1	0
212	0	9	0	0	13.497007860238	1	0
213	0	9	0	0	13.497007860238	1	0
214	0	9	0	0	13.497007860238	1	0
215	0	9	0	0	13.497007860238	1	0
216	0	9	0	0	13.497007860238	1	0
217	0	9	0	0	13.497007860238	1	0
218	0	9	0	0	13.497007860238	1	0
219	0	9	0	0	13.497007860238	1	0
220	0	9	0	0	13.497007860238	1	0
221	0	9	0	0	13.497007860238	1	0
222	0	9	0	0	13.497007860238	1	0
223	0	9	0	0	13.497007860238	1	0
224	0	9	0	0	13.497007860238	1	0
225	0	9	0	0	13.497007860238	1	0
226	0	9	0	0	13.497007860238	1	0
227	0	9	0	0	13.497007860238	1	0
228	0	9	0	0	13.497007860238	1	0
229	0	9	0	0	13.497007860238	1	0
230	0	9	0	0	13.497007860238	1	0
231	0	9	0	0	13.497007860238	1	0
232	0	9	0	0	13.497007860238	1	0
233	0	9	0	0	13.497007860238	1	0
234	0	9	0	0	13.497007860238	1	0
235	0	9	0	0	13.497007860238	1	0
236	0	9	0	0	13.497007860238	1	0
237	0	9	0	0	13.497007860238	1	0
238	0	9	0	0	13.497007860238	1	0
239	0	9	0	0	13.497007860238	1	0
240	0	9	0	0	13.497007860238	1	0
241	0	9	0	0	13.497007860238	1	0
242	0	9	0	0	13.497007860238	1	0
243	0	9	0	0	13.497007860238	1	0
244	0	9	0	0	13.497007860238	1	0
245	0	9	0	0	13.497007860238	1	0
246	0	9	0	0	13.497007860238	1	0
247	0	9	0	0	13.497007860238	1	0
248	0	9	0	0	13.497007860238	1	0
249	0	9	0	0	13.497007860238	1	0
250	0	9	0	0	13.497007860238	1	0
251	0	9	0	0	13.497007860238	1	0
252	0	9	0	0	13.497007860238	1	0
253	0	9	0	0	13.497007860238	1	0
254	0	9	0	0	13.497007860238	1	0
255	0	9	0	0	13.497007860238	1	0
256	0	9	0	0	13.497007860238	1	0
257	0	9	0	0	13.497007860238	1	0
258	0	9	0	0	13.497007860238	1	0
259	0	9	0	0	13.497007860238	1	0
260	0	9	0	0	13.497007860238	1	0
261	0	9	0	0	13.497007860238	1	0
262	0	9	0	0	13.497007860238	1	0
263	0	9	0	0	13.497007860238	1	0
264	0	9	0	0	13.497007860238	1	0
265	0	9	0	0	13.497007860238	1	0
266	0	9	0	0	13.497007860238	1	0
267	0	9	0	0	13.497007860238	1	0
268	0	9	0	0	13.497007860238	1	0
269	0	9	0	0	13.497007860238	1	0
270	0	9	0	0	13.497007860238	1	0
271	0	9	0	0	13.497007860238	1	0
272	0	9	0	0	13.497007860238	1	0
273	0	9	0	0	13.497007860238	1	0
274	0	9	0	0	13.497007860238	1	0
275	0	9	0	0	13.497007860238	1	0
276	0	9	0	0	13.497007860238	1	0
277	0	9	0	0	13.497007860238	1	0
278	0	9	0	0	13.497007860238	1	0
279	0	9	0	0	13.497007860238	1	0
280	0	9	0	0	13.497007860238	1	0
281	0	9	0	0	13.497007860238	1	0
282	0	9	0	0	13.497007860238	1	0
283	0	9	0	0	13.497007860238	1	0
284	0	9	0	0	13.497007860238	1	0
285	0	9	0	0	13.497007860238	1	0
286	0	9	0	0	13.497007860238	1	0
287	0	9	0	0	13.497007860238	1	0
288	0	9	0	0	13.497007860238	1	0
289	0	9	0	0	13.497007860238	1	0
290	0	9	0	0	13.497007860238	1	0
291	0	9	0	0	13.497007860238	1	0
292	0	9	0	0	13.497007860238	1	0
293	0	9	0	0	13.497007860238	1	0
294	0	9	0	0	13.497007860238	1	0
295	0	9	0	0	13.497007860238	1	0
296	0	9	0	0	13.497007860238	1	0
297	0	9	0	0	13.497007860238	1	0
298	0	9	0	0	13.497007860238	1	0
299	0	9	0	0	13.497007860238	1	0
300	0	9	0	0	13.497007860238	1	0
301	0	9	0	0	13.497007860238	1	0
302	0	9	0	0	13.497007860238	1	0
303	0	9	0	0	13.497007860238	1	0
304	0	9	0	0	13.497007860238	1	0
305	0	9	0	0	13.497007860238	1	0
306	0	9	0	0	13.497007860238	1	0
307	0	9	0	0	13.497007860238	1	0
308	0	9	0	0	13.497007860238	1	0
309	0	9	0	0	13.497007860238	1	0
310	0	9	0	0	13.497007860238	1	0
311	0	9	0	0	13.497007860238	1	0
312	0	9	0	0	13.497007860238	1	0
313	0	9	0	0	13.497007860238	1	0
314	0	9	0	0	13.497007860238	1	0
315	0	9	0	0	13.497007860238	1	0
316	0	9	0	0	13.497007860238	1	0
317	0	9	0	0	13.497007860238	1	0
318	0	9	0	0	13.497007860238	1	0
319	0	9	0	0	13.497007860238	1	0
320	0	9	0	0	13.497007860238	1	0
321	0	9	0	0	13.497007860238	1	0
322	0	9	0	0	13.497007860238	1	0
323	0	9	0	0	13.497007860238	1	0
324	0	9	0	0	13.497007860238	1	0
325	0	9	0	0	13.497007860238	1	0
326	0	9	0	0	13.497007860238	1	0
327	0	9	0	0	13.497007860238	1	0
328	0	9	0	0	13.497007860238	1	0
329	0	9	0	0	13.497007860238	1	0
330	0	9	0	0	13.497007860238	1	0
331	0	9	0	0	13.497007860238	1	0
332	0	9	0	0	13.497007860238	1	0
333	0	9	0	0	13.497007860238	1	0
334	0	9	0	0	13.497007860238	1	0
335	0	9	0	0	13.497007860238	1	0
336	0	9	0	0	13.497007860238	1	0
337	0	9	0	0	13.497007860238	1	0
338	0	9	0	0	13.497007860238	1	0
339	0	9	0	0	13.497007860238	1	0
340	0	9	0	0	13.497007860238	1	0
341	0	9	0	0	13.497007860238	1	0
342	0	9	0	0	13.497007860238	1	0
343	0	9	0	0	13.497007860238	1	0
344	0	9	0	0	13.497007860238	1	0
345	0	9	0	0	13.497007860238	1	0
346	0	9	0	0	13.497007860238	1	0
347	0	9	0	0	13.497007860238	1	0
348	0	9	0	0	13.497007860238	1	0
349	0	9	0	0	13.497007860238	1	0
350	0	9	0	0	13.497007860238	1	0
351	0	9	0	0	13.497007860238	1	0
352	0	9	0	0	13.497007860238	1	0
353	0	9	0	0	13.497007860238	1	0
354	0	9	0	0	13.497007860238	1	0
355	0	9	0	0	13.497007860238	1	0
356	0	9	0	0	13.497007860238	1	0
357	0	9	0	0	13.497007860238	1	0
358	0	9	0	0	13.497007860238	1	0
359	0	9	0	0	13.497007860238	1	0
360	0	9	0	0	13.497007860238	1	0
361	0	9	0	0	13.497007860238	1	0
362	0	9	0	0	13.497007860238	1	0
363	0	9	0	0	13.497007860238	1	0
364	0	9	0	0	13.497007860238	1	0
365	0	9	0	0	13.497007860238	1	0
366	0	9	0	0	13.497007860238	1	0
367	0	9	0	0	13.497007860238	1	0
368	0	9	0	0	13.497007860238	1	0
369	0	9	0	0	13.497007860238	1	0
370	0	9	0	0	13.497007860238	1	0
371	0	9	0	0	13.497007860238	1	0
372	0	9	0	0	13.497007860238	1	0
373	0	9	0	0	13.497007860238	1	0
374	0	9	0	0	13.497007860238	1	0
375	0	9	0	0	13.497007860238	1	0
376	0	9	0	0	13.497007860238	1	0
377	0	9	0	0	13.497007860238	1	0
378	0	9	0	0	13.497007860238	1	0
379	0	9	0	0	13.497007860238	1	0
380	0	9	0	0	13.497007860238	1	0
381	0	9	0	0	13.497007860238	1	0
382	0	9	0	0	13.497007860238	1	0
383	0	9	0	0	13.497007860238	1	0
384	0	9	0	0	13.497007860238	1	0
385	0	9	0	0	13.497007860238	1	0
386	0	9	0	0	13.497007860238	1	0
387	0	9	0	0	13.497007860238	1	0
388	0	9	0	0	13.497007860238	1	0
389	0	9	0	0	13.497007860238	1	0
390	0	9	0	0	13.497007860238	1	0
391	0	9	0	0	13.497007860238	1	0
392	0	9	0	0	13.497007860238	1	0
393	0	9	0	0	13.497007860238	1	0
394	0	9	0	0	13.497007860238	1	0
395	0	9	0	0	13.497007860238	1	0
396	0	9	0	0	13.497007860238	1	0
397	0	9	0	0	13.497007860238	1	0
398	0	9	0	0	13.497007860238	1	0
399	0	9	0	0	13.497007860238	1	0
400	0	9	0	0	13.497007860238	1	0
401	0	9	0	0	13.497007860238	1	0
402	0	9	0	0	13.497007860238	1	0
403	0	9	0	0	13.497007860238	1	0
404	0	9	0	0	13.497007860238	1	0
405	0	9	0	0	13.497007860238	1	0
406	0	9	0	0	13.497007860238	1	0
407	0	9	0	0	13.497007860238	1	0
408	0	9	0	0	13.497007860238	1	0
409	0	9	0	0	13.497007860238	1	0
410	0	9	0	0	13.497007860238	1	0
411	0	9	0	0	13.497007860238	1	0
412	0	9	0	0	13.497007860238	1	0
413	0	9	0	0	13.497007860238	1	0
414	0	9	0	0	13.497007860238	1	0
415	0	9	0	0	13.497007860238	1	0
416	0	9	0	0	13.497007860238	1	0
417	0	9	0	0	13.497007860238	1	0
418	0	9	0	0	13.497007860238	1	0
419	0	9	0	0	13.497007860238	1	0
420	0	9	0	0	13.497007860238	1	0
421	0	9	0	0	13.497007860238	1	0
422	0	9	0	0	13.497007860238	1	0
423	0	9	0	0	13.497007860238	1	0
424	0	9	0	0	13.497007860238	1	0
425	0	9	0	0	13.497007860238	1	0
426	0	9	0	0	13.497007860238	1	0
427	0	9	0	0	13.497007860238	1	0
428	0	9	0	0	13.497007860238	1	0
429	0	9	0	0	13.497007860238	1	0
430	0	9	0	0	13.497007860238	1	0
431	0	9	0	0	13.497007860238	1	0
432	0	9	0	0	13.497007860238	1	0
433	0	9	0	0	13.497007860238	1	0
434	0	9	0	0	13.497007860238	1	0
435	0	9	0	0	13.497007860238	1	0
436	0	9	0	0	13.497007860238	1	0
437	0	9	0	0	13.497007860238	1	0
438	0	9	0	0	13.497007860238	1	0
439	0	9	0	0	13.497007860238	1	0
440	0	9	0	0	13.497007860238	1	0
441	0	9	0	0	13.497007860238	1	0
442	0	9	0	0	13.497007860238	1	0
443	0	9	0	0	13.497007860238	1	0
444	0	9	0	0	13.497007860238	1	0
445	0	9	0	0	13.497007860238	1	0
446	0	9	0	0	13.497007860238	1	0
447	0	9	0	0	13.497007860238	1	0
448	0	9	0	0	13.497007860238	1	0
449	0	9	0	0	13.497007860238	1	0
450	0	9	0	0	13.497007860238	1	0
451	0	9	0	0	13.497007860238	1	0
452	0	9	0	0	13.497007860238	1	0
453	0	9	0	0	13.497007860238	1	0
454	0	9	0	0	13.497007860238	1	0
455	0	9	0	0	13.497007860238	1	0
456	0	9	0	0	13.497007860238	1	0
457	0	9	0	0	13.497007860238	1	0
458	0	9	0	0	13.497007860238	1	0
459	0	9	0	0	13.497007860238	1	0
460	0	9	0	0	13.497007860238	1	0
461	0	9	0	0	13.497007860238	1	0
462	0	9	0	0	13.497007860238	1	0
463	0	9	0	0	13.497007860238	1	0
464	0	9	0	0	13.497007860238	1	0
465	0	9	0	0	13.497007860238	1	0
466	0	9	0	0	13.497007860238	1	0
467	0	9	0	0	13.497007860238	1	0
468	0	9	0	0	13.497007860238	1	0
469	0	9	0	0	13.497007860238	1	0
470	0	9	0	0	13.497007860238	1	0
471	0	9	0	0	13.497007860238	1	0
472	0	9	0	0	13.497007860238	1	0
473	0	9	0	0	13.497007860238	1	0
474	0	9	0	0	13.497007860238	1	0
475	0	9	0	0	13.497007860238	1	0
476	0	9	0	0	13.497007860238	1	0
477	0	9	0	0	13.497007860238	1	0
478	0	9	0	0	13.497007860238	1	0
479	0	9	0	0	13.497007860238	1	0
480	0	9	0	0	13.497007860238	1	0
481	0	9	0	0	13.497007860238	1	0
482	0	9	0	0	13.497007860238	1	0
483	0	9	0	0	13.497007860238	1	0
484	0	9	0	0	13.497007860238	1	0
485	0	9	0	0	13.497007860238	1	0
486	0	9	0	0	13.497007860238	1	0
487	0	9	0	0	13.497007860238	1	0
488	0	9	0	0	13.497007860238	1	0
489	0	9	0	0	13.497007860238	1	0
490	0	9	0	0	13.497007860238	1	0
491	0	9	0	0	13.497007860238	1	0
492	0	9	0	0	13.497007860238	1	0
493	0	9	0	0	13.497007860238	1	0
494	0	9	0	0	13.497007860238	1	0
495	0	9	0	0	13.497007860238	1	0
496	0	9	0	0	13.497007860238	1	0
497	0	9	0	0	13.497007860238	1	0
498	0	9	0	0	13.497007860238	1	0
499	0	9	0	0	13.497007860238	1	0
500	0	9	0	0	13.497007860238	1	0
501	0	9	0	0	13.497007860238	1	0
502	0	9	0	0	13.497007860238	1	0
503	0	9	0	0	13.497007860238	1	0
504	0	9	0	0	13.497007860238	1	0
505	0	9	0	0	13.497007860238	1	0
506	0	9	0	0	13.497007860238	1	0
507	0	9	0	0	13.497007860238	1	0
508	0	9	0	0	13.497007860238	1	0
509	0	9	0.20533578549773	0	13.702343645735	1	0
510	0	9	0.40670578616484	0	14.1090494319	1	0
511	0	9	0.60418659580734	0	14.713236027707	1	0
512	0	9	0.79785332892478	0	15.511089356632	1	0
513	0	9	0.98777964928109	0	16.498869005913	1	0
514	0	9	1.1740377979235	0	17.672906803837	1	0
515	0	9	1.3566986206606	0	19.029605424498	1	0
516	0	9	1.5358315950093	0	20.565437019507	1	0
517	0	9	1.7115048566215	0	22.276941876128	1	0
518	0	9	1.8837852252006	0	24.160727101329	1	0
519	0	9	2.0527382299174	0	26.213465331246	1	0
520	0	9	2.2184281343344	0	28.431893465581	1	0
521	0	9	2.3809179608501	0	30.812811426431	1	0
522	0	9	2.5402695146699	0	33.353080941101	1	0
523	0	9	2.6965434073146	0	36.049624348415	1	0
524	0	9	2.8497990796751	0	38.899423428091	1	0
525	0	9	3.0000948246212	0	41.899518252712	1	0
526	0	9	3.1474878091742	0	45.047006061886	1	0
527	0	9	3.2920340962513	0	48.339040158137	1	0

-14-
528	0	10	3.2920340962513	0	1.772828824127	1	0
529	0	10	3.5728054366595	0	5.3456342607866	1	0
530	0	10	3.7091372851711	0	9.0547715459577	1	0
531	0	10	3.842836067189	0	12.897607613147	1	0
532	0	10	3.973952636855	-0.037120479956337	16.871560250002	1	1
533	0	10	4.1025368661315	-0.15071836433632	20.974097116133	1	0.51462160312464
534	0	10	4.2286376637709	-0.37766625899682	25.202734779904	1	0.32529865472107
535	0	10	4.3523029939189	-0.75223138915626	29.555037773823	1	0.23213566561252

-14-
536	0	11	4.3523029939189	-1.3059660245845	2.6126911322832	1	0.17610290167693
537	0	11	4.5925144943993	-2.0676116084936	7.2052056266825	1	0.13823920010989
538	0	11	4.7091520324281	-3.0630184595303	11.914357659111	1	0.110584268148
539	0	11	4.823536873111	-4.315082578422	16.737894532222	1	0.089208464341848
540	0	11	4.9357125242708	-5.8437007623863	21.673607056492	1	0.071945415853161
541	0	11	5.0457216534352	-7.6657449120099	26.719328709928	0.4	0.057499684967458

-14-
542	0	12	5.0457216534352	-9.7950561079366	0.45700827809548	0.3	0.045045769829325
543	0	12	5.2594069114739	-11.648336358086	5.7164151895694	0.25	-1.8983421720555
544	0	12	5.3631643184292	-13.239709407285	11.079579507999	0.2	0.051167251505963
545	0	12	5.3211827406175	-14.583186730214	16.400762248616	0.15	0.053497859665333
546	0	12	5.2697451913047	-15.695316568936	21.670507439921	0.4	0.066754850155546
547	0	12	5.219301089151	-16.592845525016	26.889808529072	0.4	0.072387221431058
548	0	12	5.1492976685096	-17.292367764587	32.039106197581	0.4	0.077325712400555

-14-

 Left 
549	0	13	5.1492976685096	-17.810633343935	1.8281690609598	0.35	0.084593374309496
550	0	13	5.1149972273419	-17.969577148415	6.9431662883017	0.4	-0.49555893101467
551	0	13	5.0983422420347	-17.810848087191	12.041508530336	0.35	0.11590978358624
552	0	13	5.082008925393	-17.373794403838	17.123517455729	0.3	0.12386403694731
553	0	13	5.0659910648186	-16.695428767075	22.189508520548	0.25	0.13298381018855
554	0	13	5.0502825677014	-15.810415406898	27.239791088249	0.2	0.14364903812443
555	0	13	5.014343880552	-14.751076771829	32.254134968801	0.15	0.15641328144505
556	0	13	4.9688325115868	-13.555212259345	37.222967480388	1	0.21683257061106
557	0	13	4.9139333442943	-12.260981219178	42.136900824683	1	0.27950268808833
558	0	13	4.8498276913868	-10.906327446705	46.986728516069	1	0.38573889178915
559	0	14	4.8498276913868	-9.5284376667325	4.8243342829356	1	0.61544262213204
560	0	14	5.0710067349746	-8.2292427381583	9.8953410179102	1	1.2952671882127
561	0	14	5.1784028382255	-7.0078041207554	15.073743856136	1	-0.011926323135192
562	0	14	5.2837247300275	-5.8631478241569	20.357468586163	1	-0.012526190505779
563	0	14	5.3870124709881	-4.7942330832754	25.744481057151	1	-0.013554749017934
564	0	14	5.4883053479979	-3.7999265747215	31.232786405149	1	-0.014963032890243
565	0	14	5.5876418891741	-2.8789817703455	36.820428294323	1	-0.01670764888661
566	0	14	5.6850598785149	-2.0300230474843	42.505488172838	1	-0.018751236470502
567	0	14	5.7805963702716	-1.2515341936847	48.28608454311	1	-0.021062577953092
568	0	14	5.8742877030422	-0.54185095774338	54.160372246152	1	-0.02361649347835
569	0	14	5.9661695135936	0.10084269012624	60.126541759745	1	0.94912245345065
570	0	14	6.0562767504163	0.67851491747951	66.182818510162	1	-1.0480793640402
571	0	14	6.1446436870178	1.193283329448	72.32746219718	1	0.032567807881855
572	0	14	6.2313039349588	1.6474095241233	78.558766132138	1	0.035953273703256
573	0	14	6.3162904566379	2.0432912125184	84.875056588776	1	0.039538643539827
574	0	14	6.3996355778291	2.3834522060917	91.274692166605	1	0.043331322037071
575	0	14	6.4813709999778	2.6705305683875	97.756063166583	1	0.047344412208313

-21-
576	0	15	6.4813709999778	2.9072652202281	4.3175909788414	1	0.051597306998728
577	0	15	6.6401365033993	3.0964812798845	10.957727482241	1	0.056116608121049
578	0	15	6.7172269732808	3.2410744106019	17.674954455521	1	0.060937479672212
579	0	15	6.7928285443067	3.3439944376809	24.467782999828	1	0.066105595726725
580	0	15	6.866969972558	3.4082284859667	31.334752972386	1	0.071679922643582
581	0	15	6.9396794587309	3.436783876083	38.274432431117	1	0.077736707653471
582	0	15	7.0109846588627	3.4326710041014	45.28541708998	1	0.084375260341866
583	0	15	7.0809126948516	3.3988864146322	52.366329784831	1	0.091726477556415
584	0	15	7.149490164773	3.3383962616577	59.515819949604	1	0.099965699110175
585	0	15	7.2167431529958	3.2541203349322	66.7325631026	1	0.1093326397537
586	0	15	7.2826972401048	3.1489168125715	74.015260342705	1	0.12016334410149
587	0	15	7.3473775126297	3.0255678827215	81.362637855335	0	0.1329435160355
588	0	15	7.4108085725881	2.8867663590761	88.773446427923	0	0.14840194111157
589	0	15	7.2676787613445	2.735103396694	96.041125189267	0	0.16768415019938

-21-
590	0	16	7.2676787613445	2.5737594144673	3.1684384993792	0.1	0.24728329055013
591	0	16	6.9896588289904	0.4504111366652	10.15809732837	0.15	-0.99506574992398
592	0	16	6.8751965377844	-3.3044524022767	17.033293866154	0.05	1.3337757053917
593	0	16	6.7732117212291	-8.4018023061166	23.806505587383	1	-0.77161653803049
594	0	16	6.6526630258404	-14.583086675543	30.459168613224	1	-0.19259182519232

-21-
595	0	17	6.6526630258404	-21.595522100658	5.7727536400959	1	-0.23320912649582
596	0	17	6.8048758734543	-27.725054838661	12.57762951355	1	-1.9413846710639
597	0	17	6.8787846237287	-33.005802356911	19.456414137279	1	0.038642387046184
598	0	17	6.951265925787	-37.474675366153	26.407680063066	1	0.043486514474275
599	0	17	7.0223473488739	-41.17104053203	33.43002741194	0	0.048488609023163
600	0	17	7.0920559297709	-44.136372497157	40.522083341711	0	0.053688312643622
601	0	17	6.9550823975828	-46.413899237912	47.477165739293	0	0.059132712898667

-21-
602	0	18	6.9550823975828	-48.0601576876	4.2979200644401	0.1	0.08219904604045
603	0	18	6.6890206189613	-48.117338595468	10.986940683401	0	-0.60274544542147
604	0	18	6.5598311723283	-46.829358759293	17.54677185573	0.1	0.1534958435677
605	0	18	6.4536704248421	-44.422922907231	24.000442280572	0	0.16853355939931
606	0	18	6.3290264510182	-41.094551752236	30.32946873159	0	0.17570714463525
607	0	18	6.2273233866407	-37.037127504175	36.556792118231	0	0.20921447443825
608	0	18	6.107051001765	-32.413872841009	42.663843119996	0	0.22388311566509

-21-
609	0	19	6.107051001765	-27.38375491193	1.5290548325675	0.1	0.28094486430218
610	0	19	5.8734300669179	-22.088382340231	7.4024848994854	0	0.34804966473863
611	0	19	5.759992656061	-16.652695877607	13.162477555546	0.1	0.47102192240461
612	0	19	5.648746136393	-11.185790875997	18.81122369194	0.05	0.77750927738092
613	0	19	5.5601817723438	-5.7818371305844	24.371405464283	0.4	1.495916060635
614	0	19	5.4733279100009	-0.51208183411797	29.844733374284	1	0.53090921175229
615	0	19	5.388151513322	4.5632187183904	35.232884887606	1	0.98702776950604
616	0	19	5.2943533950366	9.3939563973572	40.527238282643	0.4	-1.0236405561373
617	0	19	5.2742343863134	13.935366769661	45.801472668956	0.4	-0.15471900539854

-21-

 Right 
618	0	20	5.2742343863134	18.17872416314	4.0552882856218	0.4	-0.029275574415732
619	0	20	5.4791780506985	21.875546037934	9.5344663363203	0.4	-0.45465030426338
620	0	20	5.4554894020609	25.052860710626	14.989955738381	0.3	0.049453906762731
621	0	20	5.4322582678464	27.741599395926	20.422214006228	0.2	0.059539530125863
622	0	20	5.4094758117785	29.973089796843	25.831689818006	0.1	0.064120431249254
623	0	20	5.3871333682415	31.778757777344	31.218823186248	2.7755575615629E-17	0.068728227176552
624	0	20	5.3446888604349	33.189863451765	36.563512046682	0.1	0.073411151782368
625	0	20	5.2825305327231	34.238121691906	41.846042579406	0	0.080379882495815

-27-
626	0	21	5.2825305327231	34.955474204008	3.8296491450483	0	0.088030679624744
627	0	21	5.1009846262552	35.374732679644	8.9306337713035	0	0.099157218488798
628	0	21	5.0024659613132	35.526507848271	13.933099732617	0	0.10268816450956
629	0	21	4.9058500520258	35.44095531724	18.838949784643	1	0.11273827772621
630	0	21	4.811100149224	35.146623023705	23.650049933867	1	0.12028910739215
631	0	21	4.7181802134994	34.67035655543	28.368230147366	1	0.12858328529765
632	0	21	4.8323906869942	34.037240496114	33.20062083436	1	0.13787725002175
633	0	21	4.9443953386338	33.261834487749	38.145016172994	1	0.09282550177824
634	0	21	5.0542367709041	32.358394505976	43.199252943898	1	0.10018961800281
635	0	21	5.1619567634807	31.340864788181	48.361209707379	1	0.10891044786605
636	0	21	5.2675962891212	30.222862805957	53.6288059965	1	0.1193575519416
637	0	21	5.3711955292495	29.017658722002	59.000001525749	1	0.13207787017218
638	0	21	5.4727938892392	27.738150647946	64.472795414989	1	0.14791055920674
639	0	21	5.5724300134018	26.396836904589	70.04522542839	1	0.16820524420269
640	0	21	5.6701417996862	25.005786377786	75.715367228077	1	0.19527150163127
641	0	21	5.7659664140932	23.576607960444	81.48133364217	1	0.23340658772624
642	0	21	5.8599403048122	22.120419972764	87.341273946982	1	0.29160596200281
643	0	21	5.9520992160848	20.647820358155	93.293373163067	1	0.39237734167922
644	0	21	6.0424782018006	19.168858360797	99.335851364868	1	0.61232467834802

-27-
645	0	22	6.0424782018006	17.693008302177	3.4066880107643	1	1.4891152985595
646	0	22	6.2180332401021	16.229145988009	9.6247212508664	1	0.74040665031702
647	0	22	6.3032760674233	14.785528193744	15.92799731829	1	0.40785237136317
648	0	22	6.3868725440575	13.369775596395	22.314869862347	1	0.27348369500758
649	0	22	6.4688544670565	11.988859442935	28.783724329404	1	0.20011362222646
650	0	22	6.5492530193545	10.649092171118	35.332977348758	1	0.15340484363519
651	0	22	6.6280987816294	9.3561221276639	41.961076130388	1	0.1206983173443
652	0	22	6.7054217439344	8.1149324614613	48.666497874322	1	0.096236241470996
653	0	22	6.7812513171049	6.9298442061569	55.447749191427	1	0.077021835592933
654	0	22	6.8556163439458	5.804523507445	62.303365535373	1	0.061340063126692
655	0	22	6.9285451102019	4.7419928958213	69.231910645575	1	0.048137064873811
656	0	22	7.0000653553166	3.7446464557462	76.231976000891	0.2	0.036728003189842
657	0	22	7.0702042829836	2.8142686972752	83.302180283875	0	0.026646934247618
658	0	22	7.1389885714935	1.952056896405	90.441168855368	0	0.017564133755763
659	0	22	7.2064443838818	1.158646635779	97.64761323925	0	0.0092379130017042

-27-
660	0	23	7.2064443838818	0.43414024803895	4.9202106171302	0.1	0.0014851507990755
661	0	23	7.3374727156747	1.8583430773365	12.257683332805	0.05	0.96793243481267
662	0	23	7.2368264450811	5.2602012031353	19.494509777886	0	-0.079607756684828
663	0	23	7.1381240219869	10.323403270103	26.632633799873	0	-0.15994261279598

-27-
664	0	24	7.1381240219869	16.752565624909	2.2169680104645	0.1	-0.17779801401193
665	0	24	6.8650601149409	24.240907348259	9.0820281254054	0	-0.22458992550946
666	0	24	6.73247070195	32.510584799696	15.814498827355	0.1	-0.26231972478782
667	0	24	6.6229756538885	41.312386030284	22.437474481244	0	-0.31895629494035
668	0	24	6.5155953555749	50.439691137786	28.953069836819	0	-0.388292931708

-27-
669	0	25	6.5155953555749	59.709686097508	3.9371654751051	0.1	-0.56163393943455
670	0	25	0	0	3.9371654751051	1	-1.0020685780223
671	0	25	0	0	3.9371654751051	1	1.8656126729256
672	0	25	0	0	3.9371654751051	1	-1
673	0	25	0	0	3.9371654751051	1	0
674	0	25	0	0	3.9371654751051	1	0
675	0	25	0	0	3.9371654751051	1	0
676	0	25	0	0	3.9371654751051	1	0
677	0	25	0	0	3.9371654751051	1	0
678	0	25	0	0	3.9371654751051	1	0
679	0	25	0	0	3.9371654751051	1	0
680	0	25	0	0	3.9371654751051	1	0
681	0	25	0	0	3.9371654751051	1	0
682	0	25	0	0	3.9371654751051	1	0
683	0	25	0	0	3.9371654751051	1	0
684	0	25	0	0	3.9371654751051	1	0
685	0	25	0	0	3.9371654751051	1	0
686	0	25	0	0	3.9371654751051	1	0
687	0	25	0	0	3.9371654751051	1	0
688	0	25	0	0	3.9371654751051	1	0
689	0	25	0	0	3.9371654751051	1	0
690	0	25	0	0	3.9371654751051	1	0
691	0	25	0	0	3.9371654751051	1	0
692	0	25	0	0	3.9371654751051	1	0
693	0	25	0	0	3.9371654751051	1	0
694	0	25	0	0	3.9371654751051	1	0
695	0	25	0	0	3.9371654751051	1	0
696	0	25	0	0	3.9371654751051	1	0
697	0	25	0	0	3.9371654751051	1	0
698	0	25	0	0	3.9371654751051	1	0
699	0	25	0	0	3.9371654751051	1	0
700	0	25	0	0	3.9371654751051	1	0
701	0	25	0	0	3.9371654751051	1	0
702	0	25	0	0	3.9371654751051	1	0
703	0	25	0	0	3.9371654751051	1	0
704	0	25	0	0	3.9371654751051	1	0
705	0	25	0	0	3.9371654751051	1	0
706	0	25	0	0	3.9371654751051	1	0
707	0	25	0	0	3.9371654751051	1	0
708	0	25	0	0	3.9371654751051	1	0
709	0	25	0	0	3.9371654751051	1	0
710	0	25	0	0	3.9371654751051	1	0
711	0	25	0	0	3.9371654751051	1	0
712	0	25	0	0	3.9371654751051	1	0
713	0	25	0	0	3.9371654751051	1	0
714	0	25	0	0	3.9371654751051	1	0
715	0	25	0	0	3.9371654751051	1	0
716	0	25	0	0	3.9371654751051	1	0
717	0	25	0	0	3.9371654751051	1	0
718	0	25	0	0	3.9371654751051	1	0
719	0	25	0	0	3.9371654751051	1	0
720	0	25	0	0	3.9371654751051	1	0
721	0	25	0	0	3.9371654751051	1	0
722	0	25	0	0	3.9371654751051	1	0
723	0	25	0	0	3.9371654751051	1	0
724	0	25	0	0	3.9371654751051	1	0
725	0	25	0	0	3.9371654751051	1	0
726	0	25	0	0	3.9371654751051	1	0
727	0	25	0	0	3.9371654751051	1	0
728	0	25	0	0	3.9371654751051	1	0
729	0	25	0	0	3.9371654751051	1	0
730	0	25	0	0	3.9371654751051	1	0
731	0	25	0	0	3.9371654751051	1	0
732	0	25	0	0	3.9371654751051	1	0
733	0	25	0	0	3.9371654751051	1	0
734	0	25	0	0	3.9371654751051	1	0
735	0	25	0	0	3.9371654751051	1	0
736	0	25	0	0	3.9371654751051	1	0
737	0	25	0	0	3.9371654751051	1	0
738	0	25	0	0	3.9371654751051	1	0
739	0	25	0	0	3.9371654751051	1	0
740	0	25	0	0	3.9371654751051	1	0
741	0	25	0	0	3.9371654751051	1	0
742	0	25	0	0	3.9371654751051	1	0
743	0	25	0	0	3.9371654751051	1	0
744	0	25	0	0	3.9371654751051	1	0
745	0	25	0	0	3.9371654751051	1	0
746	0	25	0	0	3.9371654751051	1	0
747	0	25	0	0	3.9371654751051	1	0
748	0	25	0	0	3.9371654751051	1	0
749	0	25	0	0	3.9371654751051	1	0
750	0	25	0	0	3.9371654751051	1	0
751	0	25	0	0	3.9371654751051	1	0
752	0	25	0	0	3.9371654751051	1	0
753	0	25	0	0	3.9371654751051	1	0
754	0	25	0	0	3.9371654751051	1	0
755	0	25	0	0	3.9371654751051	1	0
756	0	25	0	0	3.9371654751051	1	0
757	0	25	0	0	3.9371654751051	1	0
758	0	25	0	0	3.9371654751051	1	0
759	0	25	0	0	3.9371654751051	1	0
760	0	25	0	0	3.9371654751051	1	0
761	0	25	0	0	3.9371654751051	1	0
762	0	25	0	0	3.9371654751051	1	0
763	0	25	0	0	3.9371654751051	1	0
764	0	25	0	0	3.9371654751051	1	0
765	0	25	0	0	3.9371654751051	1	0
766	0	25	0	0	3.9371654751051	1	0
767	0	25	0	0	3.9371654751051	1	0
768	0	25	0	0	3.9371654751051	1	0
769	0	25	0	0	3.9371654751051	1	0
770	0	25	0	0	3.9371654751051	1	0
771	0	25	0	0	3.9371654751051	1	0
772	0	25	0	0	3.9371654751051	1	0
773	0	25	0	0	3.9371654751051	1	0
774	0	25	0	0	3.9371654751051	1	0
775	0	25	0	0	3.9371654751051	1	0
776	0	25	0	0	3.9371654751051	1	0
777	0	25	0	0	3.9371654751051	1	0
778	0	25	0	0	3.9371654751051	1	0
779	0	25	0	0	3.9371654751051	1	0
780	0	25	0	0	3.9371654751051	1	0
781	0	25	0	0	3.9371654751051	1	0
782	0	25	0	0	3.9371654751051	1	0
783	0	25	0	0	3.9371654751051	1	0
784	0	25	0	0	3.9371654751051	1	0
785	0	25	0	0	3.9371654751051	1	0
786	0	25	0	0	3.9371654751051	1	0
787	0	25	0	0	3.9371654751051	1	0
788	0	25	0	0	3.9371654751051	1	0
789	0	25	0	0	3.9371654751051	1	0
790	0	25	0	0	3.9371654751051	1	0
791	0	25	0	0	3.9371654751051	1	0
792	0	25	0	0	3.9371654751051	1	0
793	0	25	0	0	3.9371654751051	1	0
794	0	25	0	0	3.9371654751051	1	0
795	0	25	0	0	3.9371654751051	1	0
796	0	25	0	0	3.9371654751051	1	0
797	0	25	0	0	3.9371654751051	1	0
798	0	25	0	0	3.9371654751051	1	0
799	0	25	0	0	3.9371654751051	1	0
800	0	25	0	0	3.9371654751051	1	0
801	0	25	0	0	3.9371654751051	1	0
802	0	25	0	0	3.9371654751051	1	0
803	0	25	0	0	3.9371654751051	1	0
804	0	25	0	0	3.9371654751051	1	0
805	0	25	0	0	3.9371654751051	1	0
806	0	25	0	0	3.9371654751051	1	0
807	0	25	0	0	3.9371654751051	1	0
808	0	25	0	0	3.9371654751051	1	0
809	0	25	0	0	3.9371654751051	1	0
810	0	25	0	0	3.9371654751051	1	0
811	0	25	0	0	3.9371654751051	1	0
812	0	25	0	0	3.9371654751051	1	0
813	0	25	0	0	3.9371654751051	1	0
814	0	25	0	0	3.9371654751051	1	0
815	0	25	0	0	3.9371654751051	1	0
816	0	25	0	0	3.9371654751051	1	0
817	0	25	0	0	3.9371654751051	1	0
818	0	25	0	0	3.9371654751051	1	0
819	0	25	0	0	3.9371654751051	1	0
820	0	25	0	0	3.9371654751051	1	0
821	0	25	0	0	3.9371654751051	1	0
822	0	25	0	0	3.9371654751051	1	0
823	0	25	0	0	3.9371654751051	1	0
824	0	25	0	0	3.9371654751051	1	0
825	0	25	0	0	3.9371654751051	1	0
826	0	25	0	0	3.9371654751051	1	0
827	0	25	0	0	3.9371654751051	1	0
828	0	25	0	0	3.9371654751051	1	0
829	0	25	0	0	3.9371654751051	1	0
830	0	25	0	0	3.9371654751051	1	0
831	0	25	0	0	3.9371654751051	1	0
832	0	25	0	0	3.9371654751051	1	0
833	0	25	0	0	3.9371654751051	1	0
834	0	25	0	0	3.9371654751051	1	0
835	0	25	0	0	3.9371654751051	1	0
836	0	25	0	0	3.9371654751051	1	0
837	0	25	0	0	3.9371654751051	1	0
838	0	25	0	0	3.9371654751051	1	0
839	0	25	0	0	3.9371654751051	1	0
840	0	25	0	0	3.9371654751051	1	0
841	0	25	0	0	3.9371654751051	1	0
842	0	25	0	0	3.9371654751051	1	0
843	0	25	0	0	3.9371654751051	1	0
844	0	25	0	0	3.9371654751051	1	0
845	0	25	0	0	3.9371654751051	1	0
846	0	25	0	0	3.9371654751051	1	0
847	0	25	0	0	3.9371654751051	1	0
848	0	25	0	0	3.9371654751051	1	0
849	0	25	0	0	3.9371654751051	1	0
850	0	25	0	0	3.9371654751051	1	0
851	0	25	0	0	3.9371654751051	1	0
852	0	25	0	0	3.9371654751051	1	0
853	0	25	0	0	3.9371654751051	1	0
854	0	25	0	0	3.9371654751051	1	0
855	0	25	0	0	3.9371654751051	1	0
856	0	25	0	0	3.9371654751051	1	0
857	0	25	0	0	3.9371654751051	1	0
858	0	25	0	0	3.9371654751051	1	0
859	0	25	0	0	3.9371654751051	1	0
860	0	25	0	0	3.9371654751051	1	0
861	0	25	0	0	3.9371654751051	1	0
862	0	25	0	0	3.9371654751051	1	0
863	0	25	0	0	3.9371654751051	1	0
864	0	25	0	0	3.9371654751051	1	0
865	0	25	0	0	3.9371654751051	1	0
866	0	25	0	0	3.9371654751051	1	0
867	0	25	0	0	3.9371654751051	1	0
868	0	25	0	0	3.9371654751051	1	0
869	0	25	0	0	3.9371654751051	1	0
870	0	25	0	0	3.9371654751051	1	0
871	0	25	0	0	3.9371654751051	1	0
872	0	25	0	0	3.9371654751051	1	0
873	0	25	0	0	3.9371654751051	1	0
874	0	25	0	0	3.9371654751051	1	0
875	0	25	0	0	3.9371654751051	1	0
876	0	25	0	0	3.9371654751051	1	0
877	0	25	0	0	3.9371654751051	1	0
878	0	25	0	0	3.9371654751051	1	0
879	0	25	0	0	3.9371654751051	1	0
880	0	25	0	0	3.9371654751051	1	0
881	0	25	0	0	3.9371654751051	1	0
882	0	25	0	0	3.9371654751051	1	0
883	0	25	0	0	3.9371654751051	1	0
884	0	25	0	0	3.9371654751051	1	0
885	0	25	0	0	3.9371654751051	1	0
886	0	25	0	0	3.9371654751051	1	0
887	0	25	0	0	3.9371654751051	1	0
888	0	25	0	0	3.9371654751051	1	0
889	0	25	0	0	3.9371654751051	1	0
890	0	25	0	0	3.9371654751051	1	0
891	0	25	0	0	3.9371654751051	1	0
892	0	25	0	0	3.9371654751051	1	0
893	0	25	0	0	3.9371654751051	1	0
894	0	25	0	0	3.9371654751051	1	0
895	0	25	0	0	3.9371654751051	1	0
896	0	25	0	0	3.9371654751051	1	0
897	0	25	0	0	3.9371654751051	1	0
898	0	25	0	0	3.9371654751051	1	0
899	0	25	0	0	3.9371654751051	1	0
900	0	25	0	0	3.9371654751051	1	0
901	0	25	0	0	3.9371654751051	1	0
902	0	25	0	0	3.9371654751051	1	0
903	0	25	0	0	3.9371654751051	1	0
904	0	25	0	0	3.9371654751051	1	0
905	0	25	0	0	3.9371654751051	1	0
906	0	25	0	0	3.9371654751051	1	0
907	0	25	0	0	3.9371654751051	1	0
908	0	25	0	0	3.9371654751051	1	0
909	0	25	0	0	3.9371654751051	1	0
910	0	25	0	0	3.9371654751051	1	0
911	0	25	0	0	3.9371654751051	1	0
912	0	25	0	0	3.9371654751051	1	0
913	0	25	0	0	3.9371654751051	1	0
914	0	25	0	0	3.9371654751051	1	0
915	0	25	0	0	3.9371654751051	1	0
916	0	25	0	0	3.9371654751051	1	0
917	0	25	0	0	3.9371654751051	1	0
918	0	25	0	0	3.9371654751051	1	0
919	0	25	0	0	3.9371654751051	1	0
920	0	25	0	0	3.9371654751051	1	0
921	0	25	0	0	3.9371654751051	1	0
922	0	25	0	0	3.9371654751051	1	0
923	0	25	0	0	3.9371654751051	1	0
924	0	25	0	0	3.9371654751051	1	0
925	0	25	0	0	3.9371654751051	1	0
926	0	25	0	0	3.9371654751051	1	0
927	0	25	0	0	3.9371654751051	1	0
928	0	25	0	0	3.9371654751051	1	0
929	0	25	0	0	3.9371654751051	1	0
930	0	25	0	0	3.9371654751051	1	0
931	0	25	0	0	3.9371654751051	1	0
932	0	25	0	0	3.9371654751051	1	0
933	0	25	0	0	3.9371654751051	1	0
934	0	25	0	0	3.9371654751051	1	0
935	0	25	0	0	3.9371654751051	1	0
936	0	25	0	0	3.9371654751051	1	0
937	0	25	0	0	3.9371654751051	1	0
938	0	25	0	0	3.9371654751051	1	0
939	0	25	0	0	3.9371654751051	1	0
940	0	25	0	0	3.9371654751051	1	0
941	0	25	0	0	3.9371654751051	1	0
942	0	25	0	0	3.9371654751051	1	0
943	0	25	0	0	3.9371654751051	1	0
944	0	25	0	0	3.9371654751051	1	0
945	0	25	0	0	3.9371654751051	1	0
946	0	25	0	0	3.9371654751051	1	0
947	0	25	0	0	3.9371654751051	1	0
948	0	25	0	0	3.9371654751051	1	0
949	0	25	0	0	3.9371654751051	1	0
950	0	25	0	0	3.9371654751051	1	0
951	0	25	0	0	3.9371654751051	1	0
952	0	25	0	0	3.9371654751051	1	0
953	0	25	0	0	3.9371654751051	1	0
954	0	25	0	0	3.9371654751051	1	0
955	0	25	0	0	3.9371654751051	1	0
956	0	25	0	0	3.9371654751051	1	0
957	0	25	0	0	3.9371654751051	1	0
958	0	25	0	0	3.9371654751051	1	0
959	0	25	0	0	3.9371654751051	1	0
960	0	25	0	0	3.9371654751051	1	0
961	0	25	0	0	3.9371654751051	1	0
962	0	25	0	0	3.9371654751051	1	0
963	0	25	0	0	3.9371654751051	1	0
964	0	25	0	0	3.9371654751051	1	0
965	0	25	0	0	3.9371654751051	1	0
966	0	25	0	0	3.9371654751051	1	0
967	0	25	0	0	3.9371654751051	1	0
968	0	25	0	0	3.9371654751051	1	0
969	0	25	0	0	3.9371654751051	1	0
970	0	25	0	0	3.9371654751051	1	0
971	0	25	0	0	3.9371654751051	1	0
972	0	25	0	0	3.9371654751051	1	0
973	0	25	0	0	3.9371654751051	1	0
974	0	25	0	0	3.9371654751051	1	0
975	0	25	0	0	3.9371654751051	1	0
976	0	25	0	0	3.9371654751051	1	0
977	0	25	0	0	3.9371654751051	1	0
978	0	25	0	0	3.9371654751051	1	0
979	0	25	0	0	3.9371654751051	1	0
980	0	25	0	0	3.9371654751051	1	0
981	0	25	0	0	3.9371654751051	1	0
982	0	25	0	0	3.9371654751051	1	0
983	0	25	0	0	3.9371654751051	1	0
984	0	25	0	0	3.9371654751051	1	0
985	0	25	0	0	3.9371654751051	1	0
986	0	25	0	0	3.9371654751051	1	0
987	0	25	0	0	3.9371654751051	1	0
988	0	25	0	0	3.9371654751051	1	0
989	0	25	0	0	3.9371654751051	1	0
990	0	25	0	0	3.9371654751051	1	0
991	0	25	0	0	3.9371654751051	1	0
992	0	25	0	0	3.9371654751051	1	0
993	0	25	0	0	3.9371654751051	1	0
994	0	25	0	0	3.9371654751051	1	0
995	0	25	0	0	3.9371654751051	1	0
996	0	25	0	0	3.9371654751051	1	0
997	0	25	0	0	3.9371654751051	1	0
998	0	25	0	0	3.9371654751051	1	0
999	0	25	0	0	3.9371654751051	1	0
1000	0	25	0	0	3.9371654751051	1	0
1001	0	25	0	0	3.9371654751051	1	0
1002	0	25	0	0	3.9371654751051	1	0
1003	0	25	0	0	3.9371654751051	1	0
1004	0	25	0	0	3.9371654751051	1	0
1005	0	25	0	0	3.9371654751051	1	0
1006	0	25	0	0	3.9371654751051	1	0
1007	0	25	0	0	3.9371654751051	1	0
1008	0	25	0	0	3.9371654751051	1	0
1009	0	25	0	0	3.9371654751051	1	0
1010	0	25	0	0	3.9371654751051	1	0
1011	0	25	0	0	3.9371654751051	1	0
1012	0	25	0	0	3.9371654751051	1	0
1013	0	25	0	0	3.9371654751051	1	0
1014	0	25	0	0	3.9371654751051	1	0
1015	0	25	0	0	3.9371654751051	1	0
1016	0	25	0	0	3.9371654751051	1	0
1017	0	25	0	0	3.9371654751051	1	0
1018	0	25	0	0	3.9371654751051	1	0
1019	0	25	0	0	3.9371654751051	1	0
1020	0	25	0	0	3.9371654751051	1	0
1021	0	25	0	0	3.9371654751051	1	0
1022	0	25	0	0	3.9371654751051	1	0
1023	0	25	0	0	3.9371654751051	1	0
1024	0	25	0	0	3.9371654751051	1	0
1025	0	25	0	0	3.9371654751051	1	0
1026	0	25	0	0	3.9371654751051	1	0
1027	0	25	0	0	3.9371654751051	1	0
1028	0	25	0	0	3.9371654751051	1	0
1029	0	25	0	0	3.9371654751051	1	0
1030	0	25	0	0	3.9371654751051	1	0
1031	0	25	0	0	3.9371654751051	1	0
1032	0	25	0	0	3.9371654751051	1	0
1033	0	25	0	0	3.9371654751051	1	0
1034	0	25	0	0	3.9371654751051	1	0
1035	0	25	0	0	3.9371654751051	1	0
1036	0	25	0	0	3.9371654751051	1	0
1037	0	25	0	0	3.9371654751051	1	0
1038	0	25	0	0	3.9371654751051	1	0
1039	0	25	0	0	3.9371654751051	1	0
1040	0	25	0	0	3.9371654751051	1	0
1041	0	25	0	0	3.9371654751051	1	0
1042	0	25	0	0	3.9371654751051	1	0
1043	0	25	0	0	3.9371654751051	1	0
1044	0	25	0	0	3.9371654751051	1	0
1045	0	25	0	0	3.9371654751051	1	0
1046	0	25	0	0	3.9371654751051	1	0
1047	0	25	0	0	3.9371654751051	1	0
1048	0	25	0	0	3.9371654751051	1	0
1049	0	25	0	0	3.9371654751051	1	0
1050	0	25	0	0	3.9371654751051	1	0
1051	0	25	0	0	3.9371654751051	1	0
1052	0	25	0	0	3.9371654751051	1	0
1053	0	25	0	0	3.9371654751051	1	0
1054	0	25	0	0	3.9371654751051	1	0
1055	0	25	0	0	3.9371654751051	1	0
1056	0	25	0	0	3.9371654751051	1	0
1057	0	25	0	0	3.9371654751051	1	0
1058	0	25	0	0	3.9371654751051	1	0
1059	0	25	0	0	3.9371654751051	1	0
1060	0	25	0	0	3.9371654751051	1	0
1061	0	25	0	0	3.9371654751051	1	0
1062	0	25	0	0	3.9371654751051	1	0
1063	0	25	0	0	3.9371654751051	1	0
1064	0	25	0	0	3.9371654751051	1	0
1065	0	25	0	0	3.9371654751051	1	0
1066	0	25	0	0	3.9371654751051	1	0
1067	0	25	0	0	3.9371654751051	1	0
1068	0	25	0	0	3.9371654751051	1	0
1069	0	25	0	0	3.9371654751051	1	0
1070	0	25	0	0	3.9371654751051	1	0
1071	0	25	0.20533578549773	0	4.1425012606028	1	0
1072	0	25	0.40670578616484	0	4.5492070467676	1	0
1073	0	25	0.60418659580734	0	5.153393642575	1	0
1074	0	25	0.79785332892478	0	5.9512469714998	1	0
1075	0	25	0.98777964928109	0	6.9390266207809	1	0
1076	0	25	1.1740377979235	0	8.1130644187044	1	0
1077	0	25	1.3566986206606	0	9.469763039365	1	0
1078	0	25	1.5358315950093	0	11.005594634374	1	0
1079	0	25	1.7115048566215	0	12.717099490996	1	0
1080	0	25	1.8837852252006	0	14.600884716196	1	0
1081	0	25	2.0527382299174	0	16.653622946114	1	0
1082	0	25	2.2184281343344	0	18.872051080448	1	0
1083	0	25	2.3809179608501	0	21.252969041298	1	0
1084	0	25	2.5402695146699	0	23.793238555968	1	0
1085	0	25	2.6965434073146	0	26.489781963283	1	0
1086	0	25	2.8497990796751	0	29.339581042958	1	0

-27-

 Left 
1087	0	26	2.8497990796751	0	0.92374933168122	1	0
1088	0	26	3.1474878091742	0	4.0712371408554	1	0
1089	0	26	3.2920340962513	0	7.3632712371067	1	0
1090	0	26	3.4337886659899	0	10.797059903097	1	0
1091	0	26	3.5728054366595	0	14.369865339756	1	0
1092	0	26	3.7091372851711	0	18.079002624927	1	0
1093	0	26	3.842836067189	0	21.921838692116	1	0
1094	0	26	3.973952636855	0.037120479956337	25.895791328971	1	1
1095	0	26	4.1025368661315	0.15071836433632	29.998328195103	1	0.51462160312464
1096	0	27	4.1025368661315	0.37766625899682	2.8110393229758	1	0.32529865472107
1097	0	27	4.3523029939189	0.57992309698235	7.1633423168947	1	-1.217830211165
1098	0	27	4.4735798943581	0.75879924988029	11.636922211253	1	0.05307069699807
1099	0	27	4.5925144943993	0.91554460115328	16.229436705652	1	0.053457948643422
1100	0	27	4.7091520324281	1.0513596024851	20.93858873808	1	0.054243479479633
1101	0	27	4.823536873111	1.1674043384227	25.762125611191	1	0.055425950838757
1102	0	27	4.9357125242708	1.2648058284263	30.697838135462	1	0.057005783066427
1103	0	27	5.0457216534352	1.3446637719694	35.743559788897	1	0.058986481076884
1104	0	27	5.1536061040658	1.4080549222696	40.897165892963	1	0.061376029078494
1105	0	27	5.2594069114739	1.456036256987	46.156572804437	1	0.064188433314242
1106	0	27	5.3631643184292	1.4896470992909	51.519737122866	1	0.067445529366693
1107	0	27	5.4649177904659	1.509910329652	56.984654913332	1	0.071179222057752
1108	0	27	5.5647060308949	1.5178328171988	62.549360944227	1	0.075434402266303
1109	0	27	5.6625669955244	1.5144051892013	68.211927939751	1	0.080272904540239
1110	0	27	5.7585379070971	1.5006010479507	73.970465846848	1	0.085779064323117
1111	0	27	5.8526552694486	1.4773757358026	79.823121116297	1	0.092067762283655
1112	0	27	5.9449548813919	1.445664741263	85.768075997689	0.4	0.099296416137569
1113	0	27	6.035471850334	1.4063818316017	91.803547848023	0	0.10768341635157
1114	0	27	6.1242406056295	1.3604169904623	97.927788453652	0	0.11753745638792
1115	0	28	6.1242406056295	1.3086342322199	1.9556069010962	0.1	0.12930608133052
1116	0	28	5.9705100948601	0.091772874110055	7.9261169959563	1	-0.99500641664546
1117	0	28	5.8551977136894	-2.0854051803506	13.781314709646	1	1.3432719713131
1118	0	28	5.7421124362402	-5.0356296347504	19.523427145886	0.4	-0.77223411222745
1119	0	28	5.6312112489962	-8.5889597629956	25.154638394882	0.4	-0.21983250437119
1120	0	28	5.727787754687	-12.59240342506	30.882426149569	0.4	-0.25367385296007
1121	0	29	5.727787754687	-17.030674239563	5.2889986285909	0.4	-0.0339611680872
1122	0	29	5.7921795831061	-21.886234007591	11.081178211697	0.4	-0.040333725286011
1123	0	29	5.7624457303841	-27.063563127499	16.843623942081	0.4	-0.22890517670685
1124	0	29	5.7332861470803	-32.475240974756	22.576910089161	1	-0.27168723193075
1125	0	29	5.7046897419524	-38.041772007449	28.281599831114	1	-0.33921900413866

-36-
1126	0	30	5.7046897419524	-43.691359663961	2.5423189331866	1	-0.46364278147732
1127	0	30	5.6491431681804	-48.465963097006	8.1914621013671	1	-1.0949235672965
1128	0	30	5.6221718716449	-52.420867231348	13.813633973012	1	0.063183910386464
1129	0	30	5.718922960765	-55.611882045711	19.532556933777	1	0.068085917375901
1130	0	30	5.8138054325827	-58.086245292235	25.34636236636	1	0.061838476993103
1131	0	30	5.9068553769307	-59.891044553558	31.25321774329	0.4	0.065704987963979
1132	0	30	0	0	31.25321774329	1	-0.98914734050466
1133	0	30	0	0	31.25321774329	1	1.9707468258844
1134	0	30	0	0	31.25321774329	1	-1
1135	0	30	0	0	31.25321774329	1	0
1136	0	30	0	0	31.25321774329	1	0
1137	0	30	0	0	31.25321774329	1	0
1138	0	30	0	0	31.25321774329	1	0
1139	0	30	0	0	31.25321774329	1	0
1140	0	30	0	0	31.25321774329	1	0
1141	0	30	0	0	31.25321774329	1	0
1142	0	30	0	0	31.25321774329	1	0
1143	0	30	0	0	31.25321774329	1	0
1144	0	30	0	0	31.25321774329	1	0
1145	0	30	0	0	31.25321774329	1	0
1146	0	30	0	0	31.25321774329	1	0
1147	0	30	0	0	31.25321774329	1	0
1148	0	30	0	0	31.25321774329	1	0
1149	0	30	0	0	31.25321774329	1	0
1150	0	30	0	0	31.25321774329	1	0
1151	0	30	0	0	31.25321774329	1	0
1152	0	30	0	0	31.25321774329	1	0
1153	0	30	0	0	31.25321774329	1	0
1154	0	30	0	0	31.25321774329	1	0
1155	0	30	0	0	31.25321774329	1	0
1156	0	30	0	0	31.25321774329	1	0
1157	0	30	0	0	31.25321774329	1	0
1158	0	30	0	0	31.25321774329	1	0
1159	0	30	0	0	31.25321774329	1	0
1160	0	30	0	0	31.25321774329	1	0
1161	0	30	0	0	31.25321774329	1	0
1162	0	30	0	0	31.25321774329	1	0
1163	0	30	0	0	31.25321774329	1	0
1164	0	30	0	0	31.25321774329	1	0
1165	0	30	0	0	31.25321774329	1	0
1166	0	30	0	0	31.25321774329	1	0
1167	0	30	0	0	31.25321774329	1	0
1168	0	30	0	0	31.25321774329	1	0
1169	0	30	0	0	31.25321774329	1	0
1170	0	30	0	0	31.25321774329	1	0
1171	0	30	0	0	31.25321774329	1	0
1172	0	30	0	0	31.25321774329	1	0
1173	0	30	0	0	31.25321774329	1	0
1174	0	30	0	0	31.25321774329	1	0
1175	0	30	0	0	31.25321774329	1	0
1176	0	30	0	0	31.25321774329	1	0
1177	0	30	0	0	31.25321774329	1	0
1178	0	30	0	0	31.25321774329	1	0
1179	0	30	0	0	31.25321774329	1	0
1180	0	30	0	0	31.25321774329	1	0
1181	0	30	0	0	31.25321774329	1	0
1182	0	30	0	0	31.25321774329	1	0
1183	0	30	0	0	31.25321774329	1	0
1184	0	30	0	0	31.25321774329	1	0
1185	0	30	0	0	31.25321774329	1	0
1186	0	30	0	0	31.25321774329	1	0
