			0				1		0		0%			
1	0	0	0		0		1		0-		55%			
2	2	-1	39	0		0		1		0-		52%			
3	-1	39	0.2009035		0		1		0-		52%			
4	4	0	0	0.5904527		0		1		0-		55%			
5	-1	39	0.5904527		0		1		0-		52%		6	6	-1	39	0.7792653		0		1		0-		52%7	0	0	1.1453702		0		1		0-		55%			
8	0	0	8	-1	39	1.1453702		0		1		0-	9	0	0	1.4966349		0		1		0-		55%			
10	0	0	1.6668911		0		1		0-		56%			
11	0	0	1.83311	-1	39	1.6668911		0		12	0	0	1.9970155		0		1		0-		56%			
13	0	0	2.1570252		0		1		0-		56%			
14	0	0	2.3137582		14	-1	39	2.15702515	0	0	2.4672817		0		1		0-		57%			
16	0	0	2.6176614		0		1		0-		57%			
17	0	0	2.7649618		0		1		0-		57%			
18	0	0	2.9092458		0		1		0-18	-1	39	19	0	0	3.0505752		0		1		0-		58%			
20	0	0	3.1890106		0		1		0-		58%			
21	0	0	3.3246111		0		1		0-		21	0	0	22	0	0	3.4574349		0		1		0-		22	0	0	23	0	0	3.5875388		0		0.504375		0		60%			
24	0	0	3.6154056		0		024	0	0	3.5875388		025	0	0	3.642701925	0	0	3.7149784		0		1		026	0	0	3.6694391		0		0.504375		0		61%			
27	0	0	3.6956289		0		0.504375		0		61%		2828	0	0	3.7212823		0		0.504375		0	29	0	0	429	0	0	3.7464105		0		0.504330	0	0	4.3140846		0		1		0-		59%			
31	0	0	4.4266465		0		0.504375		0		60%			
32	0	0	4.4373305		0		0.504375		0		60%			
33	0	0	4.4477957		0		0.504375		0		61%			
34	0	0	4.4580467		0		0.504375		0		61%			
35	0	0	4.4680877		0	35	0	0	3.8867348		0		36	0	0	4.4779232		0		0.504375		0		62%			
37	0	0	4.4875572		0		0.504375		0		63%			
38	0	0	4.4969939		0		0.504375		0		63%			
39	0	0	4.5062374		0		0.504375		0		64%			
40	0	0	4.5152916		0	40	0	1	3.9910737		0		41	0	0	4.5241605		0	41	0	1	4.0106771		0		42	0	0	4.5328477		0	42	0	1	4.0298792		0		43	0	1	4.5328477		0		0.504375		0		66%			
44	0	1	4.5496920		0		0.504375		0		66%			
45	0	1	4.5578564		0	45	0	1	4.0851581		0		46	0	1	4.5658536		0		0.504375		0		68%			
47	0	1	4.5736870		0		0.504375		0		68%			
48	0	1	4.5813600		0		0.504375		0		69%			
49	0	1	4.5888759		0	49	0	1	4.1537232		0		50	0	1	4.5962379		0	50	0	1	4.1699961		0		51	0	1	4.6034491		0		0.504375		0		70%			
52	0	1	4.6105127		0	52	0	1	4.2015489		0		53	0	1	4.6174316		0		0.504375		0		71%			
54	0	1	4.6242088		0		0.504375		0		72%			
55	0	1	4.6308473		0		0.504375		0		72%			
56	0	1	4.6373498		0		0.504375		0		73%			
57	0	1	4.6437192		0		0.504375		0		73%			
58	0	1	4.6499581		0		0.504375		0		74%			
59	0	1	4.6560693		0		0.504375		0		74%			
60	0	1	4.6620553		0		0.504375		0		75%			
61	0	1	4.6679188		0		0.504375		0		75%			
62	0	1	4.6736622		0	62	0	2	4.3284384		0		63	0	1	4.6792879		0	63	0	2	4.3535687		0		64	0	1	4.6847985		0		0.504375		0		77%			
0.504375		0		78%			
65	0	2	4.3776802		0		0.504375		0		79%			
66	0	2	4.3893670		0		0.504375		0		79%			
67	0	2	4.4008144		0		0.504375		0		80%			
68	0	2	4.4120274		0		0.504375		0		80%			
69	0	2	4.4230108		0		0.504375		0		81%			
70	0	2	4.4337693		0		0.504375		0		81%			
71	0	2	4.4443075		0		0.504375		0		82%			
72	0	2	4.4546299		0		0.504375		0		82%			
73	0	2	4.4647409		0		0.504375		0		83%			
74	0	2	4.4746448		0		0.504375		0		83%			
75	0	2	4.4843460		0		0.504375		0		84%			
