	0	0	0	0	0	1	0
1	0	0	0	0	0	1	0
2	0	0	0	0	0	1	0
3	0	0	0.21980040877616	0	0.21980040877616	1	0
4	0	0	0.435413714014	0	0.65521412279016	1	0
5	0	0	0.64691967824053	0	1.3021338010307	1	0
6	0	0	0.85439654454081	0	2.1565303455715	1	0
7	0	0	1.0579210655027	0	3.2144514110742	1	0
8	0	0	1.2575685316101	0	4.4720199426843	1	0
9	0	0	1.4534127990957	0	5.92543274178	1	0
10	0	0	1.6455263172622	0	7.5709590590422	1	0
11	0	0	1.8339801552846	0	9.4049392143268	1	0
12	0	0	2.0188440285004	0	11.423783242827	1	0
13	0	0	2.2001863241997	0	13.623969567027	1	0
14	0	0	2.3780741269243	0	16.002043693951	1	0
15	0	0	2.552573243284	0	18.554616937235	1	0
16	0	0	2.723748226301	0	21.278365163536	1	0
17	0	0	2.8916623992902	0	24.170027562827	1	0
18	0	0	3.0563778792844	0	27.226405442111	1	0
19	0	0	3.2179556000135	0	30.444361042124	1	0
20	0	0	3.3764553344461	0	33.820816376571	1	0
21	0	0	3.5319357169013	0	37.352752093472	1	0
22	0	0	3.6844542647397	0	41.037206358212	1	0
23	0	0	3.8340673996406	0	44.871273757852	1	0
24	0	0	3.9808304684747	0	48.852104226327	1	0
25	0	0	4.1247977637785	0	52.976901990105	1	0
26	0	0	4.266022543839	0	57.242924533944	1	0
27	0	0	4.4045570523954	0	61.64748158634	1	0
28	0	0	4.5404525379665	0	66.187934124306	1	0
29	0	0	4.6737592728085	0	70.861693397115	1	0
30	0	0	4.8045265715127	0	75.666219968628	1	0
31	0	0	4.9328028092487	0	80.599022777876	1	0
32	0	0	5.0586354396598	0	85.657658217536	1	0
33	0	0	5.1820710124177	0	90.839729229954	1	0
34	0	0	5.3031551904429	0	96.142884420397	1	0

-3-

 Right 
35	0	1	5.3031551904429	0	1.5648171871935	1	0
36	0	1	5.538447681252	0	7.1032648684456	1	0
37	0	1	5.6527430365477	0	12.756007904993	1	0
38	0	1	5.7648611143341	0	18.520869019327	1	0
39	0	1	5.874843390814	0	24.395712410141	1	0
40	0	1	5.9827305520867	0	30.378442962228	1	0
41	0	1	6.0885625091983	0	36.467005471426	1	0
42	0	1	6.192378412907	0	42.659383884333	1	0
43	0	1	6.2942166681655	0	48.953600552499	1	0
44	0	1	6.3941149483289	0	55.347715500828	1	0
45	0	1	6.4921102090909	0	61.839825709919	1	0
46	0	1	6.5882387021551	0	68.428064412074	1	0
47	0	1	6.6825359886455	0	75.110600400719	1	0
48	0	1	6.7750369522624	0	81.885637352982	1	0
49	0	1	6.8657758121861	0	88.751413165168	1	0
50	0	1	6.9547861357364	0	95.706199300904	1	0

-3-

-8-

 Right 
51	0	2	6.9547861357364	0	2.7483001516944	1	0
52	0	2	7.127752257962	0	9.8760524096564	0.2	0
53	0	2	7.211772042554	0	17.08782445221	0.2	0
54	0	2	7.2941912862766	0	24.382015738487	0.2	0
55	0	2	7.1992001517261	0	31.581215890213	0.2	0
56	0	2	7.1060185575573	0	38.687234447771	0.2	0
57	0	2	7.0146120328018	0	45.701846480572	0.2	0
58	0	2	6.9249467631484	0	52.626793243721	0.3	0
59	0	2	6.8369895784341	0	59.463782822155	0.4	0
60	0	2	6.7507079403732	0	66.214490762528	0.5	0
61	0	2	6.688049971398	0	72.902540733926	0.6	0
62	0	2	6.648565650742	0	79.551106384668	0.7	0
63	0	2	6.6318135303416	0	86.18291991501	1	0
64	0	2	6.6373605715293	0	92.820280486539	1	0
65	0	2	6.6647819848385	0	99.485062471378	1	0

-8-
66	0	3	6.6647819848385	0	6.2426836259926	1	0
67	0	3	6.8486917780162	0	13.091375404009	1	0
68	0	3	6.9380275450919	0	20.029402949101	1	0
69	0	3	7.0256615041115	0	27.055064453212	0.2	0
70	0	3	7.1116260737885	0	34.166690527001	0.2	0
71	0	3	7.0201127282533	0	41.186803255254	0.2	0
72	0	3	6.9303426727102	0	48.117145927964	0.2	0
73	0	3	6.8422826982324	0	54.959428626196	0.2	0
74	0	3	6.755900228509	0	61.715328854705	0.2	0
75	0	3	6.6711633077936	0	68.386492162499	0.2	0
76	0	3	6.5880405890832	0	74.974532751582	0.2	0
77	0	3	6.5065013225218	0	81.481034074104	0	0
78	0	3	6.426515344025	0	87.907549418129	0	0
79	0	3	6.3040929823658	0	94.211642400495	0	0
80	0	3	6.1840027142025	0	100.3956451147	0	0

-8-
81	0	4	6.1840027142025	0	4.4015702359174	0.1	0
82	0	4	5.950641603123	0.26853930068981	10.35221183904	1	1
83	0	4	5.8592644730544	0.73262567643386	16.211476312095	1	-0.27181207908146
84	0	4	5.9674484060302	1.3355051565473	22.178924718125	1	-0.29023175452296
85	0	4	6.0735714814714	2.0988588619055	28.252496199596	0.95	0.13510656208056
86	0	4	6.1776729578302	3.0413491628921	34.430169157426	0.9	0.10417955258191
87	0	4	6.2688013252635	4.178660609015	40.69897048269	0.85	0.080507428990339
88	0	4	6.3472037159337	5.5190836420118	47.046174198624	0.8	0.040817177716203
89	0	4	6.4131225542412	7.0638766207227	53.459296752865	0.75	0.0061572597470975
90	0	4	6.4667956465056	8.807725042574	59.926092399371	0	-0.026004325417239
91	0	4	6.5084562689382	10.739283966203	66.434548668309	0	-0.056993876597406

-8-
92	0	5	6.5084562689382	12.841788769939	2.1331869303336	0.1	-0.089311048197063
93	0	5	6.2628514953758	15.029506695491	8.3960384257094	0	-0.50151988592166
94	0	5	6.1655269007331	17.227933553055	14.561565326442	0.1	-0.87432766476652
95	0	5	6.0480762570087	19.381434875962	20.609641583451	0	-1.2383707193036
96	0	5	5.9548430385628	21.434576738198	26.564484622014	0.1	-0.55235376558737
97	0	5	5.8414058320729	23.348831775039	32.405890454087	0	-0.27740114741261
98	0	5	5.7521095966033	25.085240190683	38.15800005069	0.1	-0.21906402010189
99	0	5	5.6425343752521	26.619743933165	43.800534425942	0	-0.11915549842906
100	0	5	5.5570265557602	27.927160121743	49.357560981702	0.1	-0.11089502840851
101	0	5	5.4511675826868	28.995265001611	54.808728564389	0	-0.051078884955578
102	0	5	5.3693052185365	29.810030943058	60.178033782926	0.4	-0.055370997440547
103	0	5	5.2670222564437	30.368578967981	65.445056039369	0.4	-0.011236443345936

-8-
104	0	6	5.2670222564437	30.671332213761	0.013829238030027	0.3	0.0016514745977547
105	0	6	5.2424300405009	30.7423528541	5.2562592785309	0.2	0.094068275293781
106	0	6	5.2085041187793	30.604815637758	10.46476339731	0.1	0.10000642212089
107	0	6	5.1532444304417	30.28177550767	15.618007827752	2.7755575615629E-17	0.11054459085277
108	0	6	5.0770573745943	29.795977651868	20.695065202346	0.1	0.12261364294229
109	0	6	4.9803416086148	29.169664721558	25.675406810961	1	0.13666110846014
110	0	6	4.9074482773837	28.424389465625	30.582855088345	1	0.15338389110169
111	0	6	5.033763900755	27.579277708888	35.6166189891	0.9	0.16077211601583
112	0	6	5.1576732656643	26.64514266215	40.774292254764	0.8	0.10830919269899
113	0	6	5.2572421694259	25.632637445125	46.03153442419	0.7	0.11966665930202
114	0	6	5.3329342873877	24.55293652169	51.364468711577	0.6	0.14258567814289
115	0	6	5.3852044620809	23.431684910513	56.749673173658	0.5	0.381646686063
116	0	6	5.4144988714818	22.295094709604	62.16417204514	0.4	0.63084630925338
117	0	6	5.4212551940671	21.16070065433	67.585427239207	0.4	1.1431778066492

-8-

 Right 
118	0	7	5.4212551940671	20.037910036837	2.3054953041635	0.3	0.8107331916063
119	0	7	5.3908428044678	18.928727976129	7.6963381086313	0.25	0.14734251677634
120	0	7	5.3760697241086	17.834935327944	13.07240783274	0.2	0.11571953980651
121	0	7	5.3286080032792	16.758098024801	18.401015836019	0.15	0.092356275738254
122	0	7	5.2710603874416	15.690156212807	23.672076223461	0.1	-0.47535770431106
123	0	7	5.2036190085709	14.625628880905	28.875695232032	0.05	-0.61615609132244
124	0	7	5.1264723386104	13.572421531621	34.002167570642	6.9388939039072E-17	0.69836701992217
125	0	7	5.0398052591939	12.537561612829	39.041972829836	0.1	0.38302082002542
126	0	7	4.9437991300393	11.527204099723	43.985771959875	1	0.25119881184475
127	0	7	4.8716019173559	10.546647110929	48.857373877231	1	0.17778608753145
128	0	7	4.9986003985151	9.5999219881541	53.855974275746	1	0.11915812469284
129	0	7	5.1231796130642	8.6878866603125	58.979153888811	0.4	0.024731449525458
130	0	7	5.2453856469948	7.8114178604816	64.224539535805	0.4	0.024650510661951
131	0	7	5.2333834631145	6.9713785667237	69.45792299892	0.4	0.023688986080106

-13-
132	0	8	5.2333834631145	6.1697383307089	3.9936982088401	0.35	0.051291666664974
133	0	8	5.2100606492967	5.4079921597395	9.2037588581368	0.3	0.037474428857809
134	0	8	5.1877413710366	4.6872006469381	14.391500229173	1	0.025896764128992
135	0	8	5.1548572450182	4.0080933045287	19.546357474192	1	0.017500941417496
136	0	8	5.2764598336433	3.3710702603483	24.822817307835	1	0.0095077702081837
137	0	8	5.3957459450973	2.7755153745546	30.218563252932	1	-0.014640611065772
138	0	8	5.5127597072773	2.2207960075555	35.731322960209	1	-0.015256032981478
139	0	8	5.6275444074624	1.7062451838206	41.358867367672	1	-0.016333220442806
140	0	8	5.7401425083278	1.2311469792818	47.099009876	1	-0.017823003027737
141	0	8	5.850595663653	0.79472489630958	52.949605539653	1	-0.019681776398698
142	0	8	5.9589447337308	0.39613300409444	58.908550273383	1	-0.021872172683413
143	0	8	6.0652298004829	0.034449632752548	64.973780073866	1	-0.02436334222308
144	0	8	6.1694901822877	-0.29132658262914	71.143270256154	0.95	0.94631172277462

-13-
145	0	9	6.1694901822877	-0.58227850585844	2.8022091819218	1	-1.050656493596
146	0	9	6.3611004134067	-0.83957034472458	9.1633095953284	1	0.033430910357831
147	0	9	6.4597245869025	-1.0644572606205	15.623034182231	1	0.037289312152757
148	0	9	6.5564700121826	-1.2582603590041	22.179504194414	1	0.040768665279839
149	0	9	6.6513724785949	-1.4223709646602	28.830876673008	1	0.044760421855778
150	0	9	6.7444670937155	-1.5582446108898	35.575343766724	1	0.049020246107427
151	0	9	6.8357882963364	-1.6673939806189	42.41113206306	1	0.053571027355856
152	0	9	6.9253698692052	-1.7513809730524	49.336501932266	1	0.058444957529042
153	0	9	7.0132449515229	-1.8118080649672	56.349746883788	0.2	0.063685428368191
154	0	9	7.0994460512026	-1.8503091304846	63.449192934991	0.2	0.069349788636365
155	0	9	7.0081647298749	-1.8685398771378	70.457357664866	0.2	0.075513342147715
156	0	9	6.9186222785777	-1.8685787550466	77.375979943444	0.2	0.10253662675933
157	0	9	6.8307855725826	-1.8524537569095	84.206765516026	0.2	0.11147797552619
158	0	9	6.7446221181729	-1.8221241155905	90.951387634199	0.2	0.12121058453052
159	0	9	6.6601000406234	-1.7794655151383	97.611487674823	0.2	0.13204724855103

-13-
160	0	10	6.6601000406234	-1.7262585017942	4.1886757472313	0.2	0.1444198348047
161	0	10	6.4958555416366	-1.6641797812496	10.684531288868	0.2	0.15895336185474
162	0	10	6.4160723607007	-1.5947960934416	17.100603649569	0.2	0.17659959933596
163	0	10	6.3378090151513	-1.5195603654944	23.43841266472	0.2	0.19889577485146
164	0	10	6.2610365527758	-1.4398098561124	29.699449217496	0.2	0.22851154004965
165	0	10	6.185726572889	-1.356766019996	35.885175790385	0.2	0.27054569923458
166	0	10	6.1118512158267	-1.2715358379623	41.997027006211	0.2	0.33612845203172
167	0	10	6.0393831526392	-1.1851143768105	48.036410158851	0.2	0.45512779620999
168	0	10	5.9682955749817	-1.0983883620223	54.004705733832	0.2	0.74434737270856
169	0	10	5.8985621851966	-1.0121405657121	59.903267919029	0.2	1.63685041548
170	0	10	5.8301571865858	-0.92705483144914	65.733425105615	0.2	0.58847423068927
171	0	10	5.763055273867	-0.84372157637756	71.496480379482	0.2	0.33690393987507
172	0	10	5.6972316238125	-0.76264362921261	77.193712003294	0.2	0.22295346625408
173	0	10	5.632661886067	-0.6842422800116	82.826373889361	0.4	0.157397585657
174	0	10	5.5693221741384	-0.60886343396636	88.3956960635	0.4	0.11444328558783
175	0	10	5.5511491383177	-0.53678377674589	93.946845201817	0.4	0.083864756967823
176	0	10	5.5333222910368	-0.46818737674778	99.480167492854	0.4	0.05284375682148

-13-

 Left 
177	0	11	5.5333222910368	-0.40321232718931	4.9960025304069	1	0.038133072060285
178	0	11	5.498680908749	-0.34195471673433	10.494683439156	1	0.025848080138562
179	0	11	5.4818535587435	-0.28447249248414	15.976536997899	1	0.015348655252116
180	0	11	5.5972270078058	-0.23078919497736	21.573764005705	1	0.0061966287334215
181	0	11	5.7104026421348	-0.18085950282721	27.28416664784	1	-0.01193005020556
182	0	11	5.8214223291587	-0.13463180416358	33.105588976999	1	-0.013749945775546
183	0	11	5.9303271387493	-0.092047189627595	39.035916115748	1	-0.01591287480176
184	0	11	6.0371573584148	-0.05303869911184	45.073073474163	1	-0.018380060704137
185	0	11	6.1419525082038	-0.017530803931881	51.215025982367	1	-0.021120264288343
186	0	11	6.2447513553247	0.014560893436558	57.459777337691	0.95	0.94821573320446
187	0	11	6.3455919284873	0.043329759619374	63.805369266179	1	-1.0491546037536
188	0	11	6.4445115319709	0.068878047967778	70.24988079815	0.95	0.030772960014646
189	0	11	6.5305567389854	0.091316650763308	76.780437537135	0.9	0.03443241779512

-13-

-18-

 Left 
190	0	12	6.5305567389854	0.110765957568	0.93958322254349	0.9	0.038714384459661
191	0	12	6.7085416699972	0.12735292117803	7.6481248925406	0.9	0.042469128701973
192	0	12	6.7785671956577	0.14121324795391	14.426692088198	0.9	0.047410932683226
193	0	12	6.8472587650809	0.15249101268948	21.273950853279	0.9	0.052839744568537
194	0	12	6.914641789561	0.16133581917245	28.18859264284	0.9	0.057928439034097
195	0	12	6.9807411963181	0.16790167076037	35.169333839158	0.9	0.063298808100988
196	0	12	7.0455814377195	0.17234583955199	42.214915276878	0.2	0.069010623725259
197	0	12	7.1091865003252	0.17482774565443	49.324101777203	0.2	0.075138520893836
198	0	12	7.1715799137616	0.17550785733501	56.495681690965	0.2	0.081777158691111
199	0	12	7.232784759426	0.17454662206708	63.728466450391	0.2	0.089048712431537
200	0	12	7.1389633928814	0.17210343764106	70.867429843272	0.2	0.097114013944225
201	0	12	7.0469292831395	0.16836877148126	77.914359126411	0.2	0.12852493842584
202	0	12	6.9566483837246	0.1635244684048	84.871007510136	0.2	0.14080324356148
203	0	12	6.8680872967317	0.15774261784994	91.739094806868	0.2	0.1550862590224
204	0	12	6.7812132604717	0.15118471476331	98.520308067339	0.2	0.17225255289531

-18-
205	0	13	6.7812132604717	0.14400108224468	5.2163022046907	0.2	0.19370222197091
206	0	13	6.6123984019853	0.13633052497481	11.828700606676	0.2	0.22182859502
207	0	13	6.5303951295326	0.12830018375006	18.359095736209	0.2	0.26110974241299
208	0	13	6.4499539842576	0.12002556302895	24.809049720466	0.2	0.32103838131408
209	0	13	6.3710452083076	0.11161070518185	31.180094928774	0.2	0.42591528123186
210	0	13	6.2936396107039	0.10314848705891	37.473734539478	0.2	0.66228432366775
211	0	13	6.2177085565436	0.09472101649334	43.691443096021	0.2	1.7336857049607
212	0	13	6.1432239564064	0.086400108390908	49.834667052428	0.2	0.67392310248645
213	0	13	6.0701582559632	0.07824782207909	55.904825308391	0.2	0.3680385983932
214	0	13	5.9984844257835	0.070317043569449	61.903309734174	0.2	0.23875462192419
215	0	13	5.9281759513354	0.062652098297374	67.83148568551	0.2	0.16674150981194
216	0	13	5.8592068231779	0.055289381724472	73.690692508688	0.2	0.12042357892226
217	0	13	5.7915515273382	0.048257996905548	79.482244036026	0.2	0.087836600191645
218	0	13	5.7251850358741	0.041580389723912	85.2074290719	0.4	0.063446303390374
219	0	13	5.660082797615	0.035272973979147	90.867511869515	0.4	0.044338679804021
220	0	13	5.5962207290793	0.029346739867309	96.463732598594	0.4	0.028831913987375
221	0	13	5.5775352873209	0.023807840624184	102.04126788592	0.4	0.015886087941195

-18-
222	0	14	5.5775352873209	0.018656844966377	5.5401986881973	1	0.0014661287629875
223	0	14	5.5412254720757	-0.072250008912996	11.081424160273	1	0.99596177108705
224	0	14	5.5235876663816	-0.23377407775135	16.605011826655	1	-0.26484701355256
225	0	14	5.6381660985887	-0.45195569710711	22.243177925243	1	-0.19768075602636
226	0	14	5.7505618607927	-0.7577641577111	27.993739786036	1	0.35342242502034
227	0	14	5.8608165319212	-1.1791012540642	33.854556317957	1	0.24151410011878
228	0	14	5.9689708988411	-1.7408007852057	39.823527216798	1	0.1769262486553
229	0	14	6.075064971447	-2.4646406076536	45.898592188245	0.95	0.13431489694827
230	0	14	6.1791379974622	-3.3693684620493	52.077730185707	0.9	0.10364279183995
231	0	14	6.2812284769576	-4.4707424203203	58.358958662665	0.85	0.080134168014991
232	0	14	6.3703841561555	-5.7815864504298	64.72934281882	0	0.061221003319087

-18-
233	0	15	6.3703841561555	-7.3072843783567	0.49035955050522	0.1	0.025058079156986
234	0	15	6.5108720293958	-9.046185515152	7.0012315799011	0.05	-0.0076828438557151
235	0	15	6.3868427090519	-10.990105522863	13.388074288953	0	-0.038387498933831
236	0	15	6.2871561349553	-13.050848760744	19.675230423908	0.1	-0.43018303803608
237	0	15	6.1783785269115	-15.160111208532	25.85360895082	0	-0.58467840825661
238	0	15	6.0606830652191	-17.254205125116	31.914292016039	0.1	-1.3126293942668
239	0	15	5.9672096924825	-19.274571768632	37.881501708521	0	-0.79426159991894
240	0	15	5.8535369065382	-21.179766534387	43.73503861506	0.1	-0.35985003889719
241	0	15	5.7640095793017	-22.927949717071	49.499048194361	0	-0.26647527839605
242	0	15	5.6542076683827	-24.492428282794	55.153255862744	0.1	-0.14530409921598
243	0	15	5.5684774776621	-25.845450632571	60.721733340406	0.4	-0.13124040294345
244	0	15	5.4624003694366	-26.972486013946	66.184133709843	0.4	-0.064299072460645

-18-
245	0	16	5.4624003694366	-27.857281182357	0.87862302958762	0.3	-0.067095567502744
246	0	16	5.3657513233847	-28.494994462907	6.2443743529723	0.2	-0.019595426198368
247	0	16	5.3514562249811	-28.902048731964	11.595830577953	0.1	0.06646734210822
248	0	16	5.3154534011948	-29.094890091989	16.911283979148	2.7755575615629E-17	0.071300498317684
249	0	16	5.2581563748863	-29.083965157072	22.169440354035	0.1	0.048767434869586
250	0	16	5.2019508323604	-28.88297266965	27.371391186395	0	0.067227715166654
251	0	16	5.146815981319	-28.51426967632	32.518207167714	0.1	0.11762684531351
252	0	16	5.0487713437934	-27.99898985874	37.566978511507	0	0.12601286689909
253	0	16	4.9745744554493	-27.358537400852	42.541552966957	1	0.14602706839397
254	0	16	4.8798109451355	-26.612008837136	47.421363912092	1	0.15256156964716
255	0	16	4.8088326799369	-25.777806164797	52.230196592029	1	0.17347919270577
256	0	16	4.7172264793777	-24.872072313815	56.947423071407	1	0.18412425552176
257	0	16	4.8471657464352	-23.910252850286	61.794588817842	1	0.21592774494258
258	0	16	4.9746297261723	-22.899744134854	66.769218544014	1	0.13187625681244

-18-

 Right 
259	0	17	4.9746297261723	-21.847889106097	1.183049409995	1	0.150812310525
260	0	17	5.2223195380861	-20.761948420353	6.4053689480811	0.9	0.17560589457807
261	0	17	5.3426369989556	-19.649069892078	11.748005947037	0.85	0.2097015310074
262	0	17	5.4606624637868	-18.533377779893	17.208668410823	0.8	0.89555273751193
263	0	17	5.5764395941214	-17.456824737446	22.785108004945	0.75	1.0718868365692
264	0	17	5.6570411584512	-16.45810572907	28.442149163396	0.7	0.49714710017579
265	0	17	5.725117277103	-15.561945497725	34.167266440499	0.65	0.24107876161534
266	0	17	5.7809065544463	-14.786652459758	39.948172994945	0.6	0.15147548177725
267	0	17	5.8246430495395	-14.144349987432	45.772816044485	0.55	0.091159641321231
268	0	17	5.8565563627162	-13.641292610425	51.629372407201	0.5	0.04491741460186
269	0	17	5.8768717205223	-13.278256598946	57.506244127723	0.45	0.0055439411353106
270	0	17	5.8858100590344	-13.050993566096	63.392054186758	1	-0.030340990330339
271	0	17	5.8835881055918	-12.950735213309	69.27564229235	1	-0.064580586327381
272	0	18	5.8835881055918	-12.964737134617	4.4602260455501	1	-0.1003459554426
273	0	18	5.9783899132976	-12.882203323556	10.438615958848	1	-1.8448757289721
274	0	18	6.084304557717	-12.711654350588	16.522920516565	1	0.088263384479618
275	0	18	6.1882015735756	-12.461483304291	22.71112209014	1	0.095359576638128
276	0	18	6.2901193958324	-12.139936649382	29.001241485973	1	0.10357008269192
277	0	18	6.3900957272769	-11.755092596235	35.39133721325	1	0.11317886503681
278	0	18	6.4881675524765	-11.314837739688	41.879504765726	1	0.12459587684863
279	0	18	6.5843711514585	-10.82684266494	48.463875917185	1	0.13843122153507
280	0	18	6.6787421131314	-10.298537159536	55.142618030316	1	0.15562952631596
281	0	18	6.77131534845	-9.7370856123834	61.913933378766	1	0.17773039857784
282	0	18	6.8621251033305	-9.149363123376	68.776058482097	1	0.20741842858482
283	0	18	6.9512049713192	-8.5419327903088	75.727263453416	1	0.24982346775287
284	0	18	7.0385879060195	-7.9210245834524	82.765851359435	0	0.3161162759231
285	0	18	7.1243062332829	-7.2925161624863	89.890157592718	0	0.43609695203039
286	0	18	7.2083916631674	-6.6619159356759	97.098549255886	0	0.72477014278103

-25-
287	0	19	7.2083916631674	-6.0343486074322	2.3291495646196	0.1	1.6897051774919
288	0	19	7.3717876622232	-4.5850553046615	9.7009372268428	0.05	-1.0036908880342
289	0	19	7.4511586770047	-2.3658969950023	17.152095903848	0	0.063112240876164
290	0	19	7.3092172992121	0.56888354914035	24.46131320306	0.1	1.1493741056552
291	0	19	7.1699798438031	4.0441717819561	31.631293046863	0	-0.89512726013923
292	0	19	7.0333948022155	7.9022256129357	38.664687849078	0.1	-0.29184060433344
293	0	19	6.8994116471035	12.002418624982	45.564099496182	0	-0.36739565355837
294	0	19	6.7679808136453	16.220751978565	52.332080309827	0.1	-0.51209737715301
295	0	19	6.6500437016467	20.449181436407	58.982124011474	0	-0.91454143328476
296	0	19	6.5233632206222	24.599511903546	65.505487232096	0	-1.1292731720116

-25-
297	0	20	6.5233632206222	28.592244654772	1.2407285156447	0.1	-0.50444084643453
298	0	20	6.2987572450349	32.369781505529	7.5394857606796	0	-0.2676546552691
299	0	20	6.1787686203797	35.876668402839	13.718254381059	0.1	-0.20489215782963
300	0	20	6.0830457684516	39.068769955793	19.801300149511	0	-0.14020789626747
301	0	20	5.9671663549298	41.919690511589	25.768466504441	0.1	-0.077365542110377
302	0	20	5.8754744354249	44.403459503032	31.643940939866	0	-0.07073527588192
303	0	20	5.7635491667922	46.509237239067	37.407490106658	0.1	-0.02867709477344
304	0	20	5.6537560265341	48.225511127752	43.061246133192	0	-0.029557068613351
305	0	20	5.568034439397	49.547282422575	48.629280572589	0.1	-0.012671010509271
306	0	20	5.4619657708605	50.481093301479	54.091246343449	0	0.016583358499083
307	0	20	5.3798977058557	51.031357998002	59.471144049305	0.4	0.011378051360024
308	0	20	5.2774129614214	51.212033554054	64.748557010726	0.4	0.036389468991833
309	0	20	5.1768805074238	51.036807742427	69.92543751815	0.4	0.037035105453368

-25-
310	0	21	5.1768805074238	50.54884019301	4.3178659659471	0.3	0.12126851371595
311	0	21	5.0694445815258	49.788794007774	9.3873105474729	0.2	0.13002134687969
312	0	21	5.0607939995004	48.789250526058	14.448104546973	0.1	0.11974971588356
313	0	21	5.0523082073532	47.581020959635	19.500412754326	2.7755575615629E-17	0.12864951808269
314	0	21	5.0220040250301	46.193121871469	24.522416779357	0.1	0.13904407188284
315	0	21	4.9702970835085	44.65403513716	29.492713862865	1	0.15852369018797
316	0	21	4.8975950961737	42.991427300521	34.390308959039	1	0.18299473877525
317	0	21	4.8042980096459	41.23188699314	39.194606968685	1	0.21525578291567
318	0	21	4.7347582334889	39.400687875729	43.929365202174	1	0.26073472096188
319	0	21	4.8643635281481	37.519417755902	48.793728730322	1	0.30125824873098
320	0	21	4.9914998975179	35.598139538897	53.78522862784	1	0.20097271375929
321	0	21	5.1162143735664	33.646879006267	58.901443001406	0.4	0.25059381127856
322	0	21	5.2385530923228	31.675563719403	64.139996093729	0.4	0.33111389777644
323	0	21	5.3585613109449	29.693962308384	69.498557404674	0.4	0.4870979701205

-25-
324	0	22	5.3585613109449	27.733639510688	4.2890061233642	0.3	1.4834019961412
325	0	22	5.4598827369272	25.838587430833	9.7488888602914	0.2	0.67399449513877
326	0	22	5.4437944754585	24.010522169704	15.19268333575	0.1	0.025618486098216
327	0	22	5.4280126884722	22.250575181263	20.620696024222	2.7755575615629E-17	0.016610138763688
328	0	22	5.3905514968833	20.559346816133	26.011247521105	0.1	0.0087363598644586
329	0	22	5.3318238840534	18.93064111964	31.343071405159	0.05	-0.090164126908719
330	0	22	5.2522349661884	17.352451708541	36.595306371347	0	-0.19203248205129
331	0	22	5.1521821422038	15.818157296536	41.747488513551	0.1	-0.1310723116057
332	0	22	5.0760153224919	14.3354197913	46.823503836043	0.05	0.14861069359103
333	0	22	4.9903094275969	12.909997523443	51.81381326364	1	0.10046770937193
334	0	22	4.8952461728107	11.546586379433	56.70905943645	1	0.075726517681314
335	0	22	4.8239738731434	10.248862121345	61.533033309594	1	0.055958842079912
336	0	22	4.7430692597848	9.0191099851874	66.276102569379	1	0.03362019520698

-25-

-29-
337	0	23	4.7430692597848	7.8588602334938	0.46278409656506	1	0.022017410562161
338	0	23	4.9994972967958	6.7667699268942	5.4622813933609	1	-0.019322205710764
339	0	23	5.1240594258173	5.7416005910077	10.586340819178	0.95	-0.018170253283805
340	0	23	5.2462486996922	4.7821728104253	15.83258951887	1	-0.017624003303321
341	0	23	5.3661103202937	3.8873272230406	21.198699839164	1	-0.017635148742759
342	0	23	5.4726986079798	3.055891410982	26.671398447144	1	-0.018153887528805
343	0	23	5.5882464549286	2.2866942142905	32.259644902072	1	-0.018469706807211
344	0	23	5.7015931649391	1.5784434737225	37.961238067012	1	-0.020761375168091
345	0	23	5.8127806687262	0.92976825406001	43.774018735738	1	-0.022494092440795
346	0	23	5.9218500982426	0.33920488269679	49.69586883398	1	-0.024568355996323
347	0	23	6.0288418018948	-0.19481305211502	55.724710635875	0.95	0.94832579202574
348	0	23	6.1337953594698	-0.67396107210546	61.858505995345	0	-1.0487914164321
349	0	23	6.2367495967763	-1.1000268659762	68.095255592121	0	0.032580489826869
350	0	23	6.3267525795694	-1.4749103403188	74.422008171691	0	0.035791765540163

-25-

-29-

 Right 
351	0	24	6.3267525795694	-1.8006412262268	6.2242236930662	0.1	0.039656879802279
352	0	24	6.501647651304	-2.0793600393291	12.72587134437	0.05	0.043548380602775
353	0	24	6.3777940514074	-2.3133078882262	19.103665395778	0	0.047670916573765
354	0	24	6.2562998094813	-2.5054187006229	25.359965205259	0.1	0.065531930275522
355	0	24	6.137119980768	-2.6587251186056	31.497085186027	0.05	0.072487019642132
356	0	24	6.0202104766882	-2.7763047509792	37.517295662715	0	0.079310831959649
357	0	24	5.9055280485312	-2.8612339964299	43.422823711246	1	0.086109025315681
358	0	24	5.7930302714555	-2.9165489453115	49.215853982702	1	0.092987882829808
359	0	24	5.7046555696725	-2.9452128288944	54.920509552374	1	0.10006083594427
360	0	24	5.6069743476252	-2.9500085431587	60.527483899999	1	0.1044196901274
361	0	24	5.5001638905341	-2.9336489082132	66.027647790533	1	0.11365849104177
362	0	24	5.6151885356271	-2.8987557995216	71.642836326161	1	0.12393439776675
363	0	24	5.7280220105529	-2.8470056762829	77.370858336713	1	0.090455746279903

-29-
364	0	25	5.7280220105529	-2.7800459263957	0.7427572361449	1	0.097727144627586
365	0	25	5.9472816181658	-2.6994923127636	6.6900388543107	1	0.10623291031488
366	0	25	6.0537888622684	-2.6069257592321	12.743827716579	1	0.11629687299605
367	0	25	6.1582671890404	-2.5038886383962	18.90209490562	1	0.12839260064193
368	0	25	6.260755248487	-2.3918807105854	25.162850154107	1	0.14323582340696
369	0	25	6.3612909543472	-2.272354850915	31.524141108454	1	0.16195589977777
370	0	25	6.4599114981199	-2.1467126892639	37.984052606574	1	0.18643822597563
371	0	25	6.5566533628214	-2.0163002762972	44.540705969395	1	0.22007590033793
372	0	25	6.6515523364826	-1.8824038771434	51.192258305878	1	0.26964305302493
373	0	25	6.7446435253876	-1.7462459830209	57.936901831265	1	0.35088865248909
374	0	25	6.8359613670608	-1.6089816199818	64.772863198326	1	0.5107356275414
375	0	25	6.9255396430066	-1.4716950230035	71.698402841333	1	0.97990550038189
376	0	25	7.0134114912061	-1.3353967329427	78.711814332539	0.2	1.0224969984812
377	0	25	7.0996094183762	-1.2010211633979	85.811423750915	0	0.48598513961059
378	0	25	7.1841653119949	-1.0694246743533	92.99558906291	0	0.30814508047635

-29-
379	0	26	7.1841653119949	-0.94138417965162	0.2626995150068	0.1	0.21848005582148
380	0	26	7.3484755228466	-0.00061309372038465	7.6111750378534	0.05	-1.0043753666728
381	0	26	7.4282906238871	1.7061494122225	15.03946566174	0	1.3069764983243
382	0	26	7.5065852814769	4.1294454733189	22.546050943217	0.01	-0.72935808733351
383	0	26	7.5833884594119	7.2175891490767	30.129439402629	0.01	-0.072133314791024
384	0	26	7.4828882427189	10.917158055823	37.612327645348	0.1	-0.080352824458779
385	0	26	7.3403424303049	15.07753049753	44.952670075653	0	-0.2463452412402
386	0	26	7.2005120544947	19.539245833811	52.153182130148	0.1	-0.34604908228295
387	0	26	7.0853254282631	24.161205072246	59.238507558411	0	-0.46823401169263
388	0	26	6.9613430374312	28.830430723319	66.199850595842	0	-0.70503456291101

-29-

 Left 
389	0	27	6.9613430374312	33.443669612395	2.3427483276146	0	-1.8442426558045
390	0	27	6.700846016808	37.907921704403	9.0435943444226	0	-0.62421662119972
391	0	27	6.5753957775511	42.146210146742	15.618990121974	0	-0.34066033504072
392	0	27	6.4721173483498	46.095354637396	22.091107470324	0	-0.21850812249567
393	0	27	6.3488262880621	49.712270294071	28.439933758386	0	-0.12968435574954
394	0	27	6.2498639104842	52.955859188103	34.68979766887	0.1	-0.11008567500521
395	0	27	6.1308066828871	55.80319427016	40.820604351757	0	-0.057859504788323
396	0	27	6.0140174444248	58.232025775853	46.834621796182	0.1	-0.053165051977526
397	0	27	0	0	46.834621796182	1	-0.99310092875176
398	0	27	0	0	46.834621796182	1	1.9599604816922
399	0	27	0	0	46.834621796182	1	-1
400	0	27	0	0	46.834621796182	1	0
401	0	27	0	0	46.834621796182	1	0
402	0	27	0	0	46.834621796182	1	0
403	0	27	0	0	46.834621796182	1	0
404	0	27	0	0	46.834621796182	1	0
405	0	27	0	0	46.834621796182	1	0
406	0	27	0	0	46.834621796182	1	0
407	0	27	0	0	46.834621796182	1	0
408	0	27	0	0	46.834621796182	1	0
409	0	27	0	0	46.834621796182	1	0
410	0	27	0	0	46.834621796182	1	0
411	0	27	0	0	46.834621796182	1	0
412	0	27	0	0	46.834621796182	1	0
413	0	27	0	0	46.834621796182	1	0
414	0	27	0	0	46.834621796182	1	0
415	0	27	0	0	46.834621796182	1	0
416	0	27	0	0	46.834621796182	1	0
417	0	27	0	0	46.834621796182	1	0
418	0	27	0	0	46.834621796182	1	0
419	0	27	0	0	46.834621796182	1	0
420	0	27	0	0	46.834621796182	1	0
421	0	27	0	0	46.834621796182	1	0
422	0	27	0	0	46.834621796182	1	0
423	0	27	0	0	46.834621796182	1	0
424	0	27	0	0	46.834621796182	1	0
425	0	27	0	0	46.834621796182	1	0
426	0	27	0	0	46.834621796182	1	0
427	0	27	0	0	46.834621796182	1	0
428	0	27	0	0	46.834621796182	1	0
429	0	27	0	0	46.834621796182	1	0
430	0	27	0	0	46.834621796182	1	0
431	0	27	0	0	46.834621796182	1	0
432	0	27	0	0	46.834621796182	1	0
433	0	27	0	0	46.834621796182	1	0
434	0	27	0	0	46.834621796182	1	0
435	0	27	0	0	46.834621796182	1	0
436	0	27	0	0	46.834621796182	1	0
437	0	27	0	0	46.834621796182	1	0
438	0	27	0	0	46.834621796182	1	0
439	0	27	0	0	46.834621796182	1	0
440	0	27	0	0	46.834621796182	1	0
441	0	27	0	0	46.834621796182	1	0
442	0	27	0	0	46.834621796182	1	0
443	0	27	0	0	46.834621796182	1	0
444	0	27	0	0	46.834621796182	1	0
445	0	27	0	0	46.834621796182	1	0
446	0	27	0	0	46.834621796182	1	0
447	0	27	0	0	46.834621796182	1	0
448	0	27	0	0	46.834621796182	1	0
449	0	27	0	0	46.834621796182	1	0
450	0	27	0	0	46.834621796182	1	0
451	0	27	0	0	46.834621796182	1	0
452	0	27	0	0	46.834621796182	1	0
453	0	27	0	0	46.834621796182	1	0
454	0	27	0	0	46.834621796182	1	0
455	0	27	0	0	46.834621796182	1	0
456	0	27	0	0	46.834621796182	1	0
457	0	27	0	0	46.834621796182	1	0
458	0	27	0	0	46.834621796182	1	0
459	0	27	0	0	46.834621796182	1	0
460	0	27	0	0	46.834621796182	1	0
461	0	27	0	0	46.834621796182	1	0
462	0	27	0	0	46.834621796182	1	0
463	0	27	0	0	46.834621796182	1	0
464	0	27	0	0	46.834621796182	1	0
465	0	27	0	0	46.834621796182	1	0
466	0	27	0	0	46.834621796182	1	0
467	0	27	0	0	46.834621796182	1	0
468	0	27	0	0	46.834621796182	1	0
469	0	27	0	0	46.834621796182	1	0
470	0	27	0	0	46.834621796182	1	0
471	0	27	0	0	46.834621796182	1	0
472	0	27	0	0	46.834621796182	1	0
473	0	27	0	0	46.834621796182	1	0
474	0	27	0	0	46.834621796182	1	0
475	0	27	0	0	46.834621796182	1	0
476	0	27	0	0	46.834621796182	1	0
477	0	27	0	0	46.834621796182	1	0
478	0	27	0	0	46.834621796182	1	0
479	0	27	0	0	46.834621796182	1	0
480	0	27	0	0	46.834621796182	1	0
481	0	27	0	0	46.834621796182	1	0
482	0	27	0	0	46.834621796182	1	0
483	0	27	0	0	46.834621796182	1	0
484	0	27	0	0	46.834621796182	1	0
485	0	27	0	0	46.834621796182	1	0
486	0	27	0	0	46.834621796182	1	0
487	0	27	0	0	46.834621796182	1	0
488	0	27	0	0	46.834621796182	1	0
489	0	27	0	0	46.834621796182	1	0
490	0	27	0	0	46.834621796182	1	0
491	0	27	0	0	46.834621796182	1	0
492	0	27	0	0	46.834621796182	1	0
493	0	27	0	0	46.834621796182	1	0
494	0	27	0	0	46.834621796182	1	0
495	0	27	0	0	46.834621796182	1	0
496	0	27	0	0	46.834621796182	1	0
497	0	27	0	0	46.834621796182	1	0
498	0	27	0	0	46.834621796182	1	0
499	0	27	0	0	46.834621796182	1	0
500	0	27	0	0	46.834621796182	1	0
501	0	27	0	0	46.834621796182	1	0
502	0	27	0	0	46.834621796182	1	0
503	0	27	0	0	46.834621796182	1	0
504	0	27	0	0	46.834621796182	1	0
505	0	27	0	0	46.834621796182	1	0
506	0	27	0	0	46.834621796182	1	0
507	0	27	0	0	46.834621796182	1	0
508	0	27	0	0	46.834621796182	1	0
509	0	27	0	0	46.834621796182	1	0
510	0	27	0	0	46.834621796182	1	0
511	0	27	0	0	46.834621796182	1	0
512	0	27	0	0	46.834621796182	1	0
513	0	27	0	0	46.834621796182	1	0
514	0	27	0	0	46.834621796182	1	0
515	0	27	0	0	46.834621796182	1	0
516	0	27	0	0	46.834621796182	1	0
517	0	27	0	0	46.834621796182	1	0
518	0	27	0	0	46.834621796182	1	0
519	0	27	0	0	46.834621796182	1	0
520	0	27	0	0	46.834621796182	1	0
521	0	27	0	0	46.834621796182	1	0
522	0	27	0	0	46.834621796182	1	0
523	0	27	0	0	46.834621796182	1	0
524	0	27	0	0	46.834621796182	1	0
525	0	27	0	0	46.834621796182	1	0
526	0	27	0	0	46.834621796182	1	0
527	0	27	0	0	46.834621796182	1	0
528	0	27	0	0	46.834621796182	1	0
529	0	27	0	0	46.834621796182	1	0
530	0	27	0	0	46.834621796182	1	0
531	0	27	0	0	46.834621796182	1	0
532	0	27	0	0	46.834621796182	1	0
533	0	27	0	0	46.834621796182	1	0
534	0	27	0	0	46.834621796182	1	0
535	0	27	0	0	46.834621796182	1	0
536	0	27	0	0	46.834621796182	1	0
537	0	27	0	0	46.834621796182	1	0
538	0	27	0	0	46.834621796182	1	0
539	0	27	0	0	46.834621796182	1	0
540	0	27	0	0	46.834621796182	1	0
541	0	27	0	0	46.834621796182	1	0
542	0	27	0	0	46.834621796182	1	0
543	0	27	0	0	46.834621796182	1	0
544	0	27	0	0	46.834621796182	1	0
545	0	27	0	0	46.834621796182	1	0
546	0	27	0	0	46.834621796182	1	0
547	0	27	0	0	46.834621796182	1	0
548	0	27	0	0	46.834621796182	1	0
549	0	27	0	0	46.834621796182	1	0
550	0	27	0	0	46.834621796182	1	0
551	0	27	0	0	46.834621796182	1	0
552	0	27	0	0	46.834621796182	1	0
553	0	27	0	0	46.834621796182	1	0
554	0	27	0	0	46.834621796182	1	0
555	0	27	0	0	46.834621796182	1	0
556	0	27	0	0	46.834621796182	1	0
557	0	27	0	0	46.834621796182	1	0
558	0	27	0	0	46.834621796182	1	0
559	0	27	0	0	46.834621796182	1	0
560	0	27	0	0	46.834621796182	1	0
561	0	27	0	0	46.834621796182	1	0
562	0	27	0	0	46.834621796182	1	0
563	0	27	0	0	46.834621796182	1	0
564	0	27	0	0	46.834621796182	1	0
565	0	27	0	0	46.834621796182	1	0
566	0	27	0	0	46.834621796182	1	0
567	0	27	0	0	46.834621796182	1	0
568	0	27	0	0	46.834621796182	1	0
569	0	27	0	0	46.834621796182	1	0
570	0	27	0	0	46.834621796182	1	0
571	0	27	0	0	46.834621796182	1	0
572	0	27	0	0	46.834621796182	1	0
573	0	27	0	0	46.834621796182	1	0
574	0	27	0	0	46.834621796182	1	0
575	0	27	0	0	46.834621796182	1	0
576	0	27	0	0	46.834621796182	1	0
577	0	27	0	0	46.834621796182	1	0
578	0	27	0	0	46.834621796182	1	0
579	0	27	0	0	46.834621796182	1	0
580	0	27	0	0	46.834621796182	1	0
581	0	27	0	0	46.834621796182	1	0
582	0	27	0	0	46.834621796182	1	0
583	0	27	0	0	46.834621796182	1	0
584	0	27	0	0	46.834621796182	1	0
585	0	27	0	0	46.834621796182	1	0
586	0	27	0	0	46.834621796182	1	0
587	0	27	0	0	46.834621796182	1	0
588	0	27	0	0	46.834621796182	1	0
589	0	27	0	0	46.834621796182	1	0
590	0	27	0	0	46.834621796182	1	0
591	0	27	0	0	46.834621796182	1	0
592	0	27	0	0	46.834621796182	1	0
593	0	27	0	0	46.834621796182	1	0
594	0	27	0	0	46.834621796182	1	0
595	0	27	0	0	46.834621796182	1	0
596	0	27	0	0	46.834621796182	1	0
597	0	27	0	0	46.834621796182	1	0
598	0	27	0	0	46.834621796182	1	0
599	0	27	0	0	46.834621796182	1	0
600	0	27	0	0	46.834621796182	1	0
601	0	27	0	0	46.834621796182	1	0
602	0	27	0	0	46.834621796182	1	0
603	0	27	0	0	46.834621796182	1	0
604	0	27	0	0	46.834621796182	1	0
605	0	27	0	0	46.834621796182	1	0
606	0	27	0	0	46.834621796182	1	0
607	0	27	0	0	46.834621796182	1	0
608	0	27	0	0	46.834621796182	1	0
609	0	27	0	0	46.834621796182	1	0
610	0	27	0	0	46.834621796182	1	0
611	0	27	0	0	46.834621796182	1	0
612	0	27	0	0	46.834621796182	1	0
613	0	27	0	0	46.834621796182	1	0
614	0	27	0	0	46.834621796182	1	0
615	0	27	0	0	46.834621796182	1	0
616	0	27	0	0	46.834621796182	1	0
617	0	27	0	0	46.834621796182	1	0
618	0	27	0	0	46.834621796182	1	0
619	0	27	0	0	46.834621796182	1	0
620	0	27	0	0	46.834621796182	1	0
621	0	27	0	0	46.834621796182	1	0
622	0	27	0	0	46.834621796182	1	0
623	0	27	0	0	46.834621796182	1	0
624	0	27	0	0	46.834621796182	1	0
625	0	27	0	0	46.834621796182	1	0
626	0	27	0	0	46.834621796182	1	0
627	0	27	0	0	46.834621796182	1	0
628	0	27	0	0	46.834621796182	1	0
629	0	27	0	0	46.834621796182	1	0
630	0	27	0	0	46.834621796182	1	0
631	0	27	0	0	46.834621796182	1	0
632	0	27	0	0	46.834621796182	1	0
633	0	27	0	0	46.834621796182	1	0
634	0	27	0	0	46.834621796182	1	0
635	0	27	0	0	46.834621796182	1	0
636	0	27	0	0	46.834621796182	1	0
637	0	27	0	0	46.834621796182	1	0
638	0	27	0	0	46.834621796182	1	0
639	0	27	0	0	46.834621796182	1	0
640	0	27	0	0	46.834621796182	1	0
641	0	27	0	0	46.834621796182	1	0
642	0	27	0	0	46.834621796182	1	0
643	0	27	0	0	46.834621796182	1	0
644	0	27	0	0	46.834621796182	1	0
645	0	27	0	0	46.834621796182	1	0
646	0	27	0	0	46.834621796182	1	0
647	0	27	0	0	46.834621796182	1	0
648	0	27	0	0	46.834621796182	1	0
649	0	27	0	0	46.834621796182	1	0
650	0	27	0	0	46.834621796182	1	0
651	0	27	0	0	46.834621796182	1	0
652	0	27	0	0	46.834621796182	1	0
653	0	27	0	0	46.834621796182	1	0
654	0	27	0	0	46.834621796182	1	0
655	0	27	0	0	46.834621796182	1	0
656	0	27	0	0	46.834621796182	1	0
657	0	27	0	0	46.834621796182	1	0
658	0	27	0	0	46.834621796182	1	0
659	0	27	0	0	46.834621796182	1	0
660	0	27	0	0	46.834621796182	1	0
661	0	27	0	0	46.834621796182	1	0
662	0	27	0	0	46.834621796182	1	0
663	0	27	0	0	46.834621796182	1	0
664	0	27	0	0	46.834621796182	1	0
665	0	27	0	0	46.834621796182	1	0
666	0	27	0	0	46.834621796182	1	0
667	0	27	0	0	46.834621796182	1	0
668	0	27	0	0	46.834621796182	1	0
669	0	27	0	0	46.834621796182	1	0
670	0	27	0	0	46.834621796182	1	0
671	0	27	0	0	46.834621796182	1	0
672	0	27	0	0	46.834621796182	1	0
673	0	27	0	0	46.834621796182	1	0
674	0	27	0	0	46.834621796182	1	0
675	0	27	0	0	46.834621796182	1	0
676	0	27	0	0	46.834621796182	1	0
677	0	27	0	0	46.834621796182	1	0
678	0	27	0	0	46.834621796182	1	0
679	0	27	0	0	46.834621796182	1	0
680	0	27	0	0	46.834621796182	1	0
681	0	27	0	0	46.834621796182	1	0
682	0	27	0	0	46.834621796182	1	0
683	0	27	0	0	46.834621796182	1	0
684	0	27	0	0	46.834621796182	1	0
685	0	27	0	0	46.834621796182	1	0
686	0	27	0	0	46.834621796182	1	0
687	0	27	0	0	46.834621796182	1	0
688	0	27	0	0	46.834621796182	1	0
689	0	27	0	0	46.834621796182	1	0
690	0	27	0	0	46.834621796182	1	0
691	0	27	0	0	46.834621796182	1	0
692	0	27	0	0	46.834621796182	1	0
693	0	27	0	0	46.834621796182	1	0
694	0	27	0	0	46.834621796182	1	0
695	0	27	0	0	46.834621796182	1	0
696	0	27	0	0	46.834621796182	1	0
697	0	27	0	0	46.834621796182	1	0
698	0	27	0	0	46.834621796182	1	0
699	0	27	0	0	46.834621796182	1	0
700	0	27	0	0	46.834621796182	1	0
701	0	27	0	0	46.834621796182	1	0
702	0	27	0	0	46.834621796182	1	0
703	0	27	0	0	46.834621796182	1	0
704	0	27	0	0	46.834621796182	1	0
705	0	27	0	0	46.834621796182	1	0
706	0	27	0	0	46.834621796182	1	0
707	0	27	0	0	46.834621796182	1	0
708	0	27	0	0	46.834621796182	1	0
709	0	27	0	0	46.834621796182	1	0
710	0	27	0	0	46.834621796182	1	0
711	0	27	0	0	46.834621796182	1	0
712	0	27	0	0	46.834621796182	1	0
713	0	27	0	0	46.834621796182	1	0
714	0	27	0	0	46.834621796182	1	0
715	0	27	0	0	46.834621796182	1	0
716	0	27	0	0	46.834621796182	1	0
717	0	27	0	0	46.834621796182	1	0
718	0	27	0	0	46.834621796182	1	0
719	0	27	0	0	46.834621796182	1	0
720	0	27	0	0	46.834621796182	1	0
721	0	27	0	0	46.834621796182	1	0
722	0	27	0	0	46.834621796182	1	0
723	0	27	0	0	46.834621796182	1	0
724	0	27	0	0	46.834621796182	1	0
725	0	27	0	0	46.834621796182	1	0
726	0	27	0	0	46.834621796182	1	0
727	0	27	0	0	46.834621796182	1	0
728	0	27	0	0	46.834621796182	1	0
729	0	27	0	0	46.834621796182	1	0
730	0	27	0	0	46.834621796182	1	0
731	0	27	0	0	46.834621796182	1	0
732	0	27	0	0	46.834621796182	1	0
733	0	27	0	0	46.834621796182	1	0
734	0	27	0	0	46.834621796182	1	0
735	0	27	0	0	46.834621796182	1	0
736	0	27	0	0	46.834621796182	1	0
737	0	27	0	0	46.834621796182	1	0
738	0	27	0	0	46.834621796182	1	0
739	0	27	0	0	46.834621796182	1	0
740	0	27	0	0	46.834621796182	1	0
741	0	27	0	0	46.834621796182	1	0
742	0	27	0	0	46.834621796182	1	0
743	0	27	0	0	46.834621796182	1	0
744	0	27	0	0	46.834621796182	1	0
745	0	27	0	0	46.834621796182	1	0
746	0	27	0	0	46.834621796182	1	0
747	0	27	0	0	46.834621796182	1	0
748	0	27	0	0	46.834621796182	1	0
749	0	27	0	0	46.834621796182	1	0
750	0	27	0	0	46.834621796182	1	0
751	0	27	0	0	46.834621796182	1	0
752	0	27	0	0	46.834621796182	1	0
753	0	27	0	0	46.834621796182	1	0
754	0	27	0	0	46.834621796182	1	0
755	0	27	0	0	46.834621796182	1	0
756	0	27	0	0	46.834621796182	1	0
757	0	27	0	0	46.834621796182	1	0
758	0	27	0	0	46.834621796182	1	0
759	0	27	0	0	46.834621796182	1	0
760	0	27	0	0	46.834621796182	1	0
761	0	27	0	0	46.834621796182	1	0
762	0	27	0	0	46.834621796182	1	0
763	0	27	0	0	46.834621796182	1	0
764	0	27	0	0	46.834621796182	1	0
765	0	27	0	0	46.834621796182	1	0
766	0	27	0	0	46.834621796182	1	0
767	0	27	0	0	46.834621796182	1	0
768	0	27	0	0	46.834621796182	1	0
769	0	27	0	0	46.834621796182	1	0
770	0	27	0	0	46.834621796182	1	0
771	0	27	0	0	46.834621796182	1	0
772	0	27	0	0	46.834621796182	1	0
773	0	27	0	0	46.834621796182	1	0
774	0	27	0	0	46.834621796182	1	0
775	0	27	0	0	46.834621796182	1	0
776	0	27	0	0	46.834621796182	1	0
777	0	27	0	0	46.834621796182	1	0
778	0	27	0	0	46.834621796182	1	0
779	0	27	0	0	46.834621796182	1	0
780	0	27	0	0	46.834621796182	1	0
781	0	27	0	0	46.834621796182	1	0
782	0	27	0	0	46.834621796182	1	0
783	0	27	0	0	46.834621796182	1	0
784	0	27	0	0	46.834621796182	1	0
785	0	27	0	0	46.834621796182	1	0
786	0	27	0	0	46.834621796182	1	0
787	0	27	0	0	46.834621796182	1	0
788	0	27	0	0	46.834621796182	1	0
789	0	27	0	0	46.834621796182	1	0
790	0	27	0	0	46.834621796182	1	0
791	0	27	0	0	46.834621796182	1	0
792	0	27	0	0	46.834621796182	1	0
793	0	27	0	0	46.834621796182	1	0
794	0	27	0	0	46.834621796182	1	0
795	0	27	0	0	46.834621796182	1	0
796	0	27	0	0	46.834621796182	1	0
797	0	27	0	0	46.834621796182	1	0
798	0	27	0.21980040877616	0	47.054422204958	1	0
799	0	27	0.435413714014	0	47.489835918972	1	0
800	0	27	0.64691967824053	0	48.136755597212	1	0
801	0	27	0.85439654454081	0	48.991152141753	1	0
802	0	27	1.0579210655027	0	50.049073207256	1	0
803	0	27	1.2575685316101	0	51.306641738866	1	0
804	0	27	1.4534127990957	0	52.760054537962	1	0
805	0	27	1.6455263172622	0	54.405580855224	1	0
806	0	27	1.8339801552846	0	56.239561010509	1	0
807	0	27	2.0188440285004	0	58.258405039009	1	0
808	0	27	2.2001863241997	0	60.458591363209	1	0
809	0	27	2.3780741269243	0	62.836665490133	1	0
810	0	27	2.552573243284	0	65.389238733417	1	0
811	0	27	2.723748226301	0	68.112986959718	1	0

-29-

 Left 
812	0	28	2.723748226301	0	0.31881465323788	1	0

Turbine !!
813	0	28	3.0563778792844	0	3.3751925325223	1	0
814	0	28	3.2179556000135	0	6.5931481325358	1	0
815	0	28	3.3764553344461	0	9.9696034669819	1	0
816	0	28	3.5319357169013	0	13.501539183883	1	0
817	0	28	3.6844542647397	0	17.185993448623	1	0
818	0	28	3.8340673996406	0	21.020060848264	1	0
819	0	28	3.9808304684747	0	25.000891316738	1	0
820	0	28	4.1247977637785	0	29.125689080517	1	0
821	0	28	4.266022543839	0	33.391711624356	1	0
822	0	28	4.4045570523954	0	37.796268676751	1	0
823	0	28	4.5404525379665	0	42.336721214718	1	0
824	0	28	4.6737592728085	0	47.010480487526	1	0
825	0	28	4.8045265715127	0	51.815007059039	1	0
826	0	28	4.9328028092487	0	56.747809868288	1	0
827	0	28	5.0586354396598	0	61.806445307948	0.4	0

-35-
828	0	29	5.0586354396598	0	4.9885163203652	1	0
829	0	29	5.3031551904429	0	10.291671510808	1	0
830	0	29	5.290052521531	0	15.581724032339	1	0
831	0	29	5.4090796981093	0	20.990803730449	1	0
832	0	29	5.5258394580118	0	26.51664318846	1	0
833	0	29	5.6403749945539	0	32.157018183014	1	0
834	0	29	5.7527286782369	0	37.909746861251	1	0
835	0	29	5.8629420724222	-0.079713804448044	43.772688933673	1	1
836	0	29	5.971055948707	-0.31675433380933	49.74374488238	1	0.49332318147473
837	0	29	6.077110302007	-0.76770240197847	55.820855184387	0.95	0.26451061150035
838	0	29	6.1811443653521	-1.4731627136952	62.001999549739	0	0.15953929828202
839	0	29	6.2831966243995	-2.4567599201594	68.285196174139	0	0.084938933474791
840	0	29	6.3833048316713	-3.7194016592371	74.66850100581	0	0.0032526631412461

-35-
841	0	30	6.3833048316713	-5.2400436008799	0.11095748917323	0.1	-0.075415668786753
842	0	30	6.3472554447917	-7.0011470961064	6.4582129339649	0.05	-0.067979206244758
843	0	30	6.2263429502268	-8.9128150883714	12.684555884192	0	-0.37385209903845
844	0	30	6.107733786837	-10.896164517325	18.792289671029	0.1	-0.52391541101166
845	0	30	6.0133641180287	-12.882764950799	24.805653789057	0.05	-0.95464649327984
846	0	30	5.9098021305072	-14.822038427167	30.715455919565	0	-1.0686924475882
847	0	30	5.8082129544414	-16.66705159701	36.523668874006	0.1	-0.49791212386323
848	0	30	5.7085590086189	-18.378635410724	42.232227882625	0.05	-0.29355646118987
849	0	30	5.6217934481723	-19.924758173277	47.854021330797	0	-0.19359054477472
850	0	30	5.5256907140089	-21.283332105473	53.379712044806	0.1	-0.11777081815233
851	0	30	5.4204286752843	-22.434154140773	58.80014072009	0.4	-0.097246123099844
852	0	30	5.3171718332618	-23.359190947647	64.117312553352	0.4	-0.079869403572548
853	0	30	5.2378620306816	-24.045822949097	69.355174584034	0.4	-0.052933400298328

-35-
854	0	31	5.2378620306816	-24.506355871624	3.8074228832189	0.3	0.051616939855051
855	0	31	5.0621847677625	-24.763440888627	8.8696076509815	0.2	0.10018251071797
856	0	31	5.0536724820763	-24.83812101235	13.923280133058	0.1	0.10343194337726
857	0	31	5.0453223517824	-24.748428462868	18.96860248484	2.7755575615629E-17	0.09885820358352
858	0	31	5.0371312878901	-24.511625419215	24.00573377273	0.1	0.10501854534677
859	0	31	5.0290962602527	-24.144167335781	29.034830032983	0	0.11185778746522
860	0	31	4.9772542146912	-23.661675883622	34.012084247674	1	0.11956424398479
861	0	31	4.9044196969905	-23.080220856656	38.916503944665	1	0.13969680360296
862	0	31	4.8329726456211	-22.415417470161	43.749476590286	1	0.15778750220797
863	0	31	4.7409065890667	-21.681678047974	48.490383179352	1	0.17291670667395
864	0	31	4.8703947601885	-20.892824055106	53.360777939541	1	0.20049695159687
865	0	31	4.997416237174	-20.055660085521	58.358194176715	1	0.12346270467486
866	0	31	5.1220180094889	-19.176929411195	63.480212186204	0.4	0.13958342429577
867	0	31	5.2442461714696	-18.263291082039	68.724458357673	0.4	0.16020153510854
868	0	31	5.3641459393751	-17.321295092879	74.088604297049	0.4	0.18763777913707
869	0	31	5.4817616681142	-16.357356259213	79.570365965163	0.4	0.22621103071757
870	0	31	5.4652566223879	-15.377727398248	85.035622587551	0.4	0.28495928153977

-35-
871	0	32	5.4652566223879	-14.391007390253	4.0908906045367	0.35	0.54804750218668
872	0	32	5.4331837836141	-13.40493744688	9.5240743881508	0.3	1.0916727038723
873	0	32	5.4176041257577	-12.426435136898	14.941678513908	0.25	0.91409935073561
874	0	32	5.4023212537029	-11.461631175082	20.343999767611	0.2	0.44755139087331
875	0	32	5.3873295138077	-10.515908342323	25.731329281419	0.15	0.28209970572473
876	0	32	5.3506433192515	-9.5939419636187	31.081972600671	0.1	0.19680230838368
877	0	32	5.303665960532	-8.7000050209438	36.385638561202	0.05	0.15244623439089
878	0	32	5.2465934799137	-7.8377843719288	41.632232041116	6.9388939039072E-17	0.11624490775031
879	0	32	5.1796181851401	-7.010383702337	46.811850226256	0.1	0.089135198083427
880	0	32	5.1029287205746	-6.2203342110675	51.914778946831	0.05	0.067767578239822
881	0	32	5.0167101369864	-5.4696122663034	56.931489083817	0	0.05025404223336
882	0	32	4.9211439600068	-4.7596631918886	61.852633043824	1	0.03544817501024
883	0	32	4.8383882981594	-4.0914302902047	66.691021341983	1	0.022612390350666
884	0	32	4.7462190757463	-3.4652757681406	71.43724041773	1	0.0086079096233679
885	0	32	4.8756060462748	-2.8811780008411	76.312846464004	1	-0.00051391844072587
886	0	32	5.002528250495	-2.3379306491699	81.315374714499	1	-0.028683600125377

-35-
887	0	33	5.002528250495	-1.8343885775156	0.04860938192823	1	-0.02803241029043
888	0	33	5.2491652765459	-1.3694445003849	5.2977746584741	1	-0.027887613255605
889	0	33	5.368971337609	-0.94200928031781	10.666745996083	1	-0.028217462420887
890	0	33	5.4864951445808	-0.55099555622519	16.153241140664	1	-0.028989448739522
891	0	33	5.6017801734232	-0.19530441148694	21.755021314087	1	-0.030172198881575
892	0	33	5.7148690718995	0.12618518425254	27.469890385987	1	0.94783877147857
893	0	33	5.8258036753516	0.41462440565956	33.295694061338	1	-1.048805839205
894	0	33	5.9346250221759	0.6712003044429	39.230319083514	1	0.035916437643019
895	0	33	6.0413733690051	0.92472336727535	45.271692452519	0.95	0.90418965445177
896	0	33	6.1460882056001	1.2070965714199	51.417780658119	0.9	1.1058170189831
897	0	33	6.2488082694589	1.5472428949258	57.666588927578	0.85	0.50063036874135
898	0	33	6.3385815397081	1.9711157946003	64.005170467286	0	0.30997871876425
899	0	33	6.4156546472143	2.4978865413041	70.420825114501	0	0.18631362476713
900	0	33	6.4802695246322	3.1401907951994	76.901094639133	0	0.10936792684024
901	0	33	6.5436535163416	3.9044611077393	83.444748155474	0	0.052740504404801

-35-
902	0	34	6.5436535163416	4.7953621065055	3.4699499044829	0.1	0.036836470848676
903	0	34	6.2967205304318	5.7481391676078	9.7666704349147	0.15	-0.5113659715513
904	0	34	6.1767707043165	6.7067046220299	15.943441139231	0.2	-0.9064518151072
905	0	34	6.0810859118327	7.6231198331372	22.024527051064	0.25	-1.1373276371528
906	0	34	5.9982138940555	8.4639322820639	28.022740945119	0.3	-0.44247746908724
907	0	34	5.9389005935597	9.2046621474541	33.961641538679	0.35	-0.24459621735449
908	0	34	5.891707206444	9.831894321227	39.853348745123	0.4	-0.1181971887666
909	0	34	5.8564028535555	10.338399129587	45.709751598679	0.45	-0.059884300223385
910	0	34	5.83276105389	10.722275375854	51.542512652569	0.5	-0.015503701972889
911	0	34	5.8205596408096	10.989588409718	57.363072293378	0.45	0.04946114988176
912	0	34	5.8195806798552	11.150213196737	63.182652973233	0.4	0.084717685409026
913	0	34	5.8076303472485	11.213663548434	68.990283320482	0.35	0.089173941874919
914	0	34	5.7849176429149	11.189362849052	74.775200963397	0.3	0.096973902768968
915	0	34	5.751647585421	11.08658029141	80.526848548818	0.25	0.1056305617483
916	0	34	5.7080212878175	10.914368361077	86.234869836635	0.2	0.11534494429917
917	0	35	5.7080212878175	10.681503315093	5.4953078949538	0.2	0.12640553555937
918	0	35	5.5904853418795	10.396430097556	11.085793236833	0.2	0.13923347562441
919	0	35	5.5279490750327	10.067212839188	16.613742311866	0.2	0.15446108302207
920	0	35	5.4666040972542	9.7013535067782	22.08034640912	0.2	0.1699429107299
921	0	35	5.4064277149981	9.3057882840733	27.486774124118	0.2	0.18929560969057
922	0	35	5.3473976670208	8.8868907440276	32.834171791139	0.2	0.21455586388244
923	0	35	5.2894921161457	8.4504807844469	38.123663907285	0.2	0.24943505270573
924	0	35	5.2326896411854	8.0018383814656	43.35635354847	0.2	0.30149895186254
925	0	35	5.1769692290165	7.545721297771	48.533322777487	0.2	0.38894622533952
926	0	35	5.1223102668069	7.0863859637342	53.655633044294	0.2	0.56944644653024
927	0	35	5.0686925343901	6.6276108286304	58.724325578684	0.2	1.1740694083359
928	0	35	5.0160961967848	6.172721555127	63.740421775468	0.2	0.85583662247089
929	0	35	4.9645017968581	5.7246175025784	68.704923572327	1	0.42730507578057
930	0	35	4.9138902481266	5.2857990129373	73.618813820453	1	0.26927198465952
931	0	35	5.0400831547175	4.8583950769813	78.658896975171	1	0.18651546405525
932	0	35	5.1638721405484	4.4431231406378	83.822769115719	1	0.059136659279066
933	0	35	5.2853029992792	4.0406987481749	89.108072114998	1	0.055695024259647
934	0	35	5.4044206522198	3.6518213984422	94.512492767218	1	0.051634800556586
935	0	36	5.4044206522198	3.2771618099528	0.033761932166627	1	0.047174692393427
936	0	36	5.6358917636139	2.9173505647501	5.6696536957805	1	0.042468175145424
937	0	36	5.7483308509239	2.5729681040433	11.417984546704	1	0.037620669954703
938	0	36	5.8586280218338	2.2445360494935	17.276612568538	1	0.032702719663412
939	0	36	5.9668240789325	1.9325098231543	23.243436647471	1	0.027759772175088
940	0	36	6.0729590475371	1.637272536767	29.316395695008	1	0.022819293091542
941	0	36	6.1770721904998	1.3591301176866	35.493467885508	1	0.017895860170809
942	0	36	6.279202022732	1.0983076344478	41.77266990824	1	0.012994767222575
943	0	36	6.3793863254528	0.85494678013303	48.152056233692	1	0.0081145397860329
944	0	36	6.477662160165	0.62910446650205	54.629718393857	1	0.0032486587016187
945	0	36	6.5740658823659	0.42075247648736	61.203784276223	1	-0.0016106973740658
946	0	36	6.6686331549962	0.22977811734839	67.87241743122	1	-0.0064431478246219
947	0	36	6.7613989616326	0.055985811658762	74.633816392852	1	-0.011254550621885
948	0	36	6.85239761943	-0.10090044147292	81.486214012282	1	0.94804001350862
949	0	36	6.9416627918158	-0.24123380686025	88.427876804098	1	-1.0500573360527
950	0	36	7.029227500944	-0.36544063103234	95.457104305042	1	0.02575662541142

-3-
951	0	37	7.029227500944	-0.47401581612019	2.5722284449526	1	0.030688671824466
952	0	37	7.1993844847365	-0.56751763097929	9.7716129296891	1	0.035714031808369
953	0	37	7.2820397061238	-0.64656204231838	17.053652635813	1	0.040864564419855
954	0	37	7.3631203809857	-0.71181664944276	24.416773016799	1	0.04617698498851
955	0	37	7.4426565037583	-0.7639943062559	31.859429520557	1	0.051694272983778
956	0	37	7.5206774974965	-0.80384651339737	39.380107018053	1	0.057467576282806
957	0	37	7.597212224759	-0.83215666184376	46.977319242812	1	0.063558815090881
958	0	37	7.6722889982846	-0.84973320699017	54.649608241097	1	0.070044297682014
959	0	37	7.7459355914669	-0.8574028492026	62.395543832564	1	0.077019836014194
960	0	37	7.8181792486283	-0.85600379313646	70.213723081192	1	0.084608142523347
961	0	37	7.8890466950983	-0.84637915381162	78.10276977629	1	0.09296979500031
962	0	37	7.9585641471005	-0.82937057258655	86.061333923391	1	0.10231996102719
963	0	37	8.0267573214507	-0.80581210085442	94.088091244842	1	0.11295476108223

-3-
964	0	38	8.0267573214507	-0.7765244035702	2.1817426899119	1	0.12529445401762
965	0	38	8.1592712643186	-0.74230932868804	10.341013954231	1	0.13995747712608
966	0	38	8.2236410541476	-0.70394488232559	18.564655008378	1	0.15789455997443
967	0	38	8.2867846270816	-0.6621806430567	26.85143963546	1	0.18064870243666
968	0	38	8.3487253420268	-0.61773364224816	35.200164977486	1	0.21090442462865
969	0	38	8.409486112912	-0.5712847308784	43.609651090398	1	0.25378736364335
970	0	38	8.4690894171656	-0.52347544688207	52.078740507564	1	0.32046283539004
971	0	38	8.5275573040307	-0.4749053908262	60.606297811595	1	0.44076200544348
972	0	38	8.5849114027216	-0.42613011170809	69.191209214316	1	0.73024369169427
973	0	38	8.6411729304255	-0.37765949893298	77.832382144742	1	1.6735993881661
974	0	38	8.6963627001512	-0.32995667113651	86.528744844893	1	0.60318793479884
975	0	38	8.7505011284286	-0.28343734751026	95.279245973322	1	0.35126128157807

-3-

 Right 
976	0	39	8.7505011284286	-0.23846968271011	4.082854216183	1	0.23726520912652
977	0	39	8.8557036895363	-0.19537454230949	12.938557905719	1	0.17135454872023
978	0	39	8.9068067402902	-0.15442619212998	21.84536464601	1	0.12775622827984
979	0	39	8.9569362998399	-0.11585337165724	30.802300945849	1	0.096289886431078
980	0	39	9.0061109127753	-0.079840719144201	39.808411858625	1	0.072119585837672
981	0	39	9.0543487704201	-0.046530513917508	48.862760629045	1	0.052648326336451
982	0	39	9.1016677175607	-0.016024699836639	57.964428346606	1	0.036351512389061
983	0	39	9.1480852590484	0.011612847202626	67.112513605654	1	0.95176764652408
984	0	39	9.1936185662743	0.036353845392577	76.306132171928	1	-1.0498173616645
985	0	39	9.2382844835218	0.058202964528588	85.54441665545	1	0.0016121928598145

-3-

 Right 
986	1	0	9.2382844835218	0.077195052320873	4.8265161896483	1	0.012050196279187
987	1	0	9.3250799269469	0.093392266134942	14.151596116595	1	0.021755927055483
988	1	0	9.3672415616433	0.10688114563477	23.518837678238	1	0.030963708793246
989	1	0	9.4086000352774	0.11776966029768	32.927437713516	1	0.039865638727667
990	1	0	9.449170647723	0.12618426395677	42.376608361239	1	0.048629265897514
991	1	0	9.4889684073979	0.13226698644596	51.865576768637	1	0.057411052265569
992	1	0	9.528008036816	0.13617259011657	61.393584805453	1	0.06636802651397
993	1	0	9.5663039780336	0.13806581650385	70.959888783486	1	0.07566951965614
994	1	0	9.603870397992	0.13811874579033	80.563759181478	1	0.085510894987545
995	1	0	9.6407211937584	0.13650828898053	90.204480375237	1	0.096131762875512
996	1	0	9.6768699976669	0.13341382990834	99.881350372903	1	0.10784257141843

-3-

 Right 
997	1	1	9.6768699976669	0.12901503138348	9.5936805552647	0.5	0.12106639880061
998	1	1	9.7471148657422	0.123489816982	19.340795421007	0.5	0.13640895066844
999	1	1	9.7812369158202	0.11701253723207	29.122032336827	0.5	0.15478344348184
1000	1	1	9.7048087510874	0.10975232627115	38.826841087914	0.5	0.17764971461988
1001	1	1	9.629836510121	0.10188672973577	48.456677598035	0.5	0.22677041613745
1002	1	1	9.5562924581973	0.093581252166536	58.012970056233	0.5	0.27338699104256
1003	1	1	9.4841493889277	0.084988460086344	67.49711944516	0.5	0.34683587412106
1004	1	1	9.4133806141932	0.076247393149429	76.910500059354	0.5	0.48392840923075
1005	1	1	9.3439599542722	0.06748325074051	86.254460013626	0.5	0.84437366851699
1006	1	1	9.2758617281557	0.058807321581855	95.530321741782	0.5	1.2615873684997

-3-

-8-

 Right 
1007	1	2	9.2758617281557	0.050317124609569	4.7393824858282	0.2	0.52505135492887
1008	1	2	9.143532290041	0.042096730513268	13.882914775869	0.2	0.31160042052082
1009	1	2	9.0792521249861	0.034217234808155	22.962166900855	0.2	0.20855339022353
1010	1	2	9.0161964695126	0.02673735504625	31.978363370368	0.2	0.14693495846917
1011	1	2	8.8884018746052	0.01970412670282	40.866765244973	0.2	0.10530689777847
1012	1	2	8.7630417119333	0.01315529844783	49.629806956906	0.2	0.077928701635241
1013	1	2	8.6400696066068	0.0071172524820492	58.269876563513	0.2	0.05165057858855
1014	1	2	8.5194400671572	0.0016061441667809	66.78931663067	0.2	0.030658961807918
1015	1	2	8.401108468709	-0.0033709576281706	75.19042509938	0.2	0.94975904897264
1016	1	2	8.2850310364715	-0.0078149495177799	83.475456135851	0.2	-1.0508294456099
1017	1	2	8.171164829545	-0.011733608344299	91.646620965396	0.2	0.014587690407394
1018	1	2	8.0594677250353	-0.015140554728383	99.706088690431	0.2	0.025927590726399

-8-
1019	1	3	8.0594677250353	-0.018054275458843	7.655987092903	0.01	0.036127299784054
1020	1	3	7.8424163285203	-0.020497212046722	15.498403421423	0.01	0.045499480568651
1021	1	3	7.7369817419901	-0.022494920387758	23.235385163413	0.01	0.054283679984626
1022	1	3	7.5917935614563	-0.02407530440928	30.82717872487	0.01	0.062673308641397
1023	1	3	7.4493711535059	-0.025269181602395	38.276549878376	0.01	0.073845423485438
1024	1	3	7.3096618313573	-0.026108371685571	45.586211709733	0.01	0.082326407014524
1025	1	3	7.1726139118892	-0.026625088550444	52.758825621622	0.01	0.090823406692956
1026	1	3	7.0381766965219	-0.026851419378151	59.797002318144	0.01	0.099503398476154
1027	1	3	6.9063004524615	-0.026818885830418	66.703302770606	0.01	0.10855088637246
1028	1	3	6.7769363943029	-0.026558081533277	73.480239164908	0.01	0.11818399492158
1029	1	3	6.6500366659818	-0.026098379629218	80.13027583089	0	0.12867676899569
1030	1	3	6.5255543230715	-0.025467703938743	86.655830153962	0	0.14039294356221
1031	1	3	6.4034433154165	-0.024692357210396	93.059273469378	0	0.15384082609415
1032	1	3	6.283658470097	-0.023796900017733	99.342931939475	0	0.16976842025639

-8-
1033	1	4	6.283658470097	-0.022804074053887	3.4488124212595	0.1	0.18933981534392
1034	1	4	6.0508908610164	0.28620782967098	9.4997032822759	0.05	1.0003140880182
1035	1	4	5.9378219887812	0.82475817962038	15.437525271057	1	-0.25956469614182
1036	1	4	5.8247090259912	1.5229269800942	21.262234297048	1	-0.30461126164328
1037	1	4	5.7137508166403	2.3182115533268	26.975985113689	1	-0.39157552000017
1038	1	4	5.6158963340382	3.1560602826294	32.591881447727	1	-0.56171737235936
1039	1	4	5.7287163257078	3.9930567364732	38.320597773434	1	-1.02002331392
1040	1	4	5.8393871449124	4.8616380691073	44.159984918347	1	1.0269836545643
1041	1	4	5.9479497324661	5.7912088249468	50.107934650813	0.95	0.482125307468
1042	1	4	6.0544442492778	6.8081535423622	56.162378900091	0.9	0.30197255446138
1043	1	4	6.1589100912082	7.9358588696365	62.321288991299	0	0.21114589665759
1044	1	4	6.2613859036442	9.1947466401242	68.582674894943	0	0.15567504960457

-8-
1045	1	5	6.2613859036442	10.602318970892	4.2477597645282	0.1	0.11771307682326
1046	1	5	6.4277576485729	12.168729705826	10.675517413101	0.05	0.063925622643624
1047	1	5	6.3053116215449	13.897163640577	16.980829034646	0	0.019656417441968
1048	1	5	6.1851981388277	15.707909284821	23.166027173474	0.1	-0.49197578133177
1049	1	5	6.08935280733	17.53171268371	29.255379980804	0.05	-0.84136212544523
1050	1	5	5.9843432678608	19.317255145816	35.239723248664	0	-1.3412816241039
1051	1	5	5.8703440946523	21.016857221466	41.110067343317	0.1	-0.55479677994811
1052	1	5	5.7585165568114	22.586897974999	46.868583900128	0	-0.33668177314592
1053	1	5	5.6488192856155	23.991716607622	52.517403185744	0.1	-0.21583549826605
1054	1	5	5.5412117003985	25.202905563968	58.058614886142	0	-0.1467107517515
1055	1	5	5.4576340344161	26.198611142842	63.516248920558	0.4	-0.1014171090683
1056	1	5	5.3536684462555	26.969125645223	68.869917366814	0.4	-0.043108719811324

-8-
1057	1	6	5.3536684462555	27.502616916794	3.4577460598908	0.3	-0.049919808606794
1058	1	6	5.173202372409	27.801459630949	8.6309484322998	0.2	0.010018736926811
1059	1	6	5.1625752489578	27.89063985254	13.793523681258	0.1	0.10648292546927
1060	1	6	5.1521505676516	27.790917643246	18.945674248909	2.7755575615629E-17	0.099016573857332
1061	1	6	5.1199444311766	27.522188914743	24.065618680086	0.1	0.10532374613539
1062	1	6	5.066371766914	27.104192961755	29.131990447	0	0.11679605507235
1063	1	6	4.9918395980565	26.556346706583	34.123830045056	1	0.13008161950662
1064	1	6	4.8967471941792	25.897578798091	39.020577239235	1	0.145772851861
1065	1	6	4.8254463006984	25.146170310054	43.846023539934	1	0.16481068598785
1066	1	6	4.7335236177875	24.318225802696	48.579547157721	1	0.17383915670464
1067	1	6	4.8631524313464	23.429187125849	53.442699589068	1	0.20175924967991
1068	1	6	4.9903118715909	22.486627681268	58.433011460659	1	0.12396275810767
1069	1	6	5.1150489790239	21.498055074807	63.548060439683	0.4	0.14027462933212
1070	1	6	5.2374098980466	20.470885223166	68.785470337729	0.4	0.16116946533672

-8-

 Right 
1071	1	7	5.2374098980466	19.412414335577	3.4570755259884	0.35	0.18903445566313
1072	1	7	5.3433031247912	18.351458534253	8.8003786507796	0.3	0.92061241234521
1073	1	7	5.3294356549452	17.291351561143	14.129814305725	0.25	1.3415926283202
1074	1	7	5.3158323544534	16.235149604341	19.445646660178	0.2	0.78263132679829
1075	1	7	5.2805081501254	15.185637136626	24.726154810304	0.15	0.41624595561908
1076	1	7	5.2348668363043	14.140841064851	29.961021646608	0.1	-0.29495423644073
1077	1	7	5.1681149290632	13.107992825344	35.129136575671	0.05	0.60525090787478
1078	1	7	5.0916445965934	12.093749893024	40.220781172265	6.9388939039072E-17	0.3578266594909
1079	1	7	5.0056409707285	11.103959908567	45.226422142993	0.1	0.2391384755844
1080	1	7	4.9102856566197	10.143670876736	50.136707799613	1	0.17111327987766
1081	1	7	4.8387268612347	9.2171503460742	54.975434660848	1	0.12637660526422
1082	1	7	4.9663515981163	8.3275327772738	59.941786258964	1	0.084937916495087
1083	1	7	5.091545138485	7.4751801457074	65.033331397449	0.4	0.0097135645247966
1084	1	7	5.2143537955917	6.6604875058849	70.247685193041	0.4	0.010490031769936

-13-
1085	1	8	5.2143537955917	5.8838514571612	4.7647932424445	0.35	0.010421305308079
1086	1	8	5.191749090184	5.1466123354204	9.9565423326285	0.3	0.034021330769299
1087	1	8	5.1697786392731	4.4496972259663	15.126320971902	1	0.022990899247085
1088	1	8	5.1372366955925	3.79371869037	20.263557667494	1	0.014963674619107
1089	1	8	5.2591749481285	3.1789764697472	25.522732615623	1	0.0072688627922361
1090	1	8	5.37879032924	2.6048099794237	30.901522944863	1	-0.016019488516332
