	0	0	0		0		400		1		0-		0
1	0	0	0		0		400		1		0-		0
2	0	0	0		0		400		1		0-		0
3	0	0	0.19883		0		399.801		1		0-		0
4	0	0	0.39388		0		399.407		1		0-		0
5	0	0	0.58520		0		398.822		1		0		0
6	0	0	0.77286		0		398.049		1		0		0
7	0	0	0.95695		0		397.092		1		0		0
8	0	0	1.13752		0		395.954		1		0		0
9	0	0	1.31464		0		394.640		1		0		0
10	0	0	1.48838		0		393.151		1		0		0
11	0	0	1.65880		0		391.492		1		0		0
12	0	0	1.82596		0		389.666		1		0		0
13	0	0	1.98994		0		387.676		1		0		0
14	0	0	2.15079		0		385.526		1		0		0
15	0	0	2.30856		0		383.217		1		0		0
16	0	0	2.46332		0		380.754		1		0		0
17	0	0	2.61513		0		378.139		1		0		0
18	0	0	2.76404		0		375.375		1		0		0
19	0	0	2.91010		0		372.465		1		0		0
20	0	0	3.05338		0		369.411		1		0		0
21	0	0	3.19392		0		366.217		1		0		0
22	0	0	3.33177		0		362.885		1		0		0
23	0	0	3.46700		0		359.418		1		0		0
24	0	0	3.59964		0		355.819		1		0		0
25	0	0	3.72975		0		352.089		1		0		0
26	0	0	3.85738		0		348.232		1		0		0
27	0	0	3.98257		0		344.249		1		0		0
28	0	0	4.10536		0		340.144		1		0		0
29	0	0	4.22582		0		335.918		1		0		0
30	0	0	4.34397		0		331.574		1		0		0
31	0	0	4.45987		0		327.114		1		0		0
32	0	0	4.57356		0		322.540		1		0		0
33	0	0	4.68507		0		317.855		1		0		0
34	0	0	4.79446		0		313.061		1		0		0
35	0	0	4.90175		0		308.159		1		0		0
36	0	0	5.00700		0		303.152		1		0		0
37	0	1	5.00700		0		298.042		1		0		0
38	0	1	5.21151		0		292.830		1		0		0
39	0	1	5.31084		0		287.520		1		0		0
40	0	1	5.40828		0		282.111		1		0		0
41	0	1	5.50386		0		276.607		1		0		0
42	0	1	5.59761		0		271.010		1		0		0
43	0	1	5.68957		0		265.320		1		0		0
44	0	1	5.77978		0		259.540		1		0		0
45	0	1	5.86826		0		253.672		1		0		0
46	0	1	5.95506		0		247.717		1		0		0
47	0	1	6.04019		0		241.677		1		0		0
48	0	1	6.12370		0		235.553		1		0		0
49	0	1	6.20562		0		229.348		1		0		0
50	0	1	6.28597		0		223.062		1		0		0
51	0	1	6.36479		0		216.697		1		0		0
52	0	1	6.44211		0		210.255		1		0		0
53	0	1	6.51794		0		203.737		1		0		0
54	0	2	6.51794		0		197.144		1		0		0
55	0	2	6.66530		0		190.479		1		0		0
56	0	2	6.73688		0		183.742		1		0		0
57	0	2	6.80709		0		176.935		1		0		0
58	0	2	6.87596		0		170.059		1		0		0
59	0	2	6.94351		0		163.116		1		0		0
60	0	2	7.00978		0		156.106		1		0		0
61	0	2	7.07477		0		149.031		0		0		0
62	0	2	7.13853		0		141.893		0		0		0
63	0	2	7.20107		0		134.691		0		0		0
64	0	2	7.06358		0		127.628		0		0		0
65	0	2	6.92871		0		120.699		0		0		0
66	0	2	6.79642		0		113.903		0		0		0
67	0	2	6.66665		0		107.236		0		0		0
68	0	2	6.53936		0		100.697		0		0		0
69	0	3	6.53936		0		94.2827		0		0		0
70	0	3	6.29203		0		87.9906		0		0		0
71	0	3	6.17189		0		81.8188		0		0		0
72	0	3	6.05405		0		75.7647		0		0		0
73	0	3	5.93845		0		69.8262		0		0		0
74	0	3	5.82507		0		64.0012		0		0		0
75	0	3	5.71385		0		58.2873		0		0		0
76	0	3	5.60475		0		52.6826		0		0		0
77	0	3	5.49774		0		47.1848		0		0		0
78	0	3	5.39276		0		41.7921		0		0		0
79	0	3	5.28980		0		36.5022		0		0		0
80	0	3	5.18880		0		31.3134		0		0		0
81	0	3	5.08972		0		26.2237		0		0		0
82	0	3	4.99254		0		21.2312		0		0		0
83	0	3	4.89722		0		16.3339		0.4		0		0
84	0	3	4.80371		0		11.5302		0.4		0		0
85	0	3	4.79153		0		6.73873		0.4		0		0
86	0	3	4.77958		0		1.95915		0.4		0		0
87	0	4	4.77958		0		391.939		0.45		0		0
88	0	4	4.75636		0		387.182		0.5		0		0
89	0	4	4.75502		0		382.427		0.55		0		0
90	0	4	4.76365		0		377.664		0.6		0		0
91	0	4	4.78206		0		372.881		0.65		0		0
92	0	4	4.81005		0		368.071		0.7		0		0
93	0	4	4.84746		0		363.224		0.75		0		0
94	0	4	4.89409		0		358.330		0.8		0		0
95	0	4	4.94978		0		353.380		0.85		0		0
96	0	4	5.01434		0		348.366		0.9		0		0
97	0	4	5.07767		0		343.288		0.95		0		0
98	0	4	5.14974		0		338.138		1		0-		0
99	0	4	5.23036		0		332.908		1		0-		0
100	0	4	5.31940		0		327.589		1		0-		0
101	0	4	5.41667		0		322.172		1		0-		0
102	0	5	5.41667		0.00539		308.808		0.95		0		1
103	0	5	5.60568		0.04492		303.202		0.9		0		0.86356
104	0	5	5.69749		0.14464		297.505		0.85		0		0.60358
105	0	5	5.77760		0.32794		291.727		0.8		0		0.45596
106	0	5	5.84624		0.61217		285.881		0.75		0		0.30777
107	0	5	5.90363		1.00888		279.977		0.7		0		0.18373
108	0	5	5.94998		1.52411		274.027		0.65		0		0.11746
109	0	5	5.98551		2.15873		268.042		0.6		0		0.07833
110	0	5	6.01041		2.90889		262.031		0.55		0		0.05352
111	0	5	6.02490		3.76647		256.007		0.5		0		0.03692
112	0	5	6.02917		4.71956		249.977		0.45		0		0.02535
113	0	5	6.02341		5.75297		243.954		0.4		0		0.01702
114	0	6	6.02341		6.84881		230.095		0.35		0		0.01085
115	0	6	5.98259		7.98697		224.112		0.3		0		0.00617
116	0	6	5.93796		9.14568		218.174		0.25		0		0.00257
117	0	6	5.88423		10.2985		212.290		0.3		0		-0.0006
118	0	6	5.82159		11.4191		206.468		0.35		0		-0.0031
119	0	6	5.77009		12.4813		200.698		0.4		0		-0.0051
120	0	6	5.72951		13.4663		194.969		0.45		0		-0.0061
121	0	6	5.69965		14.3617		189.269		0.5		0		-0.0066
122	0	6	5.68030		15.1605		183.589		0.55		0		-0.0067
123	0	6	5.67127		15.8607		177.917		0.6		0		-0.0065
124	0	6	5.67234		16.4643		172.245		0.65		0		-0.0060
125	0	6	5.68334		16.9770		166.562		0.7		0		-0.0055
126	0	7	5.68334		17.4077		153.006		0.75		0		-0.0048
127	0	7	5.73435		17.7680		147.271		0.8		0		-0.0040
128	0	7	5.76405		18.0719		141.507		0.85		0		-0.0031
129	0	7	5.81307		18.3322		135.694		0.9		0		-0.0024
130	0	7	5.87109		18.5670		129.823		0.95		0		-0.0013
131	0	7	5.93794		18.7962		123.885		1		0		-0.0003
132	0	7	6.01347		19.0409		117.872		0.8		0		0.00082
133	0	7	6.09749		19.3234		111.774		0.6		0		0.00198
134	0	7	6.14014		19.6672		105.634		0.4		0		0.00316
135	0	7	6.14221		20.0785		99.4925		0.2		0		0.00343
136	0	7	6.10446		20.5483		93.3880		5.5511151231258E-17		0		0.00291
137	0	7	6.02768		21.0538		87.3603		0.1		0		0.00173
138	0	8	6.02768		21.5607		73.5960		0.1		0		7.04085
139	0	8	5.81958		21.8575		67.7765		0.3		0		-0.0097
140	0	8	5.72835		21.9657		62.0481		0.5		0		-0.0086
141	0	8	5.67863		21.9058		56.3695		0.7		0		-0.0076
142	0	8	5.66962		21.6964		50.6998		0.9		0		-0.0068
143	0	8	5.70056		21.3541		44.9993		1		0-		-0.0061
144	0	8	5.77067		20.8939		39.2286		1		0-		-0.0055
145	0	8	5.85933		20.3291		33.3693		1		0-		-0.0050
146	0	8	5.94629		19.6718		27.4230		1		0-		-0.0045
147	0	8	6.03160		18.9340		21.3914		1		0-		-0.0040
148	0	8	6.11527		18.1273		15.2761		1		0-		-0.0036
149	0	8	6.19735		17.2626		9.07880		1		0-		-0.0031
150	0	9	6.19735		16.3507		198.876		1		0		-0.0027
151	0	9	6.35683		15.4017		192.519		1		0		-0.0022
152	0	9	6.43430		14.4252		186.085		1		0		-0.0017
153	0	9	6.51029		13.4303		179.574		1		0		-0.0012
154	0	9	6.58482		12.4256		172.990		1		0		-0.0007
155	0	9	6.65794		11.4191		166.332		1		0		-0.0001
156	0	9	6.72965		10.4182		159.602		1		0		0.00049
157	0	9	6.80000		9.42985		152.802		1		0		0.00119
158	0	9	6.86900		8.46011		145.933		1		0		0.00198
159	0	9	6.93669		7.51471		138.996		1		0		0.00287
160	0	9	7.00308		6.59868		131.993		0		0		0.00390
161	0	9	7.06821		5.71650		124.925		0		0		0.00512
162	0	9	6.93325		4.87202		117.992		0		0		0.00659
163	0	9	6.80087		4.06977		111.191		0		0		0.00866
164	0	9	6.67102		3.31315		104.520		0		0		0.01121
165	0	10	6.67102		2.60456		97.9765		0		0		0.01449
166	0	10	6.41871		1.94552		91.5578		0		0		0.01902
167	0	10	6.29615		1.33678		85.2617		0		0		0.02585
168	0	10	6.17594		0.77840		79.0857		0		0		0.03766
169	0	10	6.05802		0.26984		73.0277		0		0		0.06401
170	0	10	5.94235		-0.1899		67.0853		0		0		
171	0	10	5.82889		-0.6022		61.2564		0		0		-0.1149
172	0	10	5.71759		-0.9689		55.5388		0		0		-0.0757
173	0	10	5.60842		-1.2921		49.9304		0		0		-0.0449
174	0	10	5.50134		-1.5738		44.4291		0		0		-0.0320
175	0	10	5.39630		-1.8166		39.0328		0		0		-0.0247
176	0	10	5.29327		-2.0228		33.7395		0		0		-0.0201
177	0	10	5.19220		-2.1951		28.5473		0		0		-0.0168
178	0	10	5.09306		-2.3358		23.4542		0		0		-0.0143
179	0	10	4.99582		-2.4476		18.4584		0.4		0		-0.0123
180	0	10	4.90043		-2.5330		13.5580		0.4		0		-0.0108
181	0	10	4.88640		-2.5943		8.67160		0.4		0		-0.0094
182	0	10	4.87264		-2.6336		3.79896		0.4		0		-0.0084
183	0	11	4.87264		-2.6529		77.4773		0.45		0		-0.0075
184	0	11	4.84590		-2.6542		72.6314		0.5		0		-0.0068
185	0	11	4.83291		-2.6393		67.7985		0.55		0		-0.0061
186	0	11	4.84005		-2.6100		62.9584		0.6		0		-0.0054
187	0	11	4.85700		-2.5677		58.1014		0.65		0		-0.0049
188	0	11	4.88357		-2.5142		53.2178		0.7		0		-0.0044
189	0	11	4.91957		-2.4506		48.2983		0.75		0		-0.0039
190	0	11	4.96482		-2.3783		43.3334		0.8		0		-0.0035
191	0	11	5.01916		-2.2985		38.3143		0.85		0		-0.0031
192	0	11	5.08240		-2.2122		33.2319		0.9		0		-0.0028
193	0	11	5.15437		-2.1205		28.0775		0.95		0		-0.0024
194	0	11	5.23491		-2.0243		22.8426		1		0-		-0.0021
195	0	11	5.32386		-1.9245		17.5187		1		0-		-0.0017
196	0	11	5.42104		-1.8219		12.0977		1		0-		-0.0014
197	0	11	5.51638		-1.7172		6.58134		1		0-		-0.0011
198	0	11	5.60989		-1.6111		0.97144		1		0-		-0.0007
199	0	12	5.60989		-1.5043		199.199		1		0		-0.0004
200	0	12	5.79159		-1.3975		193.407		1		0		-2.9163
201	0	12	5.87985		-1.2912		187.527		1		0		0.00040
202	0	12	5.96643		-1.1861		181.561		1		0		0.00087
203	0	12	6.05135		-1.0827		175.509		1		0		0.00140
204	0	12	6.13464		-0.9814		169.375		1		0		0.00199
205	0	12	6.21635		-0.8827		163.158		1		0		0.00265
206	0	12	6.29650		-0.7870		156.862		1		0		0.00341
207	0	12	6.37512		-0.6947		150.487		1		0		0.00428
208	0	12	6.45223		-0.6060		144.035		1		0		0.00531
209	0	12	6.52788		-0.5214		137.507		1		0		0.00655
210	0	12	6.60208		-0.4410		130.905		1		0		0.00807
211	0	12	6.67486		-0.3649		124.230		1		0		0.00998
212	0	12	6.74626		-0.2935		117.483		1		0		0.01248
213	0	12	6.81629		-0.2267		110.667		1		0		0.01591
214	0	12	6.88498		-0.1646		103.782		1		0		0.02094
215	0	13	6.88498		-0.1074		96.8302		0		0		0.02907
216	0	13	7.01846		-0.0549		89.8118		0		0		0.04462
217	0	13	6.88445		-0.0072		82.9273		0		0		0.08674
218	0	13	6.75300		0.03577		76.1743		0		0		
219	0	13	6.62406		0.07416		69.5502		0		0		-0.1198
220	0	13	6.49759		0.10810		63.0526		0		0		-0.0600
221	0	13	6.37352		0.13777		56.6791		0		0		-0.0395
222	0	13	6.25183		0.16338		50.4273		0		0		-0.0295
223	0	13	6.13246		0.18515		44.2948		0		0		-0.0234
224	0	13	6.01537		0.20332		38.2794		0		0		-0.0194
225	0	13	5.90052		0.21814		32.3789		0		0		-0.0164
226	0	13	5.78786		0.22988		26.5911		0		0		-0.0141
227	0	13	5.67735		0.23878		20.9137		0		0		-0.0123
228	0	13	5.56895		0.24509		15.3447		0		0		-0.0108
229	0	13	5.46262		0.24906		9.88217		0		0		-0.0095
230	0	13	5.35831		0.25094		4.52385		0		0		-0.0084
231	0	13	5.25601		0.25095		-0.7321		0		0		-0.0074
232	0	14	5.25601		0.24931		310.322		0.05		0		-0.0065
233	0	14	5.05721		0.24623		305.265		0.1		0		-0.0057
234	0	14	4.97059		0.24189		300.294		0.15		0		-0.0050
235	0	14	4.89557		0.23649		295.399		0.2		0		-0.0044
236	0	14	4.83192		0.23018		290.567		0.25		0		-0.0038
237	0	14	4.77943		0.22312		285.787		0.3		0		-0.0032
238	0	14	4.73789		0.21542		281.049		0.35		0		-0.0028
239	0	14	4.70708		0.20722		276.342		0.4		0		-0.0023
240	0	14	4.68680		0.19862		271.655		0.45		0		-0.0019
241	0	14	4.67684		0.18972		266.979		0.5		0		-0.0015
242	0	14	4.67703		0.18060		262.302		0.55		0		-0.0011
243	0	14	4.68714		0.17133		257.614		0.6		0		-0.0007
244	0	14	4.70701		0.16199		252.907		0.65		0		-0.0004
245	0	14	4.72650		0.15263		248.181		0.7		0		-0.0001
246	0	15	4.72650		0.14330		235.574		0.65		0		0.00022
247	0	15	4.79401		0.13405		230.780		0.6		0		0.00056
248	0	15	4.84166		0.12493		225.938		0.55		0		0.00090
249	0	15	4.87846		0.11596		221.060		0.5		0		0.00125
250	0	15	4.90462		0.10718		216.155		0.45		0		0.00163
251	0	15	4.92033		0.09862		211.235		0.4		0		0.00206
252	0	15	4.92581		0.09031		206.309		0.35		0		0.00252
253	0	15	4.92123		0.08228		201.388		0.3		0		0.00304
254	0	15	4.90681		0.07454		196.481		0.25		0		0.00361
255	0	15	4.88271		0.06712		191.598		0.2		0		0.00424
256	0	15	4.84914		0.06003		186.749		0.15		0		0.00495
257	0	15	4.80626		0.05329		181.943		0.1		0		0.00574
258	0	15	4.75426		0.04690		177.188		0.05		0		0.00664
259	0	15	4.70325		0.04087		172.485		1.3877787807814E-17		0		0.00767
260	0	15	4.65322		0.03520		167.832		0.1		0		0.00887
261	0	16	4.65322		0.02990		155.396		0.05		0		0.01027
262	0	16	4.50667		0.02495		150.889		0		0		0.01200
263	0	16	4.42062		0.02036		146.469		0.1		0		0.01418
264	0	16	4.35610		0.01612		142.112		0.05		0		0.01701
265	0	16	4.28287		0.01221		137.830		0		0		0.02088
266	0	16	4.20109		0.00863		133.629		0.1		0		0.02664
267	0	16	4.12088		0.00536		129.508		0.05		0		0.03625
268	0	16	4.04220		0.00239		125.465		0		0		0.05584
269	0	16	3.98490		-0.0002		121.481		0.05		0		
270	0	16	3.92870		-0.0027		117.552		0.1		0		-0.1117
271	0	16	3.85369		-0.0048		113.698		0.15		0		-0.0940
272	0	16	3.79005		-0.0067		109.908		0.2		0		-0.0491
273	0	16	3.73757		-0.0084		106.171		0.25		0		-0.0330
274	0	16	3.69603		-0.0099		102.474		0.3		0		-0.0246
275	0	16	3.66523		-0.0112		98.8097		0.35		0		-0.0195
276	0	16	3.64496		-0.0123		95.1647		0.4		0		-0.0160
277	0	16	3.63501		-0.0133		91.5297		0.45		0		-0.0135
278	0	16	3.63520		-0.0141		87.8945		0.5		0		-0.0116
279	0	17	3.63520		-0.0147		76.3975		0.7		0		-0.0101
280	0	17	3.66521		-0.0152		72.7323		0.9		0		-0.0089
281	0	17	3.68470		-0.0156		69.0476		1		0-		-0.0079
282	0	17	3.70383		-0.0159		65.3438		1		0-		-0.0071
283	0	17	3.81206		-0.0161		61.5317		1		0-		-0.0063
284	0	17	3.93812		-0.0162		57.5936		1		0-		-0.0058
285	0	17	4.06176		-0.0162		53.5318		1		0-		-0.0054
286	0	17	4.18305		-0.0161		49.3487		1		0-		-0.0050
287	0	17	4.30202		-0.0159		45.0467		1		0-		-0.0046
288	0	17	4.41872		-0.0157		40.6280		1		0-		-0.0043
289	0	17	4.53319		-0.0154		36.0948		1		0-		-0.0040
290	0	17	4.64548		-0.0150		31.4493		1		0-		-0.0037
291	0	17	4.75562		-0.0146		26.6937		1		0-		-0.0034
292	0	17	4.86366		-0.0142		21.8300		1		0-		-0.0031
293	0	17	4.96963		-0.0137		16.8604		1		0-		-0.0029
294	0	17	5.07359		-0.0132		11.7868		1		0-		-0.0026
295	0	18	5.07359		-0.0126		98.7596		1		0		-0.0023
296	0	18	5.27557		-0.0120		93.4840		1		0		-0.0020
297	0	18	5.37368		-0.0114		88.1103		1		0		-0.0017
298	0	18	5.46992		-0.0108		82.6404		1		0		-0.0014
299	0	18	5.56432		-0.0101		77.0760		1		0		-0.0010
300	0	18	5.65692		-0.0095		71.4191		1		0		-0.0007
301	0	18	5.74775		-0.0089		65.6714		1		0		-0.0003
302	0	18	5.83684		-0.0082		59.8345		1		0		6.26370
303	0	18	5.92424		-0.0076		53.9103		1		0		0.00051
304	0	18	6.00996		-0.0069		47.9003		0		0		0.00100
305	0	18	6.09405		-0.0063		41.8062		0		0		0.00154
306	0	18	6.17654		-0.0057		35.6297		0		0		0.00215
307	0	18	6.25744		-0.0051		29.3722		0		0		0.00284
308	0	18	6.33681		-0.0045		23.0354		0		0		0.00364
309	0	18	6.21582		-0.0040		16.8196		0		0		0.00456
310	0	18	6.09713		-0.0035		10.7225		0		0		0.00590
311	0	18	5.98072		-0.0030		4.74179		0		0		0.00743
312	0	18	5.86653		-0.0025		-1.1247		0		0		0.00922
313	0	19	5.86653		-0.0020		387.868		0.1		0		0.01140
314	0	19	5.64464		0.11208		382.223		0.15		0		
315	0	19	5.53686		0.29118		376.687		0.1		0		0.36247
316	0	19	5.46097		0.49284		371.226		0.05		0		0.07750
317	0	19	5.37659		0.68986		365.849		0.1		0		-0.0094
318	0	19	5.28387		0.86253		360.565		0.15		0		-0.0352
319	0	19	5.20287		1.01225		355.362		0.2		0		-0.0266
320	0	19	5.13335		1.14040		350.229		0.25		0		-0.0212
321	0	19	5.07511		1.24843		345.154		0.3		0		-0.0176
322	0	19	5.01797		1.33773		340.136		0.35		0		-0.0149
323	0	19	4.97187		1.40971		335.164		0.4		0		-0.0129
324	0	19	4.93659		1.46573		330.227		0.45		0		-0.0113
325	0	19	4.91193		1.50710		325.315		0.5		0		-0.0099
326	0	20	4.91193		1.53509		312.566		0.55		0		-0.0088
327	0	20	4.89365		1.55088		307.672		0.6		0		-0.0079
328	0	20	4.89963		1.55560		302.773		0.65		0		-0.0071
329	0	20	4.91544		1.55032		297.857		0.7		0		-0.0064
330	0	20	4.94089		1.53604		292.916		0.75		0		-0.0058
331	0	20	4.97580		1.51371		287.941		0.8		0		-0.0052
332	0	20	5.01998		1.48419		282.921		0.85		0		-0.0047
333	0	20	5.07326		1.44831		277.847		0.9		0		-0.0042
334	0	20	5.13547		1.40684		272.712		0.95		0		-0.0038
335	0	20	5.20643		1.36048		267.505		1		0-		-0.0034
336	0	20	5.28597		1.30990		262.219		1		0-		-0.0031
337	0	20	5.37394		1.25573		256.845		1		0-		-0.0027
338	0	20	5.47018		1.19854		251.375		1		0-		-0.0024
339	0	20	5.56457		1.16058		245.811		0.95		0		0.01604
340	0	21	5.56457		1.16962		232.302		0.9		0		0.04049
341	0	21	5.74799		1.25072		226.554		0.85		0		0.06160
342	0	21	5.82714		1.42627		220.727		0.8		0		0.07551
343	0	21	5.89483		1.71259		214.832		0.75		0		0.07766
344	0	21	5.95130		2.12016		208.881		0.7		0		0.07079
345	0	21	5.99674		2.65393		202.884		0.65		0		0.05952
346	0	21	6.03137		3.31369		196.852		0.6		0		0.04747
347	0	21	6.05540		4.09452		190.797		0.55		0		0.03653
348	0	21	6.06902		4.98722		184.728		0.5		0		0.02732
349	0	21	6.07245		5.97887		178.656		0.45		0		0.01983
350	0	21	6.06587		7.05330		172.590		0.4		0		0.01384
351	0	21	6.04947		8.19166		166.540		0.35		0		0.00906
352	0	22	6.04947		9.37299		152.665		0.3		0		0.00524
353	0	22	5.98797		10.5747		146.677		0.1		0		0.00217
354	0	22	5.94323		11.7731		140.734		0.15		0		-0.0003
355	0	22	5.88941		12.9441		134.845		0.2		0		-0.0023
356	0	22	5.79684		14.0632		129.048		0.25		0		-0.0040
357	0	22	5.71598		15.0968		123.332		0.3		0		-0.0060
358	0	22	5.64661		16.0199		117.685		0.35		0		-0.0073
359	0	22	5.58851		16.8154		112.097		0.4		0		-0.0079
360	0	22	5.54146		17.4728		106.555		0.45		0		-0.0082
361	0	22	5.50525		17.9873		101.050		0.5		0		-0.0081
362	0	22	5.47967		18.3592		95.5706		0.7		0		-0.0079
363	0	22	5.46452		18.5929		90.1061		0.9		0		-0.0075
364	0	23	5.46452		18.6961		76.8048		1		0-		-0.0070
365	0	23	5.48480		18.6616		71.3200		1		0-		-0.0073
366	0	23	5.55903		18.5026		65.7609		1		0-		-0.0066
367	0	23	5.65173		18.2310		60.1092		1		0-		-0.0060
368	0	23	5.74266		17.8577		54.3665		1		0-		-0.0055
369	0	23	5.83185		17.3936		48.5347		0		0		-0.0050
370	0	23	5.91934		16.8491		42.6153		0		0		-0.0046
371	0	23	5.80632		16.2343		36.8090		0		0		-0.0041
372	0	23	5.69545		15.5632		31.1136		0		0		-0.0034
373	0	23	5.58671		14.8485		25.5268		0		0		-0.0028
374	0	23	5.48004		14.1015		20.0468		0		0		-0.0021
375	0	23	5.37540		13.3326		14.6714		0		0		-0.0015
376	0	23	5.27277		12.5510		9.39866		0		0		-0.0009
377	0	23	5.17209		11.7648		4.22656		0		0		-0.0003
378	0	24	5.17209		10.9812		73.7660		0.1		0		0.00021
379	0	24	4.97647		10.2064		68.7895		0.1		0		0.00079
380	0	24	4.88145		9.44553		63.9081		0.05		0		0.00137
381	0	24	4.78825		8.70310		59.1198		0		0		0.00195
382	0	24	4.71671		7.98282		54.4031		0.1		0		0.00254
383	0	24	4.63659		7.28751		49.7665		0.05		0		0.00312
384	0	24	4.54806		6.61949		45.2184		0		0		0.00374
385	0	24	4.48111		5.98064		40.7373		0.1		0		0.00440
386	0	24	4.40549		5.37217		36.3318		0.05		0		0.00508
387	0	24	4.32138		4.79497		32.0104		0		0		0.00581
388	0	24	4.23887		4.24959		27.7716		0.1		0		0.00663
389	0	24	4.16787		3.73623		23.6037		0.05		0		0.00753
390	0	24	4.08829		3.25474		19.5154		0		0		0.00853
391	0	24	4.01023		2.80476		15.5051		0.1		0		0.00968
392	0	24	3.93366		2.38572		11.5715		0.05		0		0.01103
393	0	24	3.86850		1.99686		7.70301		0		0		0.01264
394	0	24	3.79464		1.63723		3.90837		0.1		0		0.01463
395	0	24	3.74207		1.30579		0.16630		0.05		0		0.01722
396	0	24	3.68056		1.00139		-3.5142		0		0		0.02070
397	0	25	3.68056		0.72282		96.8047		0		0		0.02579
398	0	25	3.54135		0.46885		93.2633		0		0		0.03402
399	0	25	3.49362		0.23820		89.7697		0		0		0.04974
400	0	25	3.42691		0.02957		86.3428		0		0		0.09246
401	0	25	3.36148		-0.1583		82.9813		0		0		
402	0	25	3.29730		-0.3267		79.6840		0		0		-0.1154
403	0	25	3.23434		-0.4769		76.4497		0		0		-0.0556
404	0	25	3.17259		-0.6102		73.2771		0		0		-0.0355
405	0	25	3.11201		-0.7278		70.1651		0		0		-0.0258
406	0	25	3.05259		-0.8307		67.1125		0.4		0		-0.0200
407	0	25	2.99431		-0.9202		64.1181		0.4		0		-0.0162
408	0	25	2.93714		-0.9973		61.1810		0.4		0		-0.0134
409	0	25	2.88106		-1.0631		58.2999		0.4		0		-0.0114
410	0	25	2.90558		-1.1184		55.3944		0.4		0		-0.0097
411	0	25	2.92964		-1.1641		52.4647		0.4		0		-0.0085
412	0	25	2.95324		-1.2010		49.5115		0.4		0		-0.0075
413	0	25	2.97639		-1.2298		46.5351		0.4		0		-0.0067
414	0	25	2.99909		-1.2511		43.5360		0.4		0		-0.0060
415	0	25	3.02137		-1.2656		40.5146		0.4		0		-0.0054
416	0	25	3.04321		-1.2739		37.4714		0.4		0		-0.0049
417	0	25	3.06464		-1.2765		34.4067		0.4		0		-0.0044
418	0	25	3.08567		-1.2739		31.3211		0.4		0		-0.0040
419	0	25	3.10629		-1.2667		28.2148		0.4		0		-0.0036
420	0	25	3.12651		-1.2553		25.0883		0.4		0		-0.0033
421	0	25	3.14635		-1.2401		21.9419		0.4		0		-0.0029
422	0	25	3.16581		-1.2216		18.7761		0.4		0		-0.0027
423	0	25	3.18490		-1.2000		15.5912		0.4		0		-0.0024
424	0	25	3.20363		-1.1759		12.3875		0.4		0		-0.0021
425	0	25	3.22199		-1.1495		9.16559		0.4		0		-0.0019
426	0	25	3.24001		-1.1210		5.92557		0.4		0		-0.0017
427	0	25	3.25768		-1.0909		2.66788		0.4		0		-0.0015
428	0	26	3.25768		-1.0594		156.467		0.45		0		-0.0013
429	0	26	3.29202		-1.0266		153.175		0.5		0		-0.0011
430	0	26	3.31865		-0.9929		149.857		0.55		0		-0.0009
431	0	26	3.35470		-0.9585		146.502		0.6		0		-0.0007
432	0	26	3.40001		-0.9235		143.102		0.65		0		-0.0006
433	0	26	3.45440		-0.8881		139.648		0.7		0		-0.0004
434	0	26	3.51769		-0.8523		136.130		0.75		0		-0.0003
435	0	26	3.58971		-0.8164		132.540		0.8		0		-0.0002
436	0	26	3.67030		-0.7805		128.870		0.85		0		-8.9952
437	0	26	3.75929		-0.7445		125.111		0.8		0		2.13991
438	0	26	3.85653		-0.7086		121.254		0.75		0		0.00013
439	0	26	3.94196		-0.6729		117.312		0.7		0		0.00023
440	0	26	4.01583		-0.6375		113.296		0.65		0		0.00037
441	0	26	4.07834		-0.6024		109.218		0.6		0		0.00053
442	0	26	4.12972		-0.5678		105.088		0.55		0		0.00072
443	0	26	4.17017		-0.5336		100.918		0.5		0		0.00094
444	0	26	4.19991		-0.5001		96.7185		0.45		0		0.00118
445	0	26	4.21914		-0.4674		92.4994		0.4		0		0.00144
446	0	26	4.22806		-0.4354		88.2713		0.35		0		0.00173
447	0	27	4.22806		-0.4044		76.1928		0.3		0		0.00205
448	0	27	4.21575		-0.3743		71.9770		0.25		0		0.00239
449	0	27	4.20485		-0.3452		67.7722		0.2		0		0.00277
450	0	27	4.17428		-0.3172		63.5979		0.15		0		0.00316
451	0	27	4.13435		-0.2904		59.4635		0.1		0		0.00359
452	0	27	4.08523		-0.2648		55.3783		0.05		0		0.00406
453	0	27	4.02711		-0.2403		51.3512		6.9388939039072E-17		0		0.00457
454	0	27	3.96016		-0.2171		47.3910		0.1		0		0.00512
455	0	27	3.88455		-0.1952		43.5064		0.05		0		0.00573
456	0	27	3.83027		-0.1745		39.6762		0		0		0.00638
457	0	27	3.76707		-0.1550		35.9091		0.1		0		0.00707
458	0	27	3.69515		-0.1368		32.2139		0.05		0		0.00784
459	0	27	3.64448		-0.1197		28.5695		0		0		0.00872
460	0	27	3.58483		-0.1038		24.9846		0.1		0		0.00969
461	0	27	3.51639		-0.0890		21.4682		0.05		0		0.01083
462	0	27	3.46913		-0.0753		17.9991		0		0		0.01219
463	0	27	3.41284		-0.0627		14.5862		0.1		0		0.01382
464	0	27	3.34767		-0.0510		11.2386		0.05		0		0.01589
465	0	27	3.30364		-0.0403		7.93497		0		0		0.01862
466	0	28	3.30364		-0.0305		58.8327		0		0		0.02236
467	0	28	3.18844		-0.0216		55.6443		0		0		0.02796
468	0	28	3.12756		-0.0135		52.5167		0		0		0.03731
469	0	28	3.06784		-0.0061		49.4489		0		0		0.05627
470	0	28	3.00927		0.00051		46.4396		0		0		
471	0	28	2.95181		0.00650		43.4878		0		0		-0.1114
472	0	28	2.89545		0.01187		40.5923		0.4		0		-0.0957
473	0	28	2.84017		0.01666		37.7522		0.4		0		-0.0488
474	0	28	2.86547		0.02091		34.8867		0.4		0		-0.0322
475	0	28	2.89030		0.02466		31.9964		0.4		0		-0.0239
476	0	28	2.91465		0.02795		29.0817		0.4		0		-0.0188
477	0	28	2.93853		0.03080		26.1432		0.4		0		-0.0153
478	0	28	2.96196		0.03326		23.1812		0.4		0		-0.0129
479	0	28	2.98494		0.03535		20.1963		0.4		0		-0.0110
480	0	28	3.00749		0.03709		17.1888		0.4		0		-0.0096
481	0	28	3.02960		0.03853		14.1592		0.4		0		-0.0084
482	0	28	3.05129		0.03967		11.1079		0.4		0		-0.0075
483	0	28	3.07257		0.04055		8.03538		0.4		0		-0.0066
484	0	28	3.09343		0.04118		4.94194		0.4		0		-0.0060
485	0	28	3.11391		0.04159		1.82803		0.4		0		-0.0054
486	0	29	3.11391		0.04180		155.769		0.45		0		-0.0048
487	0	29	3.15368		0.04183		152.615		0.5		0		-0.0044
488	0	29	3.18295		0.04168		149.432		0.55		0		-0.0039
489	0	29	3.22159		0.04139		146.210		0.6		0		-0.0036
490	0	29	3.26944		0.04096		142.941		0.65		0		-0.0033
491	0	29	3.32632		0.04040		139.615		0.7		0		-0.0030
492	0	29	3.39206		0.03973		136.222		0.75		0		-0.0027
493	0	29	3.46648		0.03896		132.756		0.8		0		-0.0025
494	0	29	3.54942		0.03810		129.207		0.85		0		-0.0023
495	0	29	3.64072		0.03716		125.566		0.9		0		-0.0021
496	0	29	3.74022		0.03614		121.826		0.95		0		-0.0020
497	0	29	3.84776		0.03505		117.978		1		0-		-0.0018
498	0	29	3.96320		0.03390		114.015		1		0-		-0.0017
499	0	29	4.08636		0.03270		109.928		1		0-		-0.0015
500	0	29	4.20718		0.03146		105.721		1		0-		-0.0014
501	0	29	4.32569		0.03017		101.395		1		0-		-0.0012
502	0	29	4.44194		0.02885		96.9539		1		0-		-0.0011
503	0	29	4.55597		0.02750		92.3979		1		0-		-0.0009
504	0	29	4.66782		0.02612		87.7301		1		0-		-0.0007
505	0	29	4.77753		0.02474		82.9525		1		0-		-0.0005
506	0	29	4.88515		0.02334		78.0674		1		0-		-0.0003
507	0	30	4.88515		0.02194		75.5672		1		0-		-0.0001
508	0	30	5.09427		0.02055		70.4730		0.95		0		0.00013
509	0	30	5.19584		0.01916		65.2771		0.9		0		0.00042
510	0	30	5.28553		0.01779		59.9916		0.85		0		0.00074
511	0	30	5.36357		0.01643		54.6280		0.8		0		0.00111
512	0	30	5.43017		0.01511		49.1978		0		0		0.00152
513	0	30	5.48556		0.00433		43.7123		0		0		-0.6254
514	0	30	5.38082		-0.0318		38.3314		0		0		
515	0	30	5.27809		-0.0642		33.0533		0		0		-0.1184
516	0	30	5.17731		-0.0929		27.8760		0		0		-0.0569
517	0	30	5.07846		-0.1181		22.7976		0		0		-0.0373
518	0	30	4.98149		-0.1401		17.8161		0.4		0		-0.0277
519	0	30	4.88638		-0.1589		12.9297		0.4		0		-0.0218
520	0	30	4.87261		-0.1750		8.05711		0.4		0		-0.0179
521	0	31	4.87261		-0.1883		309.496		0.45		0		-0.0152
522	0	31	4.84587		-0.1992		304.650		0.5		0		-0.0131
523	0	31	4.84283		-0.2078		299.807		0.55		0		-0.0115
524	0	31	4.84978		-0.2143		294.957		0.6		0		-0.0101
525	0	31	4.86654		-0.2188		290.091		0.65		0		-0.0090
526	0	31	4.89293		-0.2215		285.198		0.7		0		-0.0081
527	0	31	4.92875		-0.2226		280.269		0.75		0		-0.0073
528	0	31	4.97383		-0.2223		275.295		0.8		0		-0.0066
529	0	31	5.02799		-0.2205		270.267		0.85		0		-0.0060
530	0	31	5.09106		-0.2176		265.176		0.9		0		-0.0055
531	0	31	5.16287		-0.2136		260.013		0.95		0		-0.0050
532	0	31	5.24325		-0.2086		254.770		1		0-		-0.0045
533	0	31	5.33204		-0.2027		249.438		1		0-		-0.0041
534	0	31	5.42907		-0.1961		244.009		1		0-		-0.0037
535	0	31	5.52425		-0.1888		238.485		1		0-		-0.0034
536	0	31	5.61761		-0.1809		232.867		1		0-		-0.0030
537	0	32	5.61761		-0.1725		235.014		1		0-		-0.0026
538	0	32	5.79902		-0.1638		229.215		1		0-		-0.0022
539	0	32	5.88714		-0.1547		223.328		1		0-		-0.0019
540	0	32	5.97357		-0.1454		217.354		1		0-		-0.0015
541	0	32	6.05836		-0.1345		211.296		1		0-		-0.0114
542	0	32	6.14152		-0.0962		205.155		1		0-		-0.2027
543	0	32	6.22310		-0.0077		198.931		1		0-		-0.5225
544	0	32	6.30312		0.15164		192.628		1		0-		
545	0	32	6.38161		0.39988		186.247		0.95		0		0.35798
546	0	32	6.45860		0.75261		179.788		0.9		0		0.26127
547	0	32	6.52418		1.22307		173.264		0.85		0		0.15644
548	0	32	6.57857		1.81872		166.685		0.8		0		0.10235
549	0	32	6.62198		2.54156		160.063		0.75		0		0.06993
550	0	32	6.65461		3.38857		153.409		0.7		0		0.04885
551	0	33	6.65461		4.35217		154.588		0.65		0		0.03440
552	0	33	6.68839		5.42073		147.900		0.6		0		0.02411
553	0	33	6.68993		6.57911		141.210		0.55		0		0.01656
554	0	33	6.68150		7.80921		134.529		0.5		0		0.01090
555	0	33	6.66329		9.09051		127.865		0.45		0		0.00655
556	0	33	6.63548		10.4006		121.230		0.25		0		0.00317
557	0	33	6.59827		11.7159		114.631		0.05		0		0.00049
558	0	33	6.52199		13.0119		108.109		0.1		0		-0.0016
559	0	33	6.40741		14.2536		101.702		0.15		0		-0.0041
560	0	33	6.30495		15.3984		95.3975		0.2		0		-0.0068
561	0	33	6.21439		16.4139		89.1831		0.25		0		-0.0083
