	0	0	0		0		400		1		0		0
1	0	0	0		0		400		1		0		0
2	0	0	0		0		400		1		0		0
3	0	0	0.20002		0		399.799		1		0		0
4	0	0	0.39634		0		399.403		1		0		0
5	0	0	0.58904		0		398.814		1		0		0
6	0	0	0.77818		0		398.036		1		0		0
7	0	0	0.96383		0		397.072		1		0		0
8	0	0	1.14605		0		395.926		1		0		0
9	0	0	1.32490		0		394.601		1		0		0
10	0	0	1.50045		0		393.101		1		0		0
11	0	0	1.67276		0		391.428		1		0		0
12	0	0	1.84188		0		389.586		1		0		0
13	0	0	2.00788		0		387.578		1		0		0
14	0	0	2.17081		0		385.407		1		0		0
15	0	0	2.33074		0		383.077		1		0		0
16	0	0	2.48771		0		380.589		1		0		0
17	0	0	2.64178		0		377.947		1		0		0
18	0	0	2.79300		0		375.154		1		0		0
19	0	0	2.94143		0		372.213		1		0		0
20	0	0	3.08712		0		369.125		1		0		0
21	0	0	3.23012		0		365.895		1		0		0
22	0	0	3.37048		0		362.525		1		0		0
23	0	0	3.50824		0		359.017		1		0		0
24	0	0	3.64346		0		355.373		1		0		0
25	0	0	3.77619		0		351.597		1		0		0
26	0	0	3.90646		0		347.691		1		0		0
27	0	0	4.03432		0		343.656		1		0		0
28	0	0	4.15982		0		339.496		1		0		0
29	0	0	4.28301		0		335.213		1		0		0
30	0	0	4.40392		0		330.809		1		0		0
31	0	0	4.52259		0		326.287		1		0		0
32	0	0	4.63908		0		321.648		1		0		0
33	0	0	4.75341		0		316.894		1		0		0
34	0	0	4.86563		0		312.029		1		0		0
35	0	0	4.97578		0		307.053		1		0		0
36	0	0	5.08389		0		301.969		1		0		0
37	0	1	5.08389		0		296.779		1		0		0
38	0	1	5.29416		0		291.485		1		0		0
39	0	1	5.39640		0		286.088		1		0		0
40	0	1	5.49674		0		280.592		1		0		0
41	0	1	5.59523		0		274.996		1		0		0
42	0	1	5.69190		0		269.305		1		0		0
43	0	1	5.78679		0		263.518		1		0		0
44	0	1	5.87992		0		257.638		1		0		0
45	0	1	5.97133		0		251.666		1		0		0
46	0	1	6.06106		0		245.605		1		0		0
47	0	1	6.14912		0		239.456		1		0		0
48	0	1	6.23556		0		233.221		1		0		0
49	0	1	6.32041		0		226.900		1		0		0
50	0	1	6.40368		0		220.497		1		0		0
51	0	1	6.48542		0		214.011		1		0		0
52	0	1	6.56565		0		207.446		1		0		0
53	0	1	6.64440		0		200.801		1		0		0
54	0	2	6.64440		0		194.079		1		0		0
55	0	2	6.79755		0		187.282		1		0		0
56	0	2	6.87202		0		180.410		1		0		0
57	0	2	6.94510		0		173.465		1		0		0
58	0	2	7.01684		0		166.448		1		0		0
59	0	2	7.08725		0		159.361		1		0		0
60	0	2	7.15637		0		152.204		1		0		0
61	0	2	7.22420		0		144.980		0		0		0
62	0	2	7.29078		0		137.689		0		0		0
63	0	2	7.35614		0		130.333		0		0		0
64	0	2	7.22026		0		123.113		0		0		0
65	0	2	7.08689		0		116.026		0		0		0
66	0	2	6.95599		0		109.070		0		0		0
67	0	2	6.82751		0		102.242		0		0		0
68	0	3	6.82751		0		95.5415		0		0		0
69	0	3	6.57761		0		88.9639		0		0		0
70	0	3	6.45612		0		82.5078		0		0		0
71	0	3	6.33687		0		76.1709		0		0		0
72	0	3	6.21982		0		69.9511		0		0		0
73	0	3	6.10493		0		63.8462		0		0		0
74	0	3	5.99217		0		57.8540		0		0		0
75	0	3	5.88148		0		51.9725		0		0		0
76	0	3	5.77285		0		46.1997		0		0		0
77	0	3	5.66622		0		40.5334		0		0		0
78	0	3	5.56156		0		34.9719		0		0		0
79	0	3	5.45883		0		29.5130		0		0		0
80	0	3	5.35800		0		24.1550		0		0		0
81	0	3	5.25903		0		18.8960		0		0		0
82	0	3	5.16189		0		13.7341		0		0		0
83	0	3	5.06654		0		8.66761		0		0		0
84	0	3	4.97296		0		3.69464		0.4		0		0
85	0	3	4.88110		0		-1.1864		0.4		0		0
86	0	4	4.88110		0		388.770		0.45		888		0
87	0	4	4.78246		0		383.987		0.5		888		0
88	0	4	4.77413		0		379.213		0.55		888		0
89	0	4	4.77596		0		374.437		0.6		888		0
90	0	4	4.78775		0		369.650		0.65		888		0
91	0	4	4.80933		0		364.840		0.7		888		0
92	0	4	4.84051		0		360.000		0.75		888		0
93	0	4	4.88111		0		355.119		0.8		888		0
94	0	4	4.93097		0		350.188		0.85		888		0
95	0	4	4.98990		0		345.198		0.9		888		0
96	0	4	5.05775		0		340.140		0.95		888		0
97	0	4	5.13434		0		335.006		1		888-		0
98	0	4	5.21953		0		329.786		1		888-		0
99	0	4	5.31314		0		324.473		1		888-		0
100	0	5	5.31314		0		311.206		1		888-		0
101	0	5	5.51502		0		305.691		1		888-		0
102	0	5	5.61317		0.01598		300.078		0.95		0		1
103	0	5	5.70951		0.07678		294.369		0.9		0		0.73710
104	0	5	5.79407		0.20849		288.574		0.85		0		0.53836
105	0	5	5.86707		0.43112		282.707		0.8		0		0.40837
106	0	5	5.93871		0.75877		276.769		0.75		0		0.24360
107	0	5	5.99904		1.20342		270.770		0.7		0		0.15421
108	0	5	6.04825		1.77146		264.721		0.65		0		0.10251
109	0	5	6.08654		2.46395		258.635		0.6		0		0.07026
110	0	5	6.11413		3.27715		252.521		0.55		0		0.04898
111	0	5	6.13121		4.20288		246.389		0.5		0		0.03434
112	0	6	6.13121		5.22910		232.400		0.45		0		0.02390
113	0	6	6.13461		6.34038		226.265		0.4		0		0.01626
114	0	6	6.13131		7.51844		220.134		0.35		0		0.01053
115	0	6	6.10807		8.74639		214.026		0.3		0		0.00663
116	0	6	6.07525		10.0014		207.951		0.1		0		0.00309
117	0	6	6.03305		11.2595		201.918		0.1		0		0.00030
118	0	6	5.98161		12.4960		195.936		0.15		888		-0.0019
119	0	6	5.89113		13.6861		190.045		0.2		888		-0.0037
120	0	6	5.80232		14.7951		184.242		0.25		888		-0.0059
121	0	6	5.72514		15.7943		178.517		0.3		888		-0.0074
122	0	6	5.65940		16.6632		172.858		0.35		888		-0.0082
123	0	6	5.60487		17.3886		167.253		0.4		888		-0.0086
124	0	7	5.60487		17.9636		153.840		0.45		888		-0.0086
125	0	7	5.52863		18.3865		148.311		0.5		888		-0.0084
126	0	7	5.50652		18.6601		142.805		0.55		888		-0.0081
127	0	7	5.48482		18.7914		137.320		0.6		888		-0.0076
128	0	7	5.46352		18.7874		131.856		0.65		888		-0.0071
129	0	7	5.44261		18.6560		126.414		0.7		888		-0.0067
130	0	7	5.45209		18.4108		120.962		0.75		888		-0.0060
131	0	7	5.47139		18.0646		115.490		0.8		888		-0.0054
132	0	7	5.50035		17.6322		109.990		0.85		888		-0.0047
133	0	7	5.53876		17.1334		104.451		0.9		888		-0.0037
134	0	7	5.58647		16.5891		98.8652		0.95		888		-0.0026
135	0	7	5.64330		16.0215		93.2219		1		888-		-0.0014
136	0	7	5.70908		15.4537		87.5128		1		888-		-8.8102
137	0	8	5.70908		14.9099		73.8775		0.8		0		0.00154
138	0	8	5.86684		14.3126		68.0107		1		888-		-0.0035
139	0	8	5.95849		13.6701		62.0522		1		888-		-0.0031
140	0	8	6.04845		12.9901		56.0037		1		888-		-0.0027
141	0	8	6.09675		12.2798		49.9070		1		888-		-0.0023
142	0	8	6.14415		11.5470		43.7628		1		888-		-0.0018
143	0	8	6.19068		10.7987		37.5721		1		888-		-0.0013
144	0	8	6.27635		10.0418		31.2958		1		888-		-0.0008
145	0	8	6.36044		9.28174		24.9353		1		888-		-0.0003
146	0	8	6.44298		8.52389		18.4924		0.95		0		0.00023
147	0	8	6.52399		7.77318		11.9684		0.9		0		0.00083
148	0	8	6.60351		7.03415		5.36489		0.85		0		0.00150
149	0	9	6.60351		6.31096		194.758		0.85		0		0.00225
150	0	9	6.74816		5.60738		188.010		0.85		0		0.00310
151	0	9	6.80353		4.92686		181.206		0.85		0		0.00411
152	0	9	6.84788		4.27249		174.359		0.85		0		0.00530
153	0	9	6.89141		3.64699		167.467		0.85		0		0.00675
154	0	9	6.93414		3.05262		160.533		0.85		0		0.00853
155	0	9	6.97607		2.49123		153.557		0.85		0		0.01080
156	0	9	7.01724		1.96425		146.540		0		0		0.01381
157	0	9	7.05764		1.47274		139.482		0		0		0.01805
158	0	9	7.09730		1.01739		132.385		0		0		0.02455
159	0	9	6.96620		0.59855		125.419		0		0		0.03588
160	0	9	6.83753		0.21638		118.581		0		0		0.06126
161	0	9	6.71123		-0.1294		111.870		0		0		
162	0	9	6.58727		-0.4395		105.282		0		0		-0.1150
163	0	10	6.58727		-0.7150		98.8174		0		0		-0.0787
164	0	10	6.34617		-0.9572		92.4712		0		0		-0.0466
165	0	10	6.22895		-1.1675		86.2422		0		0		-0.0332
166	0	10	6.11389		-1.3478		80.1283		0		0		-0.0258
167	0	10	6.00096		-1.4997		74.1274		0		0		-0.0210
168	0	10	5.89012		-1.6252		68.2372		0		0		-0.0176
169	0	10	5.78132		-1.7261		62.4559		0		0		-0.0150
170	0	10	5.67453		-1.8045		56.7814		0		0		-0.0130
171	0	10	5.56972		-1.8623		51.2117		0		0		-0.0114
172	0	10	5.46684		-1.9013		45.7448		0		0		-0.0100
173	0	10	5.36586		-1.9234		40.3790		0		0		-0.0088
174	0	10	5.26675		-1.9304		35.1122		0		0		-0.0078
175	0	10	5.16947		-1.9240		29.9427		0		0		-0.0069
176	0	10	5.07398		-1.9058		24.8687		0		0		-0.0061
177	0	10	4.98026		-1.8773		19.8885		0.4		0		-0.0053
178	0	10	4.88827		-1.8400		15.0002		0.4		0		-0.0047
179	0	10	4.79798		-1.7952		10.2022		0.4		0		-0.0040
180	0	10	4.78936		-1.7441		5.41291		0.4		0		-0.0035
181	0	10	4.78090		-1.6876		0.63200		0.4		0		-0.0030
182	0	11	4.78090		-1.6268		74.3968		0.45		888		-0.0026
183	0	11	4.76446		-1.5623		69.6324		0.5		888		-0.0022
184	0	11	4.75646		-1.4949		64.8759		0.55		888		-0.0018
185	0	11	4.74861		-1.4254		60.1273		0.6		888		-0.0014
186	0	11	4.76091		-1.3544		55.3664		0.65		888		-0.0010
187	0	11	4.78298		-1.2824		50.5834		0.7		888		-0.0007
188	0	11	4.81465		-1.2100		45.7687		0.75		888		-0.0003
189	0	11	4.85573		-1.1375		40.9130		0.8		888		-3.1366
190	0	11	4.91606		-1.0654		35.9969		0.75		0		0.00030
191	0	11	4.97527		-0.9939		31.0217		0.7		0		0.00062
192	0	11	5.04339		-0.9234		25.9783		0.65		0		0.00097
193	0	11	5.10024		-0.8541		20.8780		0.6		0		0.00133
194	0	11	5.14605		-0.7863		15.7320		0.55		0		0.00173
195	0	11	5.18101		-0.7202		10.5510		0.5		0		0.00218
196	0	11	5.20533		-0.6561		5.34567		0.45		0		0.00269
197	0	11	5.21919		-0.5941		0.12647		0.4		0		0.00326
198	0	12	5.21919		-0.5345		198.832		0.4		0		0.00390
199	0	12	5.21634		-0.4773		193.616		0.4		0		0.00463
200	0	12	5.19999		-0.4227		188.416		0.4		0		0.00546
201	0	12	5.18395		-0.3708		183.232		0.4		0		0.00641
202	0	12	5.16821		-0.3217		178.064		0.4		0		0.00750
203	0	12	5.15275		-0.2755		172.911		0.4		0		0.00879
204	0	12	5.13758		-0.2321		167.774		0.4		0		0.01034
205	0	12	5.12270		-0.1915		162.651		0.4		0		0.01227
206	0	12	5.10808		-0.1538		157.543		0.4		0		0.01476
207	0	12	5.09374		-0.1188		152.449		0.4		0		0.01813
208	0	12	5.07966		-0.0866		147.369		0.4		0		0.02301
209	0	12	5.06584		-0.0571		142.304		0.4		0		0.03079
210	0	12	5.05228		-0.0302		137.251		0.4		0		0.04532
211	0	12	5.03897		-0.0057		132.212		0.4		0		0.08281
212	0	12	5.02590		0.01624		127.186		0.4		0		
213	0	12	5.01308		0.03596		122.173		0.4		0		-0.1168
214	0	12	5.00049		0.05349		117.173		0.4		0		-0.0611
215	0	12	4.98813		0.06893		112.185		0.4		0		-0.0390
216	0	12	4.97600		0.08239		107.209		0.4		0		-0.0286
217	0	12	4.96410		0.09400		102.245		0.4		0		-0.0225
218	0	13	4.96410		0.10386		97.2926		0.4		0		-0.0185
219	0	13	4.94095		0.11209		92.3517		0.4		0		-0.0156
220	0	13	4.92969		0.11881		87.4220		0.4		0		-0.0135
221	0	13	4.91864		0.12413		82.5033		0.4		0		-0.0118
222	0	13	4.90780		0.12814		77.5955		0.4		0		-0.0104
223	0	13	4.89716		0.13098		72.6984		0.4		0		-0.0092
224	0	13	4.88671		0.13272		67.8117		0.4		0		-0.0082
225	0	13	4.87645		0.13348		62.9352		0.4		0		-0.0074
226	0	13	4.86639		0.13335		58.0688		0.4		0		-0.0066
227	0	13	4.85651		0.13243		53.2123		0.4		0		-0.0059
228	0	13	4.84681		0.13079		48.3655		0.4		0		-0.0053
229	0	13	4.83730		0.12852		43.5282		0.4		0		-0.0048
230	0	13	4.82795		0.12570		38.7002		0.4		0		-0.0042
231	0	13	4.81878		0.12241		33.8814		0.4		0		-0.0037
232	0	13	4.80979		0.11871		29.0716		0.4		0		-0.0033
233	0	13	4.80095		0.11466		24.2707		0.4		0		-0.0028
234	0	13	4.79228		0.11033		19.4784		0.4		0		-0.0024
235	0	13	4.78377		0.10577		14.6946		0.4		0		-0.0020
236	0	13	4.77542		0.10104		9.91923		0.4		0		-0.0016
237	0	13	4.76722		0.09618		5.15201		0.4		0		-0.0012
238	0	13	4.75917		0.09123		0.39283		0.4		0		-0.0009
239	0	14	4.75917		0.08623		311.851		0.45		888		-0.0005
240	0	14	4.74352		0.08122		307.108		0.5		888		-0.0001
241	0	14	4.73591		0.07623		302.372		0.45		0		0.00023
242	0	14	4.73844		0.07128		297.633		0.4		0		0.00062
243	0	14	4.75093		0.06641		292.883		0.35		0		0.00101
244	0	14	4.75318		0.06163		288.129		0.3		0		0.00139
245	0	14	4.74540		0.05697		283.384		0.25		0		0.00181
246	0	14	4.72775		0.05243		278.656		0.2		0		0.00226
247	0	14	4.70043		0.04803		273.956		0.15		0		0.00274
248	0	14	4.66361		0.04380		269.292		0.1		0		0.00327
249	0	14	4.61748		0.03973		264.675		0.05		0		0.00384
250	0	14	4.57219		0.03584		260.102		6.9388939039072E-17		0		0.00446
251	0	14	4.50774		0.03213		255.595		0.1		0		0.00514
252	0	14	4.43448		0.02861		251.160		0.05		0		0.00590
253	0	14	4.35257		0.02529		246.808		0		0		0.00674
254	0	15	4.35257		0.02216		234.664		0.1		0		0.00770
255	0	15	4.22289		0.01922		230.441		0.05		0		0.00875
256	0	15	4.14489		0.01648		226.296		0		0		0.00998
257	0	15	4.08833		0.01393		222.208		0.1		0		0.01145
258	0	15	4.02282		0.01156		218.185		0.05		0		0.01322
259	0	15	3.94851		0.00936		214.236		0		0		0.01547
260	0	15	3.89558		0.00735		210.341		0.1		0		0.01845
261	0	15	3.83363		0.00549		206.507		0.05		0		0.02258
262	0	15	3.76282		0.00380		202.744		0		0		0.02889
263	0	15	3.71331		0.00226		199.031		0.1		0		0.03979
264	0	15	3.65473		0.00086		195.376		0.05		0		0.06348
265	0	15	3.58722		-0.0003		191.789		0.1		888		
266	0	15	3.54096		-0.0015		188.248		0.15		888		-0.1128
267	0	15	3.48556		-0.0025		184.762		0.2		888		-0.0784
268	0	15	3.44118		-0.0034		181.321		0.25		888		-0.0441
269	0	15	3.39762		-0.0042		177.924		0.3		888		-0.0304
270	0	15	3.36486		-0.0049		174.559		0.35		888		-0.0230
271	0	15	3.34272		-0.0055		171.216		0.4		888		-0.0183
272	0	15	3.33098		-0.0060		167.885		0.45		888		-0.0151
273	0	16	3.33098		-0.0065		156.704		0.5		888		-0.0127
274	0	16	3.34797		-0.0068		153.356		0.55		888		-0.0110
275	0	16	3.37614		-0.0072		149.980		0.6		888		-0.0096
276	0	16	3.41378		-0.0074		146.566		0.65		888		-0.0085
277	0	16	3.46074		-0.0076		143.105		0.7		888		-0.0075
278	0	16	3.50683		-0.0077		139.598		0.75		888		-0.0068
279	0	16	3.57207		-0.0078		136.026		0.8		888		-0.0061
280	0	16	3.63610		-0.0079		132.390		0.85		888		-0.0056
281	0	16	3.69895		-0.0079		128.691		0.9		888		-0.0051
282	0	16	3.78064		-0.0078		124.911		0.95		888		-0.0046
283	0	16	3.87083		-0.0078		121.040		1		888-		-0.0043
284	0	16	3.96935		-0.0077		117.071		1		888-		-0.0039
285	0	16	4.07605		-0.0076		112.994		1		888-		-0.0037
286	0	16	4.20078		-0.0074		108.794		1		888-		-0.0034
287	0	16	4.32321		-0.0072		104.470		1		888-		-0.0032
288	0	16	4.44338		-0.0070		100.027		1		888-		-0.0029
289	0	16	4.56132		-0.0068		95.4662		1		888-		-0.0027
290	0	16	4.67709		-0.0066		90.7891		1		888-		-0.0025
291	0	17	4.67709		-0.0063		78.1467		1		888-		-0.0023
292	0	17	4.90225		-0.0061		73.2444		1		888-		-0.0020
293	0	17	5.01172		-0.0058		68.2327		1		888-		-0.0018
294	0	17	5.11917		-0.0055		63.1135		1		888-		-0.0015
295	0	17	5.22464		-0.0052		57.8889		1		888-		-0.0013
296	0	17	5.32815		-0.0049		52.5607		1		888-		-0.0010
297	0	17	5.42976		-0.0046		47.1310		1		888-		-0.0007
298	0	17	5.52949		-0.0043		41.6015		1		888-		-0.0003
299	0	17	5.62737		-0.0244		35.9741		0.95		0		1.01497
300	0	17	5.72345		-0.0934		30.2507		0.9		0		0.70829
301	0	17	5.81775		-0.2369		24.4329		0.85		0		0.51941
302	0	17	5.90031		-0.4780		18.5326		0.8		0		0.40458
303	0	17	5.97135		-0.8333		12.5612		0.75		0		0.23918
304	0	18	5.97135		-1.3139		98.6785		0.75		0		0.15024
305	0	18	6.07968		-1.7365		92.5988		0		0		-0.0441
306	0	18	6.11740		-2.1036		86.4814		0		0		-0.0319
307	0	18	6.15442		-2.4180		80.3270		0		0		-0.0250
308	0	18	6.04074		-2.6823		74.2862		0		0		-0.0206
309	0	18	5.92916		-2.8999		68.3571		0		0		-0.0174
310	0	18	5.81965		-3.0743		62.5374		0		0		-0.0149
311	0	18	5.71215		-3.2089		56.8252		0		0		-0.0129
312	0	18	5.60664		-3.3071		51.2186		0		0		-0.0113
313	0	18	5.50308		-3.3723		45.7155		0		0		-0.0099
314	0	18	5.40143		-3.4078		40.3141		0		0		-0.0088
315	0	18	5.30166		-3.4167		35.0124		0		0		-0.0077
316	0	18	5.20373		-3.4021		29.8087		0		0		-0.0068
317	0	18	5.10762		-3.3668		24.7010		0		0		-0.0060
318	0	18	5.01327		-3.3135		19.6878		0		0		-0.0053
319	0	18	4.92067		-3.2449		14.7671		0.4		0		-0.0046
320	0	18	4.82978		-3.1631		9.93735		0.4		0		-0.0040
321	0	18	4.74057		-3.0704		5.19677		0.4		0		-0.0034
322	0	18	4.73302		-2.9688		0.46375		0.4		0		-0.0029
323	0	19	4.73302		-2.8597		390.485		0.45		0		-0.0024
324	0	19	4.71832		-2.7447		385.767		0.5		0		-0.0020
325	0	19	4.71118		-2.6250		381.056		0.55		0		-0.0017
326	0	19	4.70417		-2.5018		376.352		0.6		0		-0.0013
327	0	19	4.70728		-2.3763		371.644		0.65		0		-0.0009
328	0	19	4.72035		-2.2493		366.924		0.7		0		-0.0005
329	0	19	4.74317		-2.1217		362.181		0.75		0		-0.0002
330	0	19	4.78557		-1.9943		357.395		0.7		0		8.39412
331	0	19	4.82719		-1.8677		352.568		0.65		0		0.00040
332	0	19	4.87804		-1.7425		347.690		0.6		0		0.00074
333	0	19	4.93795		-1.6192		342.752		0.55		0		0.00108
334	0	19	4.98676		-1.4982		337.765		0.5		0		0.00144
335	0	19	5.03466		-1.3800		332.731		0.45		0		0.00184
336	0	19	5.06168		-1.2649		327.669		0.4		0		0.00227
337	0	19	5.06820		-1.1534		322.601		0.35		0		0.00276
338	0	20	5.06820		-1.0456		309.685		0.3		0		0.00333
339	0	20	5.05105		-0.9421		304.634		0.25		0		0.00397
340	0	20	5.02776		-0.8429		299.606		0.2		0		0.00467
341	0	20	4.99490		-0.7484		294.611		0.15		0		0.00547
342	0	20	4.95264		-0.6586		289.658		0.1		0		0.00638
343	0	20	4.91117		-0.5737		284.747		0.05		0		0.00743
344	0	20	4.86046		-0.4938		279.887		6.9388939039072E-17		0		0.00865
345	0	20	4.80068		-0.4189		275.086		0.1		0		0.01010
346	0	20	4.73201		-0.3490		270.354		0.05		0		0.01187
347	0	20	4.64460		-0.2840		265.709		0		0		0.01412
348	0	20	4.55881		-0.2238		261.150		0.1		0		0.01707
349	0	20	4.48461		-0.1684		256.666		0.05		0		0.02116
350	0	20	4.40177		-0.1176		252.264		0		0		0.02728
351	0	20	4.34047		-0.0712		247.924		0.1		0		0.03768
352	0	20	4.27030		-0.0291		243.653		0.05		0		0.05965
353	0	21	4.27030		0.00892		231.610		0.1		0		
354	0	21	4.12400		0.04314		227.486		0.15		0		-0.1126
355	0	21	4.06783		0.07372		223.418		0.2		0		-0.0844
356	0	21	4.02269		0.10086		219.396		0.25		0		-0.0465
357	0	21	3.98840		0.12478		215.407		0.3		0		-0.0319
358	0	21	3.95473		0.14569		211.453		0.35		0		-0.0241
359	0	21	3.93169		0.16378		207.521		0.4		0		-0.0192
360	0	21	3.91907		0.17927		203.602		0.45		0		-0.0159
361	0	21	3.91669		0.19232		199.685		0.5		0		-0.0135
362	0	21	3.92435		0.20313		195.761		0.55		0		-0.0116
363	0	21	3.93187		0.21186		191.829		0.6		0		-0.0102
364	0	21	3.95926		0.21868		187.870		0.65		0		-0.0090
365	0	21	3.98614		0.22373		183.883		0.7		0		-0.0080
366	0	21	4.02252		0.22716		179.861		0.75		0		-0.0072
367	0	21	4.05823		0.22911		175.803		0.8		0		-0.0065
368	0	21	4.09328		0.22970		171.709		0.85		0		-0.0059
369	0	21	4.14769		0.22905		167.562		0.9		0		-0.0053
370	0	22	4.14769		0.22728		155.509		0.95		0		-0.0049
371	0	22	4.25351		0.22450		151.255		1		0-		-0.0044
372	0	22	4.33496		0.22080		146.920		1		0-		-0.0040
373	0	22	4.42490		0.21627		142.496		1		0-		-0.0037
374	0	22	4.52319		0.21101		137.972		1		0-		-0.0034
375	0	22	4.62966		0.20507		133.343		1		0-		-0.0031
376	0	22	4.74417		0.19854		128.598		1		0-		-0.0028
377	0	22	4.85656		0.19149		123.742		1		0-		-0.0026
378	0	22	4.96687		0.18398		118.775		1		0-		-0.0023
379	0	22	5.07515		0.17607		113.700		1		0-		-0.0021
380	0	22	5.18143		0.16785		108.518		1		0-		-0.0018
381	0	22	5.28574		0.15935		103.233		1		0-		-0.0015
382	0	22	5.38813		0.15066		97.8450		1		0-		-0.0012
383	0	22	5.48863		0.14181		92.3564		1		0-		-0.0009
384	0	22	5.58727		0.14084		86.7691		0.95		0		0.05544
385	0	23	5.58727		0.17734		73.2334		0.9		0		0.26610
386	0	23	5.77912		0.20893		67.4543		0.95		0		-0.0276
387	0	23	5.87239		0.23585		61.5819		1		0		-0.0223
388	0	23	5.96394		0.25835		55.6179		1		0-		-0.0187
389	0	23	6.05380		0.27667		49.5641		0		0		-0.0161
390	0	23	6.14200		0.29107		43.4221		0		0		-0.0141
391	0	23	6.21857		0.30179		37.2035		0		0		-0.0126
392	0	23	6.28373		0.30910		30.9198		0		0		-0.0113
393	0	23	6.35768		0.31324		24.5621		0		0		-0.0102
394	0	23	6.44027		0.31448		18.1218		0		0		-0.0092
395	0	23	6.52133		0.31307		11.6005		0		0		-0.0084
396	0	23	6.40088		0.30925		5.19964		0		0		-0.0077
397	0	24	6.40088		0.30333		73.5298		0.05		888		-0.0067
398	0	24	6.16660		0.29562		67.3632		0.1		888		-0.0059
399	0	24	6.05269		0.28641		61.3105		0.15		888		-0.0051
400	0	24	5.94089		0.27595		55.3696		0.2		888		-0.0043
401	0	24	5.83116		0.26448		49.5384		0.25		888		-0.0036
402	0	24	5.72345		0.25224		43.8149		0.3		888		-0.0029
403	0	24	5.61773		0.23941		38.1972		0.35		888		-0.0022
404	0	24	5.51397		0.22619		32.6832		0.4		888		-0.0016
405	0	24	5.41212		0.21273		27.2711		0.45		888		-0.0010
406	0	24	5.31215		0.19917		21.9590		0.5		888		-0.0004
407	0	24	5.23403		0.18565		16.7249		0.45		0		0.00016
408	0	24	5.16736		0.17227		11.5576		0.4		0		0.00074
409	0	24	5.10191		0.15911		6.45568		0.35		0		0.00130
410	0	24	5.04768		0.14625		1.40799		0.3		0		0.00189
411	0	24	5.00445		0.13376		-3.5964		0.25		0		0.00248
412	0	25	5.00445		0.12168		95.3408		0.25		0		0.00308
413	0	25	4.98982		0.11005		90.3509		0.25		0		0.00368
414	0	25	4.98766		0.09889		85.3633		0.25		0		0.00433
415	0	25	4.99555		0.08823		80.3677		0.25		0		0.00504
416	0	25	4.99328		0.07809		75.3744		0.25		0		0.00583
417	0	25	4.96106		0.06848		70.4134		0.25		0		0.00674
418	0	25	4.92943		0.05940		65.4839		0.25		0		0.00783
419	0	25	4.89838		0.05086		60.5855		0.25		0		0.00912
420	0	25	4.85791		0.04287		55.7276		0.25		0		0.01065
421	0	25	4.81818		0.03541		50.9094		0.25		0		0.01257
422	0	25	4.77919		0.02849		46.1302		0.25		0		0.01502
423	0	25	4.74092		0.02209		41.3893		0.25		0		0.01832
424	0	25	4.70336		0.01620		36.6860		0.25		0		0.02304
425	0	25	4.66649		0.01080		32.0195		0.25		0		0.03048
426	0	25	4.63030		0.00588		27.3892		0.25		0		0.04413
427	0	25	4.59477		0.00141		22.7944		0.25		0		0.07787
428	0	25	4.55991		-0.0026		18.2345		0.4		0		
429	0	25	4.52569		-0.0062		13.7088		0.4		0		-0.1156
430	0	25	4.49210		-0.0094		9.21672		0.4		0		-0.0637
431	0	25	4.45913		-0.0122		4.75758		0.4		0		-0.0396
432	0	25	4.42677		-0.0147		0.33081		0.4		0		-0.0287
433	0	26	4.42677		-0.0169		152.980		0.45		888		-0.0223
434	0	26	4.42329		-0.0187		148.557		0.5		888		-0.0182
435	0	26	4.42159		-0.0203		144.135		0.55		888		-0.0153
436	0	26	4.42993		-0.0215		139.705		0.6		888		-0.0131
437	0	26	4.44811		-0.0226		135.257		0.65		888		-0.0115
438	0	26	4.46596		-0.0234		130.791		0.7		888		-0.0101
439	0	26	4.49348		-0.0240		126.298		0.75		888		-0.0090
440	0	26	4.53050		-0.0244		121.767		0.8		888		-0.0081
441	0	26	4.57683		-0.0246		117.191		0.85		888		-0.0073
442	0	26	4.63230		-0.0247		112.558		0.9		888		-0.0066
443	0	26	4.69676		-0.0246		107.861		0.95		888		-0.0060
444	0	26	4.77002		-0.0244		103.091		1		888-		-0.0055
445	0	26	4.85193		-0.0240		98.2400		1		888-		-0.0050
446	0	26	4.94233		-0.0236		93.2977		1		888-		-0.0046
447	0	26	5.03106		-0.0230		88.2666		1		888-		-0.0042
448	0	27	5.03106		-0.0224		75.2868		1		888-		-0.0038
449	0	27	5.23345		-0.0216		70.0533		1		888-		-0.0035
450	0	27	5.33680		-0.0208		64.7165		1		888-		-0.0031
451	0	27	5.43824		-0.0200		59.2783		1		888-		-0.0028
452	0	27	5.53782		-0.0191		53.7404		1		888-		-0.0025
453	0	27	5.63555		0.00479		48.1049		1		888-		
454	0	27	5.73147		0.07994		42.3734		0.95		0		0.68151
455	0	27	5.82563		0.23175		36.5478		0.9		0		0.50499
456	0	27	5.91804		0.48295		30.6297		0.85		0		0.39568
457	0	27	6.00875		0.85361		24.6210		0.8		0		0.24734
458	0	27	6.09779		1.36115		18.5232		0.75		0		0.16034
459	0	27	6.17517		2.02041		12.3480		0.7		0		0.11146
460	0	28	6.17517		2.83994		60.2552		0		0		0.07932
461	0	28	6.29587		3.55536		53.9593		0		0		-0.0366
462	0	28	6.32959		4.17125		47.6297		0		0		-0.0279
463	0	28	6.35269		4.69256		41.2770		0		0		-0.0226
464	0	28	6.37537		5.12447		34.9017		0		0		-0.0190
465	0	28	6.39762		5.47235		28.5040		0		0		-0.0163
466	0	28	6.27945		5.74168		22.2246		0		0		-0.0143
467	0	28	6.16346		5.93901		16.0611		0		0		-0.0125
468	0	28	6.04962		6.07085		10.0115		0		0		-0.0110
469	0	28	5.93787		6.14360		4.07367		0		0		-0.0097
470	0	29	5.93787		6.16348		155.320		0.05		0		-0.0086
471	0	29	5.72054		6.13646		149.599		0.1		0		-0.0076
472	0	29	5.61488		6.06827		143.985		0.15		0		-0.0067
473	0	29	5.51116		5.96430		138.473		0.2		0		-0.0058
474	0	29	5.40937		5.82964		133.064		0.25		0		-0.0051
475	0	29	5.31945		5.66903		127.745		0.3		0		-0.0044
476	0	29	5.23120		5.48679		122.513		0.35		0		-0.0038
477	0	29	5.16457		5.28689		117.349		0.4		0		-0.0032
478	0	29	5.10918		5.07285		112.240		0.45		0		-0.0026
479	0	29	5.07482		4.84782		107.165		0.5		0		-0.0021
480	0	29	5.05109		4.61454		102.114		0.55		0		-0.0017
481	0	29	5.03780		4.37545		97.0763		0.6		0		-0.0012
482	0	29	5.04475		4.13272		92.0316		0.65		0		-0.0008
483	0	29	5.06158		3.88819		86.9700		0.7		0		-0.0004
484	0	29	5.08810		3.64353		81.8819		0.75		0		-3.8190
485	0	29	5.11413		3.40015		76.7677		0.7		0		0.00035
486	0	30	5.11413		3.15938		74.1086		0.65		0		0.00076
487	0	30	5.19458		2.92234		68.9140		0.6		0		0.00118
488	0	30	5.24864		2.69003		63.6654		0.55		0		0.00161
489	0	30	5.29171		2.46331		58.3737		0.5		0		0.00207
490	0	30	5.32398		2.24296		53.0497		0.45		0		0.00258
491	0	30	5.34565		2.02973		47.7040		0		0		0.00316
492	0	30	5.36693		1.82425		42.3371		0		0		0.00382
493	0	30	5.37780		1.62708		36.9593		0		0		0.00455
494	0	30	5.37848		1.43869		31.5808		0		0		0.00539
495	0	30	5.36914		1.25947		26.2116		0		0		0.00637
496	0	30	5.26997		1.08972		20.9417		0		0		0.00751
497	0	30	5.17263		0.92976		15.7690		0		0		0.00899
498	0	30	5.07708		0.77979		10.6919		0		0		0.01073
499	0	31	5.07708		0.63986		312.007		0.1		0		0.01288
500	0	31	4.89126		0.50995		307.115		0.05		0		0.01563
501	0	31	4.80091		0.38990		302.314		0		0		0.01936
502	0	31	4.71223		0.27952		297.602		0.1		0		0.02478
503	0	31	4.62519		0.17854		292.977		0.05		0		0.03359
504	0	31	4.55976		0.08662		288.417		0		0		0.05078
505	0	31	4.48554		0.00339		283.932		0.1		0		0.10041
506	0	31	4.42269		-0.0715		279.509		0.15		888		
507	0	31	4.36100		-0.1385		275.148		0.2		888		-0.1102
508	0	31	4.28045		-0.1981		270.867		0.25		888		-0.0538
509	0	31	4.22139		-0.2506		266.646		0.3		888		-0.0354
510	0	31	4.17341		-0.2966		262.473		0.35		888		-0.0262
511	0	31	4.13633		-0.3364		258.336		0.4		888		-0.0207
512	0	31	4.10993		-0.3706		254.226		0.45		888		-0.0170
513	0	31	4.09403		-0.3993		250.132		0.5		888		-0.0143
514	0	31	4.08841		-0.4232		246.044		0.55		888		-0.0123
515	0	31	4.08290		-0.4425		241.961		0.6		888		-0.0107
516	0	31	4.09750		-0.4577		237.863		0.65		888		-0.0094
517	0	31	4.11182		-0.4689		233.752		0.7		888		-0.0084
518	0	31	4.13588		-0.4767		229.616		0.75		888		-0.0075
519	0	32	4.13588		-0.4812		233.303		0.8		888		-0.0067
520	0	32	4.21250		-0.4827		229.090		0.85		888		-0.0061
521	0	32	4.26470		-0.4816		224.825		0.9		888		-0.0055
522	0	32	4.32594		-0.4779		220.499		0.95		888		-0.0050
523	0	32	4.38605		-0.4721		216.113		1		888-		-0.0046
524	0	32	4.45505		-0.4643		211.658		1		888-		-0.0042
525	0	32	4.53278		-0.4546		207.126		1		888-		-0.0038
526	0	32	4.61907		-0.4434		202.506		1		888-		-0.0035
527	0	32	4.71377		-0.4307		197.793		1		888-		-0.0032
528	0	32	4.81672		-0.4167		192.976		1		888-		-0.0029
529	0	32	4.92777		-0.4017		188.048		1		888-		-0.0026
530	0	32	5.03677		-0.3856		183.011		1		888-		-0.0024
531	0	32	5.14376		-0.3688		177.868		1		888-		-0.0021
532	0	32	5.24877		-0.3512		172.619		1		888-		-0.0018
533	0	32	5.35184		-0.3331		167.267		1		888-		-0.0015
534	0	32	5.45301		-0.3146		161.814		1		888-		-0.0012
535	0	32	5.55231		-0.2958		156.262		1		888-		-0.0009
536	0	32	5.64977		-0.2768		150.612		1		888-		-0.0005
537	0	33	5.64977		-0.2578		152.723		1		888-		-0.0002
538	0	33	5.83933		-0.2388		146.883		0.95		0		0.00020
539	0	33	5.93149		-0.2200		140.952		0.9		0		0.00065
540	0	33	6.02195		-0.2014		134.930		0.85		0		0.00114
541	0	33	6.11074		-0.1831		128.819		0.8		0		0.00169
542	0	33	6.19789		-0.1435		122.621		0.85		888		-0.1170
543	0	33	6.28343		-0.0577		116.338		0.9		888		-0.3215
544	0	33	6.35739		0.09637		109.980		0.95		888		
545	0	33	6.41998		0.33491		103.560		0.9		0		0.35409
546	0	33	6.47141		0.66850		97.0895		0.85		0		0.28380
547	0	33	6.51190		1.10242		90.5776		0.8		0		0.15009
548	0	33	6.56163		1.63705		84.0160		0.75		0		0.09134
549	0	33	6.62045		2.27524		77.3955		0.7		0		0.06326
550	0	33	6.68819		3.02210		70.7073		0.65		0		0.04776
551	0	34	6.68819		3.88480		71.8190		0.6		0		0.03832
552	0	34	6.80010		4.86502		65.0189		0.55		0		0.03024
553	0	34	6.84452		5.96306		58.1743		0.5		0		0.02422
554	0	34	6.87811		7.17427		51.2962		0.45		0		0.01897
555	0	34	6.90108		8.48949		44.3951		0.4		0		0.01449
556	0	34	6.91362		9.89560		37.4815		0.35		0		0.01070
557	0	34	6.90593		11.3760		30.5756		0.15		0		0.00751
558	0	34	6.89839		12.9078		23.6772		0.1		0		0.00450
559	0	34	6.89098		14.4696		16.7862		0.1		0		0.00233
560	0	34	6.86371		16.0424		9.92253		0.1		0		0.00075
561	0	34	6.82693		17.6016		3.09559		0.35		090		-0.0008
562	0	34	6.78084		19.1220		-3.6852		0.6		090		-0.0022
563	0	35	6.78084		20.5782		887.445		0.6		888		-0.0033
564	0	35	6.63137		21.7158		880.814		0.6		888		-0.0154
565	0	35	6.52889		22.5597		874.285		0.6		888		-0.0135
566	0	35	6.42829		23.1350		867.856		0.6		888		-0.0119
567	0	35	6.32956		23.4669		861.527		0.6		888		-0.0105
568	0	35	6.23265		23.5800		855.294		0.6		888		-0.0093
569	0	35	6.13753		23.4980		849.157		0.6		888		-0.0082
570	0	35	6.14417		23.2440		843.012		0.6		888		-0.0073
571	0	35	6.15069		22.8369		836.862		0.6		888		-0.0065
572	0	35	6.15710		22.2948		830.705		0.6		888		-0.0059
573	0	35	6.16338		21.6354		824.541		0.6		888		-0.0052
574	0	35	6.16955		20.8753		818.372		0.6		888		-0.0046
575	0	35	6.17560		20.0302		812.196		0.6		888		-0.0040
576	0	35	6.18155		19.1149		806.015		0.6		888		-0.0035
577	0	35	6.18738		18.1435		799.827		0.6		888		-0.0029
578	0	35	6.19311		17.1289		793.634		0.6		888		-0.0023
579	0	36	6.19311		16.0832		787.435		0.6		888		-0.0018
580	0	36	6.20424		15.0174		781.231		0.6		888		-0.0012
581	0	36	6.20965		13.9417		775.021		0.6		888		-0.0006
582	0	36	6.21497		12.8654		768.806		0.6		888		-4.6619
583	0	36	6.22018		11.7968		762.586		0.6		0		0.00059
584	0	36	6.22530		10.7433		756.361		0.6		0		0.00128
585	0	36	6.23033		9.71157		750.131		0.6		0		0.00202
586	0	36	6.23526		8.70736		743.895		0.6		0		0.00283
587	0	36	6.24010		7.73571		737.655		0.6		0		0.00373
588	0	36	6.24485		6.80089		731.410		0.6		0		0.00476
589	0	36	6.24951		5.90646		725.161		0.6		0		0.00593
590	0	36	6.25409		5.05533		718.907		0.6		0		0.00733
591	0	36	6.25858		4.24979		712.648		0.6		0		0.00901
592	0	36	6.26299		3.49156		706.385		0.6		0		0.01113
593	0	36	6.26732		2.78182		700.118		0.6		0		0.01388
594	0	36	6.27157		2.12126		693.846		0.6		0		0.01767
595	0	37	6.27157		1.51012		687.571		0.6		0		0.02330
596	0	37	6.27983		0.94826		681.291		0.6		0		0.03262
597	0	37	6.28385		0.43513		675.007		0.6		0		0.05140
598	0	37	6.28780		-0.0300		668.719		0.6		888		
599	0	37	6.29167		-0.4485		662.427		0.6		888		-0.1117
600	0	37	6.29546		-0.8216		656.132		0.6		888		-0.1011
601	0	37	6.29919		-1.1509		649.833		0.6		t-1		-0.0532
602	0	37	6.30285		-1.4383		643.530		1		t-1		-0.0364
603	0	37	6.30645		-1.6855		637.223		1		t-1		-0.0278
604	0	37	6.30997		-1.8948		630.913		1		t-1		-0.0225
605	0	37	6.31343		-2.0681		624.600		1		t-1		-0.0189
606	0	37	6.31683		-2.2079		618.283		1		t-1		-0.0162
607	0	37	6.32016		-2.3162		611.963		1		t-1		-0.0142
608	0	37	6.32343		-2.3954		605.640		1		t-1		-0.0125
609	0	37	6.32665		-2.4477		599.313		1		t-1		-0.0112
610	0	37	6.40981		-2.4754		592.903		1		t-1		-0.0100
611	0	38	6.40981		-2.4806		586.412		1		t-1		-0.0091
612	0	38	6.57155		-2.4650		579.840		1		t-1		-0.0083
613	0	38	6.65019		-2.4308		573.190		1		t-1		-0.0075
614	0	38	6.72737		-2.3798		566.462		1		t-1		-0.0069
615	0	38	6.80313		-2.3139		559.659		1		t-1		-0.0062
616	0	38	6.87749		-2.2349		552.782		1		t-1		-0.0056
617	0	38	6.95048		-2.1446		545.831		1		t-1		-0.0050
618	0	38	7.02212		-2.0447		538.809		1		t-1		-0.0044
619	0	38	7.09243		-1.9368		531.717		1		t-1		-0.0038
620	0	38	7.16145		-1.8226		524.555		1		t-1		-0.0032
621	0	38	7.22919		-1.7034		517.326		1		t-1		-0.0026
622	0	38	7.29568		-1.5808		510.030		1		t-1		-0.0020
623	0	38	7.36094		-1.4560		502.670		1		t-1		-0.0013
624	0	38	7.42500		-1.3303		495.245		1		t-1		-0.0006
625	0	39	7.42500		-1.2049		487.757		1		t-1		0.00016
626	0	39	7.54958		-1.0807		480.207		1		t-1		0.00105
627	0	39	7.61016		-0.9587		472.597		1		t-1		0.00205
628	0	39	7.66961		-0.8398		464.927		1		t-1		0.00321
629	0	39	7.72797		-0.7247		457.199		1		t-1		0.00457
630	0	39	7.78524		-0.6141		449.414		1		t-1		0.00621
631	0	39	7.84146		-0.5087		441.573		1		t-1		0.00826
632	0	39	7.89664		-0.4087		433.676		1		t-1		0.01093
633	0	39	7.95080		-0.3148		425.725		1		t-1		0.01457
634	0	39	8.00397		-0.2271		417.721		1		t-1		0.01990
635	0	39	8.05614		-0.1459		409.665		1		t-1		0.02860
636	0	39	8.10736		-0.0713		401.558		1		t-1		0.04557
637	1	0	8.10736		-0.0035		393.400		1		t-1		0.09429
638	1	0	8.20697		0.05750		385.193		1		t-1		
639	1	0	8.25540		0.11187		376.938		1		t-1		-0.1164
640	1	0	8.30294		0.15965		368.635		1		t-1		-0.0589
641	1	0	8.34959		0.20100		360.285		1		t-1		-0.0403
642	1	0	8.39539		0.23612		351.890		1		t-1		-0.0310
643	1	0	8.44034		0.26524		343.449		1		t-1		-0.0253
644	1	0	8.48446		0.28866		334.965		1		t-1		-0.0215
645	1	0	8.52776		0.30667		326.437		1		t-1		-0.0187
646	1	0	8.57026		0.31961		317.867		1		t-1		-0.0165
647	1	0	8.61198		0.32783		309.255		1		t-1		-0.0147
648	1	0	8.65293		0.33171		300.602		1		t-1		-0.0132
649	1	1	8.65293		0.33160		291.909		1		0		-0.0119

Turbine !!
650	1	1	8.73257		0.32791		283.176		1		0		-0.0108
651	1	1	8.77130		0.32100		274.405		1		0		-0.0097
652	1	1	8.80930		0.31126		265.596		1		0		-0.0088
653	1	1	8.84661		0.29908		256.749		1		0		-0.0078
654	1	1	8.88322		0.28480		247.866		0.2		0		-0.0069
655	1	1	9.31920		0.26879		238.547		0.2		0		-0.0060
656	1	1	9.74713		0.25124		228.799		0.2		0		-0.0056
657	1	1	10.1671		0.23239		218.632		0.2		0		-0.0052
658	1	1	10.5794		0.21248		208.053		0		0		-0.0045
659	1	2	10.5794		0.19174		197.069		0		0		-0.0038
660	1	2	10.9011		0.17045		186.168		0		0		-0.0029
661	1	2	10.8198		0.14896		175.348		0		0		-0.0011
662	1	2	10.6199		0.12760		164.728		0		0		0.00090
663	1	2	10.4238		0.10669		154.304		0.2		0		0.00345
664	1	2	10.2312		0.08648		144.073		0.2		0		0.00657
665	1	2	10.0423		0.06718		134.030		0.2		0		0.01058
666	1	2	9.85682		0.04897		124.173		0.2		0		0.01616
667	1	2	9.67475		0.03198		114.499		0.2		0		0.02485
668	1	2	9.49605		0.01630		105.003		0.2		0		0.04103
669	1	3	9.49605		0.00199		95.5625		0.2		0		0.08429
670	1	3	9.38629		-0.0108		86.1762		0.2		0		
671	1	3	9.33293		-0.0223		76.8432		0.2		0		-0.1234
672	1	3	9.28055		-0.0324		67.5627		0.2		0		-0.0629
673	1	3	9.22914		-0.0411		58.3335		0.2		0		-0.0426
674	1	3	9.17869		-0.0484		49.1548		0.2		0		-0.0326
675	1	3	9.12916		-0.0545		40.0257		0.2		0		-0.0266
676	1	3	9.08054		-0.0593		30.9451		0.2		0		-0.0225
677	1	3	9.03283		-0.0630		21.9123		0.2		0		-0.0194
678	1	3	8.98600		-0.0656		12.9263		0.2		0		-0.0171
679	1	3	8.94003		-0.0672		3.98630		0.2		0		-0.0151
680	1	4	8.94003		-0.0679		389.839		0.25		888		-0.0135
681	1	4	8.85062		1.60919		380.988		0.3		888		
682	1	4	8.80716		4.74786		372.181		0.25		0		0.46566
683	1	4	8.76449		9.13836		363.416		0.2		0		0.26366
684	1	4	8.75262		14.5792		354.664		0		0		0.11494
685	1	4	8.77097		20.8983		345.893		0.1		0		0.06023
686	1	4	8.65896		27.9502		337.234		0.1		0		0.03506
687	1	4	8.54903		35.5147		328.685		0.1		0		0.01833
688	1	5	8.54903		43.3925		312.402		0.1		0		0.00882
689	1	5	8.27539		51.4000		304.127		0.1		0		0.00298
690	1	5	8.14254		59.3537		295.984		0.15		0		-0.0010
691	1	5	0		0		295.984		1		888		-1.1340
692	1	5	0		0		295.984		1		888		
693	1	5	0		0		295.984		1		888		0
694	1	5	0		0		295.984		1		888		0
695	1	5	0		0		295.984		1		888		0
696	1	5	0		0		295.984		1		888		0
697	1	5	0		0		295.984		1		888		0
698	1	5	0		0		295.984		1		888		0
699	1	5	0		0		295.984		1		888		0
700	1	5	0		0		295.984		1		888		0
701	1	5	0		0		295.984		1		888		0
702	1	5	0		0		295.984		1		888		0
703	1	5	0		0		295.984		1		888		0
704	1	5	0		0		295.984		1		888		0
705	1	5	0		0		295.984		1		888		0
706	1	5	0		0		295.984		1		888		0
707	1	5	0		0		295.984		1		888		0
708	1	5	0		0		295.984		1		888		0
709	1	5	0		0		295.984		1		888		0
710	1	5	0		0		295.984		1		888		0
711	1	5	0		0		295.984		1		888		0
712	1	5	0		0		295.984		1		888		0
713	1	5	0		0		295.984		1		888		0
714	1	5	0		0		295.984		1		888		0
715	1	5	0		0		295.984		1		888		0
716	1	5	0		0		295.984		1		888		0
717	1	5	0		0		295.984		1		888		0
718	1	5	0		0		295.984		1		888		0
719	1	5	0		0		295.984		1		888		0
720	1	5	0		0		295.984		1		888		0
