	0	0	0	0	0	1	0	0
1	0	0	0	0	0	1	0	0
2	0	0	0.20413	0	0.20413	1	0	0
3	0	0	0.40407	0	0.60821	1	0	0
4	0	0	0.59989	0	1.20810	1	0	0
5	0	0	0.79167	0	1.99978	1	0	0
6	0	0	0.97951	0	2.97929	1	0	0
7	0	0	1.16348	0	4.14277	1	0	0
8	0	0	1.34366	0	5.48644	1	0	0
9	0	0	1.52012	0	7.00656	1	0	0
10	0	0	1.69296	0	8.69953	1	0	0
11	0	0	1.86223	0	10.5617	1	0	0
12	0	0	2.02802	0	12.5897	1	0	0
13	0	0	2.19040	0	14.7801	1	0	0
14	0	0	2.34943	0	17.1296	1	0	0
15	0	0	2.50518	0	19.6348	1	0	0
16	0	0	2.65773	0	22.2925	1	0	0
17	0	0	2.80714	0	25.0997	1	0	0
18	0	0	2.95347	0	28.0531	1	0	0
19	0	0	3.09678	0	31.1499	1	0	0
20	0	0	3.23715	0	34.3871	1	0	0
21	0	0	3.37462	0	37.7617	1	0	0
22	0	0	3.50927	0	41.2710	1	0	0
23	0	0	3.64114	0	44.9121	1	0	0
24	0	0	3.77029	0	48.6824	1	0	0
25	0	0	3.89679	0	52.5792	1	0	0
26	0	0	4.02068	0	56.5999	1	0	0
27	0	0	4.14202	0	60.7419	1	0	0
28	0	0	4.26086	0	65.0028	1	0	0
29	0	0	4.37725	0	69.3800	1	0	0
30	0	0	4.49124	0	73.8713	1	0	0
31	0	0	4.60289	0	78.4742	1	0	0
32	0	0	4.71224	0	83.1864	1	0	0
33	0	0	4.81934	0	88.0058	1	0	0
34	0	0	4.92423	0	92.9300	1	0	0
35	0	0	5.02696	0	97.9570	1	0	0
36	0	1	5.02696	0	3.08458	1	0	0
37	0	1	5.22612	0	8.31070	1	0	0
38	0	1	5.32263	0	13.6333	1	0	0
39	0	1	5.41716	0	19.0505	1	0	0
40	0	1	5.50974	0	24.5602	1	0	0
41	0	1	5.60041	0	30.1606	1	0	0
42	0	1	5.68922	0	35.8498	1	0	0
43	0	1	5.77620	0	41.6260	1	0	0
44	0	1	5.86138	0	47.4874	1	0	0
45	0	1	5.94481	0	53.4322	1	0	0
46	0	1	6.02653	0	59.4588	1	0	0
47	0	1	6.10656	0	65.5653	1	0	0
48	0	1	6.18494	0	71.7503	1	0	0
49	0	1	6.26171	0	78.0120	1	0	0
50	0	1	6.33690	0	84.3489	1	0	0
51	0	1	6.41054	0	90.7594	1	0	0
52	0	1	6.48266	0	97.2421	1	0	0
53	0	2	6.48266	0	3.79545	1	0	0
54	0	2	6.62248	0	10.4179	1	0	0
55	0	2	6.69024	0	17.1081	1	0	0
56	0	2	6.75660	0	23.8647	1	0	0
57	0	2	6.82159	0	30.6863	1	0	0
58	0	2	6.88525	0	37.5716	1	0	0
59	0	2	6.94760	0	44.5192	1	0	0
60	0	2	7.00866	0	51.5279	1	0	0
61	0	2	7.06847	0	58.5963	1	0	0
62	0	2	7.12704	0	65.7234	1	0	0
63	0	2	7.18441	0	72.9078	1	0	0
64	0	2	7.24059	0	80.1484	1	0	0
65	0	2	7.29562	0	87.4440	1	0	0
66	0	2	7.34952	0	94.7935	1	0	0
67	0	3	7.34952	0	2.19588	1	0	0
68	0	3	7.45400	0	9.64988	1	0	0
69	0	3	7.50463	0	17.1545	0	0	0
70	0	3	7.55422	0	24.7087	0	0	0
71	0	3	7.39866	0	32.1074	0	0	0
72	0	3	7.24629	0	39.3537	0	0	0
73	0	3	7.09706	0	46.4507	0	0	0
74	0	3	6.95091	0	53.4016	0	0	0
75	0	3	6.80776	0	60.2094	0	0	0
76	0	3	6.66756	0	66.8770	0	0	0
77	0	3	6.53025	0	73.4072	0	0	0
78	0	3	6.39577	0	79.8030	0	0	0
79	0	3	6.26406	0	86.0671	0	0	0
80	0	3	6.13506	0	92.2021	0	0	0
81	0	3	6.00872	0	98.2109	0	0	0
82	0	4	6.00872	0	2.03561	1	090	0
83	0	4	5.76378	0.14202	7.79939	0.95	0	1
84	0	4	5.84922	0.36944	13.6486	1	090	-0.2489
85	0	4	5.92270	0.70106	19.5713	0.95	0	0.05088
86	0	4	6.00487	1.14957	25.5761	0.9	0	0.01809
87	0	4	6.07514	1.72917	31.6513	0.85	0	0.01235
88	0	4	6.13375	2.44792	37.7850	0.8	0	0.00466
89	0	4	6.18095	3.30810	43.9660	0.75	0	0.00093
90	0	4	6.21698	4.30663	50.1830	1	090	-0.0009
91	0	4	6.24205	5.43556	56.4250	1	090	-0.0018
92	0	4	6.31764	6.68259	62.7427	1	090	-0.0022
93	0	4	6.39168	8.05516	69.1344	0.95	0	0.00111
94	0	5	6.39168	9.55874	4.91277	0.9	0	0.00067
95	0	5	6.52500	11.1969	11.4377	0.85	0	0.00037
96	0	5	6.57435	12.9675	18.0121	1	090	-0.0002
97	0	5	6.61248	14.8627	24.6246	1	090	-0.0005
98	0	5	6.68044	16.8701	31.3050	1	090	-0.0008
99	0	5	6.74701	18.9898	38.0520	0.8	0	7.59777
100	0	5	6.81220	21.2205	44.8642	1	090	-6.5899
101	0	5	6.83522	23.5597	51.6995	1	090	-0.0001
102	0	5	6.89860	25.9865	58.5981	1	090	-0.0008
103	0	5	6.96067	28.4981	65.5587	1	090	-0.0001
104	0	6	6.96067	31.0909	1.89442	1.1	888	-0.0001
105	0	6	7.08101	33.7606	8.97544	1.2	888	-0.0001
106	0	6	7.13932	36.5018	16.1147	1.3	888	-0.0001
107	0	6	7.19644	39.3087	23.3112	1.4	888	-0.0001
108	0	6	7.25237	42.1748	30.5635	1.5	888	-0.0001
109	0	6	7.30716	45.0931	37.8707	1.6	888	-0.0001
110	0	6	7.36082	48.0565	45.2315	1.7	888	-0.0001
111	0	6	7.41337	51.0573	52.6449	1.75	0	-0.0001
112	0	6	7.46484	54.0879	60.1097	1.8	0	-0.0001
113	0	6	7.51525	57.1405	67.6250	1.85	0	-0.0001
114	0	6	0	0	67.6250	1	090	-1.0538
115	0	6	0	0	67.6250	1	090	
116	0	6	0	0	67.6250	1	090	
117	0	6	0	0	67.6250	1	090	0
118	0	6	0	0	67.6250	1	090	0
119	0	6	0	0	67.6250	1	090	0
120	0	6	0	0	67.6250	1	090	0
121	0	6	0	0	67.6250	1	090	0
