			0				1		0		0%			
1	0	0	0		0		1		0-		55%			
2	0	0	0.2064743		0		1		0-		55%			
3	0	0	0.4086957		0		1		0-		55%			
4	0	0	0.6067517		0		1		0-		55%			
5	0	0	0.8007281		0		1		0-		55%			
6	0	0	0.9907090		0		1		0-		55%			
7	0	0	1.1767767		0		1		0-		55%			
8	0	0	1.3590117		0		1		0-		55%			
9	0	0	1.5374930		0		1		0-		55%			
10	0	0	1.7122980		0		1		0-		56%			
11	0	0	1.8835023		0		1		0-		56%			
12	0	0	2.0511801		0		1		0-		56%			
13	0	0	2.2154041		0		1		0-		56%			
14	0	0	2.3762454		0		1		0-		57%			
15	0	0	2.5337737		0		1		0-		57%			
16	0	0	2.6880571		0		1		0-		57%			
17	0	0	2.8391627		0		1		0-		57%			
18	0	0	2.9871558		0		1		0-		58%			
19	0	0	3.1321004		0		1		0-		58%			
20	0	0	3.2740596		0		1		0-		58%			
21	0	0	3.4130946		0		1		0-		59%			
22	0	0	3.5492657		0		1		0-		59%			
23	0	0	3.6826321		0		0.504375		0		60%			
24	0	0	3.7109174		0		0.504375		0		60%			
25	0	0	3.7386202		0		0.504375		0		60%			
26	0	0	3.7657523		0		0.504375		0		61%			
27	0	0	3.7923255		0		0.504375		0		61%			
28	0	0	3.8183514		0		0.504375		0		62%			
29	0	0	3.8438412		0		0.504375		0		62%			
30	0	0	3.8688060		0		0.504375		0		63%			
31	0	0	3.8932565		0		0.504375		0		63%			
32	0	0	3.9172034		0		0.504375		0		64%			
33	0	0	3.9406571		0		0.504375		0		64%			
34	0	0	3.9636276		0		0.504375		0		64%			
35	0	0	3.9861250		0		0.504375		0		65%			
36	0	0	4.0081590		0		0.504375		0		65%			
37	0	0	4.0297391		0		0.504375		0		66%			
38	0	1	4.0297391		0		0.504375		0		66%			
39	0	1	4.0715750		0		0.504375		0		67%			
40	0	1	4.0918489		0		0.504375		0		67%			
41	0	1	4.1117052		0		0.504375		0		68%			
42	0	1	4.1311525		0		0.504375		0		68%			
43	0	1	4.1501992		0		0.504375		0		69%			
44	0	1	4.1688536		0		0.504375		0		69%			
45	0	1	4.1871237		0		0.504375		0		69%			
46	0	1	4.2050175		0		0.504375		0		70%			
47	0	1	4.2225428		0		0.504375		0		70%			
48	0	1	4.2397070		0		0.504375		0		71%			
49	0	1	4.2565177		0		0.504375		0		71%			
50	0	1	4.2729821		0		0.504375		0		72%			
51	0	1	4.2891074		0		0.504375		0		72%			
52	0	1	4.3049005		0		0.504375		0		73%			
53	0	1	4.3203684		0		0.504375		0		73%			
54	0	1	4.3355176		0		0.504375		0		74%			
55	0	1	4.3503548		0		0.504375		0		74%			
56	0	1	4.3648863		0		0.504375		0		75%			
57	0	1	4.3791186		0		0.504375		0		75%			
58	0	1	4.3930577		0		0.504375		0		76%			
59	0	1	4.4067096		0		0.504375		0		76%			
60	0	1	4.4200804		0		0.504375		0		77%			
61	0	2	4.4200804		0		0.504375		0		77%			
62	0	2	4.4460013		0		0.504375		0		78%			
63	0	2	4.4585628		0		0.504375		0		78%			
64	0	2	4.4708654		0		0.504375		0		79%			
65	0	2	4.4829147		0		0.504375		0		79%			
66	0	2	4.4947158		0		0.504375		0		80%			
67	0	2	4.5062738		0		0.504375		0		80%			
68	0	2	4.5175937		0		0.504375		0		81%			
69	0	2	4.5286805		0		0.504375		0		81%			
70	0	2	4.5395389		0		0.504375		0		82%			
71	0	2	4.5501736		0		0.504375		0		82%			
72	0	2	4.5605893		0		0.504375		0		83%			
73	0	2	4.5707904		0		0.504375		0		83%			
74	0	2	4.5807814		0		0.504375		0		84%			
75	0	2	4.5905666		0		0.504375		0		84%			
76	0	2	4.6001503		0		0.504375		0		85%			
77	0	2	4.6095366		0		0.504375		0		85%			
78	0	2	4.6187295		0		0.504375		0		86%			
79	0	2	4.6277330		0		0.504375		0		86%			
80	0	2	4.6365511		0		0.504375		0		87%			
81	0	2	4.6451876		0		0.504375		0		87%			
82	0	2	4.6536462		0		0.504375		0		88%			
83	0	3	4.6536462		0		0.504375		0		89%			
84	0	3	4.6700442		0		0.504375		0		89%			
85	0	3	4.6779908		0		0.504375		0		90%			
86	0	3	4.6857737		0		0.504375		0		90%			
87	0	3	4.6933962		0		0.504375		0		91%			
88	0	3	4.7008618		0		0.504375		0		91%			
89	0	3	4.7081736		0		0.504375		0		92%			
90	0	3	4.7153348		0		0.504375		0		92%			
91	0	3	4.7223485		0		0.504375		0		93%			
92	0	3	4.7292177		0		0.504375		0		93%			
93	0	3	4.7359454		0		0.504375		0		94%			
94	0	3	4.7425345		0		0.504375		0		94%			
95	0	3	4.7489879		0		0.504375		0		95%			
96	0	3	4.7553084		0		0.504375		0		95%			
97	0	3	4.7614987		0		0.504375		0		96%			
98	0	3	4.7675615		0		0.504375		0		96%			
