	0	0	0		0		400		1		0		0
1	0	0	0		0		400		1		0		0
2	0	0	0		0		400		1		0		0
3	0	0	0.20513		0		399.794		1		0		0
4	0	0	0.40595		0		399.388		1		0		0
5	0	0	0.60255		0		398.786		1		0		0
6	0	0	0.79502		0		397.991		1		0		0
7	0	0	0.98343		0		397.007		1		0		0
8	0	0	1.16789		0		395.839		1		0		0
9	0	0	1.34847		0		394.491		1		0		0
10	0	0	1.52525		0		392.966		1		0		0
11	0	0	1.69831		0		391.267		1		0		0
12	0	0	1.86773		0		389.400		1		0		0
13	0	0	2.03360		0		387.366		1		0		0
14	0	0	2.19597		0		385.170		1		0		0
15	0	0	2.35493		0		382.815		1		0		0
16	0	0	2.51054		0		380.305		1		0		0
17	0	0	2.66289		0		377.642		1		0		0
18	0	0	2.81203		0		374.830		1		0		0
19	0	0	2.95804		0		371.872		1		0		0
20	0	0	3.10097		0		368.771		1		0		0
21	0	0	3.24090		0		365.530		1		0		0
22	0	0	3.37789		0		362.152		1		0		0
23	0	0	3.51199		0		358.640		1		0		0
24	0	0	3.64328		0		354.997		1		0		0
25	0	0	3.77180		0		351.225		1		0		0
26	0	0	3.89763		0		347.327		1		0		0
27	0	0	4.02081		0		343.306		1		0		0
28	0	0	4.14139		0		339.165		1		0		0
29	0	0	4.25944		0		334.906		1		0		0
30	0	0	4.37501		0		330.531		1		0		0
31	0	0	4.48815		0		326.042		1		0		0
32	0	0	4.59891		0		321.443		1		0		0
33	0	0	4.70734		0		316.736		1		0		0
34	0	0	4.81350		0		311.923		1		0		0
35	0	0	4.91741		0		307.005		1		0		0
36	0	0	5.01915		0		301.986		1		0		0
37	0	1	5.11874		0		296.867		1		0		0
38	0	1	5.21624		0		291.651		1		0		0
39	0	1	5.31169		0		286.339		1		0		0
40	0	1	5.40514		0		280.934		1		0		0
41	0	1	5.49662		0		275.438		1		0		0
42	0	1	5.58617		0		269.851		1		0		0
43	0	1	5.67384		0		264.178		1		0		0
44	0	1	5.75967		0		258.418		1		0		0
45	0	1	5.84369		0		252.574		1		0		0
46	0	1	5.92595		0		246.648		1		0		0
47	0	1	6.00648		0		240.642		1		0		0
48	0	1	6.08531		0		234.556		1		0		0
49	0	1	6.16249		0		228.394		1		0		0
50	0	1	6.23804		0		222.156		1		0		0
51	0	1	6.31200		0		215.844		1		0		0
52	0	1	6.38441		0		209.459		1		0		0
53	0	1	6.45530		0		203.004		1		0		0
54	0	2	6.52469		0		196.479		1		0		0
55	0	2	6.59263		0		189.887		1		0		0
56	0	2	6.65914		0		183.228		1		0		0
57	0	2	6.72425		0		176.503		1		0		0
58	0	2	6.78799		0		169.715		1		0		0
59	0	2	6.85039		0		162.865		1		0		0
60	0	2	6.91148		0		155.954		1		0		0
61	0	2	6.97128		0		148.982		1		0		0
62	0	2	7.02983		0		141.952		0		0		0
63	0	2	7.08714		0		134.865		0		0		0
64	0	2	7.14325		0		127.722		0		0		0
65	0	2	7.19818		0		120.524		0		0		0
66	0	2	7.04682		0		113.477		0		0		0
67	0	2	6.89864		0		106.578		0		0		0
68	0	3	6.75358		0		99.8252		0		0		0
69	0	3	6.61157		0		93.2137		0		0		0
70	0	3	6.47255		0		86.7411		0		0		0
71	0	3	6.33644		0		80.4047		0		0		0
72	0	3	6.20320		0		74.2014		0		0		0
73	0	3	6.07276		0		68.1287		0		0		0
74	0	3	5.94507		0		62.1836		0		0		0
75	0	3	5.82006		0		56.3635		0		0		0
76	0	3	5.69768		0		50.6659		0		0		0
77	0	3	5.57787		0		45.0880		0		0		0
78	0	3	5.46058		0		39.6274		0		0		0
79	0	3	5.34576		0		34.2816		0		0		0
80	0	3	5.23335		0		29.0483		0		0		0
81	0	3	5.12330		0		23.9250		0		0		0
82	0	3	5.01557		0		18.9094		0		0		0
83	0	3	4.91011		0		13.9993		0.4		0		0
84	0	3	4.80686		0		9.19247		0.4		0		0
85	0	3	4.70578		0		4.48668		0.4		0		0
86	0	3	4.68889		0		-0.2022		0.4		0		0
87	0	4	2.61207		0		389.873		0.55		888		0
88	0	4	4.65615		0		385.217		0.7		888		0
89	0	4	4.64030		0		380.576		0.85		888		0
90	0	4	4.62478		0		375.951		1		888-		0
91	0	4	4.60958		0		371.342		1		888-		0
92	0	4	4.65625		0		366.686		1		888-		0
93	0	4	4.73270		0		361.953		1		888-		0
94	0	4	4.80755		0		357.145		1		888-		0
95	0	4	4.91160		0		352.234		1		888-		0
96	0	4	5.01345		0		347.220		1		888-		0
97	0	4	5.11317		0		342.107		1		888-		0
98	0	4	5.21078		0		336.896		1		888-		0
99	0	4	5.30635		0		331.590		1		888-		0
100	0	4	5.39990		0.02229		326.190		1		0-		1
101	0	5	13.3431		0.09387		312.847		1		0		0.68843
102	0	5	5.58116		0.23900		307.266		1		0-		0.50685
103	0	5	5.66893		0.47934		301.597		1		0-		0.39611
104	0	5	5.75486		0.83390		295.842		1		0-		0.23830
105	0	5	5.83899		1.31916		290.003		1		0-		0.15673
106	0	5	5.92134		1.94910		284.082		1		0-		0.10967
107	0	5	6.00197		2.73527		278.080		1		0-		0.08015
108	0	5	6.08090		3.68687		271.999		1		0-		0.06048
109	0	5	6.15816		4.81086		265.841		1		0-		0.04675
110	0	5	6.23381		6.11201		259.607		0.95		0		0.03682
111	0	5	6.30786		7.59306		253.299		0.9		0		0.02943
112	0	5	6.38036		9.25481		246.919		0.85		0		0.02379
113	0	6	14.3029		11.0962		232.616		0.6		0		0.01941
114	0	6	6.51055		13.1146		226.105		0.4		0		0.01594
115	0	6	6.55827		15.3012		219.547		0.2		0		0.01282
116	0	6	6.59473		17.6419		212.952		0.1		0		0.01007
117	0	6	6.63043		20.1180		206.322		0.1		0		0.00766
118	0	6	6.53203		22.7109		199.790		0.1		0		0.00580
119	0	6	6.43571		25.3455		193.354		0.1		0		0.00183
120	0	6	6.32089		27.9564		187.033		0.15		888		-0.0009
121	0	6	6.20849		30.4796		180.824		0.2		888		-0.0031
122	0	6	6.09846		32.8610		174.726		0.25		888		-0.0046
123	0	6	5.99073		35.0564		168.735		0.3		888		-0.0056
124	0	7	13.7472		37.0300		154.988		0.3		888		-0.0063
125	0	7	5.80233		38.7572		149.186		0.35		888		-0.0066
126	0	7	5.73161		40.2200		143.454		0.4		888		-0.0068
127	0	7	5.66237		41.4121		137.792		0.45		888		-0.0067
128	0	7	5.59459		42.3313		132.197		0.5		888		-0.0065
129	0	7	5.52823		42.9785		126.669		0.55		888		-0.0064
130	0	7	5.49404		43.3575		121.175		0.6		888		-0.0062
131	0	7	5.47083		43.4831		115.704		0.65		888		-0.0058
132	0	7	5.45835		43.3733		110.246		0.7		888		-0.0054
133	0	7	5.46666		43.0490		104.779		0.75		888		-0.0049
134	0	7	5.47479		42.5363		99.3046		0.8		888		-0.0043
135	0	7	5.50326		41.8596		93.8013		1		888-		-0.0038
136	0	7	5.53114		41.0478		88.2702		1		888-		-0.0032
137	0	8	13.4203		40.1280		74.8498		1		888-		-0.0026
138	0	8	5.61569		39.0208		69.2341		1		888-		-0.0046
139	0	8	5.66172		37.7504		63.5724		1		888-		-0.0041
140	0	8	5.74780		36.3399		57.8246		1		888-		-0.0037
141	0	8	5.83207		34.8094		51.9925		1		888-		-0.0033
142	0	8	5.91458		33.1781		46.0779		1		888-		-0.0028
143	0	8	5.99534		31.4647		40.0826		1		888-		-0.0024
144	0	8	6.07441		29.6868		34.0082		1		888-		-0.0020
145	0	8	6.15181		27.8613		27.8564		1		888-		-0.0016
146	0	8	6.22759		26.0041		21.6288		1		888-		-0.0011
147	0	8	6.30178		24.1301		15.3270		1		090-		-0.0006
148	0	8	6.37440		22.2535		8.95262		1		090-		-0.0001
149	0	9	10.3701		20.3873		198.582		0.1		0		0.00046
150	0	9	6.51510		18.5434		192.067		0.1		0		0.00109
151	0	9	6.58324		16.7329		185.484		0.1		0		0.00179
152	0	9	6.64994		14.9657		178.834		0.1		0		0.00259
153	0	9	6.71525		13.2509		172.118		0.1		0		0.00349
154	0	9	6.59455		11.5963		165.524		0.1		0		0.00454
155	0	9	6.47640		10.0115		159.047		0.1		0		0.00602
156	0	9	6.36073		8.50429		152.687		0.1		0		0.00773
157	0	9	6.24749		7.08010		146.439		0.1		0		0.00977
158	0	9	6.13664		5.74304		140.303		0.1		0		0.01230
159	0	9	6.02811		4.49563		134.274		0.1		0		0.01561
160	0	9	5.92187		3.33909		128.353		0.1		0		0.02021
161	0	9	5.81786		2.27349		122.535		0.1		0		0.02723
162	0	9	5.71604		1.29791		116.819		0.1		0		0.03959
163	0	9	5.61636		0.41061		111.202		0.1		0		0.06802
164	0	9	5.51877		-0.3908		105.684		0.1		0		
165	0	9	5.42324		-1.1094		100.260		0.1		0		-0.1152
166	0	10	5.32971		-1.7486		94.9310		0.1		0		-0.0715
167	0	10	5.23816		-2.3123		89.6929		0.1		0		-0.0432
168	0	10	5.14852		-2.8044		84.5443		0.1		0		-0.0309
169	0	10	5.06078		-3.2293		79.4835		0.1		0		-0.0239
170	0	10	4.97487		-3.5913		74.5087		0.1		0		-0.0194
171	0	10	4.89078		-3.8947		69.6179		0.1		0		-0.0162
172	0	10	4.80845		-4.1440		64.8094		0.1		0		-0.0139
173	0	10	4.72785		-4.3434		60.0816		0.1		0		-0.0120
174	0	10	4.64895		-4.4973		55.4326		0.1		0		-0.0105
175	0	10	4.57171		-4.6096		50.8609		0.1		0		-0.0092
176	0	10	4.49609		-4.6843		46.3648		0.1		0		-0.0081
177	0	10	4.42206		-4.7253		41.9427		0.1		0		-0.0072
178	0	10	4.34959		-4.7360		37.5931		0.1		0		-0.0063
179	0	10	4.27864		-4.7199		33.3145		0.1		0		-0.0056
180	0	10	4.20919		-4.6802		29.1053		0.1		0		-0.0050
181	0	10	4.14119		-4.6198		24.9641		0.1		0		-0.0044
182	0	10	4.07463		-4.5415		20.8895		0.1		0		-0.0038
183	0	10	4.00946		-4.4480		16.8800		0.4		0		-0.0033
184	0	10	3.94566		-4.3415		12.9343		0.4		0		-0.0029
185	0	10	3.88321		-4.2242		9.05116		0.4		0		-0.0024
186	0	10	3.82207		-4.0981		5.22908		0.4		0		-0.0020
187	0	10	3.76221		-3.9651		1.46687		0.4		0		-0.0017
188	0	11	3.70362		-3.8268		76.3007		0.55		888		-0.0013
189	0	11	3.64625		-3.6845		72.6544		0.7		888		-0.0010
190	0	11	3.59009		-3.5397		69.0643		0.85		888		-0.0006
191	0	11	3.53512		-3.3935		65.5292		1		888-		-0.0003
192	0	11	3.48129		-3.2469		62.0479		1		888-		-0.0001
193	0	11	3.42860		-3.1008		58.6193		1		0-		0.00016
194	0	11	3.43856		-2.9561		55.1807		1		0-		0.00042
195	0	11	3.44831		-2.8131		51.7324		1		0-		0.00059
196	0	11	3.51940		-2.6723		48.2130		1		0-		0.00077
197	0	11	3.61976		-2.5338		44.5933		1		0-		0.00086
198	0	11	3.74878		-2.3977		40.8445		1		0-		0.00094
199	0	11	3.87509		-2.2640		36.9694		1		0-		0.00098
200	0	11	3.99874		-2.1327		32.9706		1		0-		0.00106
201	0	11	4.11979		-2.0039		28.8509		1		0-		0.00115
202	0	11	4.23829		-1.8776		24.6126		1		0-		0.00128
203	0	11	4.35431		-1.7540		20.2582		1		0-		0.00142
204	0	11	4.46788		-1.6332		15.7903		1		0-		0.00160
205	0	11	4.57907		-1.5154		11.2113		1		0-		0.00181
206	0	11	4.68792		-1.4006		6.52339		1		0-		0.00205
207	0	11	4.79448		-1.2892		1.72891		1		0-		0.00233
208	0	11	4.89880		-1.1811		-3.1698		1		0-		0.00265
209	0	12	1.07162		-1.0767		195.758		1		0		0.00302
210	0	12	5.10090		-0.9759		190.657		1		0		0.00345
211	0	12	5.19878		-0.8790		185.458		1		0		0.00394
212	0	12	5.29459		-0.7861		180.164		1		0		0.00452
213	0	12	5.38840		-0.6973		174.775		1		0		0.00520
214	0	12	5.48023		-0.6126		169.295		1		0		0.00600
215	0	12	5.57013		-0.5322		163.725		1		0		0.00696
216	0	12	5.65813		-0.4562		158.067		1		0		0.00813
217	0	12	5.74429		-0.3845		152.323		1		0		0.00959
218	0	12	5.82864		-0.3173		146.494		1		0		0.01145
219	0	12	5.91121		-0.2544		140.583		1		0		0.01391
220	0	12	5.99205		-0.1960		134.591		1		0		0.01730
221	0	12	6.07119		-0.1419		128.519		1		0		0.02232
222	0	12	6.14866		-0.0922		122.371		1		0		0.03049
223	0	12	6.22450		-0.0467		116.146		1		0		0.04625
224	0	12	6.29875		-0.0054		109.847		1		0		0.08950
225	0	12	6.37144		0.03175		103.476		1		0		
226	0	13	6.44260		0.06498		97.0339		0		0		-0.1195
227	0	13	6.51226		0.09436		90.5216		0		0		-0.0591
228	0	13	6.58046		0.12004		83.9411		0		0		-0.0392
229	0	13	6.64722		0.14216		77.2939		0		0		-0.0296
230	0	13	6.71258		0.16089		70.5813		0		0		-0.0238
231	0	13	6.57143		0.17640		64.0099		0		0		-0.0200
232	0	13	6.43325		0.18890		57.5766		0		0		-0.0170
233	0	13	6.29798		0.19864		51.2786		0		0		-0.0146
234	0	13	6.16555		0.20584		45.1131		0		0		-0.0127
235	0	13	6.03590		0.21073		39.0772		0		0		-0.0112
236	0	13	5.90898		0.21354		33.1682		0		0		-0.0098
237	0	13	5.78473		0.21450		27.3835		0		0		-0.0087
238	0	13	5.66309		0.21381		21.7204		0		0		-0.0076
239	0	13	5.54401		0.21167		16.1764		0		0		-0.0067
240	0	13	5.42743		0.20828		10.7489		0		0		-0.0059
241	0	13	5.31330		0.20382		5.43567		0		0		-0.0051
242	0	13	5.20158		0.19845		0.23408		0		0		-0.0044
243	0	14	5.09220		0.19232		309.291		0.15		888		-0.0037
244	0	14	4.98513		0.18559		304.306		0.3		888		-0.0031
245	0	14	4.88030		0.17837		299.426		0.45		888		-0.0026
246	0	14	4.77768		0.17078		294.648		0.6		888		-0.0020
247	0	14	4.67722		0.16294		289.971		0.75		888		-0.0015
248	0	14	4.57887		0.15492		285.392		0.9		888		-0.0010
249	0	14	4.51335		0.14682		280.879		1		888-		-0.0005
250	0	14	4.47999		0.13870		276.399		1		888-		-0.0001
251	0	14	4.47810		0.13062		271.921		1		0-		0.00025
252	0	14	4.50701		0.12262		267.414		1		0-		0.00059
253	0	14	4.56609		0.11472		262.848		1		0-		0.00089
254	0	14	4.65470		0.10696		258.193		1		0-		0.00117
255	0	14	4.74145		0.09935		253.451		1		0-		0.00143
256	0	14	4.82637		0.09191		248.625		1		0-		0.00173
257	0	14	4.93002		0.08467		243.695		1		0-		0.00205
258	0	14	5.03148		0.07762		238.664		1		0-		0.00239
259	0	14	5.13082		0.07080		233.533		1		0-		0.00278
260	0	14	5.22807		0.06420		228.305		1		0-		0.00322
261	0	15	-2.5330		0.05784		230.838		1		0		0.00374
262	0	15	5.41647		0.05173		225.421		1		0-		0.00433
263	0	15	5.50771		0.04588		219.914		1		0-		0.00503
264	0	15	5.59703		0.04031		214.316		1		0-		0.00585
265	0	15	5.68447		0.03500		208.632		1		0-		0.00684
266	0	15	5.77008		0.02998		202.862		1		0-		0.00804
267	0	15	5.85388		0.02525		197.008		1		0-		0.00953
268	0	15	5.93592		1.54598		191.072		1		888-		-0.8124
269	0	15	6.01624		-0.0690		185.056		1		888-		
270	0	15	6.09487		-0.2027		178.961		1		0-		0.48329
271	0	15	6.17184		-0.4193		172.789		1		0-		0.38280
272	0	15	6.24720		-0.7347		166.542		1		0-		0.23561
273	0	15	6.32097		-1.1624		160.221		1		0-		0.15290
274	0	15	6.39319		-1.7137		153.828		1		0-		0.10633
275	0	16	-1.3923		-2.3978		155.220		1		0		0.07742
276	0	16	6.53311		-3.2214		148.687		1		0-		0.05824
277	0	16	6.60087		-4.1898		142.086		1		0-		0.04490
278	0	16	6.66720		-5.3058		135.419		0.95		0		0.03526
279	0	16	6.73214		-6.5710		128.687		0.9		0		0.02809
280	0	16	6.79572		-7.9848		121.891		0.85		0		0.02263
281	0	16	6.85796		-9.5455		115.033		0.8		0		0.01838
282	0	16	6.91888		-11.249		108.114		0.6		0		0.01503
283	0	16	6.97853		-13.092		101.136		0.4		0		0.01235
284	0	16	7.02667		-15.069		94.1095		0.2		0		0.01017
285	0	16	7.06354		-17.168		87.0459		0.1		0		0.00811
286	0	16	7.08937		-19.373		79.9566		0.1		0		0.00621
287	0	16	7.10441		-21.666		72.8521		0.1		0		0.00449
288	0	17	-0.7371		-24.023		73.5893		1		0		0.00296
289	0	17	7.13354		-26.422		66.4558		0.8		0		0.00178
290	0	17	7.06559		-28.845		59.3902		0.6		0		0.00087
291	0	17	6.95805		-31.240		52.4321		0.85		888		-0.0009
292	0	17	6.83225		-33.547		45.5999		1		888-		-0.0028
293	0	17	6.70910		-35.708		38.8908		1		888-		-0.0043
294	0	17	6.58853		-37.674		32.3022		1		888-		-0.0054
295	0	17	6.47051		-39.408		25.8317		1		888-		-0.0061
296	0	17	6.45753		-40.880		19.3742		1		888-		-0.0066
297	0	17	6.52688		-42.099		12.8473		1		888-		-0.0061
298	0	17	6.59477		-43.104		6.25256		1		888-		-0.0050
299	0	17	6.66123		-43.930		-0.4086		1		888-		-0.0041
300	0	17	6.72630		-44.611		-7.1349		1		888-		-0.0033
301	0	18	-1.0662		-45.176		93.9313		1		0		-0.0025
302	0	18	6.85235		-45.301		87.0789		0		0		-0.0097
303	0	18	6.91340		-45.026		80.1655		0		0		-0.0088
304	0	18	6.97316		-44.389		73.1923		0		0		-0.0080
305	0	18	7.03167		-43.429		66.1607		0		0		-0.0072
306	0	18	7.08895		-42.183		59.0717		0		0		-0.0065
307	0	18	7.14502		-40.688		51.9267		0		0		-0.0059
308	0	18	6.99477		-38.980		44.9319		0		0		-0.0052
309	0	18	6.84769		-37.101		38.0842		0		0		-0.0043
310	0	18	6.70370		-35.092		31.3805		0		0		-0.0034
311	0	18	6.56274		-32.990		24.8178		0		0		-0.0026
312	0	18	6.42474		-30.828		18.3930		0		0		-0.0018
313	0	18	6.28964		-28.635		12.1034		0		0		-0.0010
314	0	18	6.15739		-26.435		5.94603		0		0		-0.0002
315	0	19	6.02791		-24.253		392.605		0.1		0		0.00062
316	0	19	5.90116		-21.831		386.704		0.15		0		-0.0098
317	0	19	5.77707		-19.264		380.927		0.2		0		-0.0066
318	0	19	5.65559		-16.634		375.271		0.25		0		-0.0032
319	0	19	5.53667		-14.013		369.735		0.05		0		0.00050
320	0	19	5.44076		-11.461		364.294		0.1		0		0.00490
321	0	19	5.34687		-9.0213		358.947		0.05		0		0.00981
322	0	19	5.27546		-6.7302		353.671		0		0		0.01649
323	0	19	5.21582		-4.6110		348.456		0.05		0		0.02554
324	0	19	5.11640		-2.6737		343.339		0.1		0		0.03943
325	0	19	5.01907		-0.9130		338.320		0.15		0		0.06606
326	0	19	4.93404		0.67726		333.386		0.3		0		
327	0	19	4.83029		2.10440		328.556		0.45		0		-0.1143
328	0	19	4.73898		3.37611		323.817		0.6		0		-0.0738
329	0	20	12.5115		4.50065		311.305		0.7		0		-0.0435
330	0	20	4.59263		5.48653		306.713		0.75		0		-0.0308
331	0	20	4.55760		6.34232		302.155		0.8		0		-0.0237
332	0	20	4.55407		7.07639		297.601		0.85		0		-0.0191
333	0	20	4.55062		7.69678		293.050		0.9		0		-0.0160
334	0	20	4.57802		8.21135		288.472		0.95		0		-0.0137
335	0	20	4.62535		8.62747		283.847		1		0-		-0.0119
336	0	20	4.68194		8.95209		279.165		1		0-		-0.0106
337	0	20	4.74760		9.19187		274.417		1		0-		-0.0094
338	0	20	4.81187		9.35311		269.606		1		0-		-0.0085
339	0	20	4.88506		9.44198		264.721		1		0-		-0.0077
340	0	20	4.96696		9.46430		259.754		1		0-		-0.0070
341	0	20	5.05739		9.42563		254.696		1		0-		-0.0064
342	0	20	5.15618		9.33124		249.540		1		0-		-0.0059
343	0	20	5.25290		9.18614		244.287		1		0-		-0.0054
344	0	21	13.1992		9.00122		231.088		0.1		0		-0.0043
345	0	21	5.44026		8.80973		225.648		0.15		0		-0.0007
346	0	21	5.53100		8.64211		220.117		0.1		0		0.00270
347	0	21	5.61984		8.52598		214.497		0.05		0		0.00595
348	0	21	5.70680		8.48618		208.790		1.3877787807814E-17		0		0.00895
349	0	21	5.79193		8.54482		202.998		0.1		0		0.01159
350	0	21	5.69066		8.72131		197.307		0.05		0		0.01379
351	0	21	5.60177		8.96739		191.706		0		0		0.00798
352	0	21	5.51475		9.24449		186.191		0.1		0		0.00345
353	0	21	5.41930		9.51921		180.771		0.15		0		-0.0002
354	0	21	5.32586		9.75984		175.446		0.2		0		-0.0035
355	0	21	5.21387		9.93977		170.232		0.25		0		-0.0062
356	0	21	5.10423		10.0369		165.128		0.3		0		-0.0083
357	0	22	12.8485		10.0603		152.279		0.1		0		-0.0073
358	0	22	4.89183		10.0185		147.387		0.15		0		-0.0064
359	0	22	4.81974		9.91969		142.567		0.2		0		-0.0056
360	0	22	4.75942		9.77096		137.808		0.25		0		-0.0050
361	0	22	4.71062		9.57896		133.097		0.3		0		-0.0044
362	0	22	4.67311		9.34976		128.424		0.35		0		-0.0038
363	0	22	4.63638		9.08887		123.788		0.4		0		-0.0033
364	0	22	4.55941		8.80139		119.228		0.45		0		-0.0029
365	0	22	4.49430		8.49250		114.734		0.5		0		-0.0024
366	0	22	4.43057		8.16679		110.304		0.55		0		-0.0019
367	0	22	4.39894		7.82841		105.905		0.6		0		-0.0015
368	0	22	4.37824		7.48083		101.526		0.65		0		-0.0011
369	0	22	4.35798		7.12707		97.1688		0.7		0		-0.0008
370	0	22	4.33814		6.76986		92.8307		0.75		0		-0.0004
371	0	22	4.34948		6.41166		88.4812		0.8		0		-0.0001
372	0	23	12.2327		6.05442		76.2484		0.1		0		0.00014
373	0	23	4.42232		5.69974		71.8261		0.05		0		0.00042
374	0	23	4.47292		5.34903		67.3531		0		0		0.00069
375	0	23	4.53272		5.00348		62.8204		0.1		0		0.00096
376	0	23	4.60152		4.66414		58.2189		0.15		0		0.00124
377	0	23	4.52527		4.33190		53.6936		0.2		0		0.00152
378	0	23	4.45063		4.00838		49.2430		0.25		0		0.00201
379	0	23	4.37756		3.69492		44.8654		0.3		0		0.00250
380	0	23	4.30602		3.39258		40.5594		0.35		0		0.00301
381	0	23	4.24624		3.10222		36.3132		0.4		0		0.00352
382	0	23	4.18773		2.82442		32.1254		0.45		0		0.00405
383	0	23	4.15095		2.55962		27.9745		0.5		0		0.00460
384	0	23	4.13547		2.30802		23.8390		0.55		0		0.00515
385	0	23	4.13056		2.06965		19.7084		0.5		0		0.00573
386	0	23	4.13602		1.84443		15.5724		0.5		0		0.00635
387	0	23	4.15161		1.63220		11.4208		0.5		0		0.00704
388	0	23	4.16688		1.43272		7.25395		0.5		0		0.00781
389	0	24	8.10650		1.24572		77.6849		0.55		0		0.00871
390	0	24	4.19646		1.07091		73.4884		0.6		0		0.00978
391	0	24	4.21079		0.90797		69.2776		0.65		0		0.01107
392	0	24	4.22482		0.75654		65.0528		0.7		0		0.01268
393	0	24	4.23854		0.61626		60.8143		0.75		0		0.01473
394	0	24	4.25199		0.48674		56.5623		0.8		0		0.01746
395	0	24	4.28566		0.36759		52.2766		0.85		0		0.02129
396	0	24	4.32888		0.25838		47.9477		0.9		0		0.02705
397	0	24	4.37119		0.15869		43.5765		0.95		0		0.03685
398	0	24	4.41261		0.06811		39.1639		1		0		0.05734
399	0	24	4.49419		-0.0137		34.6697		1		888-		
400	0	24	4.58431		-0.0874		30.0854		1		888-		-0.1122
401	0	24	4.67254		-0.1531		25.4129		1		888-		-0.0899
402	0	24	4.76916		-0.2114		20.6437		1		888-		-0.0487
403	0	24	4.86376		-0.2626		15.7799		1		090-		-0.0335
404	0	24	4.96662		-0.3071		10.8133		1		090-		-0.0255
405	0	24	5.06732		-0.3453		5.74602		1		090-		-0.0206
406	0	24	5.16590		-0.3774		0.58012		1		090-		-0.0173
407	0	25	1.33310		-0.4039		99.2470		1		0		-0.0149
408	0	25	5.35689		-0.4251		93.8901		1		0		-0.0131
409	0	25	5.44938		-0.4413		88.4407		1		0		-0.0116
410	0	25	5.53993		-0.4529		82.9008		1		0		-0.0104
411	0	25	5.62857		-0.4601		77.2722		1		0		-0.0094
412	0	25	5.71535		-0.4635		71.5568		1		0		-0.0086
413	0	25	5.80031		-0.4631		65.7565		1		0		-0.0078
414	0	25	5.88348		-0.4595		59.8730		1		0		-0.0071
415	0	25	5.96490		-0.4528		53.9081		1		0		-0.0065
416	0	25	6.04460		-0.4435		47.8635		0		0		-0.0059
417	0	25	6.12264		-0.4317		41.7409		0		0		-0.0054
418	0	25	6.19903		-0.4178		35.5418		0		0		-0.0049
419	0	25	6.27381		-0.4020		29.2680		0		0		-0.0044
420	0	25	6.34702		-0.3847		22.9210		0		0		-0.0039
421	0	25	6.21356		-0.3660		16.7074		0		0		-0.0034
422	0	25	6.08291		-0.3464		10.6245		0		0		-0.0026
423	0	25	5.95500		-0.3261		4.66956		0		0		-0.0019
424	0	26	5.82978		-0.3054		155.914		0.15		888		-0.0012
425	0	26	5.70719		-0.0851		150.207		0.3		888		-0.6534
426	0	26	5.58718		0.26885		144.620		0.45		888		
427	0	26	5.46970		0.69900		139.150		0.5		0		0.17703
428	0	26	5.41622		1.15557		133.734		0.55		0		0.03778
429	0	26	5.36387		1.61553		128.370		0.6		0		0.00293
430	0	26	5.35365		2.05890		123.016		0.75		888		-0.0102
431	0	26	5.34365		2.48116		117.673		0.9		888		-0.0102
432	0	26	5.34411		2.87851		112.329		1		888-		-0.0100
433	0	26	5.34456		3.25092		106.984		1		888-		-0.0086
434	0	26	5.38603		3.59854		101.598		1		888-		-0.0076
435	0	26	5.42662		3.93440		96.1719		1		888-		-0.0032
436	0	26	5.51765		4.27021		90.6542		1		888-		-1.3561
437	0	27	13.4584		4.63301		77.1958		1		0		0.00632
438	0	27	5.69400		5.04719		71.5018		0.95		0		0.01108
439	0	27	5.77940		5.53449		65.7224		0.9		0		0.01448
440	0	27	5.86301		6.11409		59.8594		0.85		0		0.01667
441	0	27	5.94486		6.80267		53.9145		0.8		0		0.01782
442	0	27	6.01473		7.61443		47.8998		0.75		0		0.01810
443	0	27	6.08314		8.55731		41.8166		0.7		0		0.01721
444	0	27	6.12959		9.63728		35.6870		0.65		0		0.01602
445	0	27	6.16481		10.8504		29.5222		0.45		0		0.01382
446	0	27	6.18903		12.1880		23.3332		0.25		0		0.01146
447	0	27	6.21274		13.6366		17.1205		0.05		0		0.00911
448	0	27	6.17441		15.1835		10.9460		0.1		0		0.00719
449	0	28	13.9475		16.7917		58.9985		0.1		0		0.00403
450	0	28	6.01896		18.1111		52.9795		0		0		-0.0171
451	0	28	5.91291		19.1623		47.0666		0		0		-0.0148
452	0	28	5.80909		19.9668		41.2575		0		0		-0.0128
453	0	28	5.68694		20.5458		35.5706		0		0		-0.0112
454	0	28	5.56736		20.9209		30.0032		0		0		-0.0099
455	0	28	5.45029		21.1128		24.5529		0		0		-0.0087
456	0	28	5.33568		21.1418		19.2172		0		0		-0.0077
457	0	28	5.22349		21.0268		13.9937		0		0		-0.0068
458	0	28	5.11365		20.7861		8.88014		0		0		-0.0059
459	0	28	5.00612		20.4365		3.87401		0		0		-0.0052
460	0	29	4.90086		19.9940		156.048		0.05		0		-0.0045
461	0	29	4.79780		19.4733		151.250		0.1		0		-0.0039
462	0	29	4.69692		18.8879		146.553		0.15		0		-0.0033
463	0	29	4.60841		18.2501		141.945		0.2		0		-0.0027
464	0	29	4.52176		17.5710		137.423		0.25		0		-0.0022
465	0	29	4.44719		16.8604		132.976		0.3		0		-0.0017
466	0	29	4.37419		16.1272		128.601		0.35		0		-0.0013
467	0	29	4.32324		15.3791		124.278		0.4		0		-0.0009
468	0	29	4.28362		14.6228		119.994		0.45		0		-0.0005
469	0	29	4.25508		13.8637		115.739		0.5		0		-0.0001
470	0	29	4.24766		13.1069		111.492		0.3		0		0.00015
471	0	29	4.25066		12.3561		107.241		0.1		0		0.00046
472	0	29	4.26384		11.6147		102.977		0.1		0		0.00076
473	0	29	4.27675		10.8856		98.7009		0.1		0		0.00105
474	0	29	4.24836		10.1712		94.4525		0.1		0		0.00135
475	0	29	4.22057		9.47428		90.2320		0.05		0		0.00171
476	0	29	4.15234		8.79702		86.0796		0		0		0.00208
477	0	29	4.08554		8.14183		81.9941		0.1		0		0.00250
478	0	29	4.02014		7.51057		77.9739		0.05		0		0.00294
479	0	30	1.45530		6.90470		76.5186		0		0		0.00337
480	0	30	3.86289		6.32536		72.6557		0.1		0		0.00384
481	0	30	3.78166		5.77341		68.8741		0.05		0		0.00433
482	0	30	3.71240		5.24936		65.1617		0		0		0.00483
483	0	30	3.64459		4.75336		61.5171		0.05		0		0.00534
484	0	30	3.58847		4.28530		57.9286		0.1		0		0.00587
485	0	30	3.52327		3.84483		54.4053		0.15		0		0.00643
486	0	30	3.44919		3.43147		50.9561		0.2		0		0.00705
487	0	30	3.39717		3.04465		47.5590		0.25		0		0.00773
488	0	30	3.35651		2.68359		44.2024		0.3		0		0.00845
489	0	30	3.31670		2.34737		40.8857		0.35		0		0.00925
490	0	30	3.28798		2.03504		37.5977		0.4		0		0.01017
491	0	30	3.25987		1.74558		34.3379		0.45		0		0.01123
492	0	30	3.23235		1.47796		31.1055		0.5		0		0.01250
493	0	30	3.22592		1.23112		27.8796		0.55		0		0.01406
494	0	30	3.22989		1.00401		24.6497		0.6		0		0.01601
495	0	30	3.24402		0.79555		21.4057		0.65		0		0.01858
496	0	30	3.25786		0.60471		18.1478		0.5		0		0.02214
497	0	30	3.28167		0.43049		14.8661		0.5		0		0.02748
498	0	30	3.30498		0.27193		11.5611		0.5		0		0.03636
499	0	30	3.33805		0.12810		8.22314		0.5		0		0.05417
500	0	31	11.2323		-0.0018		311.140		0.6		888		
501	0	31	3.44293		-0.1188		307.697		0.75		888		-0.1111
502	0	31	3.47310		-0.2236		304.224		0.9		888		-0.1027
503	0	31	3.50264		-0.3169		300.722		1		888-		-0.0511
504	0	31	3.53155		-0.3995		297.190		1		888-		-0.0338
505	0	31	3.58037		-0.4721		293.610		1		888-		-0.0250
506	0	31	3.68971		-0.5353		289.920		1		888-		-0.0198
507	0	31	3.81726		-0.5897		286.103		1		888-		-0.0164
508	0	31	3.94213		-0.6358		282.161		1		888-		-0.0139
509	0	31	4.06437		-0.6742		278.096		1		888-		-0.0121
510	0	31	4.18404		-0.7054		273.912		1		888-		-0.0107
511	0	31	4.30120		-0.7297		269.611		1		888-		-0.0096
512	0	31	4.41589		-0.7477		265.195		1		888-		-0.0087
513	0	31	4.52817		-0.7598		260.667		1		888-		-0.0079
514	0	31	4.63809		-0.7663		256.029		1		888-		-0.0072
515	0	31	4.74569		-0.7678		251.283		1		888-		-0.0066
516	0	31	4.85104		-0.7645		246.432		1		888-		-0.0061
517	0	31	4.95417		-0.7570		241.478		1		888-		-0.0056
518	0	31	5.05513		-0.7455		236.423		1		888-		-0.0051
519	0	31	5.15397		-0.7304		231.269		1		888-		-0.0047
520	0	32	-2.6055		-0.7122		233.874		1		888		-0.0043
521	0	32	5.34545		-0.6911		228.529		1		888-		-0.0040
522	0	32	5.43818		-0.6674		223.091		1		888-		-0.0036
523	0	32	5.52897		-0.6417		217.562		1		888-		-0.0032
524	0	32	5.61784		-0.6140		211.944		1		888-		-0.0028
525	0	32	5.70485		-0.5848		206.239		1		888-		-0.0025
526	0	32	5.79002		-0.5544		200.449		1		888-		-0.0021
527	0	32	5.87341		-0.5216		194.576		1		888-		-0.0042
528	0	32	5.95504		-0.4614		188.621		1		888-		-0.0524
529	0	32	6.03496		-0.3514		182.586		1		888-		-0.1079
530	0	32	6.11319		-0.1716		176.472		1		888-		-0.1985
531	0	32	6.18978		0.09535		170.283		1		888-		
532	0	32	6.26476		0.46474		164.018		1		0-		0.27713
533	0	32	6.33816		0.94930		157.680		1		0-		0.23766
534	0	32	6.41002		1.55957		151.270		1		0-		0.13242
535	0	33	-1.3759		2.30395		152.646		1		0		0.08599
536	0	33	6.54924		3.18879		146.096		1		0-		0.06096
537	0	33	6.61666		4.21846		139.480		1		0-		0.04542
538	0	33	6.68266		5.39551		132.797		0.95		0		0.03493
539	0	33	6.74728		6.72072		126.050		0.9		0		0.02746
540	0	33	6.81053		8.19329		119.239		0.85		0		0.02192
541	0	33	6.87246		9.81091		112.367		0.8		0		0.01770
542	0	33	6.93308		11.5699		105.434		0.6		0		0.01440
543	0	33	6.99243		13.4653		98.4416		0.4		0		0.01179
544	0	33	7.05053		15.4912		91.3911		0.2		0		0.00968
545	0	33	7.07664		17.6405		84.3144		0.1		0		0.00796
546	0	33	7.09195		19.8927		77.2225		0.1		0		0.00583
547	0	34	-0.7493		22.2239		77.9719		1		0		0.00396
548	0	34	6.97800		24.6115		70.9939		0.8		0		0.00254
549	0	34	6.85178		26.9773		64.1421		1		888-		-0.0008
550	0	34	6.72822		29.2543		57.4138		1		888-		-0.0032
551	0	34	6.75085		31.3866		50.6630		1		888-		-0.0049
552	0	34	6.77300		33.3787		43.8900		1		888-		-0.0044
553	0	34	6.83572		35.2359		37.0543		1		888-		-0.0040
554	0	34	6.89712		36.9787		30.1571		1		888-		-0.0032
555	0	34	6.95722		38.6260		23.1999		1		888-		-0.0025
556	0	34	7.01606		40.1954		16.1838		1		888-		-0.0020
557	0	34	7.07367		41.7031		9.11022		1		888-		-0.0015
558	0	34	7.13006		43.1639		1.98015		1		888-		-0.0011
559	0	34	7.18527		44.5910		-5.2051		1		888-		-0.0007
560	0	35	-0.6169		45.9966		885.411		1		888		-0.0004
561	0	35	7.29222		46.8454		878.119		1		888		-0.0121
562	0	35	7.34402		47.1822		870.775		1		888		-0.0109
563	0	35	7.39473		47.0523		863.380		1		888		-0.0098
564	0	35	7.44437		46.5004		855.936		1		888		-0.0089
565	0	35	7.49297		45.5710		848.443		1		888		-0.0081
566	0	35	7.54055		44.3077		840.902		1		888		-0.0073
567	0	35	7.58712		42.7532		833.315		1		888		-0.0065
568	0	35	7.63272		40.9486		825.683		1		888		-0.0058
569	0	35	7.67736		38.9337		818.005		1		888		-0.0051
570	0	35	7.72105		36.7468		810.284		1		888		-0.0044
571	0	35	7.76383		34.4238		802.520		1		888		-0.0036
572	0	35	7.80572		31.9991		794.715		1		888		-0.0029
573	0	36	7.84672		29.5046		786.868		1		888		-0.0021
574	0	36	7.88685		26.9702		778.981		1		888		-0.0013
575	0	36	7.92615		24.4234		771.055		1		888		-0.0004
576	0	36	7.96461		21.8892		763.090		1		0		0.00052
577	0	36	8.00227		19.3905		755.088		1		0		0.00162
578	0	36	8.03914		16.9478		747.049		1		0		0.00288
579	0	36	8.07523		14.5790		738.974		1		0		0.00436
580	0	36	8.11056		12.2999		730.863		1		0		0.00615
581	0	36	8.14515		10.1241		722.718		1		0		0.00839
582	0	36	8.17902		8.06275		714.539		1		0		0.01131
583	0	36	8.21217		6.12510		706.327		1		0		0.01534
584	0	36	8.24462		4.31833		698.082		1		0		0.02136
585	0	37	8.27639		2.64774		689.806		1		0		0.03153
586	0	37	8.30749		1.11682		681.498		1		0		0.05274
587	0	37	8.33794		-0.2726		673.160		1		888		
588	0	37	8.36775		-1.5202		664.792		1		888		-0.1136
589	0	37	8.39693		-2.6272		656.396		1		888		-0.0925
590	0	37	8.42550		-3.5959		647.970		1		888		-0.0526
591	0	37	8.45347		-4.4298		639.517		1		888		-0.0374
592	0	37	8.48085		-5.1336		631.036		1		888		-0.0293
593	0	37	8.50765		-5.7126		622.528		1		888		-0.0243
594	0	37	8.53389		-6.1729		613.994		1		888		-0.0207
595	0	37	8.55958		-6.5213		605.435		1		888		-0.0181
596	0	37	8.58473		-6.7651		596.850		1		888		-0.0160
597	0	38	8.60935		-6.9120		588.241		1		888		-0.0143
598	0	38	8.63345		-6.9697		579.607		1		888		-0.0128
599	0	38	8.65704		-6.9465		570.950		1		888		-0.0116
600	0	38	8.68014		-6.8504		562.270		1		888		-0.0104
601	0	38	8.70275		-6.6896		553.567		1		t-1		-0.0094
602	0	38	8.72489		-6.4721		544.842		1		888		-0.0084

Turbine !!
603	0	38	8.74656		-6.2058		536.096		1		888		-0.0075
604	0	38	8.76778		-5.8983		527.328		1		888		-0.0066
605	0	38	8.78855		-5.5568		518.539		1		888		-0.0057
606	0	38	8.80888		-5.1885		509.730		1		888		-0.0048
607	0	38	9.23906		-4.7999		500.491		1		888		-0.0039
608	0	38	9.66019		-4.3947		490.831		1		888		-0.0034
609	0	39	10.0724		-3.9769		480.759		1		888		-0.0028
610	0	39	10.4760		-3.5509		470.283		1		888		-0.0020
611	0	39	10.8711		-3.1209		459.411		1		888		-0.0010
612	0	39	11.2580		-2.6916		448.153		1		0		0.00018
613	0	39	11.6366		-2.2673		436.517		1		0		0.00187
614	0	39	12.0073		-1.8524		424.509		1		0		0.00416
615	0	39	12.3703		-1.4512		412.139		1		0		0.00738
616	1	0	12.7256		-1.0677		399.413		0.1		0		0.01217
617	1	0	13.0734		-0.7056		386.340		0.1		0		0.02000
618	1	0	13.4139		-0.3682		372.926		0.1		0		0.03497
619	1	0	13.7472		-0.0583		359.179		0.1		0		0.07487
620	1	0	14.0736		0.22155		345.105		0.1		0		
621	1	0	14.3930		0.46956		330.712		0.1		0		-0.1285
622	1	0	14.7058		0.68432		316.006		0.1		0		-0.0708
623	1	0	15.0120		0.86502		300.994		0.1		0		-0.0497
624	1	1	14.7578		1.01142		286.236		0.1		0		-0.0396
625	1	1	14.5091		1.12452		271.727		0.1		0		-0.0329
626	1	1	14.2655		1.20591		257.462		0.1		0		-0.0281
627	1	1	14.0271		1.25767		243.435		0.1		0		-0.0245
628	1	1	13.7937		1.28219		229.641		0.1		0		-0.0216
629	1	1	13.5651		1.28216		216.076		0.1		0		-0.0191
630	1	1	13.3414		1.26039		202.734		0.1		0		-0.0169
631	1	2	13.1224		1.21977		189.612		0.1		0		-0.0149
632	1	2	12.9081		1.16321		176.704		0.1		0		-0.0130
633	1	2	12.6982		1.09354		164.005		0.1		0		-0.0112
634	1	2	12.4927		1.01347		151.513		0.1		0		-0.0095
635	1	2	12.2915		0.92559		139.221		0.1		0		-0.0077
636	1	2	12.0946		0.83227		127.126		0.1		0		-0.0058
637	1	2	11.9018		0.73571		115.225		0.1		0		-0.0039
638	1	2	11.6721		0.63785		103.552		0.1		0		-0.0017
639	1	3	11.4472		0.54047		92.1056		0.1		0		0.00075
640	1	3	11.2270		0.44510		80.8786		0.1		0		0.00370
641	1	3	11.0114		0.35302		69.8671		0.1		0		0.00739
642	1	3	10.8004		0.26528		59.0667		0.1		0		0.01231
643	1	3	10.5938		0.18274		48.4729		0.1		0		0.01957
644	1	3	10.3915		0.10603		38.0813		0.1		0		0.03192
645	1	3	10.1935		0.03562		27.8877		0.1		0		0.05934
646	1	3	9.99975		-0.0282		17.8879		0		0		
647	1	3	9.80999		-0.0852		8.07799		0		0		-0.1179
648	1	3	9.62423		-0.1356		-1.5462		0		0		-0.0791
649	1	4	7.38209		-0.1792		383.759		0.15		888		-0.0491
650	1	4	9.26433		2.06206		374.494		0.3		888		
651	1	4	9.09004		6.19645		365.404		0.25		0		0.45787
652	1	4	8.91941		11.8569		356.485		0.05		0		0.24628
653	1	4	8.75237		18.7041		347.733		0.1		0		0.10008
654	1	4	8.58884		26.4277		339.144		0.1		0		0.04686
655	1	4	8.42875		34.7476		330.715		0.1		0		0.02256
656	1	4	8.25151		43.4136		322.463		0.1		0		0.00995
657	1	5	15.9296		52.1931		306.534		0.1		0		0.00261
658	1	5	0		0		306.534		1		888		-1.1682
659	1	5	0		0		306.534		1		888		
660	1	5	0		0		306.534		1		888		0
661	1	5	0		0		306.534		1		888		0
662	1	5	0		0		306.534		1		888		0
663	1	5	0		0		306.534		1		888		0
664	1	5	0		0		306.534		1		888		0
665	1	5	0		0		306.534		1		888		0
666	1	5	0		0		306.534		1		888		0
667	1	5	0		0		306.534		1		888		0
668	1	5	0		0		306.534		1		888		0
669	1	5	0		0		306.534		1		888		0
670	1	5	0		0		306.534		1		888		0
671	1	5	0		0		306.534		1		888		0
672	1	5	0		0		306.534		1		888		0
673	1	5	0		0		306.534		1		888		0
674	1	5	0		0		306.534		1		888		0
675	1	5	0		0		306.534		1		888		0
676	1	5	0		0		306.534		1		888		0
677	1	5	0		0		306.534		1		888		0
678	1	5	0		0		306.534		1		888		0
679	1	5	0		0		306.534		1		888		0
680	1	5	0		0		306.534		1		888		0
681	1	5	0		0		306.534		1		888		0
682	1	5	0		0		306.534		1		888		0
683	1	5	0		0		306.534		1		888		0
684	1	5	0		0		306.534		1		888		0
685	1	5	0		0		306.534		1		888		0
686	1	5	0		0		306.534		1		888		0
687	1	5	0		0		306.534		1		888		0
688	1	5	0		0		306.534		1		888		0
689	1	5	0		0		306.534		1		888		0
690	1	5	0		0		306.534		1		888		0
691	1	5	0		0		306.534		1		888		0
692	1	5	0		0		306.534		1		888		0
693	1	5	0		0		306.534		1		888		0
694	1	5	0		0		306.534		1		888		0
695	1	5	0		0		306.534		1		888		0
696	1	5	0		0		306.534		1		888		0
697	1	5	0		0		306.534		1		888		0
698	1	5	0		0		306.534		1		888		0
699	1	5	0		0		306.534		1		888		0
700	1	5	0		0		306.534		1		888		0
701	1	5	0		0		306.534		1		888		0
702	1	5	0		0		306.534		1		888		0
703	1	5	0		0		306.534		1		888		0
704	1	5	0		0		306.534		1		888		0
705	1	5	0		0		306.534		1		888		0
706	1	5	0		0		306.534		1		888		0
707	1	5	0		0		306.534		1		888		0
708	1	5	0		0		306.534		1		888		0
709	1	5	0		0		306.534		1		888		0
710	1	5	0		0		306.534		1		888		0
711	1	5	0		0		306.534		1		888		0
712	1	5	0		0		306.534		1		888		0
713	1	5	0		0		306.534		1		888		0
714	1	5	0		0		306.534		1		888		0
