			0				1		0		0%			
1	-1	56	0		0		1		0-		50%			
2	-1	56	0		0		1		0-		50%			
3	-1	56	0.2053064		0		1		0-		51%			
4	-1	56	0.4065566		0		1		0-		51%			
5	-1	56	0.6038307		0		1		0-		51%			
6	-1	56	0.7972072		0		1		0-		51%			
7	-1	56	0.9867631		0		1		0-		51%			
8	-1	56	1.1725740		0		1		0-		51%			
9	-1	56	1.3547137		0		1		0-		52%			
10	-1	56	1.5332549		0		1		0-		52%			
11	-1	56	1.7082686		0		1		0-		52%			
12	-1	56	1.8798246		0		1		0-		53%			
13	-1	56	2.0479910		0		1		0-		53%			
14	-1	56	2.2128350		0		1		0-		54%			
15	-1	56	2.3744222		0		1		0-		54%			
16	-1	56	2.5328168		0		1		0-		55%			
17	-1	56	2.6880820		0		1		0-		55%			
18	0	0	2.6880820		0		1		0-		56%			
19	0	0	29.520363		0		0		0		62%			
20	0	0	-23.60048		0		0.1		0		57%			
21	0	0	28.892230		0		0		0		64%			
22	0	0	-23.16330		0		0.1		0		59%			
23	0	0	28.288673		0		0		0		65%			
24	0	0	-22.74323		0		0.465		0		60%			
25	0	0	27.708729		0		0		0		66%			
26	0	0	-22.19119		0		0.465		0		61%			
27	0	0	27.151475		0		0		0		67%			
28	0	0	-21.66076		0		0.465		0		62%			
29	0	0	26.616023		0		0		0		68%			
30	0	0	-21.15108		0		0.465		0		63%			
31	0	0	26.101519		0		0		0		69%			
32	0	0	-20.66133		0		0.465		0		65%			
33	0	0	25.607146		0		0		0		70%			
34	0	0	-20.19075		0		0.465		0		66%			
35	0	0	25.132114		0		0		0		71%			
36	0	0	-19.73858		0		0.465		0		67%			
37	0	0	24.675667		0		0		0		72%			
38	0	0	-19.30410		0		0.465		0		68%			
39	0	0	24.237078		0		0		0		73%			
40	0	0	-18.88662		0		0.465		0		69%			
41	0	0	23.815649		0		0		0		74%			
42	0	0	-18.48548		0		0.05		0		70%			
43	0	0	23.241987		0		0		0		75%			
44	0	0	-18.10002		0		0.05		0		71%			
45	0	0	22.690768		0		0		0		76%			
46	0	0	-17.72965		0		0.05		0		73%			
47	0	0	22.161115		0		0		0		77%			
48	0	0	-17.37377		0		0.05		0		74%			
49	0	0	2.3332344		0		0.1		0		74%			
50	0	0	2.3076670		0		0.15		0		75%			
51	0	0	2.2928700		0		0.2		0		75%			
52	0	0	2.2886307		0		0.25		0		76%			
53	0	0	2.2947405		0		0.3		0		76%			
54	0	1	2.2947405		0		0.35		0		81%			
55	0	0	2.2947405		0		0.4		0		77%			
56	0	1	2.2947405		0		0.45		0		82%			
57	0	1	-15.93693		0		0.5		0		78%			
58	0	1	20.662256		0		0		0		83%			
59	0	1	-15.76410		0		0.05		0		79%			
60	0	1	20.659179		0		0		0		84%			
61	0	1	-15.93233		0		0.05		0		80%			
62	0	1	20.656222		0		0		0		85%			
63	0	1	-16.09398		0		0.05		0		81%			
64	0	1	20.653382		0		0		0		86%			
65	0	1	-16.24931		0		0.05		0		82%			
66	0	1	20.650652		0		0		0		87%			
67	0	1	-16.39855		0		0.05		0		83%			
68	0	1	20.648029		0		0		0		88%			
69	0	1	-16.54196		0		0.05		0		84%			
70	0	1	20.645509		0		0		0		89%			
71	0	1	-16.67976		0		0.05		0		85%			
72	0	1	20.643087		0		0		0		89%			
73	0	1	-16.81216		0		0.05		0		86%			
74	0	1	20.640760		0		0		0		90%			
75	0	1	-16.93939		0		0.05		0		87%			
76	0	1	20.638525		0		0		0		91%			
77	0	1	-17.06164		0		0.05		0		87%			
78	0	1	20.636376		0		0		0		92%			
79	0	1	-17.17910		0		0.05		0		88%			
80	0	1	20.634312		0		0		0		93%			
81	0	1	-17.29197		0		0.05		0		89%			
82	0	1	20.632328		0		0		0		93%			
83	0	1	-17.40043		0		0.05		0		90%			
84	0	1	20.630422		0		0		0		94%			
85	0	1	-17.50464		0		0.05		0		90%			
86	0	1	20.628591		0		0		0		95%			
87	0	1	-17.60477		0		0.05		0		91%			
88	0	1	20.626831		0		0		0		95%			
89	0	1	-17.70099		0		0.05		0		92%			
90	0	1	20.625140		0		0		0		96%			
91	0	1	-17.79344		0		0.05		0		92%			
92	0	1	20.623516		0		0		0		97%			
93	0	1	-17.88228		0		0.05		0		93%			
94	0	1	20.621954		0		0		0		97%			
95	0	1	-17.96763		0		0.05		0		93%			
96	0	1	20.620454		0		0		0		98%			
97	0	1	-18.04965		0		0.05		0		94%			
98	0	1	20.619013		0		0		0		98%			
99	0	1	-18.12846		0		0.05		0		94%			
100	0	1	20.617628		0		0		0		99%			
101	0	1	-18.20419		0		0.05		0		95%			
102	0	1	20.616297		0		0		0		99%			
103	0	1	-18.27696		0		0.05		0		95%			
104	0	1	1.1453850		0		0.1		0		96%			
105	0	1	1.1432861		0		0.15		0		96%			
106	0	1	1.1514940		0		0.2		0		96%			
107	0	1	1.1698050		0		0.25		0		96%			
108	0	1	1.1980196		0		0.3		0		97%			
109	0	1	1.2359421		0		0.35		0		97%			
110	0	1	1.2833806		0		0.4		0		97%			
