	0	0	0		0		1		0-		0
1	0	0	0		0		1		0-		0
2	0	0	0		0		1		0-		0
3	0	0	0.2011345		0		1		0-		0.00050283635707217
4	0	0	0.3982913		0		1		0-		0.0014985646842865
5	0	0	0.5915490		0		1		0		0.0029774372607456
6	0	0	0.7809847		0		1		0		0.0049298991422016
7	0	0	0.9666740		0		1		0		0.0073465843485927
8	0	0	1.1486911		0		1		0		0.010218312126975
9	0	0	1.3271084		0		1		0		0.013536083288366
10	0	0	1.5019973		0		1		0		0.017291076617022
11	0	0	1.6734274		0		1		0		0.021474645350744
12	0	0	1.8414673		0		1		0		0.026078313730774
13	0	0	2.0061839		0		1		0		0.031093773619936
14	0	0	2.1676430		0		1		0		0.036512881187649
15	0	0	2.3259089		0		1		0		0.042327653660508
16	0	0	2.4810449		0		1		0		0.048530266137119
17	0	0	2.6331129		0		1		0		0.055113048465929
18	0	0	2.7821734		0		1		0		0.062068482184808
19	0	0	2.9282861		0		1		0		0.069389197521142
20	0	0	3.0715091		0		1		0		0.077067970451268
21	0	0	3.2118997		0		1		0		0.085097719818054
22	0	0	3.3495138		0		1		0		0.093471504505489
23	0	0	3.4844064		0		1		0		0.10218252066914
24	0	0	3.6166313		0		1		0		0.11122409902141
25	0	0	3.7462412		0		1		0		0.12058970217043
26	0	0	3.8732879		0		1		0		0.13027292201165
27	0	0	3.9978220		0		1		0		0.14026747717092
28	0	0	4.1198933		0		1		0		0.15056721049828
29	0	0	4.2395504		0		1		0		0.16116608661115
30	0	0	4.3568411		0		1		0		0.17205818948622
31	0	0	4.4718122		0		1		0		0.18323772009895
32	0	0	4.5845096		0		1		0		0.19469899410968
33	0	0	4.6949781		0		1		0		0.20643643959562
34	0	0	4.8032620		0		1		0		0.21844459482758
35	0	0	4.9094045		0		1		0		0.23071810609072
36	0	0	5.0134477		0		1		0		0.24325172554844
37	0	1	5.0134477		0		1		0		0.25604030914841
38	0	1	5.2154021		0		1		0		0.2690788145701
39	0	1	5.3133938		0		1		0		0.28236229921287
40	0	1	5.4094476		0		1		0		0.29588591822388
41	0	1	5.5036017		0		1		0		0.3096449225649
42	0	1	5.5958938		0		1		0		0.32363465711749
43	0	1	5.6863606		0		1		0		0.33785055882557
44	0	1	5.7750384		0		1		0		0.35228815487472
