	0	0	0		0		400		1		0		0
1	0	0	0		0		400		1		0		0
2	0	0	0		0		400		1		0		0
3	0	0	0.19220		0		399.807		1		0		0
4	0	0	0.38042		0		399.427		1		0		0
5	0	0	0.56474		0		398.862		1		0		0
6	0	0	0.74524		0		398.117		1		0		0
7	0	0	0.92199		0		397.195		1		0		0
8	0	0	1.09509		0		396.100		1		0		0
9	0	0	1.26459		0		394.835		1		0		0
10	0	0	1.43058		0		393.405		1		0		0
11	0	0	1.59312		0		391.811		1		0		0
12	0	0	1.75230		0		390.059		1		0		0
13	0	0	1.90818		0		388.151		1		0		0
14	0	0	2.06082		0		386.090		1		0		0
15	0	0	2.21030		0		383.880		1		0		0
16	0	0	2.35669		0		381.523		1		0		0
17	0	0	2.50003		0		379.023		1		0		0
18	0	0	2.64041		0		376.383		1		0		0
19	0	0	2.77787		0		373.605		1		0		0
20	0	0	2.91249		0		370.692		1		0		0
21	0	0	3.04431		0		367.648		1		0		0
22	0	0	3.17340		0		364.475		1		0		0
23	0	0	3.29982		0		361.175		1		0		0
