	0	0	0		0		1		0-		56%			
1	0	0	0		0		1		0-		56%			
2	0	0	0		0		1		0-		56%			
3	0	0	0.1924927		0		1		0-		56%			
4	0	0	0.3809508		0		1		0-		56%			
5	0	0	0.5654588		0		1		0-		56%			
6	0	0	0.7460995		0		1		0-		56%			
7	0	0	0.9229541		0		1		0-		57%			
8	0	0	1.0961017		0		1		0-		57%			
9	0	0	1.2656202		0		1		0-		57%			
10	0	0	1.4315856		0		1		0-		57%			
11	0	0	1.5940723		0		1		0-		58%			
12	0	0	1.7531534		0		1		0-		58%			
13	0	0	1.9089001		0		1		0-		59%			
14	0	0	2.0613823		0		1		0-		59%			
15	0	0	2.2106685		0		1		0-		59%			
16	0	0	2.3568257		0		0.465		0		60%			
17	0	0	2.3969359		0		0.465		0		60%			
18	0	0	2.4362053		0		0.465		0		61%			
19	0	0	2.4746516		0		0.465		0		62%			
20	0	0	2.5122921		0		0.465		0		62%			
21	0	0	2.5491437		0		0.465		0		63%			
22	0	0	2.5852228		0		0.465		0		63%			
23	0	0	2.6205458		0		0.465		0		64%			
24	0	0	2.6551283		0		0.465		0		64%			
25	0	0	2.6889860		0		0.465		0		65%			
26	0	0	2.7221341		0		0.465		0		66%			
27	0	0	2.7545874		0		0.465		0		66%			
28	0	0	2.7863604		0		0.465		0		67%			
29	0	0	2.8174675		0		0.465		0		67%			
30	0	0	2.8479226		0		0.465		0		68%			
31	0	0	2.8777394		0		0.465		0		69%			
32	0	0	2.9069312		0		0.465		0		69%			
33	0	0	2.9355111		0		0.465		0		70%			
34	0	0	2.9634920		0		0.465		0		71%			
35	0	0	2.9908864		0		0.465		0		71%			
36	0	0	3.0177067		0		0.465		0		72%			
