			0				1		0		0%			
1	-1	39	0		0		1		0-		52%			
2	-1	39	0		0		0.904375		0		52%			
3	-1	39	0.2087571		0		0.904375		0		52%			
4	-1	39	0.4131668		0		0.904375		0		52%			
5	-1	39	0.5933572		0		0.904375		0		52%			
6	-1	39	0.7697951		0		0.904375		0		52%			
7	-1	39	0.9425585		0		0.904375		0		52%			
8	-1	39	1.1117241		0		0.904375		0		52%			
9	-1	39	1.2773668		0		0.904375		0		52%			
10	-1	39	1.4395599		0		0.904375		0		53%			
11	-1	39	1.5983752		0		0.904375		0		53%			
12	-1	39	1.7538832		0		0.904375		0		53%			
13	-1	39	1.9061526		0		0.904375		0		53%			
14	-1	39	2.0552510		0		0.904375		0		53%			
15	-1	39	2.2012443		0		0.904375		0		54%			
16	-1	39	2.3441973		0		0.904375		0		54%			
17	-1	39	2.4841732		0		0.904375		0		54%			
18	-1	39	2.6212341		0		0.904375		0		54%			
19	0	0	2.6212341		0		0.904375		0		55%			
20	0	0	2.8868522		0		0.904375		0		55%			
21	0	0	3.0155271		0		0.904375		0		55%			
22	0	0	3.1415223		0		0.904375		0		56%			
23	0	0	3.2648936		0		0.904375		0		56%			
24	0	0	3.3856957		0		0.904375		0		56%			
25	0	0	3.5039820		0		0.904375		0		57%			
26	0	0	3.6198049		0		0.904375		0		57%			
27	0	0	3.7332158		0		0.904375		0		58%			
28	0	0	3.8442648		0		0.904375		0		58%			
29	0	0	3.9530012		0		0.904375		0		59%			
30	0	0	4.0594732		0		0.904375		0		59%			
31	0	0	4.1637278		0		0.904375		0		60%			
32	0	0	4.2658112		0		0.904375		0		60%			
33	0	0	4.3657688		0		0.904375		0		60%			
34	0	0	4.4636447		0		0.904375		0		61%			
35	0	0	4.5594822		0		0.904375		0		61%			
36	0	0	4.6533240		0		0.904375		0		62%			
37	0	0	4.7452114		0		0.904375		0		63%			
38	0	0	4.8351852		0		0.904375		0		63%			
39	0	0	4.9232853		0		0.904375		0		64%			
40	0	0	5.0095507		0		0.904375		0		64%			
41	0	0	5.0940196		0		0.904375		0		65%			
42	0	0	5.1767293		0		0.904375		0		65%			
43	0	1	5.1767293		0		0.904375		0		66%			
44	0	1	5.3370174		0		0.904375		0		67%			
45	0	1	5.4146666		0		0.904375		0		67%			
46	0	1	5.4906988		0		0.904375		0		68%			
47	0	1	5.5651475		0		0.904375		0		68%			
48	0	1	5.6380459		0		0.904375		0		69%			
49	0	1	5.7094261		0		0.904375		0		70%			
50	0	1	5.7793197		0		0.904375		0		70%			
51	0	1	5.8477579		0		0.904375		0		71%			
52	0	1	5.9147707		0		0.904375		0		72%			
53	0	1	5.9803880		0		0.904375		0		72%			
54	0	1	6.0446388		0		0.904375		0		73%			
55	0	1	6.1075516		0		0.904375		0		74%			
56	0	1	6.1691541		0		0.904375		0		74%			
57	0	1	6.2294738		0		0.904375		0		75%			
58	0	1	6.2885373		0		0.904375		0		76%			
59	0	1	6.3463707		0		0.704375		0		76%			
60	0	2	6.3463707		0		0.504375		0		77%			
61	0	2	6.3340647		0		0.304375		0		78%			
62	0	2	6.2656957		0		0.104375		0		79%			
63	0	2	6.1569992		0		0.05		0		79%			
64	0	2	6.0392150		0		0.05		0		80%			
65	0	2	5.9238838		0		0.05		0		81%			
66	0	2	5.8109545		0		0.05		0		81%			
67	0	2	5.7003769		0		0.05		0		82%			
68	0	2	5.5921021		0		0.05		0		83%			
