			0				1		0		0%			
1	-1	43	0		0		0.5325		0		67%			
2	-1	43	0		0		0.5325		0		67%			
3	-1	43	0.1940626		0		0.5325		0		67%			
4	-1	43	0.3841346		0		0.5325		0		67%			
5	-1	43	0.4795738		0		0.5325		0		67%			
6	-1	43	0.5730504		0		0.5325		0		67%			
7	-1	43	0.6646048		0		0.5325		0		67%			
8	-1	43	0.7542765		0		0.5325		0		67%			
9	-1	43	0.8421043		0		0.5325		0		68%			
10	-1	43	0.9281260		0		0.5325		0		68%			
11	-1	43	1.0123788		0		0.5325		0		68%			
12	-1	43	1.0948990		0		0.5325		0		68%			
13	-1	43	1.1757224		0		0.5325		0		68%			
14	-1	43	1.2548837		0		0.5325		0		68%			
15	-1	43	1.3324172		0		0.5325		0		68%			
16	-1	43	1.4083563		0		0.5325		0		69%			
17	-1	43	1.4827339		0		0.5325		0		69%			
18	-1	43	1.5555820		0		0.5325		0		69%			
19	-1	43	1.6269320		0		0.5325		0		69%			
20	-1	43	1.6968149		0		0.5325		0		69%			
21	-1	43	1.7652607		0		0.5825		0		70%			
22	-1	43	1.8420022		0		0.6325		0		70%			
23	-1	43	1.9268687		0		0.6825		0		70%			
24	-1	43	2.0196932		0		0.7325		0		70%			
25	-1	43	2.1203120		0		0.7825		0		71%			
26	-1	43	2.2285649		0		0.8325		0		71%			
27	-1	43	2.3442948		0		0.8825		0		71%			
28	-1	43	2.4673481		0		0.9325		0		72%			
29	-1	43	2.5975740		0		0.9825		0		72%			
30	-1	43	2.7348252		0		1		0-		72%			
31	-1	43	2.8726502		0		1		0-		73%			
32	-1	43	3.0076409		0		1		0-		73%			
33	-1	43	3.1398558		0		1		0-		74%			
34	0	0	3.1398558		0		1		0-		74%			
35	0	0	3.3961850		0		1		0		74%			
36	0	0	3.5204100		0		1		0		75%			
37	0	0	3.6420805		0		1		0		75%			
38	0	0	3.7612491		0		1		0		76%			
39	0	0	3.8779671		0		1		0		76%			
40	0	0	3.9922849		0		1		0		77%			
41	0	0	4.1042520		0		1		0		77%			
42	0	0	4.2139167		0		1		0		78%			
43	0	0	4.3213262		0		1		0		79%			
44	0	0	4.4265271		0		1		0		79%			
45	0	0	4.5295646		0		1		0		80%			
46	0	0	4.6304833		0		1		0		80%			
47	0	0	4.7293268		0		1		0		81%			
48	0	0	4.8261376		0		1		0		82%			
49	0	0	4.9209578		0		1		0		82%			
50	0	0	5.0138280		0		1		0		83%			
51	0	0	5.1047886		0		1		0		84%			
52	0	0	5.1938786		0		1		0		84%			
53	0	0	5.2811367		0		1		0		85%			
54	0	0	5.3666004		0		0.9		0		86%			
55	0	0	5.4309004		0		0.8		0		86%			
56	0	1	5.4309004		0		0.7		0		87%			
57	0	1	5.5171475		0		0.6		0		88%			
58	0	1	5.5201329		0		0.5		0		89%			
59	0	1	5.5036507		0		0.4		0		89%			
60	0	1	5.4681011		0		0.3		0		90%			
61	0	1	5.4138764		0		0.2		0		91%			
62	0	1	5.3413604		0		0.1		0		91%			
63	0	1	5.2509293		0		0.1		0		92%			
64	0	1	5.1623578		0		0.1		0		93%			
65	0	1	5.0756077		0		0.1		0		94%			
66	0	1	4.9906414		0		0.1		0		94%			
67	0	1	4.9074224		0		0.1		0		95%			
68	0	1	4.8259146		0		0.1		0		95%			
69	0	1	4.7460829		0		0.1		0		96%			
70	0	1	4.6678929		0		0.1		0		97%			
71	0	1	4.5913107		0		0.1		0		97%			
72	0	1	4.5163033		0		0.1		0		98%			
73	0	1	4.4428383		0		0.1		0		99%			
74	0	1	4.3708841		0		0.1		0		99%			
75	0	2-	4.3708841		0		0.4325		0		0%		4.3708841016791	
76	0	2-	4.2959098		0		0.4325		0		1%		4.2959098721881	
77	0	2-	4.2915028		0		0.4325		0		1%		4.2915028038407	
78	0	2-	4.2871863		0		0.4325		0		2%		4.2871863604676	
79	0	2-	4.2829586		0		0.4325		0		3%		4.2829586784976	
80	0	2-	4.2788179		0		0.4325		0		4%		4.2788179326811	
81	0	2-	4.2747623		0		0.4325		0		5%		4.2747623353019	
82	0	2-	4.2707901		0		0.4325		0		6%		4.2707901354059	
83	0	2-	4.2668996		0		0.4325		0		7%		4.2668996180448	
84	0	2-	4.2630891		0		0.4325		0		7%		4.2630891035354	
85	0	2-	4.2593569		0		0.4325		0		8%		4.2593569467352	
86	0	2-	4.2557015		0		0.4325		0		9%		4.2557015363313	
87	0	2-	4.2521212		0		0.4325		0		10%		4.2557015363313	
88	0	2-	4.2486146		0		0.4325		0		11%		4.2557015363313	
89	0	2-	4.2451801		0		0.4325		0		12%		4.2557015363313	
90	0	2-	4.2418162		0		0.4325		0		12%		4.2557015363313	
91	0	2-	4.2385215		0		0.4325		0		13%		4.2557015363313	
92	0	2-	4.2352946		0		0.4325		0		14%		4.2557015363313	
93	0	2-	4.2321340		0		0.4325		0		15%		4.2557015363313	
94	0	3-	4.2321340		0		0.4325		0		16%		4.2557015363313	
95	0	3-	4.2260064		0		0.4325		0		17%		4.2557015363313	
96	0	3-	4.2230368		0		0.4325		0		18%		4.2557015363313	
97	0	3-	4.2201282		0		0.4325		0		19%		4.2557015363313	
98	0	3-	4.2172795		0		0.4325		0		19%		4.2557015363313	
99	0	3-	4.2144894		0		0.4325		0		20%		4.2557015363313	
100	0	3-	4.2117566		0		0.4325		0		21%		4.2557015363313	
101	0	3-	4.2090800		0		0.4325		0		22%		4.2557015363313	
102	0	3-	4.2064585		0		0.4325		0		23%		4.2557015363313	
103	0	3-	4.2038908		0		0.4325		0		24%		4.2557015363313	
104	0	3-	4.2013760		0		0.4325		0		25%		4.2557015363313	
105	0	3-	4.1989129		0		0.4325		0		25%		4.2557015363313	
106	0	3-	4.1965004		0		0.4325		0		26%		4.2557015363313	
107	0	3-	4.1941376		0		0.4325		0		27%		4.2557015363313	
108	0	3-	4.1918233		0		0.4325		0		28%		4.2557015363313	
109	0	3-	4.1895566		0		0.4325		0		29%		4.2557015363313	
110	0	3-	4.1873365		0		0.4325		0		30%		4.2557015363313	
111	0	3-	4.1851621		0		0.4325		0		30%		4.2557015363313	
112	0	4-	4.1851621		0		0.4325		0		33%		4.2557015363313	
113	0	4-	4.1809465		0		0.4325		0		34%		4.2557015363313	
114	0	4-	4.1789035		0		0.4325		0		34%		4.2557015363313	
115	0	4-	4.1769025		0		0.4325		0		35%		4.2557015363313	
116	0	4-	4.1749426		0		0.4325		0		36%		4.2557015363313	
117	0	4-	4.1730231		0		0.4325		0		37%		4.2557015363313	
118	0	4-	4.1711430		0		0.4325		0		38%		4.2557015363313	
119	0	4-	4.1693016		0		0.4325		0		39%		4.2557015363313	
120	0	4-	4.1674980		0		0.4325		0		39%		4.2557015363313	
121	0	4-	4.1657316		0		0.4325		0		40%		4.2557015363313	
122	0	4-	4.1640014		0		0.4325		0		41%		4.2557015363313	
123	0	4-	4.1623069		0		0.4325		0		42%		4.2557015363313	
124	0	4-	4.1606472		0		0.4325		0		43%		4.2557015363313	
125	0	4-	4.1590216		0		0.4325		0		44%		4.2557015363313	
126	0	4-	4.1574294		0		0.4325		0		44%		4.2557015363313	
127	0	4-	4.1558700		0		0.4325		0		45%		4.2557015363313	
128	0	4-	4.1543426		0		0.4325		0		46%		4.2557015363313	
129	0	4-	4.1528467		0		0.4325		0		47%		4.2557015363313	
130	0	5-	4.1528467		0		0.4325		0		49%		4.2557015363313	
131	0	5-	4.1499465		0		0.4325		0		50%		4.2557015363313	
132	0	5-	4.1485409		0		0.4325		0		51%		4.2557015363313	
133	0	5-	4.1471643		0		0.4325		0		52%		4.2557015363313	
134	0	5-	4.1458159		0		0.4325		0		53%		4.2557015363313	
135	0	5-	4.1444953		0		0.4325		0		53%		4.2557015363313	
136	0	5-	4.1432019		0		0.4325		0		54%		4.2557015363313	
137	0	5-	4.1419350		0		0.4325		0		55%		4.2557015363313	
138	0	5-	4.1406942		0		0.4325		0		56%		4.2557015363313	
139	0	5-	4.1394789		0		0.4325		0		57%		4.2557015363313	
140	0	5-	4.1382887		0		0.4325		0		57%		4.2557015363313	
141	0	5-	4.1371228		0		0.4325		0		58%		4.2557015363313	
142	0	5-	4.1359810		0		0.4325		0		59%		4.2557015363313	
143	0	5-	4.1348626		0		0.4325		0		60%		4.2557015363313	
144	0	5-	4.1337673		0		0.4325		0		61%		4.2557015363313	
145	0	5-	4.1326944		0		0.4325		0		62%		4.2557015363313	
146	0	5-	4.1316436		0		0.4325		0		62%		4.2557015363313	
147	0	5-	4.1306145		0		0.4325		0		63%		4.2557015363313	
148	0	6-	4.1306145		0		0.4325		0		66%		4.2557015363313	
149	0	6-	4.1286192		0		0.4325		0		66%		4.2557015363313	
150	0	6-	4.1276522		0		0.4325		0		67%		4.2557015363313	
151	0	6-	4.1267051		0		0.4325		0		68%		4.2557015363313	
152	0	6-	4.1257775		0		0.4325		0		69%		4.2557015363313	
153	0	6-	4.1248689		0		0.5325		0		70%		4.2557015363313	
154	0	6-	4.1433853		0		0.6325		0		71%		4.2557015363313	
155	0	6-	4.1809273		0		0.7325		0		71%		4.2557015363313	
156	0	6-	4.2371034		0		0.8325		0		72%		4.2557015363313	
157	0	6-	4.3115307		0		0.8325		0		73%		4.2557015363313	
158	0	6-	4.3844275		0		0.8325		0		74%		4.2557015363313	
159	0	6-	4.4558252		0		0.8325		0		75%		4.2557015363313	
160	0	6-	4.5257548		0		0.8325		0		76%		4.2557015363313	
161	0	6-	4.5942463		0		0.8325		0		77%		4.2557015363313	
162	0	6-	4.6613295		0		0.8325		0		78%		4.2557015363313	
163	0	6-	4.7270331		0		0.8325		0		78%		4.2557015363313	
164	0	7-	4.7270331		0		0.8325		0		83%		4.2557015363313	
165	0	7-	4.8544149		0		0.8325		0		84%		4.2557015363313	
166	0	7-	4.9161481		0		0.8325		0		85%		4.2557015363313	
167	0	7-	4.9766118		0		0.8325		0		86%		4.2557015363313	
168	0	7-	5.0358321		0		0.8325		0		87%		4.2557015363313	
169	0	7-	5.0938347		0		0.8325		0		88%		4.2557015363313	
170	0	7-	5.1506445		0		0.8325		0		89%		4.2557015363313	
171	0	7-	5.2062861		0		0.8325		0		90%		4.2557015363313	5.325
172	0	7-	5.2607835		0		0.8325		0		91%		4.2557015363313	5.325
173	0	7-	5.3141603		0		0.8325		0		92%		4.2557015363313	5.325
174	0	7-	5.3664394		0		0.7325		0		93%		4.2557015363313	5.325
175	0	7-	5.3982372		0		0.6325		0		94%		4.2557015363313	5.325
176	0	7-	5.4099749		0		0.5325		0		95%		4.2557015363313	5.325
177	0	7-	5.4020650		0		0.4325		0		96%		4.2557015363313	5.325
178	0	8	5.4020650		0		0.5265		0		6%		5.4020650510856	5.325
179	0	8	5.3665582		0		0.5265		0		16%		5.3665582194809	5.325
180	0	8	5.3583767		0		0.5265		0		26%		5.3583767077609	5.325
181	0	8	5.3503634		0		0.5265		0		36%		5.3503634369736	5.325
182	0	8	5.3425149		0		0.5265		0		46%		5.3503634369736	5.325
183	0	8	5.3348278		0		0.5265		0		56%		5.3503634369736	5.325
184	0	8	5.3272988		0		0.449375		0		66%		5.3503634369736	5.325
185	0	8	5.3049575		0		0.449375		0		76%		5.3503634369736	5.325
186	0	8	5.2830756		0		0.449375		0		86%		5.3503634369736	5.325
187	0	8	5.2616437		0		0.449375		0		96%		5.3503634369736	5.325
188	0	9-	5.2616437		0		0.449375		0		2%		5.261643787436	5.325
189	0	9-	5.2200930		0		0.449375		0		6%		5.2200930810639	5.325
190	0	9-	5.1999563		0		0.449375		0		10%		5.1999563313467	5.325
191	0	9-	5.1802336		0		0.449375		0		14%		5.1802336647075	5.325
192	0	9-	5.1609165		0		0.449375		0		18%		5.1609165661278	5.325
193	0	9-	5.1419966		0		0.449375		0		22%		5.1419966956882	5.325
194	0	9-	5.1234658		0		0.449375		0		26%		5.1234658849677	5.325
195	0	9-	5.1053161		0		0.449375		0		30%		5.1053161335169	5.325
196	0	9-	5.0875396		0		0.449375		0		34%		5.087539605404	5.325
197	0	9-	5.0701286		0		0.449375		0		38%		5.070128625832	5.325
198	0	9-	5.0530756		0		0.449375		0		42%		5.0530756778249	5.325
199	0	9-	5.0363733		0		0.449375		0		46%		5.0530756778249	5.325
200	0	9-	5.0200145		0		0.449375		0		50%		5.0530756778249	5.325
201	0	9-	5.0039921		0		0.449375		0		53%		5.0530756778249	5.325
202	0	9-	4.9882992		0		0.449375		0		57%		5.0530756778249	5.325
203	0	9-	4.9729289		0		0.4325		0		61%		5.0530756778249	5.325
204	0	10-	4.9729289		0		0.4325		0		65%		5.0530756778249	5.325
205	0	10-	4.9366479		-0.161212		0.4325		0		69%		5.0530756778249	5.325
206	0	10-	4.9190649		-0.459988		0.4325		0		73%		5.0530756778249	5.325
207	0	10-	4.9018436		-0.874382		0.4325		0		76%		5.0530756778249	5.325
208	0	10-	4.8849764		-1.384119		0.4325		0		80%		5.0530756778249	5.325
209	0	10-	4.8684560		-1.970549		0.4325		0		84%		5.0530756778249	5.325
210	0	10-	4.8522753		-2.616606		0.4325		0		88%		5.0530756778249	5.325
211	0	10-	4.8364274		-3.306746		0.4325		0		91%		5.0530756778249	5.49375
212	0	10-	4.8209054		-4.026888		0.4325		0		95%		5.0530756778249	5.49375
213	0	10-	4.8057026		-4.764352		0.4325		0		99%		5.0530756778249	5.49375
214	0	11-	4.8057026		-5.507792		0.4325		0		1%		4.8057026055578	5.49375
215	0	11-	4.7762283		-6.143904		0.4325		0		3%		4.7762283669478	5.49375
216	0	11-	4.7619442		-6.679724		0.4325		0		5%		4.7619442447796	5.49375
217	0	11-	4.7479538		-7.122201		0.4325		0		7%		4.7479538548848	5.49375
218	0	11-	4.7342511		-7.478161		0.4325		0		8%		4.7342511570849	5.49375
219	0	11-	4.7208302		-7.754270		0.4325		0		10%		4.7208302354088	5.49375
220	0	11-	4.7076852		-7.957010		0.4325		0		12%		4.7076852955389	5.49375
221	0	11-	4.6948106		-8.092653		0.4325		0		14%		4.6948106623092	5.49375
222	0	11-	4.6822007		-8.167239		0.4325		0		16%		4.6822007772554	5.49375
223	0	11-	4.6698501		-8.186566		0.4325		0		17%		4.6698501962149	5.49375
224	0	11-	4.6577535		-8.156173		0.4325		0		19%		4.6577535869765	5.49375
225	0	11-	4.6459057		-8.081332		0.4325		0		21%		4.6459057269779	5.49375
226	0	11-	4.6343015		-7.967043		0.4325		0		23%		4.6343015010517	5.49375
227	0	11-	4.6229358		-7.818032		0.4325		0		25%		4.622935899216	5.49375
228	0	11-	4.6118040		-7.638744		0.4325		0		26%		4.6118040145124	5.49375
229	0	12-	4.6118040		-7.433349		0.4325		0		34%		4.6118040145124	5.49375
230	0	12-	4.5902222		-7.205744		0.4325		0		36%		4.590222271114	5.49375
231	0	12-	4.5797630		-6.959554		0.4325		0		38%		4.5797630947674	5.49375
232	0	12-	4.5695189		-6.698141		0.4325		0		39%		4.569518996226	5.49375
233	0	12-	4.5594855		-6.424611		0.4325		0		41%		4.5594855527266	5.49375
234	0	12-	4.5496584		-6.141818		0.4325		0		43%		4.5496584324533	5.49375
235	0	12-	4.5400333		-5.852375		0.4325		0		45%		4.5496584324533	5.49375
236	0	12-	4.5306062		-5.558664		0.4325		0		47%		4.5496584324533	5.49375
237	0	12-	4.5213730		-5.262844		0.4325		0		48%		4.5496584324533	5.49375
238	0	12-	4.5123296		-4.966862		0.4325		0		50%		4.5496584324533	5.49375
239	0	12-	4.5034721		-4.672462		0.4325		0		52%		4.5496584324533	5.49375
240	0	12-	4.4947969		-4.381200		0.4325		0		53%		4.5496584324533	5.49375
241	0	12-	4.4863000		-4.094449		0.4325		0		55%		4.5496584324533	5.49375
242	0	12-	4.4779778		-3.813411		0.4325		0		57%		4.5496584324533	5.49375
243	0	12-	4.4698268		-3.539131		0.4325		0		59%		4.5496584324533	5.49375
244	0	13-	4.4698268		-3.272506		0.359375		0		66%		4.5496584324533	5.49375
245	0	13-	4.4398333		-3.014291		0.359375		0		68%		4.5496584324533	5.49375
246	0	13-	4.4182758		-2.765169		0.359375		0		70%		4.5496584324533	5.49375
247	0	13-	4.3971616		-2.525688		0.359375		0		72%		4.5496584324533	5.49375
248	0	13-	4.3764816		-2.296272		0.359375		0		73%		4.5496584324533	5.49375
249	0	13-	4.3562269		-2.077236		0.359375		0		75%		4.5496584324533	5.49375
250	0	13-	4.3363886		-1.868793		0.359375		0		77%		4.5496584324533	5.49375
251	0	13-	4.3169584		-1.671064		0.359375		0		78%		4.5496584324533	5.49375
252	0	13-	4.2979276		-1.484090		0.359375		0		80%		4.5496584324533	5.49375
253	0	13-	4.2792882		-1.307841		0.359375		0		82%		4.5496584324533	5.49375
254	0	13-	4.2610321		-1.142221		0.359375		0		83%		4.5496584324533	5.49375
255	0	13-	4.2431514		-0.987079		0.359375		0		85%		4.5496584324533	5.49375
256	0	13-	4.2256384		-0.842216		0.359375		0		86%		4.5496584324533	5.49375
257	0	13-	4.2084856		-0.707390		0.359375		0		88%		4.5496584324533	5.49375
258	0	13-	4.1916854		-0.582326		0.359375		0		90%		4.5496584324533	5.325
259	0	13-	4.1752308		-0.466717		0.359375		0		91%		4.5496584324533	5.325
260	0	13-	4.1591144		-0.360233		0.359375		0		93%		4.5496584324533	5.325
261	0	14-	4.1591144		-0.262525		0.359375		0		1%		4.1591144965101	5.325
262	0	14-	4.1278692		-0.173228		0.359375		0		3%		4.1278692892504	5.325
263	0	14-	4.1127269		-0.091967		0.359375		0		4%		4.1127269012289	5.325
264	0	14-	4.0978958		-0.018359		0.359375		0		6%		4.0978958944745	5.325
265	0	14-	4.0833698		0.0479819		0.359375		0		8%		4.0833698658825	5.325
266	0	14-	4.0691425		0.1074440		0.359375		0		10%		4.0833698658825	5.325
267	0	14-	4.0552077		0.1604135		0.359375		0		12%		4.0833698658825	5.325
268	0	14-	4.0415595		0.2072728		0.359375		0		14%		4.0833698658825	5.325
269	0	14-	4.0281920		0.2483991		0.359375		0		15%		4.0833698658825	5.325
270	0	14-	4.0150993		0.2841620		0.359375		0		17%		4.0833698658825	5.325
271	0	14-	4.0022759		0.3149224		0.359375		0		19%		4.0833698658825	5.325
272	0	15-	4.0022759		0.3410313		0.359375		0		21%		4.0833698658825	5.325
273	0	15-	3.9774147		0.3628285		0.359375		0		22%		4.0833698658825	5.325
274	0	15-	3.9653661		0.3806421		0.359375		0		24%		4.0833698658825	5.325
275	0	15-	3.9535654		0.3947876		0.359375		0		26%		4.0833698658825	5.325
276	0	15-	3.9420073		0.4055676		0.359375		0		28%		4.0833698658825	5.325
277	0	15-	3.9306869		0.4132711		0.359375		0		30%		4.0833698658825	5.325
278	0	15-	3.9195993		0.4181737		0.359375		0		31%		4.0833698658825	5.325
279	0	15-	3.9087397		0.4205372		0.359375		0		33%		4.0833698658825	5.325
280	0	15-	3.8981034		0.4206096		0.359375		0		35%		4.0833698658825	5.325
281	0	15-	3.8876858		0.4186253		0.359375		0		36%		4.0833698658825	5.325
282	0	15-	3.8774824		0.4148051		0.359375		0		38%		4.0833698658825	5.325
283	0	15-	3.8674889		0.4093564		0.359375		0		40%		4.0833698658825	5.325
284	0	16-	3.8674889		0.4024736		0.359375		0		42%		4.0833698658825	5.325
285	0	16-	3.8481141		0.3943383		0.359375		0		43%		4.0833698658825	5.325
286	0	16-	3.8387244		0.3851198		0.359375		0		45%		4.0833698658825	5.325
287	0	16-	3.8295279		0.3749751		0.359375		0		47%		4.0833698658825	5.325
288	0	16-	3.8205205		0.3640499		0.359375		0		49%		4.0833698658825	5.325
289	0	16-	3.8116983		0.3524786		0.359375		0		50%		4.0833698658825	5.325
290	0	16-	3.8030575		0.3403851		0.359375		0		52%		4.0833698658825	5.325
291	0	16-	3.7945944		0.3278827		0.359375		0		54%		4.0833698658825	5.325
292	0	16-	3.7863053		0.3150754		0.359375		0		55%		4.0833698658825	5.325
293	0	16-	3.7781867		0.3020576		0.359375		0		57%		4.0833698658825	5.325
294	0	16-	3.7702350		0.2889150		0.359375		0		59%		4.0833698658825	5.325
295	0	16-	3.7624468		0.2757251		0.359375		0		60%		4.0833698658825	5.325
296	0	16-	3.7548188		0.2625575		0.359375		0		62%		4.0833698658825	5.325
297	0	17-	3.7548188		0.2494743		0.359375		0		64%		4.0833698658825	5.325
298	0	17-	3.7400302		0.2365308		0.359375		0		65%		4.0833698658825	5.325
299	0	17-	3.7328631		0.2237759		0.359375		0		67%		4.0833698658825	5.325
300	0	17-	3.7258435		0.2112523		0.359375		0		69%		4.0833698658825	5.325
301	0	17-	3.7189682		0.1989972		0.459375		0		70%		4.0833698658825	5.325
302	0	17-	3.7316405		0.1870425		0.559375		0		72%		4.0833698658825	5.325
303	0	17-	3.7634585		0.1754108		0.659375		0		74%		4.0833698658825	5.325
304	0	17-	3.8140285		0.1641172		0.759375		0		75%		4.0833698658825	5.325
305	0	17-	3.8829648		0.1531704		0.859375		0		77%		4.0833698658825	5.325
306	0	17-	3.9698899		0.1425749		0.959375		0		79%		4.0833698658825	5.325
307	0	17-	4.0744337		0.1323314		1		0-		81%		4.0833698658825	5.325
308	0	17-	4.1847115		0.1224383		1		0-		83%		4.0833698658825	5.325
309	0	17-	4.2927216		0.1128940		1		0-		85%		4.0833698658825	5.325
310	0	17-	4.3985107		0.1036984		1		0-		87%		4.0833698658825	5.325
311	0	17-	4.5021243		0.0948522		1		0-		89%		4.0833698658825	5.325
312	0	17-	4.6036073		0.0863569		1		0		91%		4.0833698658825	4.59375
313	0	17-	4.7030034		0.0782141		1		0		93%		4.0833698658825	4.59375
314	0	17-	4.8003556		0.0704258		1		0		95%		4.0833698658825	4.59375
315	0	17-	4.8957059		0.0629937		1		0		97%		4.0833698658825	4.59375
316	0	18	4.8957059		0.0559194		0.694		0		0%		4.8957059409393	4.59375
317	0	18	5.0211814		0.0492037		0.594		0		3%		5.0211814405012	4.59375
318	0	18	5.0332013		0.0428508		0.594		0		5%		5.0332013301502	4.59375
319	0	18	5.0449740		0.0368636		0.594		0		8%		5.0449740481864	4.59375
320	0	18	5.0565046		0.0312426		0.594		0		11%		5.0565046773359	4.59375
321	0	18	5.0677981		0.0259863		0.594		0		13%		5.0677981958058	4.59375
322	0	18	5.0788594		0.0210910		0.594		0		16%		5.0788594794337	4.59375
323	0	18	5.0896933		0.0165513		0.594		0		19%		5.0896933037926	4.59375
324	0	18	5.1003043		0.0123603		0.594		0		21%		5.1003043462527	4.59375
325	0	18	5.1106971		0.0085095		0.594		0		24%		5.1106971880009	4.59375
326	0	18	5.1208763		0.0049895		0.594		0		27%		5.1208763160187	4.59375
327	0	18	5.1308461		0.0017896		0.594		0		30%		5.1308461250193	4.59375
328	0	18	5.1406109		-0.001101		0.594		0		32%		5.140610919345	4.59375
329	0	18	5.1501749		-0.003697		0.594		0		35%		5.1501749148254	4.59375
330	0	18	5.1595422		-0.006008		0.594		0		38%		5.1595422405978	4.59375
331	0	18	5.1687169		-0.008050		0.594		0		41%		5.1687169408897	4.59375
332	0	18	5.1777029		-0.009836		0.594		0		43%		5.1777029767651	4.59375
333	0	18	5.1865042		-0.011380		0.594		0		46%		5.1777029767651	4.59375
334	0	18	5.1951244		-0.012695		0.594		0		49%		5.1777029767651	4.59375
335	0	19	5.1951244		-0.013796		0.594		0		52%		5.1777029767651	4.59375
336	0	19	5.2118368		-0.014698		0.594		0		54%		5.1777029767651	4.59375
337	0	19	5.2199362		-0.015413		0.594		0		57%		5.1777029767651	4.59375
338	0	19	5.2278690		-0.015957		0.32		0		60%		5.1777029767651	4.59375
339	0	19	5.1824654		-0.016342		0.32		0		63%		5.1777029767651	4.59375
340	0	19	5.1379956		-0.016582		0.32		0		65%		5.1777029767651	4.59375
341	0	19	5.0944402		-0.016692		0.32		0		68%		5.1777029767651	4.59375
342	0	19	5.0517805		-0.016685		0.22		0		71%		5.1777029767651	4.59375
343	0	19	4.9905917		-0.016573		0.12		0		74%		5.1777029767651	4.59375
344	0	19	4.9112549		-0.016369		0.02		0		76%		5.1777029767651	4.59375
345	0	19	4.8141434		-0.016084		0.05		0		79%		5.1777029767651	4.59375
346	0	19	4.7248506		-0.015732		0.05		0		81%		5.1777029767651	4.59375
347	0	19	4.6373940		-0.015322		0.05		0		84%		5.1777029767651	4.59375
348	0	19	4.5517359		-0.014863		0.05		0		86%		5.1777029767651	4.59375
349	0	19	4.4678391		-0.014367		0.05		0		88%		5.1777029767651	4.59375
350	0	19	4.3856676		-0.013839		0.05		0		91%		5.1777029767651	4.59375
351	0	19	4.3051859		-0.013289		0.05		0		93%		5.1777029767651	4.59375
352	0	19	4.2263591		-0.012722		0.05		0		95%		5.1777029767651	4.59375
353	0	19	4.1491533		-0.012144		0.05		0		98%		5.1777029767651	4.59375
354	0	20-	4.1491533		-0.011562		0.32		0		0%		4.149153325578	4.59375
355	0	20-	4.0518688		-0.010978		0.32		0		2%		4.0518688306928	4.59375
356	0	20-	4.0306480		-0.010398		0.32		0		4%		4.030648065409	4.59375
357	0	20-	4.0098636		-0.009823		0.32		0		6%		4.0098636744125	4.59375
358	0	20-	3.9895066		-0.009256		0.32		0		8%		3.9895066842984	4.59375
359	0	20-	3.9695683		-0.008700		0.32		0		10%		3.9895066842984	4.59375
360	0	20-	3.9500399		-0.008156		0.32		0		12%		3.9895066842984	4.59375
361	0	20-	3.9309131		-0.007626		0.32		0		15%		3.9895066842984	4.59375
362	0	20-	3.9121796		-0.007112		0.32		0		17%		3.9895066842984	4.59375
363	0	20-	3.8938313		-0.006615		0.32		0		19%		3.9895066842984	4.59375
364	0	20-	3.8758604		-0.006135		0.32		0		21%		3.9895066842984	4.59375
365	0	20-	3.8582590		-0.005673		0.32		0		23%		3.9895066842984	4.59375
366	0	21-	3.8582590		-0.005230		0.32		0		25%		3.9895066842984	4.59375
367	0	21-	3.8241346		-0.004807		0.32		0		27%		3.9895066842984	4.59375
368	0	21-	3.8075968		-0.004402		0.32		0		29%		3.9895066842984	4.59375
369	0	21-	3.7913991		-0.004017		0.32		0		31%		3.9895066842984	4.59375
370	0	21-	3.7755346		-0.003652		0.32		0		33%		3.9895066842984	4.59375
371	0	21-	3.7599962		-0.003306		0.32		0		35%		3.9895066842984	4.59375
372	0	21-	3.7447774		-0.002979		0.32		0		37%		3.9895066842984	4.59375
373	0	21-	3.7298715		-0.002671		0.32		0		39%		3.9895066842984	4.59375
374	0	21-	3.7152721		-0.002381		0.32		0		41%		3.9895066842984	4.59375
375	0	21-	3.7009730		-0.002109		0.32		0		43%		3.9895066842984	4.59375
376	0	21-	3.6869679		-0.001854		0.32		0		45%		3.9895066842984	4.59375
377	0	21-	3.6732508		-0.001617		0.32		0		47%		3.9895066842984	4.59375
378	0	21-	3.6598158		-0.001395		0.32		0		49%		3.9895066842984	4.59375
379	0	22-	3.6598158		-0.001190		0.32		0		51%		3.9895066842984	4.59375
380	0	22-	3.6337688		-0.000999		0.32		0		53%		3.9895066842984	4.59375
381	0	22-	3.6211457		-0.000824		0.32		0		54%		3.9895066842984	4.59375
382	0	22-	3.6087821		-0.000661		0.32		0		56%		3.9895066842984	4.59375
383	0	22-	3.5966728		-0.000513		0.32		0		58%		3.9895066842984	4.59375
384	0	22-	3.5848125		-0.000376		0.32		0		60%		3.9895066842984	4.59375
385	0	22-	3.5731960		-0.000252		0.32		0		62%		3.9895066842984	4.59375
386	0	22-	3.5618185		-0.000139		0.32		0		64%		3.9895066842984	4.59375
387	0	22-	3.5506749		-3.718568		0.32		0		66%		3.9895066842984	4.59375
388	0	22-	3.5397604		5.5081874		0.32		0		68%		3.9895066842984	4.59375
389	0	22-	3.5290705		0.0001378		0.42		0		70%		3.9895066842984	4.59375
390	0	22-	3.5380065		0.0002117		0.52		0		71%		3.9895066842984	4.59375
391	0	22-	3.5661651		0.0002773		0.62		0		73%		3.9895066842984	4.59375
392	0	23-	3.5661651		0.0003351		0.72		0		75%		3.9895066842984	4.59375
393	0	23-	3.6591706		0.0003856		0.82		0		77%		3.9895066842984	4.59375
394	0	23-	3.7430564		0.0004293		0.92		0		79%		3.9895066842984	4.59375
395	0	23-	3.8446235		0.0004666		1		0-		81%		3.9895066842984	4.59375
396	0	23-	3.9596270		0.0004979		1		0-		83%		3.9895066842984	4.59375
397	0	23-	4.0722657		0.0005237		1		0-		85%		3.9895066842984	4.59375
398	0	23-	4.1825881		0.0005441		1		0-		88%		3.9895066842984	4.59375
399	0	23-	4.2906419		0.0005597		1		0		90%		3.9895066842984	4.2
400	0	23-	4.3964737		0.0005708		1		0		92%		3.9895066842984	4.2
401	0	23-	4.5001292		0.0005776		1		0		95%		3.9895066842984	4.2
402	0	23-	4.6016532		0.0097390		1		0		97%		3.9895066842984	4.2
403	0	24	4.6016532		0.0586492		0.699		0		0%		4.6016532582042	4.2
404	0	24	4.7400682		0.1023236		0.699		0		2%		4.7400682625971	4.2
405	0	24	4.7782454		0.1410244		0.699		0		4%		4.7782454148884	4.2
406	0	24	4.8156375		0.1750127		0.699		0		7%		4.815637509365	4.2
407	0	24	4.8522606		0.2045488		0.699		0		9%		4.852260689603	4.2
408	0	24	4.8881307		0.2298905		0.699		0		12%		4.8881307672097	4.2
409	0	24	4.9232632		0.2512934		0.699		0		14%		4.9232632286494	4.2
410	0	24	4.9576732		0.2690096		0.699		0		17%		4.9576732419295	4.2
411	0	24	4.9913756		0.2832870		0.599		0		19%		4.9913756631497	4.2
412	0	24	5.0049787		0.2943693		0.599		0		22%		5.0049787786328	4.2
413	0	24	5.0183021		0.3025016		0.599		0		24%		5.0183021657581	4.2
414	0	24	5.0313515		0.3079232		0.599		0		27%		5.0313515767339	4.2
415	0	24	5.0441326		0.3108660		0.599		0		29%		5.0441326454828	4.2
416	0	24	5.0566508		0.3115545		0.599		0		32%		5.0566508900738	4.2
417	0	24	5.0689117		0.3102048		0.599		0		35%		5.0689117151047	4.2
418	0	24	5.0809204		0.3070247		0.599		0		37%		5.080920414036	4.2
419	0	24	5.0926821		0.3022125		0.599		0		40%		5.0926821714753	4.2
420	0	24	5.1042020		0.2959578		0.599		0		42%		5.1042020654168	4.2
421	0	24	5.1154850		0.2884402		0.599		0		45%		5.1042020654168	4.2
422	0	24	5.1265360		0.2798300		0.599		0		47%		5.1042020654168	4.2
423	0	25	5.1265360		0.2702876		0.599		0		50%		5.1042020654168	4.2
424	0	25	5.1479609		0.2599638		0.599		0		53%		5.1042020654168	4.2
425	0	25	5.1583441		0.2489995		0.599		0		55%		5.1042020654168	4.2
426	0	25	5.1685137		0.2375261		0.599		0		58%		5.1042020654168	4.2
427	0	25	5.1784742		0.2256654		0.4325		0		60%		5.1042020654168	4.2
428	0	25	5.1559185		0.2135301		0.4325		0		63%		5.1042020654168	4.2
429	0	25	5.1338266		0.2012321		0.4325		0		66%		5.1042020654168	4.2
430	0	25	5.1121890		0.1888725		0.4325		0		68%		5.1042020654168	4.2
431	0	25	5.0909963		0.1765420		0.4325		0		71%		5.1042020654168	4.2
432	0	25	5.0702395		0.1643211		0.4325		0		73%		5.1042020654168	4.2
433	0	25	5.0499094		0.1522808		0.4325		0		76%		5.1042020654168	4.2
434	0	25	5.0299975		0.1404833		0.4325		0		78%		5.1042020654168	4.2
435	0	25	5.0104949		0.1289822		0.4325		0		81%		5.1042020654168	4.2
436	0	25	4.9913935		0.1178234		0.4325		0		84%		5.1042020654168	4.2
437	0	25	4.9726848		0.1070454		0.4325		0		86%		5.1042020654168	4.2
438	0	25	4.9543608		0.0966798		0.4325		0		89%		5.1042020654168	4.2
439	0	25	4.9364137		0.0867520		0.4325		0		91%		5.1042020654168	4.2
440	0	25	4.9188356		0.0772817		0.4325		0		94%		5.1042020654168	4.2
441	0	25	4.9016189		0.0682833		0.4325		0		96%		5.1042020654168	4.2
442	0	25	4.8847563		0.0597663		0.4325		0		98%		5.1042020654168	4.2
443	0	26-	4.8847563		0.0517361		0.4325		0		1%		4.8847563767932	4.2
444	0	26-	4.8520643		0.0441941		0.4325		0		2%		4.8520643143322	4.2
445	0	26-	4.8362207		0.0371382		0.4325		0		4%		4.836220735799	4.2
446	0	26-	4.8207029		0.0305634		0.4325		0		6%		4.8207029574996	4.2
447	0	26-	4.8055042		0.0244620		0.4325		0		8%		4.8055042798243	4.2
448	0	26-	4.7906181		0.0188237		0.4325		0		10%		4.7906181409311	4.2
449	0	26-	4.7760381		0.0136365		0.4325		0		12%		4.776038113913	4.2
450	0	26-	4.7617579		0.0088867		0.4325		0		14%		4.7617579040227	4.2
451	0	26-	4.7477713		0.0045589		0.4325		0		15%		4.7477713459555	4.2
452	0	26-	4.7340724		0.0006369		0.4325		0		17%		4.7340724011873	4.2
453	0	26-	4.7206551		-0.002896		0.4325		0		19%		4.7206551553672	4.2
454	0	26-	4.7075138		-0.006059		0.4325		0		21%		4.7075138157646	4.2
455	0	26-	4.6946427		-0.008871		0.4325		0		23%		4.694642708768	4.2
456	0	26-	4.6820362		-0.011349		0.4325		0		24%		4.6820362774354	4.2
457	0	26-	4.6696890		-0.013512		0.4325		0		26%		4.6696890790954	4.2
458	0	27-	4.6696890		-0.015381		0.4325		0		34%		4.6696890790954	4.2
459	0	27-	4.6457511		-0.016973		0.4325		0		36%		4.6457511680086	4.2
460	0	27-	4.6341501		-0.018307		0.4325		0		38%		4.6341501203636	4.2
461	0	27-	4.6227876		-0.019402		0.4325		0		40%		4.6227876314524	4.2
462	0	27-	4.6116587		-0.020275		0.4325		0		41%		4.6116587956605	4.2
463	0	27-	4.6007588		-0.020944		0.4325		0		43%		4.60075880825	4.2
464	0	27-	4.5900829		-0.021426		0.4325		0		45%		4.60075880825	4.2
465	0	27-	4.5796266		-0.021737		0.4325		0		47%		4.60075880825	4.2
466	0	27-	4.5693853		-0.021892		0.4325		0		48%		4.60075880825	4.2
467	0	27-	4.5593546		-0.021906		0.4325		0		50%		4.60075880825	4.2
468	0	27-	4.5495302		-0.021795		0.4325		0		52%		4.60075880825	4.2
469	0	27-	4.5399078		-0.021570		0.4325		0		54%		4.60075880825	4.2
470	0	27-	4.5304832		-0.021246		0.4325		0		55%		4.60075880825	4.2
471	0	27-	4.5212525		-0.020833		0.4325		0		57%		4.60075880825	4.2
472	0	27-	4.5122116		-0.020344		0.4325		0		59%		4.60075880825	4.2
473	0	28-	4.5122116		-0.019790		0.46625		0		67%		4.60075880825	4.2
474	0	28-	4.5012333		-0.019179		0.46625		0		68%		4.60075880825	4.2
475	0	28-	4.4991537		-0.018521		0.46625		0		70%		4.60075880825	4.2
476	0	28-	4.4971168		-0.017826		0.46625		0		72%		4.60075880825	4.2
477	0	28-	4.4951218		-0.017099		0.46625		0		74%		4.60075880825	4.2
478	0	28-	4.4931679		-0.016349		0.46625		0		75%		4.60075880825	4.2
479	0	28-	4.4912541		-0.015582		0.46625		0		77%		4.60075880825	4.2
480	0	28-	4.4893797		-0.014805		0.46625		0		79%		4.60075880825	4.2
481	0	28-	4.4875438		-0.014022		0.46625		0		81%		4.60075880825	4.2
482	0	28-	4.4857456		-0.013238		0.46625		0		82%		4.60075880825	4.2
483	0	28-	4.4839845		-0.012459		0.46625		0		84%		4.60075880825	4.2
484	0	28-	4.4822596		-0.011688		0.46625		0		86%		4.60075880825	4.2
485	0	28-	4.4805701		-0.010929		0.46625		0		87%		4.60075880825	4.2
486	0	28-	4.4789154		-0.010184		0.46625		0		89%		4.60075880825	4.2
487	0	28-	4.4772947		-0.009457		0.46625		0		91%		4.60075880825	5.325
488	0	28-	4.4757073		-0.008749		0.46625		0		93%		4.60075880825	5.325
489	0	29-	4.4757073		-0.008063		0.46625		0		0%		4.475707343143	5.325
490	0	29-	4.4726298		-0.007401		0.46625		0		2%		4.472629856684	5.325
491	0	29-	4.4711384		-0.006764		0.46625		0		4%		4.4711384121337	5.325
492	0	29-	4.4696776		-0.006152		0.46625		0		6%		4.4696776369793	5.325
493	0	29-	4.4682469		-0.005568		0.46625		0		8%		4.4682469005491	5.325
494	0	29-	4.4668455		-0.005010		0.46625		0		9%		4.4668455851404	5.325
495	0	29-	4.4654730		-0.004481		0.46625		0		11%		4.4668455851404	5.325
496	0	29-	4.4641288		-0.003979		0.46625		0		13%		4.4668455851404	5.325
497	0	29-	4.4628121		-0.003506		0.46625		0		15%		4.4668455851404	5.325
498	0	29-	4.4615226		-0.003060		0.46625		0		16%		4.4668455851404	5.325
499	0	29-	4.4602595		-0.002641		0.46625		0		18%		4.4668455851404	5.325
500	0	29-	4.4590225		-0.002250		0.46625		0		20%		4.4668455851404	5.325
501	0	29-	4.4578108		-0.001885		0.46625		0		22%		4.4668455851404	5.325
502	0	29-	4.4566241		-0.001547		0.46625		0		24%		4.4668455851404	5.325
503	0	29-	4.4554618		-0.001233		0.46625		0		25%		4.4668455851404	5.325
504	0	29-	4.4543234		-0.000944		0.46625		0		27%		4.4668455851404	5.325
505	0	29-	4.4532084		-0.000679		0.46625		0		29%		4.4668455851404	5.325
506	0	29-	4.4521163		-0.000436		0.46625		0		31%		4.4668455851404	5.325
507	0	29-	4.4510467		-0.000216		0.46625		0		32%		4.4668455851404	5.325
508	0	30-	4.4510467		-1.626559		0.46625		0		34%		4.4668455851404	5.325
509	0	30-	4.4489730		0.0001637		0.46625		0		36%		4.4668455851404	5.325
510	0	30-	4.4479680		0.0003247		0.46625		0		38%		4.4668455851404	5.325
511	0	30-	4.4469837		0.0004679		0.46625		0		39%		4.4668455851404	5.325
512	0	30-	4.4460197		0.0005942		0.46625		0		41%		4.4668455851404	5.325
513	0	30-	4.4450754		0.0007045		0.46625		0		43%		4.4668455851404	5.325
514	0	30-	4.4441506		0.0007999		0.46625		0		45%		4.4668455851404	5.325
515	0	30-	4.4432448		0.0008812		0.46625		0		47%		4.4668455851404	5.325
516	0	30-	4.4423576		0.0009496		0.46625		0		48%		4.4668455851404	5.325
517	0	30-	4.4414886		0.0010058		0.46625		0		50%		4.4668455851404	5.325
518	0	30-	4.4406376		0.0010509		0.46625		0		52%		4.4668455851404	5.325
519	0	30-	4.4398040		0.0010856		0.46625		0		54%		4.4668455851404	5.325
520	0	30-	4.4389876		0.0011108		0.46625		0		55%		4.4668455851404	5.325
521	0	30-	4.4381879		0.0011273		0.46625		0		57%		4.4668455851404	5.325
522	0	30-	4.4374047		0.0011359		0.46625		0		59%		4.4668455851404	5.325
523	0	30-	4.4366376		0.0011374		0.46625		0		61%		4.4668455851404	5.325
524	0	30-	4.4358863		0.0011324		0.46625		0		62%		4.4668455851404	5.325
525	0	30-	4.4351505		0.0011216		0.46625		0		64%		4.4668455851404	5.325
526	0	30-	4.4344297		0.0011057		0.46625		0		66%		4.4668455851404	5.325
527	0	31-	4.4344297		0.0010852		0.46625		0		68%		4.4668455851404	5.325
528	0	31-	4.4330324		0.0010608		0.46625		0		70%		4.4668455851404	5.325
529	0	31-	4.4323552		0.0010329		0.46625		0		72%		4.4668455851404	5.325
530	0	31-	4.4316920		0.0010021		0.46625		0		74%		4.4668455851404	5.325
531	0	31-	4.4310424		0.0009689		0.46625		0		75%		4.4668455851404	5.325
532	0	31-	4.4304061		0.0009336		0.46625		0		77%		4.4668455851404	5.325
533	0	31-	4.4297829		0.0008966		0.46625		0		79%		4.4668455851404	5.325
534	0	31-	4.4291726		0.0008584		0.46625		0		81%		4.4668455851404	5.325
535	0	31-	4.4285748		0.0008192		0.46625		0		82%		4.4668455851404	5.325
536	0	31-	4.4279892		0.0007795		0.46625		0		84%		4.4668455851404	5.325
537	0	31-	4.4274158		0.0007394		0.46625		0		86%		4.4668455851404	5.325
538	0	31-	4.4268541		0.0006992		0.46625		0		88%		4.4668455851404	5.325
539	0	31-	4.4263039		0.0006591		0.46625		0		89%		4.4668455851404	5.325
540	0	31-	4.4257651		0.0006194		0.46625		0		91%		4.4668455851404	5.6625
541	0	31-	4.4252374		0.0005803		0.46625		0		93%		4.4668455851404	5.6625
542	0	31-	4.4247205		0.0005419		0.46625		0		95%		4.4668455851404	5.6625
543	0	32	4.4247205		0.0005043		0.5265		0		0%		4.4247205446503	5.6625
544	0	32	4.4354107		0.0004677		0.5265		0		8%		4.4354107114163	5.6625
545	0	32	4.4463768		0.0004321		0.5265		0		17%		4.4463768988847	5.6625
546	0	32	4.4571175		0.0003977		0.5265		0		25%		4.4571175825988	5.6625
547	0	32	4.4676373		0.0003645		0.5265		0		34%		4.4676373997166	5.6625
548	0	32	4.4779408		0.0003326		0.5265		0		42%		4.4779408920394	5.6625
549	0	32	4.4880325		0.0003021		0.5265		0		51%		4.4779408920394	5.6625
550	0	32	4.4979166		0.0002729		0.5265		0		59%		4.4779408920394	5.6625
551	0	32	4.5075974		0.0002450		0.455		0		68%		4.4779408920394	5.6625
552	0	32	4.5032037		0.0002186		0.455		0		76%		4.4779408920394	5.6625
553	0	32	4.4989003		0.0001936		0.455		0		85%		4.4779408920394	5.6625
554	0	32	4.4946855		0.0001700		0.455		0		93%		4.4779408920394	5.6625
555	0	33-	4.4946855		0.0001478		0.455		0		0%		4.4946855201153	5.6625
556	0	33-	4.4865140		0.0001270		0.455		0		1%		4.4865140263225	5.6625
557	0	33-	4.4825538		0.0001076		0.455		0		2%		4.4825538692111	5.6625
558	0	33-	4.4786751		8.9552319		0.455		0		3%		4.4786751469922	5.6625
559	0	33-	4.4748761		7.2765893		0.455		0		4%		4.474876185075	5.6625
560	0	33-	4.4711553		5.7251086		0.455		0		5%		4.4711553433046	5.6625
561	0	33-	4.4675110		4.2967787		0.455		0		6%		4.4675110152534	5.6625
562	0	33-	4.4639416		2.9872869		0.455		0		7%		4.4639416275277	5.6625
563	0	33-	4.4604456		1.7920754		0.455		0		8%		4.4604456390881	5.6625
564	0	33-	4.4570215		7.0639332		0.455		0		9%		4.4570215405848	5.6625
565	0	33-	4.4536678		-2.746561		0.455		0		10%		4.4570215405848	5.6625
566	0	33-	4.4503831		-1.156071		0.455		0		12%		4.4570215405848	5.6625
567	0	33-	4.4471659		-1.942914		0.455		0		13%		4.4570215405848	5.6625
568	0	33-	4.4440149		-2.640272		0.455		0		14%		4.4570215405848	5.6625
569	0	33-	4.4409287		-3.253227		0.455		0		15%		4.4570215405848	5.6625
570	0	33-	4.4379059		-3.786828		0.455		0		16%		4.4570215405848	5.6625
571	0	33-	4.4349453		-4.246061		0.455		0		17%		4.4570215405848	5.6625
572	0	34-	4.4349453		-4.635833		0.455		0		20%		4.4570215405848	5.6625
573	0	34-	4.4292055		-4.960944		0.455		0		21%		4.4570215405848	5.6625
574	0	34-	4.4264238		-5.226078		0.455		0		22%		4.4570215405848	5.6625
575	0	34-	4.4236993		-5.435783		0.455		0		23%		4.4570215405848	5.6625
576	0	34-	4.4210308		-5.594459		0.455		0		24%		4.4570215405848	5.6625
577	0	34-	4.4184172		-5.706351		0.455		0		25%		4.4570215405848	5.6625
578	0	34-	4.4158574		-5.775537		0.455		0		26%		4.4570215405848	5.6625
579	0	34-	4.4133502		-5.805925		0.455		0		27%		4.4570215405848	5.6625
580	0	34-	4.4108945		-5.801245		0.455		0		28%		4.4570215405848	5.6625
581	0	34-	4.4084894		-5.765047		0.455		0		29%		4.4570215405848	5.6625
582	0	34-	4.4061337		-5.700700		0.455		0		30%		4.4570215405848	5.6625
583	0	34-	4.4038264		-5.611390		0.455		0		32%		4.4570215405848	5.6625
584	0	34-	4.4015666		-5.500121		0.455		0		33%		4.4570215405848	5.6625
585	0	34-	4.3993533		-5.369718		0.455		0		34%		4.4570215405848	5.6625
586	0	34-	4.3971855		-5.222826		0.455		0		35%		4.4570215405848	5.6625
587	0	34-	4.3950622		-5.061916		0.455		0		36%		4.4570215405848	5.6625
588	0	34-	4.3929826		-4.889288		0.455		0		37%		4.4570215405848	5.6625
589	0	35-	4.3929826		-4.707074		0.455		0		40%		4.4570215405848	5.6625
590	0	35-	4.3889509		-4.517246		0.455		0		41%		4.4570215405848	5.6625
591	0	35-	4.3869970		-4.321619		0.455		0		42%		4.4570215405848	5.6625
592	0	35-	4.3850832		-4.121855		0.455		0		43%		4.4570215405848	5.6625
593	0	35-	4.3832089		-3.919475		0.455		0		44%		4.4570215405848	5.6625
594	0	35-	4.3813730		-3.715857		0.455		0		45%		4.4570215405848	5.6625
595	0	35-	4.3795749		-3.512251		0.455		0		46%		4.4570215405848	5.6625
596	0	35-	4.3778138		-3.309778		0.455		0		47%		4.4570215405848	5.6625
597	0	35-	4.3760889		-3.109440		0.455		0		48%		4.4570215405848	5.6625
598	0	35-	4.3743995		-2.912127		0.455		0		49%		4.4570215405848	5.6625
599	0	35-	4.3727448		-2.718621		0.455		0		50%		4.4570215405848	5.6625
600	0	35-	4.3711242		-2.529607		0.455		0		51%		4.4570215405848	5.6625
601	0	35-	4.3695368		-2.345672		0.455		0		52%		4.4570215405848	5.6625
602	0	35-	4.3679821		-2.167319		0.455		0		53%		4.4570215405848	5.6625
603	0	35-	4.3664594		-1.994968		0.455		0		54%		4.4570215405848	5.6625
604	0	35-	4.3649680		-1.828963		0.455		0		56%		4.4570215405848	5.6625
605	0	36-	4.3649680		-1.669579		0.455		0		60%		4.4570215405848	5.6625
606	0	36-	4.3620766		-1.517027		0.455		0		61%		4.4570215405848	5.6625
607	0	36-	4.3606753		-1.371459		0.455		0		62%		4.4570215405848	5.6625
608	0	36-	4.3593028		-1.232972		0.455		0		63%		4.4570215405848	5.6625
609	0	36-	4.3579586		-1.101615		0.455		0		65%		4.4570215405848	5.6625
610	0	36-	4.3566420		-9.773930		0.455		0		66%		4.4570215405848	5.6625
611	0	36-	4.3553524		-8.602703		0.455		0		67%		4.4570215405848	5.6625
612	0	36-	4.3540894		-7.501763		0.455		0		68%		4.4570215405848	5.6625
613	0	36-	4.3528524		-6.470088		0.455		0		69%		4.4570215405848	5.6625
614	0	36-	4.3516408		-5.506377		0.555		0		70%		4.4570215405848	5.6625
615	0	36-	4.3698604		-4.609084		0.655		0		71%		4.4570215405848	5.6625
616	0	36-	4.4071116		-3.776344		0.755		0		72%		4.4570215405848	5.6625
617	0	36-	4.4630030		-3.006075		0.855		0		73%		4.4570215405848	5.6625
618	0	36-	4.5371514		-2.296063		0.955		0		74%		4.4570215405848	5.6625
619	0	36-	4.6291812		-1.644029		1		0-		75%		4.4570215405848	5.6625
620	0	36-	4.7280515		-1.047686		1		0-		76%		4.4570215405848	5.6625
621	0	36-	4.8248886		-5.047864		1		0-		77%		4.4570215405848	5.6625
622	0	37-	4.8248886		-1.313146		1		0-		81%		4.4570215405848	5.6625
623	0	37-	5.0126298		4.2943873		1		0-		82%		4.4570215405848	5.6625
624	0	37-	5.1036150		8.2506114		1		0-		83%		4.4570215405848	5.6625
625	0	37-	5.1927292		1.1758578		1		0-		84%		4.4570215405848	5.6625
626	0	37-	5.2800109		1.4839424		1		0-		85%		4.4570215405848	5.6625
627	0	37-	5.3654977		1.7514245		1		0-		87%		4.4570215405848	5.6625
628	0	37-	5.4492267		1.9804118		1		0-		88%		4.4570215405848	5.6625
629	0	37-	5.5312339		2.1730108		1		0-		89%		4.4570215405848	5.6625
630	0	37-	5.6115547		2.3313256		0.8785		t-7		91%		4.4570215405848	5.55
631	0	37-	5.6666453		2.4574559		0.8785		0		92%		4.4570215405848	5.55

Turbine !!
632	0	37-	5.7206029		2.5535663		0.8785		0		93%		4.4570215405848	5.55
633	0	37-	6.1144191		2.6218057		0.8785		0		95%		4.4570215405848	5.55
634	0	37-	6.5001371		2.6631827		0.8785		0		96%		4.4570215405848	5.55
635	0	38	6.5001371		2.6787831		0.9785		0		0%		6.5001371056545	5.55
636	0	38	7.3061596		2.6697929		0.9785		0		1%		7.3061596625682	5.55
637	0	38	7.7255899		2.6373194		0.9785		0		2%		7.7255899643895	5.55
638	0	38	8.1363952		2.5826246		0.8785		0		3%		8.1363952898454	5.55
639	0	38	8.4805342		2.5071327		0.8785		0		4%		8.480534206229	5.55
640	0	38	8.8175964		2.4126127		0.8785		0		5%		8.8175964044848	5.55
641	0	38	9.1477274		2.3009530		0.8785		0		6%		9.1477274070664	5.55
642	0	38	9.4710697		2.1741486		0.8785		0		8%		9.4710697439688	5.55
643	0	38	9.7877630		2.0342852		0.7785		0		9%		9.7877630142645	5.55
644	0	38	10.039725		1.8835193		0.7785		0		10%		10.039725153526	5.55
645	0	38	10.286506		1.7241925		0.7785		0		12%		10.286506056508	5.55
646	0	39	10.286506		1.5586284		0.7785		0		13%		10.286506056508	5.55
647	0	39	10.764948		1.3891088		0.7785		0		14%		10.764948141166	5.55
648	0	39	10.996815		1.2178491		0.7785		0		16%		10.99681588432	5.55
649	0	39	11.223915		1.0469747		0.7785		0		17%		11.223915603332	5.55
650	0	39	11.446345		8.7849888		0.7785		0		19%		11.446345345711	5.55
651	0	39	11.664201		7.1430110		0.7785		0		20%		11.664201142758	5.55
652	0	39	11.877577		5.5610841		0.7785		0		22%		11.877577051031	5.55
653	0	39	12.086565		4.0547846		0.7785		0		24%		12.086565192951	5.55
654	0	40	12.086565		2.6378546		0.7785		0		25%		12.086565192951	5.55
655	0	40	12.491737		1.3220893		0.7785		0		27%		12.491737234549	5.55
656	0	40	12.688096		1.1725669		0.7785		0		28%		12.688096062268	5.55
657	0	40	12.880417		-9.689524		0		0		30%		12.880417055235	5.55
658	0	40	12.615549		-1.930940		0		0		32%		12.615549943355	5.55
659	0	40	12.356129		-2.766279		0		0		33%		12.356129439815	5.55
660	0	40	12.102043		-3.475358		0		0		35%		12.102043543007	5.55
661	0	40	11.853182		-4.060956		0		0		37%		11.853182554474	5.55
662	0	41	11.853182		-4.527825		0.7785		0		38%		11.853182554474	5.55
663	0	41	11.823941		-4.882300		0		0		40%		11.823941043283	5.55
664	0	41	11.731876		-5.129168		0		0		41%		11.731876597101	5.55
665	0	41	11.490627		-5.276130		0		0		43%		11.490627555406	5.55
666	0	41	11.254339		-5.332614		0		0		44%		11.254339450663	5.55
667	0	41	11.022910		-5.308430		0		0		46%		11.254339450663	5.55
668	0	41	10.796240		-5.213522		0		0		47%		11.254339450663	5.55
669	0	41	10.574231		-5.057747		0		0		49%		11.254339450663	5.55
670	0	42	10.574231		-4.850696		0.05		0		50%		11.254339450663	5.55
671	0	42	10.143814		-4.601554		0		0		51%		11.254339450663	5.55
672	0	42	9.9352221		-4.318980		0.05		0		53%		11.254339450663	5.55
673	0	42	9.7406218		-4.011025		0.05		0		54%		11.254339450663	5.55
674	0	42	9.5500231		-3.685029		0.05		0		55%		11.254339450663	5.55
675	0	42	9.3633439		-3.347642		0.05		0		56%		11.254339450663	5.55
676	0	42	9.1805034		-3.004812		0.05		0		58%		11.254339450663	5.55
677	0	42	9.0014228		-2.661783		0.05		0		59%		11.254339450663	5.55
678	0	42	8.8260247		-2.323107		0.5325		0		60%		11.254339450663	5.55
679	0	42	8.7478687		-1.992669		0.5325		0		61%		11.254339450663	5.55
680	0	43	8.7478687		-1.673486		0.5325		0		62%		11.254339450663	5.55
681	0	43	8.5963450		-1.368081		0.5325		0		63%		11.254339450663	5.55
682	0	43	8.5229120		-1.078516		0.5325		0		65%		11.254339450663	5.55
683	0	43	8.4509890		-8.064186		0.5325		0		66%		11.254339450663	5.55
684	0	43	8.3805450		-5.530113		0.5325		0		67%		11.254339450663	5.55
685	0	43	8.3115496		-3.191516		0.5325		0		68%		11.254339450663	5.55
686	0	43	8.2439730		-1.053620		0.5325		0		69%		11.254339450663	5.55
687	0	43	8.1777860		8.8134264		0.3325		0		70%		11.254339450663	5.55
688	0	43	8.0741475		2.6138005		0.1325		0		71%		11.254339450663	5.55
689	0	43	7.9338277		4.1466324		0.05		0		72%		11.254339450663	5.55
690	0	43	7.7803831		5.4850577		0.05		0		73%		11.254339450663	5.55
691	1	0	7.7803831		6.6362957		0.05		0		74%		11.254339450663	5.55
692	1	0	7.4828952		7.6091155		0.05		0		75%		11.254339450663	5.55
693	1	0	7.3387235		8.4134805		0.05		0		76%		11.254339450663	5.55
694	1	0	7.1975164		9.0602287		0.05		0		77%		11.254339450663	5.55
695	1	0	7.0592130		9.5607882		0.05		0		78%		11.254339450663	5.55
696	1	0	6.9237537		9.9269272		0.05		0		79%		11.254339450663	5.55
697	1	0	6.7910798		1.0170537		0.05		0		80%		11.254339450663	5.55
698	1	0	6.6611343		1.0303451		0.05		0		81%		11.254339450663	5.55
699	1	0	6.5338608		1.0337282		0.05		0		82%		11.254339450663	5.55
700	1	0	6.4092046		1.0283302		0.05		0		82%		11.254339450663	5.55
701	1	0	6.2871117		1.0152335		0.05		0		83%		11.254339450663	5.55
702	1	0	6.1675295		9.9546798		0.05		0		84%		11.254339450663	5.55
703	1	0	6.0504063		9.7000446		0.05		0		85%		11.254339450663	5.55
704	1	0	5.9356916		9.3975114		0.05		0		86%		11.254339450663	5.55
705	1	0	5.8233358		9.0555056		0.05		0		86%		11.254339450663	5.55
706	1	1	5.8233358		8.6817839		0.05		0		87%		11.254339450663	5.55
707	1	1	5.6055081		8.2834323		0.05		0		88%		11.254339450663	5.55
708	1	1	5.4999421		7.8668749		0.05		0		89%		11.254339450663	5.55
709	1	1	5.3965469		7.4378890		0.05		0		89%		11.254339450663	5.55
710	1	1	5.2952778		7.0016281		0.05		0		90%		11.254339450663	5.55
711	1	1	5.1960913		6.5626488		0.05		0		91%		11.254339450663	5.55
712	1	1	5.0989443		6.1249422		0.05		0		91%		11.254339450663	5.55
713	1	1	5.0037950		5.6919679		0.05		0		92%		11.254339450663	5.55
714	1	1	4.9106024		5.2666892		0.05		0		93%		11.254339450663	5.55
715	1	1	4.8193261		4.8516102		0.05		0		93%		11.254339450663	5.55
716	1	1	4.7299267		4.4488121		0.05		0		94%		11.254339450663	5.55
717	1	1	4.6423658		4.0599907		0.05		0		95%		11.254339450663	5.55
718	1	1	4.5566054		3.6864915		0.05		0		95%		11.254339450663	5.55
719	1	1	4.4726085		3.3293448		0.05		0		96%		11.254339450663	5.55
720	1	1	4.3903390		2.9892992		0.05		0		96%		11.254339450663	5.55
721	1	1	4.3097611		2.6668532		0.1		0		97%		11.254339450663	5.55
722	1	1	4.2405434		2.3622848		0.15		0		97%		11.254339450663	5.55
723	1	1	4.1824522		2.0756516		0.2		0		98%		11.254339450663	5.55
724	1	1	4.1352586		1.8068301		0.25		0		99%		11.254339450663	5.55
725	1	1	4.0987387		1.5555511		0.3		0		99%		11.254339450663	5.55
726	1	2-	4.0987387		1.3214302		0.7325		0		0%		4.0987387340477	5.55
727	1	2-	4.1310751		1.1039942		0.7325		0		1%		4.1310751735189	5.55
728	1	2-	4.1882764		9.0260104		0.7325		0		1%		4.188276484737	5.55
729	1	2-	4.2443015		7.1662171		0.7325		0		2%		4.2443015338797	5.55
730	1	2-	4.2991745		5.4543836		0.7325		0		3%		4.299174509072	5.55
731	1	2-	4.3529191		3.8844218		0.5325		0		4%		4.3529191010453	5.55
732	1	2-	4.3667459		2.4503204		0.5325		0		5%		4.3667459848003	5.55
733	1	2-	4.3802885		1.1462543		0.5325		0		6%		4.3802885387273	5.55
734	1	2-	4.3935526		-3.368130		0.5325		0		7%		4.3935526096572	5.55
735	1	2-	4.4065439		-1.095438		0.5325		0		7%		4.4065439241891	5.55
736	1	2-	4.4192680		-2.044985		0.5325		0		8%		4.4192680911633	5.55
737	1	2-	4.4317306		-2.888282		0.5325		0		9%		4.4317306040821	5.55
738	1	2-	4.4439368		-3.631248		0.5325		0		10%		4.4317306040821	5.55
739	1	2-	4.4558920		-4.279746		0.5325		0		11%		4.4317306040821	5.55
740	1	2-	4.4676014		-4.839557		0.5325		0		12%		4.4317306040821	5.55
741	1	2-	4.4790700		-5.316361		0.5325		0		13%		4.4317306040821	5.55
742	1	2-	4.4903028		-5.715718		0.5325		0		14%		4.4317306040821	5.55
743	1	3-	4.4903028		-6.043059		0.5325		0		16%		4.4317306040821	5.55
744	1	3-	4.5120801		-6.303663		0.5325		0		17%		4.4317306040821	5.55
745	1	3-	4.5226341		-6.502653		0.5325		0		18%		4.4317306040821	5.55
746	1	3-	4.5329710		-6.644983		0.5325		0		19%		4.4317306040821	5.55
747	1	3-	4.5430954		-6.735428		0.5325		0		20%		4.4317306040821	5.55
748	1	3-	4.5530116		-6.778579		0.5325		0		21%		4.4317306040821	5.55
749	1	3-	4.5627239		-6.778836		0.5325		0		22%		4.4317306040821	5.55
750	1	3-	4.5722364		-6.740405		0.5325		0		22%		4.4317306040821	5.55
751	1	3-	4.5815534		-6.667294		0.5325		0		23%		4.4317306040821	5.55
752	1	3-	4.5906787		-6.563311		0.5325		0		24%		4.4317306040821	5.55
753	1	3-	4.5996164		-6.432063		0.5325		0		25%		4.4317306040821	5.55
754	1	3-	4.6083703		-6.276959		0.5325		0		26%		4.4317306040821	5.55
755	1	3-	4.6169442		-6.101207		0.5325		0		27%		4.4317306040821	5.55
756	1	3-	4.6253418		-5.907819		0.5325		0		28%		4.4317306040821	5.55
757	1	3-	4.6335667		-5.699613		0.5325		0		29%		4.4317306040821	5.55
758	1	3-	4.6416225		-5.479215		0.5325		0		30%		4.4317306040821	5.55
759	1	3-	4.6495126		-5.249067		0.5325		0		31%		4.4317306040821	5.55
760	1	4-	4.6495126		-5.011426		0.5325		0		33%		4.4317306040821	5.55
761	1	4-	4.6648094		-4.768376		0.5325		0		34%		4.4317306040821	5.55
762	1	4-	4.6722227		-4.521826		0.5325		0		35%		4.4317306040821	5.55
763	1	4-	4.6794836		-4.273522		0.5325		0		36%		4.4317306040821	5.55
764	1	4-	4.6865952		-4.025051		0.5325		0		37%		4.4317306040821	5.55
765	1	4-	4.6935605		-3.777848		0.5325		0		38%		4.4317306040821	5.55
766	1	4-	4.7003826		-3.533200		0.5325		0		39%		4.4317306040821	5.55
767	1	4-	4.7070644		-3.292258		0.5325		0		40%		4.4317306040821	5.55
768	1	4-	4.7136088		-3.056039		0.5325		0		41%		4.4317306040821	5.55
769	1	4-	4.7200186		-2.825436		0.5325		0		42%		4.4317306040821	5.55
770	1	4-	4.7262966		-2.601223		0.5325		0		43%		4.4317306040821	5.55
771	1	4-	4.7324455		-2.384063		0.5325		0		43%		4.4317306040821	5.55
772	1	4-	4.7384680		-2.174517		0.5325		0		44%		4.4317306040821	5.55
773	1	4-	4.7443666		-1.973045		0.5325		0		45%		4.4317306040821	5.55
774	1	4-	4.7501439		-1.780019		0.5325		0		46%		4.4317306040821	5.55
775	1	5-	4.7501439		-1.595727		0.5325		0		49%		4.4317306040821	5.55
776	1	5-	4.7613446		-1.420378		0.5325		0		50%		4.4317306040821	5.55
777	1	5-	4.7667728		-1.254110		0.5325		0		51%		4.4317306040821	5.55
778	1	5-	4.7720894		-1.096996		0.5325		0		52%		4.4317306040821	5.55
779	1	5-	4.7772967		-9.490504		0.5325		0		53%		4.4317306040821	5.55
780	1	5-	4.7823969		-8.102316		0.5325		0		54%		4.4317306040821	5.55
781	1	5-	4.7873921		-6.804511		0.5325		0		55%		4.4317306040821	5.55
782	1	5-	4.7922847		-5.595766		0.5325		0		55%		4.4317306040821	5.55
783	1	5-	4.7970767		-4.474376		0.5325		0		56%		4.4317306040821	5.55
784	1	5-	4.8017701		-3.438294		0.5325		0		57%		4.4317306040821	5.55
785	1	5-	4.8063670		-2.485184		0.5325		0		58%		4.4317306040821	5.55
786	1	5-	4.8108694		-1.612453		0.5325		0		59%		4.4317306040821	5.55
787	1	5-	4.8152792		-8.172994		0.5325		0		60%		4.4317306040821	5.55
788	1	5-	4.8195983		-9.674134		0.5325		0		61%		4.4317306040821	5.55
789	1	5-	4.8238286		5.5234377		0.5325		0		62%		4.4317306040821	5.55
790	1	5-	4.8279719		1.1331898		0.5325		0		63%		4.4317306040821	5.55
791	1	6-	4.8279719		1.6491125		0.5325		0		66%		4.4317306040821	5.55
792	1	6-	4.8360047		2.1034823		0.5325		0		67%		4.4317306040821	5.55
793	1	6-	4.8398976		2.4996995		0.5325		0		68%		4.4317306040821	5.55
794	1	6-	4.8437105		2.8411721		0.5325		0		69%		4.4317306040821	5.55
795	1	6-	4.8474450		3.1312952		0.5325		0		70%		4.4317306040821	5.55
796	1	6-	4.8511027		3.3734325		0.5325		0		70%		4.4317306040821	5.55
797	1	6-	4.8546851		3.5709000		0.5325		0		71%		4.4317306040821	5.55
798	1	6-	4.8581939		3.7269512		0.5325		0		72%		4.4317306040821	5.55
799	1	6-	4.8616305		3.8447646		0.5325		0		73%		4.4317306040821	5.55
800	1	6-	4.8649965		3.9274317		0.5325		0		74%		4.4317306040821	5.55
801	1	6-	4.8682933		3.9779485		0.5325		0		75%		4.4317306040821	5.55
802	1	6-	4.8715222		3.9992064		0.5325		0		76%		4.4317306040821	5.55
803	1	6-	4.8746848		3.9939857		0.5325		0		77%		4.4317306040821	5.55
804	1	6-	4.8777823		3.9649502		0.5325		0		78%		4.4317306040821	5.55
805	1	7-	4.8777823		3.9146432		0.5325		0		82%		4.4317306040821	5.55
806	1	7-	4.8837876		3.8454835		0.5325		0		83%		4.4317306040821	5.55
807	1	7-	4.8866979		3.7597641		0.5325		0		84%		4.4317306040821	5.55
808	1	7-	4.8895484		3.6596506		0.5325		0		85%		4.4317306040821	5.55
809	1	7-	4.8923403		3.5471809		0.5325		0		86%		4.4317306040821	5.55
810	1	7-	4.8950748		3.4242657		0.5325		0		87%		4.4317306040821	5.55
811	1	7-	4.8977530		3.2926894		0.5325		0		88%		4.4317306040821	5.55
812	1	7-	4.9003762		3.1541123		0.5325		0		89%		4.4317306040821	5.55
813	1	7-	4.9029454		3.0100725		0.5325		0		90%		4.4317306040821	6.325
814	1	7-	4.9054618		2.8619889		0.5325		0		91%		4.4317306040821	6.325
815	1	7-	4.9079264		2.7111644		0.5325		0		92%		4.4317306040821	6.325
816	1	7-	4.9103404		2.5587896		0.5325		0		93%		4.4317306040821	6.325
817	1	7-	4.9127047		2.4059467		0.5325		0		94%		4.4317306040821	6.325
818	1	7-	4.9150204		2.2536134		0.5325		0		95%		4.4317306040821	6.325
819	1	7-	4.9172885		2.1026677		0.5325		0		96%		4.4317306040821	6.325
820	1	8	4.9172885		1.9538923		0.5265		0		5%		4.9172885442958	6.325
821	1	8	4.9205213		1.8079793		0.5265		0		14%		4.920521375614	6.325
822	1	8	4.9215119		1.6655372		0.5265		0		24%		4.9215119652414	6.325
823	1	8	4.9224821		1.5270932		0.5265		0		33%		4.9224821848285	6.325
824	1	8	4.9234324		1.3930972		0.5265		0		42%		4.9234324532558	6.325
825	1	8	4.9243631		1.2639273		0.5265		0		51%		4.9234324532558	6.325
826	1	8	4.9252747		1.1398944		0.549375		0		61%		4.9234324532558	6.325
827	1	8	4.9306067		1.0212468		0.549375		0		70%		4.9234324532558	6.325
828	1	8	4.9358291		9.0816990		0.549375		0		79%		4.9234324532558	6.325
829	1	8	4.9409441		8.0079739		0.549375		0		89%		4.9234324532558	6.325
830	1	8	4.9459539		6.9921627		0.549375		0		98%		4.9234324532558	6.325
831	1	9-	4.9459539		6.0347039		0.549375		0		3%		4.9459539730891	6.325
832	1	9-	4.9556666		5.1356448		0.549375		0		7%		4.9556666482408	6.325
833	1	9-	4.9603737		4.2946785		0.549375		0		10%		4.9603737092198	6.325
834	1	9-	4.9649839		3.5111797		0.549375		0		14%		4.9649839763108	6.325
835	1	9-	4.9694994		2.7842397		0.549375		0		18%		4.9694994399397	6.325
836	1	9-	4.9739220		2.1126983		0.549375		0		22%		4.9739220496023	6.325
837	1	9-	4.9782537		1.4951755		0.549375		0		26%		4.978253714706	6.325
838	1	9-	4.9824963		9.3010087		0.549375		0		30%		4.9824963053938	6.325
839	1	9-	4.9866516		4.1574087		0.549375		0		33%		4.986651653352	6.325
840	1	9-	4.9907215		-4.977456		0.549375		0		37%		4.9907215526009	6.325
841	1	9-	4.9947077		-4.684279		0.549375		0		41%		4.9947077602694	6.325
842	1	9-	4.9986119		-8.422914		0.549375		0		45%		4.9947077602694	6.325
843	1	9-	5.0024359		-1.173505		0.549375		0		49%		4.9947077602694	6.325
844	1	9-	5.0061812		-1.464260		0.549375		0		53%		4.9947077602694	6.325
845	1	9-	5.0098495		-1.716776		0.549375		0		57%		4.9947077602694	6.325
846	1	9-	5.0134424		-1.933290		0.5325		0		60%		4.9947077602694	6.325
847	1	10-	5.0134424		-2.116037		0.5325		0		64%		4.9947077602694	6.325
848	1	10-	5.0139257		-0.183017		0.5325		0		68%		4.9947077602694	6.325
849	1	10-	5.0141600		-0.529693		0.5325		0		72%		4.9947077602694	6.325
850	1	10-	5.0143894		-1.021575		0.5325		0		76%		4.9947077602694	6.325
851	1	10-	5.0146141		-1.641146		0.5325		0		80%		4.9947077602694	6.325
852	1	10-	5.0148342		-2.371837		0.5325		0		84%		4.9947077602694	6.325
853	1	10-	5.0150497		-3.198036		0.5325		0		87%		4.9947077602694	6.325
854	1	10-	5.0152609		-4.105094		0.5325		0		91%		4.9947077602694	6.49375
855	1	10-	5.0154676		-5.079316		0.5325		0		95%		4.9947077602694	6.49375
856	1	10-	5.0156702		-6.107954		0.5325		0		99%		4.9947077602694	6.49375
857	1	11-	5.0156702		-7.179191		0.5325		0		1%		5.01567022386	6.49375
858	1	11-	5.0160628		-8.098293		0.5325		0		3%		5.0160628793224	6.49375
859	1	11-	5.0162531		-8.874708		0.5325		0		5%		5.016253172231	6.49375
860	1	11-	5.0164395		-9.517833		0.5325		0		7%		5.0164395520417	6.49375
861	1	11-	5.0166220		-10.03696		0.5325		0		9%		5.0166220992217	6.49375
862	1	11-	5.0168008		-10.44124		0.5325		0		11%		5.0168008925834	6.49375
863	1	11-	5.0169760		-10.73961		0.5325		0		13%		5.0169760093188	6.49375
864	1	11-	5.0171475		-10.94080		0.5325		0		15%		5.0171475250322	6.49375
865	1	11-	5.0173155		-11.05325		0.5325		0		17%		5.0173155137736	6.49375
866	1	11-	5.0174800		-11.08514		0.5325		0		19%		5.0174800480699	6.49375
867	1	11-	5.0176411		-11.04431		0.5325		0		21%		5.0176411989568	6.49375
868	1	11-	5.0177990		-10.93829		0.5325		0		23%		5.0177990360093	6.49375
869	1	11-	5.0179536		-10.77427		0.5325		0		24%		5.0179536273715	6.49375
870	1	11-	5.0181050		-10.55907		0.5325		0		26%		5.0181050397864	6.49375
871	1	12-	5.0181050		-10.29916		0.5325		0		34%		5.0181050397864	6.49375
872	1	12-	5.0183985		-10.00063		0.5325		0		36%		5.0183985879116	6.49375
873	1	12-	5.0185408		-9.669227		0.5325		0		38%		5.0185408503577	6.49375
874	1	12-	5.0186801		-9.310303		0.5325		0		40%		5.0186801873828	6.49375
875	1	12-	5.0188166		-8.928864		0.5325		0		42%		5.0188166591438	6.49375
876	1	12-	5.0189503		-8.529554		0.5325		0		44%		5.0189503245609	6.49375
877	1	12-	5.0190812		-8.116663		0.5325		0		46%		5.0189503245609	6.49375
878	1	12-	5.0192094		-7.694139		0.5325		0		48%		5.0189503245609	6.49375
879	1	12-	5.0193350		-7.265593		0.5325		0		50%		5.0189503245609	6.49375
880	1	12-	5.0194580		-6.834317		0.5325		0		52%		5.0189503245609	6.49375
881	1	12-	5.0195785		-6.403288		0.5325		0		54%		5.0189503245609	6.49375
882	1	12-	5.0196965		-5.975184		0.5325		0		56%		5.0189503245609	6.49375
883	1	12-	5.0198121		-5.552399		0.5325		0		58%		5.0189503245609	6.49375
884	1	12-	5.0199253		-5.137052		0.459375		0		60%		5.0189503245609	6.49375
885	1	13-	5.0199253		-4.731006		0.459375		0		68%		5.0189503245609	6.49375
886	1	13-	4.9920549		-4.335960		0.459375		0		69%		5.0189503245609	6.49375
887	1	13-	4.9785480		-3.953363		0.459375		0		71%		5.0189503245609	6.49375
888	1	13-	4.9653189		-3.584422		0.459375		0		73%		5.0189503245609	6.49375
889	1	13-	4.9523618		-3.230129		0.459375		0		75%		5.0189503245609	6.49375
890	1	13-	4.9396712		-2.891269		0.459375		0		77%		5.0189503245609	6.49375
891	1	13-	4.9272416		-2.568442		0.459375		0		79%		5.0189503245609	6.49375
892	1	13-	4.9150675		-2.262079		0.459375		0		81%		5.0189503245609	6.49375
893	1	13-	4.9031438		-1.972455		0.459375		0		83%		5.0189503245609	6.49375
894	1	13-	4.8914653		-1.699704		0.459375		0		85%		5.0189503245609	6.49375
895	1	13-	4.8800269		-1.443835		0.459375		0		87%		5.0189503245609	6.49375
896	1	13-	4.8688238		-1.204746		0.459375		0		88%		5.0189503245609	6.49375
897	1	13-	4.8578510		-0.982234		0.459375		0		90%		5.0189503245609	6.325
898	1	13-	4.8471038		-0.776008		0.459375		0		92%		5.0189503245609	6.325
899	1	14-	4.8471038		-0.585703		0.459375		0		0%		4.8471038827419	6.325
900	1	14-	4.8262680		-0.529948		0.459375		0		2%		4.8262680557371	6.325
901	1	14-	4.8161703		-0.592038		0.459375		0		5%		4.8161703734068	6.325
902	1	14-	4.8062803		-0.756316		0.459375		0		7%		4.8062803352811	6.325
903	1	14-	4.7965936		-1.008163		0.459375		0		9%		4.796593671458	6.325
904	1	14-	4.7871061		-1.333985		0.459375		0		11%		4.796593671458	6.325
905	1	14-	4.7778138		-1.721189		0.459375		0		13%		4.796593671458	6.325
906	1	14-	4.7687125		-2.158162		0.459375		0		15%		4.796593671458	6.325
907	1	14-	4.7597983		-2.634243		0.459375		0		17%		4.796593671458	6.325
908	1	14-	4.7510675		-3.139684		0.459375		0		20%		4.796593671458	6.325
909	1	15-	4.7510675		-3.665622		0.459375		0		22%		4.796593671458	6.325
910	1	15-	4.7341408		-4.204042		0.459375		0		24%		4.796593671458	6.325
911	1	15-	4.7259376		-4.747731		0.459375		0		26%		4.796593671458	6.325
912	1	15-	4.7179030		-5.290246		0.459375		0		28%		4.796593671458	6.325
913	1	15-	4.7100337		-5.825872		0.459375		0		30%		4.796593671458	6.325
914	1	15-	4.7023262		-6.349577		0.459375		0		32%		4.796593671458	6.325
915	1	15-	4.6947772		-6.856973		0.459375		0		34%		4.796593671458	6.325
916	1	15-	4.6873835		-7.344279		0.459375		0		36%		4.796593671458	6.325
917	1	15-	4.6801417		-7.808272		0.459375		0		38%		4.796593671458	6.325
918	1	15-	4.6730489		-8.246256		0.459375		0		41%		4.796593671458	6.325
919	1	16-	4.6730489		-8.656018		0.459375		0		43%		4.796593671458	6.325
920	1	16-	4.6592979		-9.035792		0.459375		0		45%		4.796593671458	6.325
921	1	16-	4.6526337		-9.384220		0.459375		0		47%		4.796593671458	6.325
922	1	16-	4.6461065		-9.700320		0.459375		0		49%		4.796593671458	6.325
923	1	16-	4.6397136		-9.983450		0.459375		0		51%		4.796593671458	6.325
924	1	16-	4.6334522		-10.23327		0.459375		0		53%		4.796593671458	6.325
925	1	16-	4.6273195		-10.44974		0.459375		0		55%		4.796593671458	6.325
926	1	16-	4.6213129		-10.63303		0.459375		0		57%		4.796593671458	6.325
927	1	16-	4.6154298		-10.78357		0.459375		0		59%		4.796593671458	6.325
928	1	16-	4.6096677		-10.90195		0.459375		0		61%		4.796593671458	6.325
929	1	17-	4.6096677		-10.98894		0.259375		0		63%		4.796593671458	6.325
930	1	17-	4.5596840		-11.00400		0.259375		0		65%		4.796593671458	6.325
931	1	17-	4.5162557		-10.95482		0.259375		0		67%		4.796593671458	6.325
932	1	17-	4.4737204		-10.84873		0.259375		0		69%		4.796593671458	6.325
933	1	17-	4.4320599		-10.69257		0.359375		0		71%		4.796593671458	6.325
934	1	17-	4.4106622		-10.49280		0.459375		0		73%		4.796593671458	6.325
935	1	17-	4.4091109		-10.25515		0.559375		0		75%		4.796593671458	6.325
936	1	17-	4.4269977		-9.984745		0.659375		0		77%		4.796593671458	6.325
937	1	17-	4.4639229		-9.686127		0.759375		0		79%		4.796593671458	6.325
938	1	17-	4.5194952		-9.363324		0.859375		0		81%		4.796593671458	6.325
939	1	17-	4.5933309		-9.019904		0.959375		0		83%		4.796593671458	6.325
940	1	17-	4.6850545		-8.659037		0.959375		0		85%		4.796593671458	6.325
941	1	17-	4.7748920		-8.283546		0.959375		0		88%		4.796593671458	6.325
942	1	17-	4.8628821		-7.896163		0.959375		0		90%		4.796593671458	6.325
943	1	17-	4.9490629		-7.499521		0.859375		0		92%		4.796593671458	6.325
944	1	17-	5.0140651		-7.096148		0.759375		0		94%		4.796593671458	6.325
945	1	17-	5.0583245		-6.688638		0.659375		0		96%		4.796593671458	6.325
946	1	17-	5.0822674		-6.279586		0.559375		0		99%		4.796593671458	6.325
947	1	18	5.0822674		-5.871547		0.594		0		2%		5.0822674549194	6.325
948	1	18	5.0969923		-5.466980		0.594		0		5%		5.0969923587859	6.325
949	1	18	5.1074533		-5.068039		0.594		0		7%		5.107453306757	6.325
950	1	18	5.1176991		-4.676637		0.594		0		10%		5.117699140492	6.325
951	1	18	5.1277342		-4.294457		0.594		0		13%		5.1277342835033	6.325
952	1	18	5.1375630		-3.922969		0.594		0		16%		5.1375630683403	6.325
953	1	18	5.1471897		-3.563437		0.594		0		18%		5.14718973846	6.325
954	1	18	5.1566184		-3.216931		0.594		0		21%		5.1566184500586	6.325
955	1	18	5.1658532		-2.884340		0.594		0		24%		5.1658532738662	6.325
956	1	18	5.1748981		-2.566383		0.594		0		27%		5.1748981969042	6.325
957	1	18	5.1837571		-2.263621		0.594		0		29%		5.1837571242069	6.325
958	1	18	5.1924338		-1.976467		0.594		0		32%		5.1924338805069	6.325
959	1	18	5.2009322		-1.705201		0.594		0		35%		5.2009322118871	6.325
960	1	18	5.2092557		-1.449975		0.594		0		38%		5.2092557873972	6.325
961	1	18	5.2174082		-1.210830		0.594		0		40%		5.2174082006386	6.325
962	1	18	5.2253929		-0.987703		0.594		0		43%		5.2253929713152	6.325
963	1	18	5.2332135		-0.780437		0.594		0		46%		5.2253929713152	6.325
964	1	18	5.2408733		-0.588793		0.594		0		49%		5.2253929713152	6.325
965	1	19	5.2408733		-0.412456		0.494		0		52%		5.2253929713152	6.325
966	1	19	5.2363172		-0.251046		0.394		0		54%		5.2253929713152	6.325
967	1	19	5.2051006		-0.104135		0.294		0		57%		5.2253929713152	6.325
968	1	19	5.1551197		0.0287629		0.32		0		60%		5.2253929713152	6.325
969	1	19	5.1112122		0.1481858		0.32		0		63%		5.2253929713152	6.325
970	1	19	5.0682075		0.2547196		0.32		0		65%		5.2253929713152	6.325
971	1	19	5.0260872		0.3489864		0.32		0		68%		5.2253929713152	6.325
972	1	19	4.9848331		0.4316339		0.32		0		71%		5.2253929713152	6.325
973	1	19	4.9444272		0.5033272		0.32		0		73%		5.2253929713152	6.325
974	1	19	4.9048523		0.5647402		0.32		0		76%		5.2253929713152	6.325
975	1	19	4.8660912		0.6165496		0.32		0		78%		5.2253929713152	6.325
976	1	19	4.8281271		0.6594277		0.32		0		81%		5.2253929713152	6.325
977	1	19	4.7909437		0.6940383		0.32		0		84%		5.2253929713152	6.325
978	1	19	4.7545249		0.7210315		0.32		0		86%		5.2253929713152	6.325
979	1	19	4.7188551		0.7410401		0.32		0		89%		5.2253929713152	6.325
980	1	19	4.6839187		0.7546768		0.32		0		91%		5.2253929713152	6.325
981	1	19	4.6497007		0.7625313		0.32		0		94%		5.2253929713152	6.325
982	1	19	4.6161864		0.7651684		0.32		0		96%		5.2253929713152	6.325
983	1	19	4.5833613		0.7631266		0.32		0		98%		5.2253929713152	6.325
984	1	20-	4.5833613		0.7569168		0.42		0		1%		4.5833613418349	6.325
985	1	20-	4.5391284		0.7718882		0.42		0		3%		4.5391284499374	6.325
986	1	20-	4.5272941		0.8021020		0.42		0		6%		4.5272941609485	6.325
987	1	20-	4.5157032		0.8422233		0.42		0		8%		4.5157032269637	6.325
988	1	20-	4.5043506		0.8874890		0.42		0		10%		4.5157032269637	6.325
989	1	20-	4.4932315		0.9336746		0.42		0		13%		4.5157032269637	6.325
990	1	20-	4.4823410		0.9770619		0.42		0		15%		4.5157032269637	6.325
991	1	20-	4.4716744		1.0144071		0.42		0		18%		4.5157032269637	6.325
992	1	20-	4.4612272		1.0429083		0.42		0		20%		4.5157032269637	6.325
993	1	20-	4.4509949		1.0627436		0.42		0		22%		4.5157032269637	6.325
994	1	21-	4.4509949		1.0746825		0.42		0		25%		4.5157032269637	6.325
995	1	21-	4.4311571		1.0794618		0.42		0		27%		4.5157032269637	6.325
996	1	21-	4.4215430		1.0777840		0.42		0		29%		4.5157032269637	6.325
997	1	21-	4.4121267		1.0703172		0.42		0		32%		4.5157032269637	6.325
998	1	21-	4.4029040		1.0576941		0.42		0		34%		4.5157032269637	6.325
999	1	21-	4.3938710		1.0405121		0.42		0		36%		4.5157032269637	6.325
1000	1	21-	4.3850237		1.0193335		0.42		0		39%		4.5157032269637	6.325
1001	1	21-	4.3763584		0.9946855		0.42		0		41%		4.5157032269637	6.325
1002	1	21-	4.3678712		0.9670609		0.42		0		43%		4.5157032269637	6.325
1003	1	21-	4.3595586		0.9369188		0.42		0		46%		4.5157032269637	6.325
1004	1	21-	4.3514169		0.9046852		0.42		0		48%		4.5157032269637	6.325
1005	1	22-	4.3514169		0.8707542		0.42		0		50%		4.5157032269637	6.325
1006	1	22-	4.3356323		0.8354886		0.42		0		53%		4.5157032269637	6.325
1007	1	22-	4.3279826		0.7992217		0.42		0		55%		4.5157032269637	6.325
1008	1	22-	4.3204903		0.7622576		0.42		0		57%		4.5157032269637	6.325
1009	1	22-	4.3131519		0.7248733		0.42		0		59%		4.5157032269637	6.325
1010	1	22-	4.3059645		0.6873194		0.42		0		62%		4.5157032269637	6.325
1011	1	22-	4.2989249		0.6498213		0.42		0		64%		4.5157032269637	6.325
1012	1	22-	4.2920301		0.6125812		0.42		0		66%		4.5157032269637	6.325
1013	1	22-	4.2852770		0.5757785		0.42		0		69%		4.5157032269637	6.325
1014	1	22-	4.2786628		0.5395719		0.52		0		71%		4.5157032269637	6.325
1015	1	22-	4.2915909		0.5041002		0.62		0		73%		4.5157032269637	6.325
1016	1	23-	4.2915909		0.4694713		0.62		0		75%		4.5157032269637	6.325
1017	1	23-	4.3550684		0.4357681		0.62		0		78%		4.5157032269637	6.325
1018	1	23-	4.3858316		0.4030630		0.62		0		80%		4.5157032269637	6.325
1019	1	23-	4.4159621		0.3714186		0.62		0		82%		4.5157032269637	6.325
1020	1	23-	4.4454731		0.3408885		0.62		0		85%		4.5157032269637	6.325
1021	1	23-	4.4743772		0.3115171		0.62		0		87%		4.5157032269637	6.325
1022	1	23-	4.5026870		0.2847132		0.62		0		90%		4.5157032269637	6.325
1023	1	23-	4.5304146		0.2689241		0.62		0		92%		4.5157032269637	6.325
1024	1	23-	4.5575720		0.2716200		0.62		0		94%		4.5157032269637	6.325
1025	1	23-	4.5841710		0.2993456		0.62		0		97%		4.5157032269637	6.325
1026	1	23-	4.6102230		0.3577706		0.62		0		99%		4.5157032269637	6.325
1027	1	24	4.6102230		0.4517397		0.699		0		2%		4.6102230516218	6.325
1028	1	24	4.6760618		0.5336943		0.699		0		4%		4.676061859268	6.325
1029	1	24	4.7155552		0.6043338		0.699		0		6%		4.7155552104929	6.325
1030	1	24	4.7542364		0.6643472		0.699		0		9%		4.7542364381792	6.325
1031	1	24	4.7921222		0.7144112		0.699		0		11%		4.7921222424706	6.325
1032	1	24	4.8292289		0.7551894		0.699		0		14%		4.8292289800967	6.325
1033	1	24	4.8655726		0.7873310		0.699		0		16%		4.8655726714344	6.325
1034	1	24	4.9011690		0.8114699		0.699		0		18%		4.901169007425	6.325
1035	1	24	4.9360333		0.8282235		0.699		0		21%		4.9360333563481	6.325
1036	1	24	4.9701807		0.8381916		0.699		0		23%		4.9701807704572	6.325
1037	1	24	5.0036259		0.8419554		0.599		0		26%		5.0036259924777	6.325
1038	1	24	5.0169771		0.8400768		0.599		0		29%		5.01697719769	6.325
1039	1	24	5.0300538		0.8331177		0.599		0		31%		5.0300538547142	6.325
1040	1	24	5.0428616		0.8216163		0.599		0		34%		5.0428616092359	6.325
1041	1	24	5.0554059		0.8060859		0.599		0		36%		5.0554059908454	6.325
1042	1	24	5.0676924		0.7870146		0.599		0		39%		5.067692415425	6.325
1043	1	24	5.0797261		0.7648651		0.599		0		41%		5.0797261874873	6.325
1044	1	24	5.0915125		0.7400739		0.599		0		44%		5.0915125024651	6.325
1045	1	24	5.1030564		0.7130516		0.599		0		46%		5.0915125024651	6.325
1046	1	24	5.1143630		0.6841832		0.599		0		49%		5.0915125024651	6.325
1047	1	25	5.1143630		0.6538277		0.599		0		52%		5.0915125024651	6.325
1048	1	25	5.1362834		0.6223187		0.599		0		54%		5.0915125024651	6.325
1049	1	25	5.1469067		0.5899652		0.599		0		57%		5.0915125024651	6.325
1050	1	25	5.1573115		0.5570514		0.599		0		59%		5.0915125024651	6.325
1051	1	25	5.1675024		0.5238379		0.5325		0		62%		5.0915125024651	6.325
1052	1	25	5.1645785		0.4905620		0.5325		0		65%		5.0915125024651	6.325
1053	1	25	5.1617148		0.4574468		0.5325		0		67%		5.0915125024651	6.325
1054	1	25	5.1589100		0.4246916		0.5325		0		70%		5.0915125024651	6.325
1055	1	25	5.1561628		0.3924733		0.5325		0		72%		5.0915125024651	6.325
1056	1	25	5.1534722		0.3609472		0.5325		0		75%		5.0915125024651	6.325
1057	1	25	5.1508369		0.3302485		0.5325		0		78%		5.0915125024651	6.325
1058	1	25	5.1482557		0.3004934		0.5325		0		80%		5.0915125024651	6.325
1059	1	25	5.1457276		0.2717801		0.5325		0		83%		5.0915125024651	6.325
1060	1	25	5.1432516		0.2441899		0.5325		0		85%		5.0915125024651	6.325
1061	1	25	5.1408264		0.2177888		0.5325		0		88%		5.0915125024651	6.325
1062	1	25	5.1384511		0.1926284		0.5325		0		91%		5.0915125024651	6.325
1063	1	25	5.1361247		0.1687467		0.5325		0		93%		5.0915125024651	6.325
1064	1	25	5.1338461		0.1461698		0.5325		0		96%		5.0915125024651	6.325
1065	1	25	5.1316143		0.1249126		0.5325		0		98%		5.0915125024651	6.325
1066	1	26-	5.1316143		0.1049798		0.5325		0		1%		5.1316143752446	6.325
1067	1	26-	5.1272876		0.0863672		0.5325		0		3%		5.1272876118876	6.325
1068	1	26-	5.1251907		0.0690624		0.5325		0		5%		5.1251907293455	6.325
1069	1	26-	5.1231369		0.0530455		0.5325		0		7%		5.1231369661543	6.325
1070	1	26-	5.1211254		0.0382907		0.5325		0		9%		5.121125435627	6.325
1071	1	26-	5.1191552		0.0247662		0.5325		0		11%		5.1191552693101	6.325
1072	1	26-	5.1172256		0.0124357		0.5325		0		13%		5.1172256166086	6.325
1073	1	26-	5.1153356		0.0012587		0.5325		0		15%		5.1153356444187	6.325
1074	1	26-	5.1134845		-0.008808		0.5325		0		16%		5.1134845367681	6.325
1075	1	26-	5.1116714		-0.017812		0.5325		0		18%		5.1116714944639	6.325
1076	1	26-	5.1098957		-0.025802		0.5325		0		20%		5.1098957347475	6.325
1077	1	26-	5.1081564		-0.032829		0.5325		0		22%		5.1081564909564	6.325
1078	1	26-	5.1064530		-0.038943		0.5325		0		24%		5.1064530121935	6.325
1079	1	26-	5.1047845		-0.044197		0.5325		0		26%		5.1047845630029	6.325
1080	1	27-	5.1047845		-0.048643		0.5325		0		34%		5.1047845630029	6.325
1081	1	27-	5.1015498		-0.052335		0.5325		0		36%		5.1015498868216	6.325
1082	1	27-	5.0999822		-0.055324		0.5325		0		38%		5.0999822632992	6.325
1083	1	27-	5.0984468		-0.057661		0.5325		0		40%		5.0984468756829	6.325
1084	1	27-	5.0969430		-0.059397		0.5325		0		42%		5.0969430610881	6.325
1085	1	27-	5.0954701		-0.060581		0.5325		0		44%		5.0954701702612	6.325
1086	1	27-	5.0940275		-0.061261		0.5325		0		46%		5.0954701702612	6.325
1087	1	27-	5.0926146		-0.061482		0.5325		0		48%		5.0954701702612	6.325
1088	1	27-	5.0912307		-0.061290		0.5325		0		50%		5.0954701702612	6.325
1089	1	27-	5.0898753		-0.060727		0.5325		0		52%		5.0954701702612	6.325
1090	1	27-	5.0885477		-0.059835		0.5325		0		54%		5.0954701702612	6.325
1091	1	27-	5.0872475		-0.058650		0.5325		0		56%		5.0954701702612	6.325
1092	1	27-	5.0859739		-0.057212		0.5325		0		58%		5.0954701702612	6.325
1093	1	27-	5.0847266		-0.055553		0.56625		0		60%		5.0954701702612	6.325
1094	1	28-	5.0847266		-0.053707		0.56625		0		68%		5.0954701702612	6.325
1095	1	28-	5.0952729		-0.051704		0.56625		0		70%		5.0954701702612	6.325
1096	1	28-	5.1003840		-0.049572		0.56625		0		72%		5.0954701702612	6.325
1097	1	28-	5.1053900		-0.047338		0.56625		0		74%		5.0954701702612	6.325
1098	1	28-	5.1102930		-0.045024		0.56625		0		76%		5.0954701702612	6.325
1099	1	28-	5.1150952		-0.042654		0.56625		0		78%		5.0954701702612	6.325
1100	1	28-	5.1197986		-0.040249		0.56625		0		80%		5.0954701702612	6.325
1101	1	28-	5.1244054		-0.037826		0.56625		0		82%		5.0954701702612	6.325
1102	1	28-	5.1289174		-0.035404		0.56625		0		84%		5.0954701702612	6.325
1103	1	28-	5.1333366		-0.032997		0.56625		0		86%		5.0954701702612	6.325
1104	1	28-	5.1376649		-0.030618		0.56625		0		88%		5.0954701702612	6.325
1105	1	28-	5.1419043		-0.028281		0.56625		0		90%		5.0954701702612	6.325
1106	1	28-	5.1460564		-0.025996		0.56625		0		92%		5.0954701702612	6.325
1107	1	29-	5.1460564		-0.023772		0.56625		0		0%		5.1460564723939	6.325
1108	1	29-	5.1541063		-0.021618		0.56625		0		2%		5.1541063994824	6.325
1109	1	29-	5.1580076		-0.019539		0.56625		0		4%		5.1580076416316	6.325
1110	1	29-	5.1618286		-0.017543		0.56625		0		6%		5.1618286603891	6.325
1111	1	29-	5.1655711		-0.015633		0.56625		0		8%		5.1655711054329	6.325
1112	1	29-	5.1692365		-0.013813		0.56625		0		10%		5.1655711054329	6.325
1113	1	29-	5.1728267		-0.012086		0.56625		0		12%		5.1655711054329	6.325
1114	1	29-	5.1763429		-0.010453		0.56625		0		14%		5.1655711054329	6.325
1115	1	29-	5.1797869		-0.008916		0.56625		0		16%		5.1655711054329	6.325
1116	1	29-	5.1831601		-0.007475		0.56625		0		18%		5.1655711054329	6.325
1117	1	29-	5.1864639		-0.006129		0.56625		0		20%		5.1655711054329	6.325
1118	1	29-	5.1896997		-0.004879		0.56625		0		22%		5.1655711054329	6.325
1119	1	29-	5.1928690		-0.003722		0.56625		0		24%		5.1655711054329	6.325
1120	1	29-	5.1959732		-0.002656		0.56625		0		26%		5.1655711054329	6.325
1121	1	29-	5.1990135		-0.001680		0.56625		0		29%		5.1655711054329	6.325
1122	1	29-	5.2019913		-0.000790		0.56625		0		31%		5.1655711054329	6.325
1123	1	29-	5.2049078		1.5196270		0.56625		0		33%		5.1655711054329	6.325
1124	1	30-	5.2049078		0.0007403		0.56625		0		35%		5.1655711054329	6.325
1125	1	30-	5.2105623		0.0013880		0.56625		0		37%		5.1655711054329	6.325
1126	1	30-	5.2133026		0.0019620		0.56625		0		39%		5.1655711054329	6.325
1127	1	30-	5.2159865		0.0024658		0.56625		0		41%		5.1655711054329	6.325
1128	1	30-	5.2186153		0.0029031		0.56625		0		43%		5.1655711054329	6.325
1129	1	30-	5.2211900		0.0032777		0.56625		0		45%		5.1655711054329	6.325
1130	1	30-	5.2237118		0.0035935		0.56625		0		47%		5.1655711054329	6.325
1131	1	30-	5.2261817		0.0038543		0.56625		0		49%		5.1655711054329	6.325
1132	1	30-	5.2286008		0.0040638		0.56625		0		51%		5.1655711054329	6.325
1133	1	30-	5.2309702		0.0042258		0.56625		0		53%		5.1655711054329	6.325
1134	1	30-	5.2332908		0.0043439		0.56625		0		56%		5.1655711054329	6.325
1135	1	30-	5.2355638		0.0044219		0.56625		0		58%		5.1655711054329	6.325
1136	1	30-	5.2377899		0.0044630		0.56625		0		60%		5.1655711054329	6.325
1137	1	30-	5.2399703		0.0044709		0.56625		0		62%		5.1655711054329	6.325
1138	1	30-	5.2421059		0.0044487		0.56625		0		64%		5.1655711054329	6.325
1139	1	30-	5.2441976		0.0043995		0.56625		0		66%		5.1655711054329	6.325
1140	1	31-	5.2441976		0.0043265		0.56625		0		69%		5.1655711054329	6.325
1141	1	31-	5.2482527		0.0042323		0.56625		0		71%		5.1655711054329	6.325
1142	1	31-	5.2502180		0.0041198		0.56625		0		73%		5.1655711054329	6.325
1143	1	31-	5.2521429		0.0039916		0.56625		0		75%		5.1655711054329	6.325
1144	1	31-	5.2540281		0.0038499		0.56625		0		77%		5.1655711054329	6.325
1145	1	31-	5.2558746		0.0036971		0.56625		0		79%		5.1655711054329	6.325
1146	1	31-	5.2576831		0.0035353		0.56625		0		81%		5.1655711054329	6.325
1147	1	31-	5.2594545		0.0033665		0.56625		0		83%		5.1655711054329	6.325
1148	1	31-	5.2611894		0.0031924		0.56625		0		85%		5.1655711054329	6.325
1149	1	31-	5.2628886		0.0030147		0.56625		0		87%		5.1655711054329	6.325
1150	1	31-	5.2645529		0.0028350		0.56625		0		90%		5.1655711054329	6.6625
1151	1	31-	5.2661830		0.0026546		0.56625		0		92%		5.1655711054329	6.6625
1152	1	31-	5.2677795		0.0024747		0.56625		0		94%		5.1655711054329	6.6625
1153	1	31-	5.2693432		0.0022965		0.56625		0		96%		5.1655711054329	6.6625
1154	1	32	5.2693432		0.0021211		0.5265		0		7%		5.2693432940097	6.6625
1155	1	32	5.2646609		0.0019491		0.5265		0		17%		5.2646609343992	6.6625
1156	1	32	5.2585747		0.0017816		0.5265		0		27%		5.2585747926887	6.6625
1157	1	32	5.2526138		0.0016191		0.5265		0		37%		5.2526138036632	6.6625
1158	1	32	5.2467753		0.0014622		0.5265		0		46%		5.2526138036632	6.6625
1159	1	32	5.2410570		0.0013114		0.5265		0		56%		5.2526138036632	6.6625
1160	1	32	5.2354562		0.0011672		0.555		0		66%		5.2526138036632	6.6625
1161	1	32	5.2355014		0.0010296		0.555		0		76%		5.2526138036632	6.6625
1162	1	32	5.2355457		0.0008992		0.555		0		86%		5.2526138036632	6.6625
1163	1	32	5.2355890		0.0007758		0.555		0		96%		5.2526138036632	6.6625
1164	1	33-	5.2355890		0.0006598		0.555		0		0%		5.2355890963833	6.6625
1165	1	33-	5.2356731		0.0005510		0.555		0		2%		5.2356731508385	6.6625
1166	1	33-	5.2357138		0.0004495		0.555		0		3%		5.2357138862116	6.6625
1167	1	33-	5.2357537		0.0003552		0.555		0		4%		5.2357537839208	6.6625
1168	1	33-	5.2357928		0.0002680		0.555		0		5%		5.2357928611914	6.6625
1169	1	33-	5.2358311		0.0001877		0.555		0		7%		5.2358311348946	6.6625
1170	1	33-	5.2358686		0.0001143		0.555		0		8%		5.2358686215545	6.6625
1171	1	33-	5.2359053		4.7495142		0.555		0		9%		5.2359053373556	6.6625
1172	1	33-	5.2359412		-1.297328		0.555		0		10%		5.2359053373556	6.6625
1173	1	33-	5.2359765		-6.730996		0.555		0		12%		5.2359053373556	6.6625
1174	1	33-	5.2360110		-0.000115		0.555		0		13%		5.2359053373556	6.6625
1175	1	33-	5.2360448		-0.000158		0.555		0		14%		5.2359053373556	6.6625
1176	1	33-	5.2360778		-0.000196		0.555		0		15%		5.2359053373556	6.6625
1177	1	33-	5.2361103		-0.000228		0.555		0		17%		5.2359053373556	6.6625
1178	1	34-	5.2361103		-0.000256		0.555		0		20%		5.2359053373556	6.6625
1179	1	34-	5.2361731		-0.000279		0.555		0		21%		5.2359053373556	6.6625
1180	1	34-	5.2362036		-0.000298		0.555		0		22%		5.2359053373556	6.6625
1181	1	34-	5.2362334		-0.000314		0.555		0		24%		5.2359053373556	6.6625
1182	1	34-	5.2362626		-0.000325		0.555		0		25%		5.2359053373556	6.6625
1183	1	34-	5.2362912		-0.000334		0.555		0		26%		5.2359053373556	6.6625
1184	1	34-	5.2363192		-0.000339		0.555		0		27%		5.2359053373556	6.6625
1185	1	34-	5.2363467		-0.000342		0.555		0		29%		5.2359053373556	6.6625
1186	1	34-	5.2363736		-0.000342		0.555		0		30%		5.2359053373556	6.6625
1187	1	34-	5.2363999		-0.000340		0.555		0		31%		5.2359053373556	6.6625
1188	1	34-	5.2364257		-0.000335		0.555		0		32%		5.2359053373556	6.6625
1189	1	34-	5.2364509		-0.000329		0.555		0		34%		5.2359053373556	6.6625
1190	1	34-	5.2364757		-0.000322		0.555		0		35%		5.2359053373556	6.6625
1191	1	34-	5.2364999		-0.000313		0.555		0		36%		5.2359053373556	6.6625
1192	1	35-	5.2364999		-0.000303		0.555		0		39%		5.2359053373556	6.6625
1193	1	35-	5.2365469		-0.000292		0.555		0		41%		5.2359053373556	6.6625
1194	1	35-	5.2365697		-0.000280		0.555		0		42%		5.2359053373556	6.6625
1195	1	35-	5.2365920		-0.000268		0.555		0		43%		5.2359053373556	6.6625
1196	1	35-	5.2366138		-0.000255		0.555		0		44%		5.2359053373556	6.6625
1197	1	35-	5.2366352		-0.000241		0.555		0		46%		5.2359053373556	6.6625
1198	1	35-	5.2366561		-0.000228		0.555		0		47%		5.2359053373556	6.6625
1199	1	35-	5.2366767		-0.000214		0.555		0		48%		5.2359053373556	6.6625
1200	1	35-	5.2366968		-0.000200		0.555		0		49%		5.2359053373556	6.6625
1201	1	35-	5.2367164		-0.000187		0.555		0		51%		5.2359053373556	6.6625
1202	1	35-	5.2367357		-0.000173		0.555		0		52%		5.2359053373556	6.6625
1203	1	35-	5.2367546		-0.000160		0.555		0		53%		5.2359053373556	6.6625
1204	1	35-	5.2367731		-0.000147		0.555		0		54%		5.2359053373556	6.6625
1205	1	35-	5.2367912		-0.000134		0.555		0		56%		5.2359053373556	6.6625
1206	1	36-	5.2367912		-0.000122		0.555		0		61%		5.2359053373556	6.6625
1207	1	36-	5.2368263		-0.000110		0.555		0		62%		5.2359053373556	6.6625
1208	1	36-	5.2368434		-9.872565		0.555		0		63%		5.2359053373556	6.6625
1209	1	36-	5.2368600		-8.780048		0.555		0		64%		5.2359053373556	6.6625
1210	1	36-	5.2368764		-7.739307		0.555		0		66%		5.2359053373556	6.6625
1211	1	36-	5.2368924		-6.751978		0.555		0		67%		5.2359053373556	6.6625
1212	1	36-	5.2369080		-5.819183		0.555		0		68%		5.2359053373556	6.6625
1213	1	36-	5.2369234		-4.941575		0.555		0		69%		5.2359053373556	6.6625
1214	1	36-	5.2369384		-4.119378		0.655		0		71%		5.2359053373556	6.6625
1215	1	36-	5.2563594		-3.352436		0.755		0		72%		5.2359053373556	6.6625
1216	1	36-	5.2947872		-2.640160		0.855		0		73%		5.2359053373556	6.6625
1217	1	36-	5.3518312		-1.981638		0.955		0		75%		5.2359053373556	6.6625
1218	1	36-	5.4271083		-1.375712		1		0-		76%		5.2359053373556	6.6625
1219	1	36-	5.5095704		-8.210461		1		0-		77%		5.2359053373556	6.6625
1220	1	37-	5.5095704		-3.161918		1		0-		80%		5.2359053373556	6.6625
1221	1	37-	5.6694422		1.4038652		1		0		82%		5.2359053373556	6.6625
1222	1	37-	5.7469209		5.5031216		1		0		83%		5.2359053373556	6.6625
1223	1	37-	5.8228065		9.1529199		1		0		85%		5.2359053373556	6.6625
1224	1	37-	5.8971315		1.2371118		1		0		86%		5.2359053373556	6.6625
1225	1	37-	5.9699282		1.5176305		1		0		87%		5.2359053373556	6.6625
1226	1	37-	6.0412279		1.7587720		1		0		89%		5.2359053373556	6.6625
1227	1	37-	6.1110615		1.9625180		0.8785		t-7		90%		5.2359053373556	6.55
1228	1	37-	6.1558804		2.1308981		0.8785		0		92%		5.2359053373556	6.55

Turbine !!
1229	1	37-	6.1997777		2.2660432		0.8785		0		93%		5.2359053373556	6.55
1230	1	37-	6.5837403		2.3701126		0.8785		0		95%		5.2359053373556	6.55
1231	1	37-	6.9598073		2.4442698		0.8785		0		97%		5.2359053373556	6.55
1232	1	38	6.9598073		2.4897467		0.9785		0		0%		6.9598073694928	6.55
1233	1	38	7.7471193		2.5078694		0.9785		0		1%		7.7471193966563	6.55
1234	1	38	8.1574820		2.4998939		0.8785		0		2%		8.1574820005356	6.55
1235	1	38	8.5594060		2.4672249		0.8785		0		3%		8.5594060921178	6.55
1236	1	38	8.8948464		2.4114253		0.8785		0		4%		8.8948464043327	6.55
1237	1	38	9.2233888		2.3343941		0.8785		0		6%		9.2233888726094	6.55
1238	1	38	9.5451753		2.2381522		0.8785		0		7%		9.5451753411131	6.55
1239	1	38	9.8603447		2.1248301		0.7785		0		8%		9.860344737189	6.55
1240	1	38	10.110814		1.9966508		0.7785		0		9%		10.110814338495	6.55
1241	1	38	10.356133		1.8560546		0.7785		0		11%		10.356133395404	6.55
1242	1	39	10.356133		1.7054912		0.7785		0		12%		10.356133395404	6.55
1243	1	39	10.831741		1.5473940		0.7785		0		14%		10.831741351995	6.55
1244	1	39	11.062235		1.3841553		0.7785		0		15%		11.062235589558	6.55
1245	1	39	11.287990		1.2181006		0.7785		0		17%		11.287990047131	6.55
1246	1	39	11.509102		1.0514640		0.7785		0		18%		11.509102191423	6.55
1247	1	39	11.725667		8.8636442		0.7785		0		20%		11.725667484878	6.55
1248	1	39	11.937779		7.2478320		0.7785		0		21%		11.937779426895	6.55
1249	1	39	12.145529		5.6854472		0.7785		0		23%		12.145529594194	6.55
1250	1	40	12.145529		4.1929849		0.7785		0		24%		12.145529594194	6.55
1251	1	40	12.548301		2.7850449		0.7785		0		26%		12.548301534523	6.55
1252	1	40	12.743497		1.4742144		0.7785		0		28%		12.743497199379	6.55
1253	1	40	12.934678		2.7098367		0.7785		0		29%		12.934678948243	6.55
1254	1	40	13.121929		-8.163053		0		0		31%		13.121929321481	6.55
1255	1	40	12.852095		-1.781476		0		0		33%		12.852095859818	6.55
1256	1	40	12.587811		-2.621510		0		0		35%		12.587811132282	6.55
1257	1	40	12.328961		-3.336292		0		0		36%		12.328961037195	6.55
1258	1	41	12.328961		-3.928179		0.7785		0		38%		12.328961037195	6.55
1259	1	41	12.280353		-4.401584		0		0		39%		12.280353323412	6.55
1260	1	41	12.027825		-4.760083		0		0		41%		12.027825652631	6.55
1261	1	41	11.780490		-5.011165		0		0		43%		11.780490847466	6.55
1262	1	41	11.538242		-5.163347		0		0		44%		11.538242124158	6.55
1263	1	41	11.300974		-5.225840		0		0		46%		11.538242124158	6.55
1264	1	41	11.068586		-5.208262		0		0		47%		11.538242124158	6.55
1265	1	41	10.840977		-5.120383		0		0		48%		11.538242124158	6.55
1266	1	42	10.840977		-4.971903		0.05		0		50%		11.538242124158	6.55
1267	1	42	10.399703		-4.772282		0		0		51%		11.538242124158	6.55
1268	1	42	10.185848		-4.530585		0		0		53%		11.538242124158	6.55
1269	1	42	9.9763914		-4.255373		0.05		0		54%		11.538242124158	6.55
1270	1	42	9.7809445		-3.954615		0.05		0		55%		11.538242124158	6.55
1271	1	42	9.5895167		-3.635584		0.05		0		56%		11.538242124158	6.55
1272	1	42	9.4020253		-3.304876		0.05		0		58%		11.538242124158	6.55
1273	1	42	9.2183894		-2.968398		0.05		0		59%		11.538242124158	6.55
1274	1	42	9.0385297		-2.631363		0.6325		0		60%		11.538242124158	6.55
1275	1	42	8.9754101		-2.298303		0.6325		0		61%		11.538242124158	6.55
1276	1	43	8.9754101		-1.972763		0.6325		0		63%		11.538242124158	6.55
1277	1	43	8.8530380		-1.657796		0.6325		0		64%		11.538242124158	6.55
1278	1	43	8.7937327		-1.355980		0.6325		0		65%		11.538242124158	6.55
1279	1	43	8.7356470		-1.069441		0.6325		0		66%		11.538242124158	6.55
1280	1	43	8.6787557		-7.998787		0.6325		0		67%		11.538242124158	6.55
1281	1	43	8.6230342		-5.485945		0.6325		0		68%		11.538242124158	6.55
1282	1	43	8.5684587		-3.165255		0.6325		0		69%		11.538242124158	6.55
1283	1	43	8.5150053		-1.042732		0.4325		0		71%		11.538242124158	6.55
1284	1	43	8.4238387		8.7863585		0.2325		0		72%		11.538242124158	6.55
1285	1	43	8.2957342		2.5986159		0.1325		0		73%		11.538242124158	6.55
	1	43	0		2.5986159		0.1825		0		73%		11.538242124158	6.55
