	0	0	0		0		400		1		0		0
1	0	0	0		0		400		1		0		0
2	0	0	0		0		400		1		0		0
3	0	0	0		0		400		1		0		0
4	0	0	0.20217		0		399.797		1		0		0
5	0	0	0.40000		0		399.397		1		0		0
6	0	0	0.59360		0		398.804		1		0		0
7	0	0	0.78304		0		398.021		1		0		0
8	0	0	0.96842		0		397.052		1		0		0
9	0	0	1.14983		0		395.902		1		0		0
10	0	0	1.32734		0		394.575		1		0		0
11	0	0	1.50105		0		393.074		1		0		0
12	0	0	1.67104		0		391.403		1		0		0
13	0	0	1.83738		0		389.566		1		0		0
14	0	0	2.00015		0		387.565		1		0		0
15	0	0	2.15943		0		385.406		1		0		0
16	0	0	2.31529		0		383.091		1		0		0
17	0	0	2.46782		0		380.623		1		0		0
18	0	0	2.61707		0		378.006		1		0		0
19	0	0	2.76312		0		375.243		1		0		0
20	0	0	2.90604		0		372.337		1		0		0
21	0	0	3.04590		0		369.291		1		0		0
22	0	0	3.18275		0		366.108		1		0		0
23	0	0	3.31667		0		362.791		1		0		0
24	0	0	3.44772		0		359.344		1		0		0
25	0	0	3.57596		0		355.768		1		0		0
26	0	0	3.70145		0		352.066		1		0		0
27	0	0	3.82425		0		348.242		1		0		0
28	0	0	3.94441		0		344.297		1		0		0
29	0	0	4.06200		0		340.235		1		0		0
30	0	0	4.17707		0		336.058		1		0		0
31	0	0	4.28967		0		331.769		1		0		0
32	0	0	4.39985		0		327.369		1		0		0
33	0	0	4.50767		0		322.861		1		0		0
34	0	0	4.61318		0		318.248		1		0		0
35	0	0	4.71643		0		313.532		1		0		0
36	0	0	4.81746		0		308.714		1		0		0
37	0	0	4.91633		0		303.798		1		0		0
38	0	1	4.91633		0		298.785		1		0		0
39	0	1	5.10774		0		293.677		1		0		0
40	0	1	5.20039		0		288.477		1		0		0
41	0	1	5.29104		0		283.185		1		0		0
42	0	1	5.37975		0		277.806		1		0		0
43	0	1	5.46656		0		272.339		1		0		0
44	0	1	5.55151		0		266.788		1		0		0
45	0	1	5.63463		0		261.153		1		0		0
46	0	1	5.71597		0		255.437		1		0		0
47	0	1	5.79557		0		249.641		1		0		0
48	0	1	5.87346		0		243.768		1		0		0
49	0	1	5.94969		0		237.818		1		0		0
50	0	1	6.02427		0		231.794		1		0		0
51	0	1	6.09726		0		225.697		1		0		0
52	0	1	6.16868		0		219.528		1		0		0
53	0	1	6.23857		0		213.290		1		0		0
54	0	1	6.30696		0		206.983		1		0		0
55	0	1	6.37389		0		200.609		1		0		0
56	0	2	6.37389		0		194.169		1		0		0
57	0	2	6.50346		0		187.666		1		0		0
58	0	2	6.56617		0		181.100		1		0		0
59	0	2	6.62754		0		174.472		1		0		0
60	0	2	6.68759		0		167.784		1		0		0
61	0	2	6.74635		0		161.038		1		0		0
62	0	2	6.80386		0		154.234		1		0		0
63	0	2	6.86013		0		147.374		1		0		0
64	0	2	6.91519		0		140.459		1		0		0
65	0	2	6.96907		0		133.490		1		0		0
66	0	2	7.02180		0		126.468		0		0		0
67	0	2	7.07339		0		119.395		0		0		0
68	0	2	7.12388		0		112.271		0		0		0
69	0	2	7.17329		0		105.097		0		0		0
70	0	3	7.17329		0		98.0784		0		0		0
71	0	3	6.86894		0		91.2095		0		0		0
72	0	3	6.72164		0		84.4878		0		0		0
73	0	3	6.57750		0		77.9103		0		0		0
74	0	3	6.43645		0		71.4739		0		0		0
75	0	3	6.29843		0		65.1754		0		0		0
76	0	3	6.16336		0		59.0121		0		0		0
77	0	3	6.03119		0		52.9809		0		0		0
78	0	3	5.90186		0		47.0790		0		0		0
79	0	3	5.77530		0		41.3037		0		0		0
80	0	3	5.65145		0		35.6523		0		0		0
81	0	3	5.53026		0		30.1220		0		0		0
82	0	3	5.41167		0		24.7103		0		0		0
83	0	3	5.29562		0		19.4147		0		0		0
84	0	3	5.18206		0		14.2326		0		0		0
85	0	3	5.07094		0		9.16172		0		0		0
86	0	3	4.96219		0		4.19952		0.4		0		0
87	0	3	4.85578		0		-0.6562		0.4		0		0
88	0	4	4.85578		0		389.339		0.45		888		0
89	0	4	4.64976		0		384.690		0.5		888		0
90	0	4	4.55005		0		380.140		0.55		888		0
91	0	4	4.53335		0		375.606		0.6		888		0
92	0	4	4.51700		0		371.089		0.65		888		0
93	0	4	4.52123		0		366.568		0.7		888		0
94	0	4	4.53547		0		362.032		0.75		888		0
95	0	4	4.55951		0		357.473		0.8		888		0
96	0	4	4.59315		0		352.880		0.85		888		0
97	0	4	4.63617		0		348.244		0.9		888		0
98	0	4	4.68838		0		343.555		0.95		888		0
99	0	4	4.74958		0		338.806		1		888-		0
100	0	4	4.81958		0		333.986		1		888-		0
101	0	4	4.89818		0		329.088		1		888-		0
102	0	4	4.98521		0		324.103		1		888-		0
103	0	5	4.98521		0		311.171		1		888-		0
104	0	5	5.17370		0		305.997		1		888-		0
105	0	5	5.26493		0		300.732		1		888-		0
106	0	5	5.35420		0		295.378		1		888-		0
107	0	5	5.44156		0.00586		289.936		0.95		0		1
108	0	5	5.52704		0.04381		284.409		0.9		0		0.84528
109	0	5	5.61069		0.13743		278.798		0.85		0		0.59475
110	0	5	5.68244		0.30781		273.116		0.8		0		0.45048
111	0	5	5.74254		0.57008		267.373		0.75		0		0.29854
112	0	5	5.79124		0.93373		261.582		0.7		0		0.17784
113	0	5	5.82879		1.40294		255.753		0.65		0		0.11304
114	0	5	5.85543		1.97697		249.898		0.6		0		0.07470
115	0	5	5.87138		2.65058		244.027		0.55		0		0.05037
116	0	6	5.87138		3.41458		230.298		0.5		0		0.03410
117	0	6	5.87217		4.25628		224.426		0.45		0		0.02275
118	0	6	5.85744		5.16005		218.568		0.4		0		0.01458
119	0	6	5.84302		6.10785		212.725		0.35		0		0.00853
120	0	6	5.81881		7.08328		206.906		0.3		0		0.00452
121	0	6	5.79512		8.06806		201.111		0.25		0		0.00131
122	0	6	5.75172		9.04597		195.360		0.3		888		-0.0008
123	0	6	5.70924		9.99592		189.650		0.35		888		-0.0030
124	0	6	5.64747		10.8998		184.003		0.4		888		-0.0046
125	0	6	5.58701		11.7356		178.416		0.45		888		-0.0062
126	0	6	5.52786		12.4852		172.888		0.5		888		-0.0073
127	0	6	5.46997		13.1336		167.418		0.55		888		-0.0081
128	0	7	5.46997		13.6690		154.133		0.6		888		-0.0086
129	0	7	5.40800		14.0882		148.725		0.65		888		-0.0084
130	0	7	5.38301		14.3925		143.342		0.7		888		-0.0081
131	0	7	5.36866		14.5842		137.973		0.75		888		-0.0078
132	0	7	5.36473		14.6691		132.608		0.8		888		-0.0073
133	0	7	5.38110		14.6562		127.227		0.85		888		-0.0066
134	0	7	5.39712		14.5600		121.830		0.9		888		-0.0056
135	0	7	5.43301		14.3942		116.397		0.95		888		-0.0047
136	0	7	5.47824		14.1772		110.919		1		888		-0.0035
137	0	7	5.53261		13.9290		105.386		1		888-		-0.0021
138	0	7	5.60603		13.6709		99.7808		1		888-		-0.0007
139	0	7	5.67788		13.4284		94.1029		0.8		0		0.00113
140	0	7	5.74819		13.2244		88.3547		0.6		0		0.00286
141	0	8	5.74819		13.0794		74.6759		0.4		0		0.00446
142	0	8	5.90431		12.8537		68.7716		0.65		888		-0.0061
143	0	8	5.93943		12.5556		62.8322		0.9		888		-0.0056
144	0	8	5.93337		12.1942		56.8988		1		888-		-0.0050
145	0	8	5.88700		11.7784		51.0118		1		888-		-0.0044
146	0	8	5.84163		11.3176		45.1702		1		888-		-0.0038
147	0	8	5.79723		10.8202		39.3729		1		888-		-0.0032
148	0	8	5.85487		10.2941		33.5181		1		888-		-0.0026
149	0	8	5.91127		9.74532		27.6068		1		888-		-0.0022
150	0	8	5.96647		9.17939		21.6403		1		888-		-0.0017
151	0	8	6.04069		8.60159		15.5996		1		090-		-0.0012
152	0	8	6.11333		8.01662		9.48632		1		090-		-0.0008
153	0	9	6.11333		7.42888		199.377		1		0		-0.0003
154	0	9	6.25396		6.84249		193.123		1		0		0.00018
155	0	9	6.32202		6.26125		186.801		1		0		0.00075
156	0	9	6.38862		5.68865		180.412		1		0		0.00138
157	0	9	6.45380		5.12789		173.958		1		0		0.00207
158	0	9	6.51757		4.58183		167.441		1		0		0.00286
159	0	9	6.57998		4.05305		160.861		1		0		0.00377
160	0	9	6.64105		3.54381		154.220		1		0		0.00482
161	0	9	6.70081		3.05608		147.519		1		0		0.00606
162	0	9	6.75929		2.59152		140.760		1		0		0.00758
163	0	9	6.81652		2.15152		133.943		1		0		0.00947
164	0	9	6.87251		1.73719		127.071		1		0		0.01192
165	0	9	6.92731		1.34937		120.143		1		0		0.01525
166	0	9	6.98093		0.98865		113.162		1		0		0.02008
167	0	9	7.03341		0.65537		106.129		0		0		0.02776
168	0	10	7.03341		0.34966		99.0446		0		0		0.04206
169	0	10	7.13500		0.07142		91.9096		0		0		0.07857
170	0	10	7.18417		-0.1796		84.7254		0		0		
171	0	10	7.03011		-0.4039		77.6953		0		0		-0.1191
172	0	10	6.87936		-0.6023		70.8159		0		0		-0.0643
173	0	10	6.73183		-0.7756		64.0841		0		0		-0.0415
174	0	10	6.58747		-0.9251		57.4966		0		0		-0.0307
175	0	10	6.44621		-1.0520		51.0504		0		0		-0.0243
176	0	10	6.30798		-1.1577		44.7424		0		0		-0.0201
177	0	10	6.17271		-1.2438		38.5697		0		0		-0.0170
178	0	10	6.04034		-1.3116		32.5293		0		0		-0.0146
179	0	10	5.91081		-1.3627		26.6185		0		0		-0.0127
180	0	10	5.78406		-1.3987		20.8345		0		0		-0.0111
181	0	10	5.66002		-1.4210		15.1744		0		0		-0.0098
182	0	10	5.53865		-1.4309		9.63583		0		0		-0.0086
183	0	10	5.41988		-1.4300		4.21595		0		0		-0.0076
184	0	11	5.41988		-1.4195		77.4497		0.05		888		-0.0067
185	0	11	5.18992		-1.4006		72.2598		0.1		888		-0.0058
186	0	11	5.07863		-1.3745		67.1812		0.15		888		-0.0051
187	0	11	4.96972		-1.3423		62.2115		0.2		888		-0.0044
188	0	11	4.86315		-1.3050		57.3483		0.25		888		-0.0038
189	0	11	4.77908		-1.2635		52.5692		0.3		888		-0.0032
190	0	11	4.69681		-1.2186		47.8724		0.35		888		-0.0026
191	0	11	4.63653		-1.1710		43.2359		0.4		888		-0.0021
192	0	11	4.58764		-1.1214		38.6482		0.45		888		-0.0017
193	0	11	4.54992		-1.0703		34.0983		0.5		888		-0.0013
194	0	11	4.52311		-1.0183		29.5752		0.55		888		-0.0009
195	0	11	4.50698		-0.9656		25.0682		0.6		888		-0.0005
196	0	11	4.50131		-0.9129		20.5669		0.65		888		-0.0001
197	0	11	4.50587		-0.8602		16.0610		0.6		0		0.00015
198	0	11	4.52044		-0.8080		11.5406		0.55		0		0.00048
199	0	11	4.54481		-0.7564		6.99579		0.5		0		0.00081
200	0	11	4.57876		-0.7057		2.41702		0.45		0		0.00113
201	0	11	4.61199		-0.6560		-2.1949		0.4		0		0.00146
202	0	12	4.61199		-0.6075		197.099		0.4		0		0.00180
203	0	12	4.64620		-0.5604		192.453		0.4		0		0.00218
204	0	12	4.64766		-0.5147		187.806		0.4		0		0.00260
205	0	12	4.63897		-0.4705		183.167		0.4		0		0.00306
206	0	12	4.63047		-0.4281		178.536		0.4		0		0.00357
207	0	12	4.62215		-0.3874		173.914		0.4		0		0.00412
208	0	12	4.60390		-0.3486		169.310		0.4		0		0.00471
209	0	12	4.58604		-0.3116		164.724		0.4		0		0.00538
210	0	12	4.56857		-0.2766		160.155		0.4		0		0.00612
211	0	12	4.55147		-0.2434		155.604		0.4		0		0.00696
212	0	12	4.53473		-0.2122		151.069		0.4		0		0.00791
213	0	12	4.51836		-0.1829		146.551		0.4		0		0.00903
214	0	12	4.50234		-0.1556		142.049		0.4		0		0.01035
215	0	12	4.48666		-0.1300		137.562		0.4		0		0.01197
216	0	12	4.47131		-0.1063		133.091		0.4		0		0.01401
217	0	12	4.45630		-0.0844		128.634		0.4		0		0.01669
218	0	12	4.44160		-0.0642		124.193		0.4		0		0.02039
219	0	12	4.42723		-0.0456		119.765		0.4		0		0.02590
220	0	12	4.41316		-0.0287		115.352		0.4		0		0.03504
221	0	12	4.39939		-0.0133		110.953		0.4		0		0.05339
222	0	12	4.38592		0.00058		106.567		0.4		0		
223	0	12	4.37274		0.01312		102.194		0.4		0		-0.1113
224	0	13	4.37274		0.02434		97.8348		0.4		0		-0.1009
225	0	13	4.34721		0.03430		93.4876		0.4		0		-0.0515
226	0	13	4.33486		0.04308		89.1527		0.4		0		-0.0344
227	0	13	4.32277		0.05075		84.8300		0.4		0		-0.0257
228	0	13	4.31094		0.05737		80.5190		0.4		0		-0.0205
229	0	13	4.29936		0.06303		76.2196		0.4		0		-0.0169
230	0	13	4.28804		0.06778		71.9316		0.4		0		-0.0143
231	0	13	4.27695		0.07169		67.6546		0.4		0		-0.0123
232	0	13	4.26611		0.07483		63.3885		0.4		0		-0.0108
233	0	13	4.25549		0.07725		59.1330		0.4		0		-0.0095
234	0	13	4.24511		0.07902		54.8879		0.4		0		-0.0084
235	0	13	4.23494		0.08020		50.6530		0.4		0		-0.0075
236	0	13	4.22500		0.08083		46.4280		0.4		0		-0.0067
237	0	13	4.21526		0.08097		42.2127		0.4		0		-0.0060
238	0	13	4.20574		0.08067		38.0070		0.4		0		-0.0054
239	0	13	4.19642		0.07998		33.8105		0.4		0		-0.0048
240	0	13	4.18730		0.07894		29.6232		0.4		0		-0.0043
241	0	13	4.17838		0.07759		25.4449		0.4		0		-0.0039
242	0	13	4.16964		0.07596		21.2752		0.4		0		-0.0034
243	0	13	4.16110		0.07411		17.1141		0.4		0		-0.0030
244	0	13	4.15274		0.07205		12.9614		0.4		0		-0.0026
245	0	13	4.14455		0.06983		8.81686		0.4		0		-0.0023
246	0	13	4.13655		0.06746		4.68031		0.4		0		-0.0019
247	0	13	4.12871		0.06499		0.55159		0.4		0		-0.0016
248	0	14	4.12871		0.06242		312.640		0.45		888		-0.0013
249	0	14	4.11354		0.05980		308.527		0.5		888		-0.0010
250	0	14	4.10620		0.05712		304.421		0.55		888		-0.0007
251	0	14	4.09901		0.05442		300.322		0.6		888		-0.0004
252	0	14	4.09198		0.05171		296.230		0.65		888		-0.0001
253	0	14	4.10532		0.04901		292.124		0.6		0		0.00012
254	0	14	4.12848		0.04633		287.996		0.55		0		0.00038
255	0	14	4.16125		0.04367		283.835		0.5		0		0.00063
256	0	14	4.20343		0.04106		279.631		0.45		0		0.00087
257	0	14	4.22448		0.03849		275.407		0.4		0		0.00111
258	0	14	4.23498		0.03597		271.172		0.35		0		0.00139
259	0	14	4.23514		0.03352		266.936		0.3		0		0.00170
260	0	14	4.22519		0.03113		262.711		0.25		0		0.00203
261	0	14	4.21545		0.02882		258.496		0.2		0		0.00238
262	0	14	4.19582		0.02658		254.300		0.15		0		0.00275
263	0	14	4.15638		0.02443		250.144		0.1		0		0.00315
264	0	14	4.11780		0.02237		246.026		0.05		0		0.00360
265	0	15	4.11780		0.02040		234.114		6.9388939039072E-17		0		0.00406
266	0	15	3.99298		0.01852		230.121		0.1		0		0.00458
267	0	15	3.92757		0.01674		226.194		0.05		0		0.00513
268	0	15	3.84335		0.01506		222.350		0		0		0.00573
269	0	15	3.78115		0.01347		218.569		0.1		0		0.00638
270	0	15	3.72028		0.01197		214.849		0.05		0		0.00707
271	0	15	3.64050		0.01057		211.208		0		0		0.00782
272	0	15	3.58265		0.00926		207.626		0.1		0		0.00869
273	0	15	3.50582		0.00804		204.120		0.05		0		0.00964
274	0	15	3.45086		0.00691		200.669		0		0		0.01076
275	0	15	3.39708		0.00586		197.272		0.1		0		0.01206
276	0	15	3.33434		0.00489		193.938		0.05		0		0.01363
277	0	15	3.27295		0.00400		190.665		0		0		0.01562
278	0	15	3.20276		0.00318		187.462		0.1		0		0.01819
279	0	15	3.13408		0.00243		184.328		0.05		0		0.02173
280	0	15	3.07698		0.00174		181.251		0		0		0.02691
281	0	15	3.01100		0.00112		178.240		0.1		0		0.03531
282	0	15	2.96665		0.00056		175.273		0.05		0		0.05158
283	0	15	2.91314		5.01290		172.360		0		0		0.09706
284	0	15	2.85067		-0.0004		169.509		0.05		888		
285	0	15	2.80975		-0.0008		166.700		0.1		888		-0.1150
286	0	16	2.80975		-0.0011		156.088		0.15		888		-0.0536
287	0	16	2.71054		-0.0015		153.378		0.2		888		-0.0343
288	0	16	2.67263		-0.0018		150.705		0.25		888		-0.0249
289	0	16	2.63554		-0.0020		148.070		0.3		888		-0.0193
290	0	16	2.60935		-0.0022		145.460		0.35		888		-0.0156
291	0	16	2.59383		-0.0024		142.866		0.4		888		-0.0129
292	0	16	2.58875		-0.0026		140.278		0.45		888		-0.0110
293	0	16	2.59388		-0.0027		137.684		0.5		888		-0.0094
294	0	16	2.60902		-0.0028		135.075		0.55		888		-0.0082
295	0	16	2.63394		-0.0029		132.441		0.6		888		-0.0073
296	0	16	2.66844		-0.0030		129.772		0.65		888		-0.0064
297	0	16	2.71230		-0.0031		127.060		0.7		888		-0.0058
298	0	16	2.76533		-0.0031		124.295		0.75		888		-0.0052
299	0	16	2.81723		-0.0031		121.478		0.8		888		-0.0047
300	0	16	2.88823		-0.0032		118.589		0.85		888		-0.0043
301	0	16	2.96781		-0.0032		115.622		0.9		888		-0.0040
302	0	16	3.05580		-0.0032		112.566		0.95		888		-0.0037
303	0	16	3.15201		-0.0031		109.414		1		888-		-0.0034
304	0	16	3.25626		-0.0031		106.157		1		888-		-0.0032
305	0	16	3.36839		-0.0031		102.789		1		888-		-0.0030
306	0	16	3.48822		-0.0030		99.3013		1		888-		-0.0028
307	0	16	3.61559		-0.0029		95.6857		1		888-		-0.0026
308	0	16	3.74023		-0.0029		91.9454		1		888-		-0.0025
309	0	16	3.86220		-0.0028		88.0832		1		888-		-0.0023
310	0	17	3.86220		-0.0027		76.2500		1		888-		-0.0022
311	0	17	4.09834		-0.0026		72.1517		1		888-		-0.0020
312	0	17	4.21263		-0.0025		67.9390		1		888-		-0.0019
313	0	17	4.32446		-0.0024		63.6146		1		888-		-0.0017
314	0	17	4.43390		-0.0023		59.1807		1		888-		-0.0015
315	0	17	4.54099		-0.0022		54.6397		1		888-		-0.0013
316	0	17	4.64579		-0.0021		49.9939		1		888-		-0.0011
317	0	17	4.74834		-0.0020		45.2455		1		888-		-0.0009
318	0	17	4.84868		-0.0019		40.3968		1		888-		-0.0007
319	0	17	4.94688		-0.0018		35.4499		1		888-		-0.0005
320	0	17	5.04297		-0.0017		30.4070		1		888-		-0.0002
321	0	17	5.13700		-0.0016		25.2700		0.95		0		3.64589
322	0	17	5.22902		-0.0015		20.0409		0.9		0		0.00034
323	0	17	5.31906		-0.0014		14.7219		0.85		0		0.00068
324	0	17	5.40717		-0.0013		9.31476		0.8		0		0.00105
325	0	18	5.40717		-0.0232		95.9899		0.8		0		1.00491
326	0	18	5.52765		-0.0428		90.4622		0.8		0		-0.1011
327	0	18	5.57085		-0.0601		84.8914		0.8		0		-0.0526
328	0	18	5.61313		-0.0753		79.2782		0.8		0		-0.0357
329	0	18	5.65450		-0.0884		73.6237		0.8		0		-0.0271
330	0	18	5.69498		-0.0996		67.9287		0.8		0		-0.0219
331	0	18	5.73459		-0.1089		62.1941		0.8		0		-0.0183
332	0	18	5.77336		-0.1166		56.4208		0.8		0		-0.0157
333	0	18	5.81129		-0.1226		50.6095		0.8		0		-0.0137
334	0	18	5.84841		-0.1272		44.7611		0		0		-0.0121
335	0	18	5.88473		-0.1303		38.8763		0		0		-0.0108
336	0	18	5.92028		-0.1322		32.9561		0		0		-0.0097
337	0	18	5.95506		-0.1329		27.0010		0		0		-0.0088
338	0	18	5.82736		-0.1326		21.1736		0		0		-0.0079
339	0	18	5.70240		-0.1313		15.4712		0		0		-0.0070
340	0	18	5.58011		-0.1292		9.89115		0		0		-0.0061
341	0	18	5.46045		-0.1264		4.43069		0		0		-0.0053
342	0	18	5.34336		-0.1231		-0.9126		0		0		-0.0046
343	0	19	5.34336		-0.1192		388.606		0.05		0		-0.0039
344	0	19	5.11665		-0.1150		383.489		0.1		0		-0.0033
345	0	19	5.00693		-0.1104		378.482		0.15		0		-0.0027
346	0	19	4.89956		-0.1056		373.583		0.2		0		-0.0021
347	0	19	4.80460		-0.1007		368.778		0.25		0		-0.0015
348	0	19	4.71168		-0.0956		364.066		0.3		0		-0.0010
349	0	19	4.62075		-0.0905		359.446		0.35		0		-0.0005
350	0	19	4.55198		-0.0853		354.894		0.4		0		-0.0001
351	0	19	4.49480		-0.0802		350.399		0.35		0		0.00032
352	0	19	4.44896		-0.0752		345.950		0.3		0		0.00074
353	0	19	4.41421		-0.0702		341.536		0.25		0		0.00114
354	0	19	4.39031		-0.0654		337.145		0.2		0		0.00154
355	0	19	4.36692		-0.0606		332.778		0.15		0		0.00193
356	0	19	4.34404		-0.0561		328.434		0.1		0		0.00232
357	0	19	4.31154		-0.0516		324.123		0.05		0		0.00274
358	0	20	4.31154		-0.0474		312.002		1.3877787807814E-17		0		0.00318
359	0	20	4.21850		-0.0433		307.783		0.1		0		0.00366
360	0	20	4.15836		-0.0394		303.625		0.05		0		0.00417
361	0	20	4.08941		-0.0356		299.535		0		0		0.00473
362	0	20	4.01182		-0.0321		295.523		0.1		0		0.00533
363	0	20	3.92579		-0.0287		291.598		0.05		0		0.00598
364	0	20	3.84161		-0.0256		287.756		0		0		0.00670
365	0	20	3.77944		-0.0226		283.977		0.1		0		0.00748
366	0	20	3.71861		-0.0199		280.258		0.05		0		0.00831
367	0	20	3.65909		-0.0173		276.599		0		0		0.00925
368	0	20	3.60084		-0.0149		272.998		0.1		0		0.01034
369	0	20	3.53373		-0.0126		269.464		0.05		0		0.01161
370	0	20	3.45795		-0.0106		266.006		0		0		0.01316
371	0	20	3.40402		-0.0087		262.602		0.1		0		0.01510
372	0	20	3.35124		-0.0069		259.251		0.05		0		0.01757
373	0	20	3.28948		-0.0053		255.962		0		0		0.02092
374	0	20	3.21894		-0.0039		252.743		0.1		0		0.02579
375	0	20	3.14991		-0.0025		249.593		0.05		0		0.03358
376	0	20	3.09247		-0.0013		246.500		0		0		0.04815
377	0	20	3.03627		-0.0002		243.464		0.1		0		0.08580
378	0	21	3.03627		0.00073		232.621		0.15		0		
379	0	21	2.94744		0.00161		229.673		0.2		0		-0.1145
380	0	21	2.90446		0.00241		226.769		0.25		0		-0.0584
381	0	21	2.84217		0.00311		223.927		0.3		0		-0.0364
382	0	21	2.82166		0.00373		221.105		0.35		0		-0.0261
383	0	21	2.81169		0.00428		218.293		0.4		0		-0.0201
384	0	21	2.81205		0.00476		215.481		0.45		0		-0.0162
385	0	21	2.82251		0.00517		212.659		0.5		0		-0.0135
386	0	21	2.83274		0.00552		209.826		0.55		0		-0.0115
387	0	21	2.86298		0.00582		206.963		0.6		0		-0.0099
388	0	21	2.89256		0.00607		204.071		0.65		0		-0.0087
389	0	21	2.93162		0.00627		201.139		0.7		0		-0.0076
390	0	21	2.96984		0.00643		198.169		0.75		0		-0.0068
391	0	21	3.00724		0.00654		195.162		0.8		0		-0.0061
392	0	21	3.06405		0.00663		192.098		0.85		0		-0.0055
393	0	21	3.11965		0.00667		188.978		0.9		0		-0.0050
394	0	21	3.20438		0.00669		185.774		0.95		0		-0.0046
395	0	21	3.29740		0.00668		182.476		1		0-		-0.0042
396	0	21	3.40865		0.00664		179.068		1		0-		-0.0039
397	0	21	3.52762		0.00658		175.540		1		0-		-0.0036
398	0	21	3.64404		0.00650		171.896		1		0-		-0.0034
399	0	21	3.76806		0.00639		168.128		1		0-		-0.0032
400	0	22	3.76806		0.00626		156.387		1		0-		-0.0030
401	0	22	4.00820		0.00612		152.379		1		0-		-0.0028
402	0	22	4.12442		0.00596		148.254		1		0-		-0.0026
403	0	22	4.23815		0.00579		144.016		1		0-		-0.0024
404	0	22	4.34944		0.00560		139.667		1		0-		-0.0022
405	0	22	4.45834		0.00540		135.208		1		0-		-0.0020
406	0	22	4.56491		0.00519		130.643		1		0-		-0.0018
407	0	22	4.66919		0.00497		125.974		1		0-		-0.0016
408	0	22	4.77124		0.00474		121.203		1		0-		-0.0014
409	0	22	4.87109		0.00451		116.332		1		0-		-0.0012
410	0	22	4.96881		0.00428		111.363		1		0-		-0.0009
411	0	22	5.06443		0.00404		106.299		1		0-		-0.0007
412	0	22	5.15800		0.00380		101.141		1		0-		-0.0004
413	0	22	5.24956		0.00356		95.8915		1		0-		-0.0001
414	0	22	5.33916		0.00332		90.5524		0.95		0		0.00020
415	0	23	5.33916		0.00442		77.2738		0.9		0		0.40339
416	0	23	5.51264		0.00538		71.7612		0.95		0		-0.0316
417	0	23	5.59660		0.00620		66.1646		1		0		-0.0247
418	0	23	5.66865		0.00690		60.4959		1		0-		-0.0203
419	0	23	5.72904		0.00749		54.7669		1		0-		-0.0172
420	0	23	5.79825		0.00796		48.9686		0		0		-0.0149
421	0	23	5.87609		0.00832		43.0925		0		0		-0.0131
422	0	23	5.95225		0.00859		37.1403		0		0		-0.0117
423	0	23	6.02678		0.00877		31.1135		0		0		-0.0105
424	0	23	5.89755		0.00886		25.2159		0		0		-0.0095
425	0	23	5.77108		0.00888		19.4449		0		0		-0.0084
426	0	23	5.64732		0.00883		13.7975		0		0		-0.0074
427	0	23	5.52622		0.00872		8.27135		0		0		-0.0065
428	0	24	5.52622		0.00857		77.4764		0.05		888		-0.0057
429	0	24	5.29175		0.00837		72.1847		0.1		888		-0.0049
430	0	24	5.17827		0.00814		67.0064		0.15		888		-0.0042
431	0	24	5.06723		0.00788		61.9391		0.2		888		-0.0036
432	0	24	4.95857		0.00759		56.9806		0.25		888		-0.0030
433	0	24	4.85223		0.00729		52.1283		0.3		888		-0.0024
434	0	24	4.76840		0.00697		47.3599		0.35		888		-0.0018
435	0	24	4.69647		0.00664		42.6635		0.4		888		-0.0013
436	0	24	4.63619		0.00631		38.0273		0.45		888		-0.0009
437	0	24	4.58732		0.00597		33.4399		0.5		888		-0.0004
438	0	24	4.54960		0.00563		28.8903		0.55		888		-8.4737
439	0	24	4.52280		0.00529		24.3675		0.5		0		0.00031
440	0	24	4.50668		0.00496		19.8609		0.45		0		0.00069
441	0	24	4.50101		0.00463		15.3598		0.4		0		0.00106
442	0	24	4.50558		0.00431		10.8543		0.35		0		0.00142
443	0	24	4.52016		0.00400		6.33414		0.3		0		0.00179
444	0	24	4.52431		0.00370		1.80982		0.25		0		0.00216
445	0	24	4.51827		0.00340		-2.7084		0.2		0		0.00256
446	0	25	4.51827		0.00312		96.7186		0.2		0		0.00300
447	0	25	4.47646		0.00284		92.2421		0.2		0		0.00348
448	0	25	4.44112		0.00258		87.8010		0.2		0		0.00401
449	0	25	4.39642		0.00233		83.4045		0.2		0		0.00458
450	0	25	4.34258		0.00209		79.0620		0.2		0		0.00522
451	0	25	4.28989		0.00187		74.7721		0.2		0		0.00592
452	0	25	4.23833		0.00165		70.5337		0.2		0		0.00669
453	0	25	4.18788		0.00145		66.3458		0.2		0		0.00755
454	0	25	4.13851		0.00126		62.2073		0.2		0		0.00852
455	0	25	4.09020		0.00109		58.1171		0.2		0		0.00964
456	0	25	4.04292		0.00092		54.0742		0.2		0		0.01097
457	0	25	3.99666		0.00077		50.0775		0.2		0		0.01257
458	0	25	3.95139		0.00063		46.1261		0.2		0		0.01458
459	0	25	3.90709		0.00050		42.2190		0.2		0		0.01719
460	0	25	3.86374		0.00038		38.3553		0.2		0		0.02076
461	0	25	3.82132		0.00027		34.5340		0.2		0		0.02600
462	0	25	3.77981		0.00017		30.7542		0.2		0		0.03456
463	0	25	3.73919		8.75972		27.0150		0.2		0		0.05125
464	0	25	3.69944		5.61948		23.3155		0.2		0		0.09878
465	0	25	3.66054		-6.8186		19.6550		0.4		0		
466	0	25	3.62248		-0.0001		16.0325		0.4		0		-0.1128
467	0	25	3.58523		-0.0001		12.4473		0.4		0		-0.0537
468	0	25	3.54878		-0.0002		8.89851		0.4		0		-0.0349
469	0	25	3.55355		-0.0002		5.34495		0.4		0		-0.0256
470	0	25	3.55822		-0.0003		1.78673		0.4		0		-0.0201
471	0	26	3.55822		-0.0003		155.298		0.45		888		-0.0165
472	0	26	3.56725		-0.0003		151.731		0.5		888		-0.0138
473	0	26	3.57162		-0.0004		148.160		0.55		888		-0.0119
474	0	26	3.58601		-0.0004		144.574		0.6		888		-0.0103
475	0	26	3.61020		-0.0004		140.963		0.65		888		-0.0091
476	0	26	3.63387		-0.0004		137.329		0.7		888		-0.0080
477	0	26	3.67725		-0.0004		133.652		0.75		888		-0.0072
478	0	26	3.72980		-0.0004		129.922		0.8		888		-0.0065
479	0	26	3.78123		-0.0004		126.141		0.85		888		-0.0059
480	0	26	3.85178		-0.0004		122.289		0.9		888		-0.0053
481	0	26	3.93092		-0.0004		118.358		0.95		888		-0.0049
482	0	26	4.01847		-0.0004		114.340		1		888-		-0.0045
483	0	26	4.11425		-0.0004		110.226		1		888-		-0.0041
484	0	26	4.20798		-0.0004		106.018		1		888-		-0.0038
485	0	26	4.30981		-0.0004		101.708		1		888-		-0.0035
486	0	26	4.41956		-0.0004		97.2888		1		888-		-0.0033
487	0	26	4.52696		-0.0004		92.7619		1		888-		-0.0030
488	0	26	4.63205		-0.0004		88.1298		1		888-		-0.0028
489	0	27	4.63205		-0.0004		75.5432		1		888-		-0.0025
490	0	27	4.83553		-0.0003		70.7077		1		888-		-0.0023
491	0	27	4.93401		-0.0003		65.7737		1		888-		-0.0020
492	0	27	5.03038		-0.0003		60.7433		1		888-		-0.0017
493	0	27	5.12468		-0.0003		55.6186		1		888-		-0.0015
494	0	27	5.21696		-0.0003		50.4017		1		888-		-0.0012
495	0	27	5.30726		-0.0003		45.0944		1		888-		-0.0009
496	0	27	5.39562		-0.0002		39.6988		1		888-		-0.0005
497	0	27	5.48209		0.01821		34.2167		1		888-		
498	0	27	5.56670		0.08017		28.6500		0.95		0		0.70141
499	0	27	5.64950		0.20800		23.0005		0.9		0		0.51529
500	0	27	5.73052		0.42160		17.2699		0.85		0		0.40150
501	0	27	5.80981		0.73836		11.4601		0.8		0		0.24472
502	0	28	5.80981		1.17332		59.7312		0.8		0		0.16006
503	0	28	5.93321		1.55616		53.7980		0.8		0		-0.0444
504	0	28	5.97782		1.88917		47.8201		0		0		-0.0320
505	0	28	6.01137		2.17476		41.8087		0		0		-0.0250
506	0	28	6.04420		2.41546		35.7645		0		0		-0.0206
507	0	28	6.07633		2.61383		29.6882		0		0		-0.0175
508	0	28	5.94602		2.77252		23.7422		0		0		-0.0151
509	0	28	5.81852		2.89473		17.9237		0		0		-0.0131
510	0	28	5.69374		2.98366		12.2299		0		0		-0.0114
511	0	28	5.57165		3.04247		6.65830		0		0		-0.0100
512	0	28	5.45217		3.07420		1.20613		0		0		-0.0088
513	0	29	5.45217		3.08181		152.945		0.05		0		-0.0078
514	0	29	5.22084		3.06811		147.725		0.1		0		-0.0069
515	0	29	5.10888		3.03575		142.616		0.15		0		-0.0060
516	0	29	5.00944		2.98725		137.606		0.2		0		-0.0053
517	0	29	4.92223		2.92489		132.684		0.25		0		-0.0046
518	0	29	4.84700		2.85076		127.837		0.3		0		-0.0040
519	0	29	4.78350		2.76678		123.053		0.35		0		-0.0034
520	0	29	4.73146		2.67466		118.322		0.4		0		-0.0029
521	0	29	4.68054		2.57592		113.641		0.45		0		-0.0024
522	0	29	4.64082		2.47199		109.001		0.5		0		-0.0020
523	0	29	4.61207		2.36411		104.389		0.55		0		-0.0015
524	0	29	4.59403		2.25339		99.7950		0.6		0		-0.0012
525	0	29	4.57639		2.14081		95.2186		0.65		0		-0.0008
526	0	29	4.57934		2.02723		90.6392		0.7		0		-0.0004
527	0	29	4.59233		1.91341		86.0469		0.75		0		-0.0001
528	0	29	4.61516		1.79998		81.4317		0.7		0		0.00020
529	0	29	4.64760		1.68752		76.7841		0.65		0		0.00053
530	0	30	4.64760		1.57650		74.5852		0.6		0		0.00085
531	0	30	4.74053		1.46733		69.8447		0.55		0		0.00118
532	0	30	4.78039		1.36039		65.0643		0.5		0		0.00151
533	0	30	4.80929		1.25602		60.2550		0.45		0		0.00188
534	0	30	4.83757		1.15453		55.4174		0.4		0		0.00229
535	0	30	4.85514		1.05621		50.5623		0.35		0		0.00274
536	0	30	4.87233		0.96131		45.6899		0.3		0		0.00323
537	0	30	4.85882		0.87005		40.8311		0.25		0		0.00378
538	0	30	4.82539		0.78262		36.0057		0.2		0		0.00441
539	0	30	4.79267		0.69922		31.2131		0.15		0		0.00513
540	0	30	4.74044		0.61997		26.4726		0.1		0		0.00593
541	0	30	4.68933		0.54498		21.7833		0.05		0		0.00685
542	0	30	4.62920		0.47428		17.1541		0.4		0		0.00789
543	0	30	4.57037		0.40792		12.5837		0.4		0		0.00911
544	0	30	4.49258		0.34585		8.09115		0.4		0		0.01055
545	0	31	4.49258		0.28806		309.983		0.35		0		0.01232
546	0	31	4.32197		0.23445		305.661		0.3		0		0.01455
547	0	31	4.31015		0.18494		301.351		0.25		0		0.01746
548	0	31	4.29860		0.13939		297.052		0.2		0		0.02138
549	0	31	4.27718		0.09764		292.775		0.15		0		0.02730
550	0	31	4.25622		0.05954		288.519		0.1		0		0.03741
551	0	31	4.21549		0.02494		284.303		0.05		0		0.05865
552	0	31	4.17563		-0.0063		280.127		0.1		888		
553	0	31	4.11642		-0.0344		276.011		0.15		888		-0.1124
554	0	31	4.05847		-0.0595		271.952		0.2		888		-0.0867
555	0	31	3.98155		-0.0818		267.971		0.25		888		-0.0472
556	0	31	3.91638		-0.1015		264.055		0.3		888		-0.0322
557	0	31	3.85262		-0.1187		260.202		0.35		888		-0.0242
558	0	31	3.80033		-0.1336		256.402		0.4		888		-0.0193
559	0	31	3.74916		-0.1464		252.652		0.45		888		-0.0159
560	0	31	3.69909		-0.1572		248.953		0.5		888		-0.0134
561	0	31	3.68041		-0.1663		245.273		0.55		888		-0.0115
562	0	31	3.66214		-0.1736		241.611		0.6		888		-0.0100
563	0	31	3.67459		-0.1794		237.936		0.65		888		-0.0088
564	0	31	3.70698		-0.1838		234.229		0.7		888		-0.0078
565	0	31	3.73869		-0.1869		230.490		0.75		888		-0.0070
566	0	32	3.73869		-0.1889		234.557		0.8		888		-0.0063
567	0	32	3.84007		-0.1897		230.717		0.85		888		-0.0057
568	0	32	3.89924		-0.1896		226.818		0.9		888		-0.0052
569	0	32	3.95714		-0.1885		222.860		0.95		888		-0.0047
570	0	32	4.03402		-0.1866		218.826		1		888-		-0.0043
571	0	32	4.10926		-0.1840		214.717		1		888-		-0.0040
572	0	32	4.18288		-0.1807		210.534		1		888-		-0.0037
573	0	32	4.28524		-0.1767		206.249		1		888-		-0.0033
574	0	32	4.38541		-0.1722		201.864		1		888-		-0.0031
575	0	32	4.49354		-0.1673		197.370		1		888-		-0.0028
576	0	32	4.59935		-0.1618		192.771		1		888-		-0.0026
577	0	32	4.70290		-0.1560		188.068		1		888-		-0.0023
578	0	32	4.80422		-0.1499		183.264		1		888-		-0.0021
579	0	32	4.90337		-0.1434		178.360		1		888-		-0.0019
580	0	32	5.00040		-0.1368		173.360		1		888-		-0.0016
581	0	32	5.09534		-0.1299		168.264		1		888-		-0.0013
582	0	32	5.18825		-0.1229		163.076		1		888-		-0.0010
583	0	32	5.27916		-0.1158		157.797		1		888-		-0.0007
584	0	32	5.36813		-0.1087		152.429		1		888-		-0.0004
585	0	33	5.36813		-0.1015		154.830		1		888-		-0.0001
586	0	33	5.54037		-0.0944		149.290		0.95		0		0.00023
587	0	33	5.62374		-0.0873		143.666		0.9		0		0.00064
588	0	33	5.70531		-0.0803		137.961		0.85		0		0.00108
589	0	33	5.78514		-0.0734		132.175		0.8		0		0.00156
590	0	33	5.86326		-0.0667		126.312		0.75		0		0.00210
591	0	33	5.91948		-0.0602		120.393		0.7		0		0.00271
592	0	33	5.96439		-0.0473		114.428		0.75		888		-0.1052
593	0	33	5.99822		-0.0152		108.430		0.8		888		-0.4071
594	0	33	6.02123		0.04448		102.409		0.85		888		
595	0	33	6.03363		0.13571		96.3756		0.8		0		0.34547
596	0	33	6.04576		0.25849		90.3298		0.75		0		0.23254
597	0	33	6.05764		0.41257		84.2722		0.7		0		0.12104
598	0	33	6.09958		0.59738		78.1726		0.65		0		0.07450
599	0	33	6.13052		0.82178		72.0421		0.6		0		0.06627
600	0	34	6.13052		1.09003		73.7477		0.55		0		0.05336
601	0	34	6.16031		1.40222		67.5874		0.5		0		0.04030
602	0	34	6.15962		1.75467		61.4277		0.45		0		0.02871
603	0	34	6.14884		2.14041		55.2789		0.4		0		0.01897
604	0	34	6.12817		2.54967		49.1507		0.35		0		0.01098
605	0	34	6.10796		2.97030		43.0428		0.3		0		0.00446
606	0	34	6.07806		3.39150		36.9647		0.25		0		0.00019
607	0	34	6.03870		3.80056		30.9260		0.5		888		-0.0035
608	0	34	5.99007		4.18333		24.9359		0.75		888		-0.0069
609	0	34	5.91217		4.52463		19.0237		1		t-7		-0.0099
610	0	34	5.88647		4.80270		13.1373		1		t-7-		-0.0139
611	0	34	5.86133		5.01763		7.27598		1		t-7-		-0.0131
612	0	34	5.93781		5.17430		1.33817		1		t-x		-0.0116
613	0	34	6.01265		5.28900		-4.6744		1		t-x		-0.0081
614	0	35	6.01265		5.38762		887.095		0.9		t-1		-0.0030
615	0	35	6.15755		5.43540		880.938		0.7		t-1		-0.0094
616	0	35	6.20746		5.43656		874.730		0.7		t-1		-0.0085
617	0	35	6.25630		5.39542		868.474		0.7		t-1		-0.0077
618	0	35	6.26366		5.31620		862.210		0.7		t-1		-0.0070
619	0	35	6.27087		5.20328		855.940		0.7		t-1		-0.0063
620	0	35	6.27791		5.06087		849.662		0.7		t-1		-0.0056
621	0	35	6.28481		4.89298		843.377		0.7		t-1		-0.0050
622	0	35	6.29156		4.70344		837.085		0.7		t-1		-0.0044
623	0	35	6.29816		4.49586		830.787		0.7		t-1		-0.0038
624	0	35	6.30462		4.27365		824.482		0.7		t-1		-0.0032
625	0	35	6.31095		4.03998		818.172		0.7		t-1		-0.0026
626	0	35	6.31713		3.79781		811.854		0.7		t-1		-0.0021
627	0	35	6.32319		3.54986		805.531		0.7		t-1		-0.0015
628	0	35	6.32912		3.29865		799.202		0.7		t-1		-0.0009
629	0	35	6.33491		3.04647		792.867		0.7		t-1		-0.0002
630	0	36	6.33491		2.79538		786.527		0.7		t-1		0.00035
631	0	36	6.34614		2.54724		780.180		0.7		t-1		0.00105
632	0	36	6.35157		2.30371		773.829		0.7		t-1		0.00180
633	0	36	6.35689		2.06624		767.472		0.7		t-1		0.00263
634	0	36	6.36209		1.83610		761.110		0.7		t-1		0.00354
635	0	36	6.36718		1.61438		754.743		0.7		t-1		0.00458
636	0	36	6.37216		1.40197		748.370		0.7		t-1		0.00577
637	0	36	6.37704		1.19964		741.993		0.7		t-1		0.00718
638	0	36	6.38181		1.00798		735.612		0.7		t-1		0.00889
639	0	36	6.38648		0.82745		729.225		0.7		t-1		0.01103
640	0	36	6.39105		0.65836		722.834		0.7		t-1		0.01383
641	0	36	6.39552		0.50092		716.439		0.7		t-1		0.01769
642	0	36	6.39989		0.35523		710.039		0.7		t-1		0.02343
643	0	36	6.40417		0.22126		703.634		0.7		t-1		0.03301
644	0	36	6.40836		0.09891		697.226		0.7		t-1		0.05254
645	0	36	6.41246		-0.0119		690.814		0.7		t-1		
646	0	37	6.41246		-0.1117		684.397		0.7		t-1		-0.1121
647	0	37	6.42040		-0.2005		677.977		0.7		t-1		-0.0972
648	0	37	6.42424		-0.2789		671.553		0.7		t-1		-0.0523
649	0	37	6.42799		-0.3471		665.125		0.7		t-1		-0.0361
650	0	37	6.43167		-0.4058		658.693		0.7		t-1		-0.0277
651	0	37	6.43527		-0.4553		652.258		0.7		t-1		-0.0224
652	0	37	6.43879		-0.4962		645.819		0.7		t-1		-0.0189
653	0	37	6.44224		-0.5291		639.377		0.7		t-1		-0.0162
654	0	37	6.44561		-0.5544		632.931		0.7		t-1		-0.0142
655	0	37	6.44891		-0.5727		626.482		0.7		t-1		-0.0126
656	0	37	6.45214		-0.5845		620.030		0.7		t-1		-0.0112
657	0	37	6.45530		-0.5904		613.575		0.7		t-1		-0.0100
658	0	37	6.45839		-0.5910		607.116		0.7		t-1		-0.0090
659	0	37	6.46142		-0.5868		600.655		0.7		t-1		-0.0081
660	0	37	6.46438		-0.5782		594.190		0.7		t-1		-0.0073
661	0	38	6.46438		-0.5659		587.723		0.7		t-1		-0.0066
662	0	38	6.47011		-0.5501		581.253		0.7		t-1		-0.0058
663	0	38	6.47289		-0.5315		574.780		0.7		t-1		-0.0052
664	0	38	6.47560		-0.5105		568.304		0.7		t-1		-0.0045
665	0	38	6.47826		-0.4874		561.826		0.7		t-1		-0.0039
666	0	38	6.48086		-0.4627		555.345		0.7		t-1		-0.0033
667	0	38	6.48340		-0.4368		548.862		0.7		t-1		-0.0027
668	0	38	6.48589		-0.4098		542.376		0.7		t-1		-0.0021
669	0	38	6.48833		-0.3823		535.888		0.7		t-1		-0.0015
670	0	38	6.49071		-0.3544		529.397		0.7		t-1		-0.0009
671	0	38	6.49305		-0.3264		522.904		0.7		t-1		-0.0002
672	0	38	6.49533		-0.2986		516.409		0.7		t-1		0.00045
673	0	38	6.49756		-0.2711		509.911		0.7		t-1		0.00120
674	0	38	6.49975		-0.2441		503.411		0.7		t-1		0.00201
675	0	38	6.50189		-0.2179		496.909		0.7		t-1		0.00290
676	0	38	6.50398		-0.1926		490.405		0.7		t-1		0.00390
677	0	39	6.50398		-0.1682		483.899		0.7		t-1		0.00504
678	0	39	6.50804		-0.1448		477.391		0.7		t-1		0.00637
679	0	39	6.51000		-0.1226		470.881		0.7		t-1		0.00796
680	0	39	6.51192		-0.1017		464.369		0.7		t-1		0.00993
681	0	39	6.51379		-0.0820		457.856		0.7		t-1		0.01245
682	0	39	6.51563		-0.0636		451.340		0.7		t-1		0.01585
683	0	39	6.51743		-0.0465		444.822		0.7		t-1		0.02073
684	0	39	6.51919		-0.0308		438.303		0.7		t-1		0.02847
685	0	39	6.52091		-0.0164		431.782		0.7		t-1		0.04285
686	0	39	6.52260		-0.0033		425.260		0.7		t-1		0.07953
687	0	39	6.52425		0.00849		418.736		0.7		t-1		
688	0	39	6.52586		0.01906		412.210		0.7		t-1		-0.1183
689	0	39	6.52744		0.02842		405.682		0.7		t-1		-0.0636
690	1	0	6.52744		0.03662		399.153		0.7		t-1		-0.0410
691	1	0	6.53050		0.04369		392.623		0.7		t-1		-0.0305
692	1	0	6.53198		0.04970		386.091		0.7		t-1		-0.0243
693	1	0	6.53343		0.05471		379.557		0.7		t-1		-0.0202
694	1	0	6.53484		0.05876		373.022		0.7		t-1		-0.0173
695	1	0	6.53623		0.06193		366.486		0.7		t-1		-0.0150
696	1	0	6.53759		0.06428		359.949		0.7		t-1		-0.0132
697	1	0	6.53891		0.06587		353.410		0.7		t-1		-0.0118
698	1	0	6.54021		0.06676		346.869		0.7		t-1		-0.0105
699	1	0	6.54148		0.06702		340.328		0.7		t-1		-0.0095
700	1	0	6.54273		0.06670		333.785		0.7		t-1		-0.0085
701	1	0	6.54395		0.06587		327.241		0.7		t-1		-0.0077
702	1	0	6.54514		0.06458		320.696		0.7		t-1		-0.0069
703	1	0	6.54630		0.06289		314.150		0.7		t-1		-0.0061
704	1	0	6.54744		0.06086		307.602		0.7		t-1		-0.0055
705	1	0	6.54856		0.05853		301.054		0.7		t-1		-0.0048
706	1	1	6.54856		0.05596		294.504		0.7		0		-0.0042

Turbine !!
707	1	1	6.55072		0.05318		287.953		0.7		0		-0.0035
708	1	1	6.55177		0.05025		281.402		0.7		0		-0.0029
709	1	1	6.55279		0.04720		274.849		0.7		0		-0.0023
710	1	1	6.55379		0.04406		268.295		0.7		0		-0.0017
711	1	1	6.83782		0.04088		261.457		0.7		0		-0.0010
712	1	1	7.11575		0.03767		254.342		0.7		0		-0.0007
713	1	1	7.38772		0.03445		246.954		0.7		0		-0.0003
714	1	1	7.65386		0.03122		239.300		0.7		0		0.00012
715	1	1	7.91429		0.02803		231.386		0.7		0		0.00074
716	1	1	8.16914		0.02487		223.217		0.7		0		0.00151
717	1	1	8.41852		0.02178		214.798		0.7		0		0.00247
718	1	1	8.66255		0.01876		206.135		0.2		0		0.00368
719	1	2	8.66255		0.01585		197.234		0.2		0		0.00523
720	1	2	9.13503		0.01305		188.099		0.2		0		0.00726
721	1	2	9.36370		0.01038		178.735		0.2		0		0.01003
722	1	2	9.58747		0.00785		169.148		0.2		0		0.01400
723	1	2	9.50318		0.00549		159.645		0.2		0		0.02013
724	1	2	9.42069		0.00329		150.224		0.2		0		0.03119
725	1	2	9.33998		0.00128		140.884		0.2		0		0.05476
726	1	2	9.26099		-0.0005		131.623		0.2		0		
727	1	2	9.18370		-0.0021		122.439		0.2		0		-0.1153
728	1	2	9.10807		-0.0036		113.331		0.2		0		-0.0865
729	1	2	9.03406		-0.0048		104.297		0.2		0		-0.0513
730	1	3	9.03406		-0.0059		95.3359		0.2		0		-0.0371
731	1	3	8.89076		-0.0068		86.4452		0.2		0		-0.0293
732	1	3	8.82141		-0.0076		77.6237		0.2		0		-0.0242
733	1	3	8.75355		-0.0082		68.8702		0.2		0		-0.0207
734	1	3	8.68714		-0.0086		60.1830		0.2		0		-0.0180
735	1	3	8.62215		-0.0089		51.5609		0.2		0		-0.0158
736	1	3	8.55856		-0.0091		43.0023		0.2		0		-0.0140
737	1	3	8.49634		-0.0091		34.5060		0		0		-0.0125
738	1	3	8.43544		-0.0091		26.0705		0		0		-0.0112
739	1	3	8.37585		-0.0089		17.6947		0		0		-0.0100
740	1	3	8.31754		-0.0087		9.37717		0		0		-0.0089
741	1	3	8.26049		-0.0084		1.11668		0		0		-0.0079
742	1	4	8.26049		-0.0081		387.781		0.05		888		-0.0069
743	1	4	7.91001		1.24172		379.871		0.1		888		
744	1	4	7.74038		3.49986		372.130		0.05		0		0.44651
745	1	4	7.57440		6.54547		364.556		0		0		0.22500
746	1	4	7.43219		10.1785		357.124		0.1		0		0.08975
747	1	4	7.29303		14.2304		349.831		0.1		0		0.04114
748	1	4	7.14674		18.5505		342.684		0.1		0		0.01885
749	1	4	7.00360		23.0011		335.680		0.1		0		0.00703
750	1	4	6.87363		27.4626		328.807		0.1		0		0.00047
751	1	4	6.74644		31.8368		322.060		0.15		888		-0.0031
752	1	5	6.74644		36.0408		307.586		0.2		888		-0.0053
753	1	5	6.50020		40.0054		301.086		0.25		888		-0.0066
754	1	5	6.38103		43.6745		294.705		0.3		888		-0.0073
755	1	5	6.28463		47.0038		288.421		0.35		888		-0.0077
756	1	5	6.20040		49.9666		282.220		0.4		888		-0.0077
757	1	5	6.12809		52.5478		276.092		0.45		0		-0.0076
758	1	5	6.06744		54.7417		270.025		0.5		0		-0.0073
759	1	5	6.02831		56.5510		263.996		0.55		0		-0.0070
760	1	5	6.00012		57.9885		257.996		0.6		0		-0.0065
761	1	5	5.98265		59.0718		252.014		0.65		0		-0.0061
762	1	5	5.97566		59.8229		246.038		0.7		0		-0.0056
763	1	5	0		0		246.038		1		888		-1.0125
764	1	5	0		0		246.038		1		888		
765	1	5	0		0		246.038		1		888		0
766	1	5	0		0		246.038		1		888		0
767	1	5	0		0		246.038		1		888		0
768	1	5	0		0		246.038		1		888		0
769	1	5	0		0		246.038		1		888		0
770	1	5	0		0		246.038		1		888		0
771	1	5	0		0		246.038		1		888		0
772	1	5	0		0		246.038		1		888		0
773	1	5	0		0		246.038		1		888		0
774	1	5	0		0		246.038		1		888		0
775	1	5	0		0		246.038		1		888		0
776	1	5	0		0		246.038		1		888		0
777	1	5	0		0		246.038		1		888		0
778	1	5	0		0		246.038		1		888		0
779	1	5	0		0		246.038		1		888		0
780	1	5	0		0		246.038		1		888		0
781	1	5	0		0		246.038		1		888		0
782	1	5	0		0		246.038		1		888		0
783	1	5	0		0		246.038		1		888		0
784	1	5	0		0		246.038		1		888		0
785	1	5	0		0		246.038		1		888		0
786	1	5	0		0		246.038		1		888		0
787	1	5	0		0		246.038		1		888		0
788	1	5	0		0		246.038		1		888		0
789	1	5	0		0		246.038		1		888		0
790	1	5	0		0		246.038		1		888		0
791	1	5	0		0		246.038		1		888		0
792	1	5	0		0		246.038		1		888		0
793	1	5	0		0		246.038		1		888		0
794	1	5	0		0		246.038		1		888		0
795	1	5	0		0		246.038		1		888		0
796	1	5	0		0		246.038		1		888		0
797	1	5	0		0		246.038		1		888		0
798	1	5	0		0		246.038		1		888		0
799	1	5	0		0		246.038		1		888		0
800	1	5	0		0		246.038		1		888		0
801	1	5	0		0		246.038		1		888		0
802	1	5	0		0		246.038		1		888		0
803	1	5	0		0		246.038		1		888		0
804	1	5	0		0		246.038		1		888		0
805	1	5	0		0		246.038		1		888		0
806	1	5	0		0		246.038		1		888		0
807	1	5	0		0		246.038		1		888		0
808	1	5	0		0		246.038		1		888		0
809	1	5	0		0		246.038		1		888		0
810	1	5	0		0		246.038		1		888		0
811	1	5	0		0		246.038		1		888		0
812	1	5	0		0		246.038		1		888		0
813	1	5	0		0		246.038		1		888		0
814	1	5	0		0		246.038		1		888		0
815	1	5	0		0		246.038		1		888		0
816	1	5	0		0		246.038		1		888		0
817	1	5	0		0		246.038		1		888		0
818	1	5	0		0		246.038		1		888		0
819	1	5	0		0		246.038		1		888		0
820	1	5	0		0		246.038		1		888		0
821	1	5	0		0		246.038		1		888		0
822	1	5	0		0		246.038		1		888		0
823	1	5	0		0		246.038		1		888		0
824	1	5	0		0		246.038		1		888		0
825	1	5	0		0		246.038		1		888		0
826	1	5	0		0		246.038		1		888		0
827	1	5	0		0		246.038		1		888		0
828	1	5	0		0		246.038		1		888		0
829	1	5	0		0		246.038		1		888		0
830	1	5	0		0		246.038		1		888		0
831	1	5	0		0		246.038		1		888		0
832	1	5	0		0		246.038		1		888		0
833	1	5	0		0		246.038		1		888		0
834	1	5	0		0		246.038		1		888		0
835	1	5	0		0		246.038		1		888		0
836	1	5	0		0		246.038		1		888		0
837	1	5	0		0		246.038		1		888		0
838	1	5	0		0		246.038		1		888		0
839	1	5	0		0		246.038		1		888		0
840	1	5	0		0		246.038		1		888		0
841	1	5	0		0		246.038		1		888		0
842	1	5	0		0		246.038		1		888		0
843	1	5	0		0		246.038		1		888		0
844	1	5	0		0		246.038		1		888		0
845	1	5	0		0		246.038		1		888		0
846	1	5	0		0		246.038		1		888		0
847	1	5	0		0		246.038		1		888		0
848	1	5	0		0		246.038		1		888		0
849	1	5	0		0		246.038		1		888		0
850	1	5	0		0		246.038		1		888		0
851	1	5	0		0		246.038		1		888		0
852	1	5	0		0		246.038		1		888		0
853	1	5	0		0		246.038		1		888		0
854	1	5	0		0		246.038		1		888		0
855	1	5	0		0		246.038		1		888		0
856	1	5	0		0		246.038		1		888		0
857	1	5	0		0		246.038		1		888		0
858	1	5	0		0		246.038		1		888		0
859	1	5	0		0		246.038		1		888		0
860	1	5	0		0		246.038		1		888		0
861	1	5	0		0		246.038		1		888		0
862	1	5	0		0		246.038		1		888		0
863	1	5	0		0		246.038		1		888		0
864	1	5	0		0		246.038		1		888		0
865	1	5	0		0		246.038		1		888		0
866	1	5	0		0		246.038		1		888		0
867	1	5	0		0		246.038		1		888		0
868	1	5	0		0		246.038		1		888		0
869	1	5	0		0		246.038		1		888		0
870	1	5	0		0		246.038		1		888		0
871	1	5	0		0		246.038		1		888		0
872	1	5	0		0		246.038		1		888		0
873	1	5	0		0		246.038		1		888		0
874	1	5	0		0		246.038		1		888		0
875	1	5	0		0		246.038		1		888		0
876	1	5	0		0		246.038		1		888		0
877	1	5	0		0		246.038		1		888		0
878	1	5	0		0		246.038		1		888		0
879	1	5	0		0		246.038		1		888		0
880	1	5	0		0		246.038		1		888		0
881	1	5	0		0		246.038		1		888		0
882	1	5	0		0		246.038		1		888		0
883	1	5	0		0		246.038		1		888		0
884	1	5	0		0		246.038		1		888		0
885	1	5	0		0		246.038		1		888		0
886	1	5	0		0		246.038		1		888		0
887	1	5	0		0		246.038		1		888		0
888	1	5	0		0		246.038		1		888		0
889	1	5	0		0		246.038		1		888		0
890	1	5	0		0		246.038		1		888		0
891	1	5	0		0		246.038		1		888		0
892	1	5	0		0		246.038		1		888		0
893	1	5	0		0		246.038		1		888		0
894	1	5	0		0		246.038		1		888		0
895	1	5	0		0		246.038		1		888		0
896	1	5	0		0		246.038		1		888		0
897	1	5	0		0		246.038		1		888		0
898	1	5	0		0		246.038		1		888		0
899	1	5	0		0		246.038		1		888		0
900	1	5	0		0		246.038		1		888		0
901	1	5	0		0		246.038		1		888		0
902	1	5	0		0		246.038		1		888		0
903	1	5	0		0		246.038		1		888		0
904	1	5	0		0		246.038		1		888		0
905	1	5	0		0		246.038		1		888		0
906	1	5	0		0		246.038		1		888		0
907	1	5	0		0		246.038		1		888		0
908	1	5	0		0		246.038		1		888		0
909	1	5	0		0		246.038		1		888		0
910	1	5	0		0		246.038		1		888		0
911	1	5	0		0		246.038		1		888		0
912	1	5	0		0		246.038		1		888		0
913	1	5	0		0		246.038		1		888		0
914	1	5	0		0		246.038		1		888		0
915	1	5	0		0		246.038		1		888		0
916	1	5	0		0		246.038		1		888		0
917	1	5	0		0		246.038		1		888		0
918	1	5	0		0		246.038		1		888		0
919	1	5	0		0		246.038		1		888		0
920	1	5	0		0		246.038		1		888		0
921	1	5	0		0		246.038		1		888		0
922	1	5	0		0		246.038		1		888		0
923	1	5	0		0		246.038		1		888		0
924	1	5	0		0		246.038		1		888		0
925	1	5	0		0		246.038		1		888		0
926	1	5	0		0		246.038		1		888		0
927	1	5	0		0		246.038		1		888		0
928	1	5	0		0		246.038		1		888		0
929	1	5	0		0		246.038		1		888		0
930	1	5	0		0		246.038		1		888		0
931	1	5	0		0		246.038		1		888		0
932	1	5	0		0		246.038		1		888		0
933	1	5	0		0		246.038		1		888		0
934	1	5	0		0		246.038		1		888		0
935	1	5	0		0		246.038		1		888		0
936	1	5	0		0		246.038		1		888		0
937	1	5	0		0		246.038		1		888		0
938	1	5	0		0		246.038		1		888		0
939	1	5	0		0		246.038		1		888		0
940	1	5	0		0		246.038		1		888		0
941	1	5	0		0		246.038		1		888		0
942	1	5	0		0		246.038		1		888		0
943	1	5	0		0		246.038		1		888		0
944	1	5	0		0		246.038		1		888		0
945	1	5	0		0		246.038		1		888		0
946	1	5	0		0		246.038		1		888		0
947	1	5	0		0		246.038		1		888		0
948	1	5	0		0		246.038		1		888		0
949	1	5	0		0		246.038		1		888		0
950	1	5	0		0		246.038		1		888		0
951	1	5	0		0		246.038		1		888		0
952	1	5	0		0		246.038		1		888		0
953	1	5	0		0		246.038		1		888		0
954	1	5	0		0		246.038		1		888		0
955	1	5	0		0		246.038		1		888		0
956	1	5	0		0		246.038		1		888		0
957	1	5	0		0		246.038		1		888		0
958	1	5	0		0		246.038		1		888		0
959	1	5	0		0		246.038		1		888		0
960	1	5	0		0		246.038		1		888		0
961	1	5	0		0		246.038		1		888		0
962	1	5	0		0		246.038		1		888		0
963	1	5	0		0		246.038		1		888		0
964	1	5	0		0		246.038		1		888		0
965	1	5	0		0		246.038		1		888		0
966	1	5	0		0		246.038		1		888		0
967	1	5	0		0		246.038		1		888		0
968	1	5	0		0		246.038		1		888		0
969	1	5	0		0		246.038		1		888		0
970	1	5	0		0		246.038		1		888		0
971	1	5	0		0		246.038		1		888		0
972	1	5	0		0		246.038		1		888		0
973	1	5	0		0		246.038		1		888		0
974	1	5	0		0		246.038		1		888		0
975	1	5	0		0		246.038		1		888		0
976	1	5	0		0		246.038		1		888		0
977	1	5	0		0		246.038		1		888		0
978	1	5	0		0		246.038		1		888		0
979	1	5	0		0		246.038		1		888		0
980	1	5	0		0		246.038		1		888		0
981	1	5	0		0		246.038		1		888		0
982	1	5	0		0		246.038		1		888		0
983	1	5	0		0		246.038		1		888		0
984	1	5	0		0		246.038		1		888		0
985	1	5	0		0		246.038		1		888		0
986	1	5	0		0		246.038		1		888		0
987	1	5	0		0		246.038		1		888		0
988	1	5	0		0		246.038		1		888		0
989	1	5	0		0		246.038		1		888		0
990	1	5	0		0		246.038		1		888		0
991	1	5	0		0		246.038		1		888		0
992	1	5	0		0		246.038		1		888		0
993	1	5	0		0		246.038		1		888		0
994	1	5	0		0		246.038		1		888		0
995	1	5	0		0		246.038		1		888		0
996	1	5	0		0		246.038		1		888		0
997	1	5	0		0		246.038		1		888		0
998	1	5	0		0		246.038		1		888		0
999	1	5	0		0		246.038		1		888		0
1000	1	5	0		0		246.038		1		888		0
1001	1	5	0		0		246.038		1		888		0
1002	1	5	0		0		246.038		1		888		0
1003	1	5	0		0		246.038		1		888		0
1004	1	5	0		0		246.038		1		888		0
1005	1	5	0		0		246.038		1		888		0
1006	1	5	0		0		246.038		1		888		0
1007	1	5	0		0		246.038		1		888		0
1008	1	5	0		0		246.038		1		888		0
1009	1	5	0		0		246.038		1		888		0
1010	1	5	0		0		246.038		1		888		0
1011	1	5	0		0		246.038		1		888		0
1012	1	5	0		0		246.038		1		888		0
1013	1	5	0		0		246.038		1		888		0
1014	1	5	0		0		246.038		1		888		0
1015	1	5	0		0		246.038		1		888		0
1016	1	5	0		0		246.038		1		888		0
1017	1	5	0		0		246.038		1		888		0
1018	1	5	0		0		246.038		1		888		0
1019	1	5	0		0		246.038		1		888		0
1020	1	5	0		0		246.038		1		888		0
1021	1	5	0		0		246.038		1		888		0
1022	1	5	0		0		246.038		1		888		0
1023	1	5	0		0		246.038		1		888		0
1024	1	5	0		0		246.038		1		888		0
1025	1	5	0		0		246.038		1		888		0
1026	1	5	0		0		246.038		1		888		0
1027	1	5	0		0		246.038		1		888		0
1028	1	5	0		0		246.038		1		888		0
1029	1	5	0		0		246.038		1		888		0
1030	1	5	0		0		246.038		1		888		0
1031	1	5	0		0		246.038		1		888		0
1032	1	5	0		0		246.038		1		888		0
1033	1	5	0		0		246.038		1		888		0
1034	1	5	0		0		246.038		1		888		0
1035	1	5	0		0		246.038		1		888		0
1036	1	5	0		0		246.038		1		888		0
1037	1	5	0		0		246.038		1		888		0
1038	1	5	0		0		246.038		1		888		0
1039	1	5	0		0		246.038		1		888		0
1040	1	5	0		0		246.038		1		888		0
1041	1	5	0		0		246.038		1		888		0
1042	1	5	0		0		246.038		1		888		0
1043	1	5	0		0		246.038		1		888		0
1044	1	5	0		0		246.038		1		888		0
1045	1	5	0		0		246.038		1		888		0
1046	1	5	0		0		246.038		1		888		0
1047	1	5	0		0		246.038		1		888		0
1048	1	5	0		0		246.038		1		888		0
1049	1	5	0		0		246.038		1		888		0
1050	1	5	0		0		246.038		1		888		0
1051	1	5	0		0		246.038		1		888		0
1052	1	5	0		0		246.038		1		888		0
1053	1	5	0		0		246.038		1		888		0
1054	1	5	0		0		246.038		1		888		0
1055	1	5	0		0		246.038		1		888		0
1056	1	5	0		0		246.038		1		888		0
1057	1	5	0		0		246.038		1		888		0
1058	1	5	0		0		246.038		1		888		0
1059	1	5	0		0		246.038		1		888		0
1060	1	5	0		0		246.038		1		888		0
1061	1	5	0		0		246.038		1		888		0
1062	1	5	0		0		246.038		1		888		0
1063	1	5	0		0		246.038		1		888		0
1064	1	5	0		0		246.038		1		888		0
1065	1	5	0		0		246.038		1		888		0
1066	1	5	0		0		246.038		1		888		0
1067	1	5	0		0		246.038		1		888		0
1068	1	5	0		0		246.038		1		888		0
1069	1	5	0		0		246.038		1		888		0
1070	1	5	0		0		246.038		1		888		0
1071	1	5	0		0		246.038		1		888		0
1072	1	5	0		0		246.038		1		888		0
1073	1	5	0		0		246.038		1		888		0
1074	1	5	0		0		246.038		1		888		0
1075	1	5	0		0		246.038		1		888		0
1076	1	5	0		0		246.038		1		888		0
1077	1	5	0		0		246.038		1		888		0
1078	1	5	0		0		246.038		1		888		0
1079	1	5	0		0		246.038		1		888		0
1080	1	5	0		0		246.038		1		888		0
1081	1	5	0		0		246.038		1		888		0
1082	1	5	0		0		246.038		1		888		0
1083	1	5	0		0		246.038		1		888		0
1084	1	5	0		0		246.038		1		888		0
1085	1	5	0		0		246.038		1		888		0
1086	1	5	0		0		246.038		1		888		0
1087	1	5	0		0		246.038		1		888		0
1088	1	5	0		0		246.038		1		888		0
1089	1	5	0		0		246.038		1		888		0
1090	1	5	0		0		246.038		1		888		0
1091	1	5	0		0		246.038		1		888		0
1092	1	5	0		0		246.038		1		888		0
1093	1	5	0		0		246.038		1		888		0
1094	1	5	0		0		246.038		1		888		0
1095	1	5	0		0		246.038		1		888		0
1096	1	5	0		0		246.038		1		888		0
1097	1	5	0		0		246.038		1		888		0
1098	1	5	0		0		246.038		1		888		0
1099	1	5	0		0		246.038		1		888		0
1100	1	5	0		0		246.038		1		888		0
1101	1	5	0		0		246.038		1		888		0
1102	1	5	0		0		246.038		1		888		0
1103	1	5	0		0		246.038		1		888		0
