	0	0	0		0		1		0-		0.55056179775281
1	0	0	0		0		1		0-		0.55056179775281
2	0	0	0		0		1		0-		0.55056179775281
3	0	0	0.2084615		0		1		0-		0.55079602419821
4	0	0	0.4125663		0		1		0-		0.55125958191488
5	0	0	0.6124055		0		1		0-		0.55194767803454
